EESchema Schematic File Version 4
EELAYER 30 0
EELAYER END
$Descr A4 11693 8268
encoding utf-8
Sheet 4 4
Title "Microcontroller block"
Date "2020-04-05"
Rev "1"
Comp ""
Comment1 ""
Comment2 ""
Comment3 ""
Comment4 ""
$EndDescr
$Comp
L V_Resistor:R_4k7_1%_10022551 R41
U 1 1 5E8821B6
P 1400 2000
F 0 "R41" H 1470 1954 50  0000 L CNN
F 1 "4.7k" H 1470 2045 50  0000 L CNN
F 2 "AllModules:RESC1608X50AN" V 1330 2000 50  0001 C CNN
F 3 "" H 1400 2000 50  0001 C CNN
F 4 "RESISTOR,4.7KOHM,0.063W,+/-1%" H 1350 1900 50  0001 C CNN "Description"
F 5 "10022551" H 1350 1900 50  0001 C CNN "Item Number"
F 6 "YAGEO_RMS1" V 1400 2000 50  0001 C CNN "Manufacturer"
F 7 "RC0603FR-074K7L" V 1400 2000 50  0001 C CNN "Manufacturer_No"
F 8 "SAMSUNG_RMS1" H 0   0   50  0001 C CNN "Manufacturer2"
F 9 "BOURNS_RMS1" H 0   0   50  0001 C CNN "Manufacturer3"
F 10 "RC1608F472CS" H 0   0   50  0001 C CNN "Manufacturer_No2"
F 11 "CR0603-FX-4701ELF" H 0   0   50  0001 C CNN "Manufacturer_No3"
	1    1400 2000
	-1   0    0    1   
$EndComp
$Comp
L V_Resistor:R0603_1k_1%_10022554 R45
U 1 1 5E883018
P 5550 3550
F 0 "R45" V 5500 3350 50  0000 C CNN
F 1 "1k" V 5500 3700 50  0000 C CNN
F 2 "AllModules:RESC1608X50AN" V 5480 3550 50  0001 C CNN
F 3 "" H 5550 3550 50  0001 C CNN
F 4 "RESISTOR, 1K OHM, 0.063W,+/-1%, 0603" H 5500 3450 50  0001 C CNN "Description"
F 5 "10022554" H 5500 3450 50  0001 C CNN "Item Number"
F 6 "BOURNS_RMS1" V 5550 3550 50  0001 C CNN "Manufacturer"
F 7 "CR0603-FX-1001ELF" V 5550 3550 50  0001 C CNN "Manufacturer_No"
F 8 "VISHAY_RMS1" H 0   0   50  0001 C CNN "Manufacturer2"
F 9 "YAGEO_RMS1" H 0   0   50  0001 C CNN "Manufacturer3"
F 10 "CRCW06031K00FKEA" H 0   0   50  0001 C CNN "Manufacturer_No2"
F 11 "RC0603FR-071KL" H 0   0   50  0001 C CNN "Manufacturer_No3"
	1    5550 3550
	0    1    1    0   
$EndComp
$Comp
L V_Resistor:R0603_1k_1%_10022554 R46
U 1 1 5E883403
P 5550 3650
F 0 "R46" V 5500 3450 50  0000 C CNN
F 1 "1k" V 5500 3800 50  0000 C CNN
F 2 "AllModules:RESC1608X50AN" V 5480 3650 50  0001 C CNN
F 3 "" H 5550 3650 50  0001 C CNN
F 4 "RESISTOR, 1K OHM, 0.063W,+/-1%, 0603" H 5500 3550 50  0001 C CNN "Description"
F 5 "10022554" H 5500 3550 50  0001 C CNN "Item Number"
F 6 "BOURNS_RMS1" V 5550 3650 50  0001 C CNN "Manufacturer"
F 7 "CR0603-FX-1001ELF" V 5550 3650 50  0001 C CNN "Manufacturer_No"
F 8 "VISHAY_RMS1" H 0   0   50  0001 C CNN "Manufacturer2"
F 9 "YAGEO_RMS1" H 0   0   50  0001 C CNN "Manufacturer3"
F 10 "CRCW06031K00FKEA" H 0   0   50  0001 C CNN "Manufacturer_No2"
F 11 "RC0603FR-071KL" H 0   0   50  0001 C CNN "Manufacturer_No3"
	1    5550 3650
	0    1    1    0   
$EndComp
$Comp
L V_Resistor:R0603_1k_1%_10022554 R43
U 1 1 5E882ABA
P 5550 3450
F 0 "R43" V 5500 3250 50  0000 C CNN
F 1 "1k" V 5500 3600 50  0000 C CNN
F 2 "AllModules:RESC1608X50AN" V 5480 3450 50  0001 C CNN
F 3 "" H 5550 3450 50  0001 C CNN
F 4 "RESISTOR, 1K OHM, 0.063W,+/-1%, 0603" H 5500 3350 50  0001 C CNN "Description"
F 5 "10022554" H 5500 3350 50  0001 C CNN "Item Number"
F 6 "BOURNS_RMS1" V 5550 3450 50  0001 C CNN "Manufacturer"
F 7 "CR0603-FX-1001ELF" V 5550 3450 50  0001 C CNN "Manufacturer_No"
F 8 "VISHAY_RMS1" H 0   0   50  0001 C CNN "Manufacturer2"
F 9 "YAGEO_RMS1" H 0   0   50  0001 C CNN "Manufacturer3"
F 10 "CRCW06031K00FKEA" H 0   0   50  0001 C CNN "Manufacturer_No2"
F 11 "RC0603FR-071KL" H 0   0   50  0001 C CNN "Manufacturer_No3"
	1    5550 3450
	0    1    1    0   
$EndComp
$Comp
L V_Resistor:R0603_1k_1%_10022554 R42
U 1 1 5E882774
P 5550 3350
F 0 "R42" V 5500 3150 50  0000 C CNN
F 1 "1k" V 5500 3500 50  0000 C CNN
F 2 "AllModules:RESC1608X50AN" V 5480 3350 50  0001 C CNN
F 3 "" H 5550 3350 50  0001 C CNN
F 4 "RESISTOR, 1K OHM, 0.063W,+/-1%, 0603" H 5500 3250 50  0001 C CNN "Description"
F 5 "10022554" H 5500 3250 50  0001 C CNN "Item Number"
F 6 "BOURNS_RMS1" V 5550 3350 50  0001 C CNN "Manufacturer"
F 7 "CR0603-FX-1001ELF" V 5550 3350 50  0001 C CNN "Manufacturer_No"
F 8 "VISHAY_RMS1" H 0   0   50  0001 C CNN "Manufacturer2"
F 9 "YAGEO_RMS1" H 0   0   50  0001 C CNN "Manufacturer3"
F 10 "CRCW06031K00FKEA" H 0   0   50  0001 C CNN "Manufacturer_No2"
F 11 "RC0603FR-071KL" H 0   0   50  0001 C CNN "Manufacturer_No3"
	1    5550 3350
	0    1    1    0   
$EndComp
$Comp
L V_Resistor:R0603_1k_1%_10022554 R40
U 1 1 5E881E70
P 5550 3250
F 0 "R40" V 5500 3050 50  0000 C CNN
F 1 "1k" V 5500 3400 50  0000 C CNN
F 2 "AllModules:RESC1608X50AN" V 5480 3250 50  0001 C CNN
F 3 "" H 5550 3250 50  0001 C CNN
F 4 "RESISTOR, 1K OHM, 0.063W,+/-1%, 0603" H 5500 3150 50  0001 C CNN "Description"
F 5 "10022554" H 5500 3150 50  0001 C CNN "Item Number"
F 6 "BOURNS_RMS1" V 5550 3250 50  0001 C CNN "Manufacturer"
F 7 "CR0603-FX-1001ELF" V 5550 3250 50  0001 C CNN "Manufacturer_No"
F 8 "VISHAY_RMS1" H 0   0   50  0001 C CNN "Manufacturer2"
F 9 "YAGEO_RMS1" H 0   0   50  0001 C CNN "Manufacturer3"
F 10 "CRCW06031K00FKEA" H 0   0   50  0001 C CNN "Manufacturer_No2"
F 11 "RC0603FR-071KL" H 0   0   50  0001 C CNN "Manufacturer_No3"
	1    5550 3250
	0    1    1    0   
$EndComp
$Comp
L V_Resistor:R0603_1k_1%_10022554 R38
U 1 1 5E881706
P 5550 3150
F 0 "R38" V 5500 2950 50  0000 C CNN
F 1 "1k" V 5500 3300 50  0000 C CNN
F 2 "AllModules:RESC1608X50AN" V 5480 3150 50  0001 C CNN
F 3 "" H 5550 3150 50  0001 C CNN
F 4 "RESISTOR, 1K OHM, 0.063W,+/-1%, 0603" H 5500 3050 50  0001 C CNN "Description"
F 5 "10022554" H 5500 3050 50  0001 C CNN "Item Number"
F 6 "BOURNS_RMS1" V 5550 3150 50  0001 C CNN "Manufacturer"
F 7 "CR0603-FX-1001ELF" V 5550 3150 50  0001 C CNN "Manufacturer_No"
F 8 "VISHAY_RMS1" H 0   0   50  0001 C CNN "Manufacturer2"
F 9 "YAGEO_RMS1" H 0   0   50  0001 C CNN "Manufacturer3"
F 10 "CRCW06031K00FKEA" H 0   0   50  0001 C CNN "Manufacturer_No2"
F 11 "RC0603FR-071KL" H 0   0   50  0001 C CNN "Manufacturer_No3"
	1    5550 3150
	0    1    1    0   
$EndComp
$Comp
L V_Resistor:R0603_1k_1%_10022554 R34
U 1 1 5E880747
P 5550 2650
F 0 "R34" V 5500 2450 50  0000 C CNN
F 1 "1k" V 5500 2800 50  0000 C CNN
F 2 "AllModules:RESC1608X50AN" V 5480 2650 50  0001 C CNN
F 3 "" H 5550 2650 50  0001 C CNN
F 4 "RESISTOR, 1K OHM, 0.063W,+/-1%, 0603" H 5500 2550 50  0001 C CNN "Description"
F 5 "10022554" H 5500 2550 50  0001 C CNN "Item Number"
F 6 "BOURNS_RMS1" V 5550 2650 50  0001 C CNN "Manufacturer"
F 7 "CR0603-FX-1001ELF" V 5550 2650 50  0001 C CNN "Manufacturer_No"
F 8 "VISHAY_RMS1" H 0   0   50  0001 C CNN "Manufacturer2"
F 9 "YAGEO_RMS1" H 0   0   50  0001 C CNN "Manufacturer3"
F 10 "CRCW06031K00FKEA" H 0   0   50  0001 C CNN "Manufacturer_No2"
F 11 "RC0603FR-071KL" H 0   0   50  0001 C CNN "Manufacturer_No3"
	1    5550 2650
	0    1    1    0   
$EndComp
$Comp
L V_Resistor:R0603_1k_1%_10022554 R33
U 1 1 5E87F0BB
P 5550 2550
F 0 "R33" V 5500 2350 50  0000 C CNN
F 1 "1k" V 5500 2700 50  0000 C CNN
F 2 "AllModules:RESC1608X50AN" V 5480 2550 50  0001 C CNN
F 3 "" H 5550 2550 50  0001 C CNN
F 4 "RESISTOR, 1K OHM, 0.063W,+/-1%, 0603" H 5500 2450 50  0001 C CNN "Description"
F 5 "10022554" H 5500 2450 50  0001 C CNN "Item Number"
F 6 "BOURNS_RMS1" V 5550 2550 50  0001 C CNN "Manufacturer"
F 7 "CR0603-FX-1001ELF" V 5550 2550 50  0001 C CNN "Manufacturer_No"
F 8 "VISHAY_RMS1" H 0   0   50  0001 C CNN "Manufacturer2"
F 9 "YAGEO_RMS1" H 0   0   50  0001 C CNN "Manufacturer3"
F 10 "CRCW06031K00FKEA" H 0   0   50  0001 C CNN "Manufacturer_No2"
F 11 "RC0603FR-071KL" H 0   0   50  0001 C CNN "Manufacturer_No3"
	1    5550 2550
	0    1    1    0   
$EndComp
$Comp
L V_Resistor:R0603_1k_1%_10022554 R37
U 1 1 5E8813E2
P 5550 3050
F 0 "R37" V 5500 2850 50  0000 C CNN
F 1 "1k" V 5500 3200 50  0000 C CNN
F 2 "AllModules:RESC1608X50AN" V 5480 3050 50  0001 C CNN
F 3 "" H 5550 3050 50  0001 C CNN
F 4 "RESISTOR, 1K OHM, 0.063W,+/-1%, 0603" H 5500 2950 50  0001 C CNN "Description"
F 5 "10022554" H 5500 2950 50  0001 C CNN "Item Number"
F 6 "BOURNS_RMS1" V 5550 3050 50  0001 C CNN "Manufacturer"
F 7 "CR0603-FX-1001ELF" V 5550 3050 50  0001 C CNN "Manufacturer_No"
F 8 "VISHAY_RMS1" H 0   0   50  0001 C CNN "Manufacturer2"
F 9 "YAGEO_RMS1" H 0   0   50  0001 C CNN "Manufacturer3"
F 10 "CRCW06031K00FKEA" H 0   0   50  0001 C CNN "Manufacturer_No2"
F 11 "RC0603FR-071KL" H 0   0   50  0001 C CNN "Manufacturer_No3"
	1    5550 3050
	0    1    1    0   
$EndComp
$Comp
L V_Resistor:R0603_1k_1%_10022554 R39
U 1 1 5E881B4F
P 5550 2950
F 0 "R39" V 5500 2750 50  0000 C CNN
F 1 "1k" V 5500 3100 50  0000 C CNN
F 2 "AllModules:RESC1608X50AN" V 5480 2950 50  0001 C CNN
F 3 "" H 5550 2950 50  0001 C CNN
F 4 "RESISTOR, 1K OHM, 0.063W,+/-1%, 0603" H 5500 2850 50  0001 C CNN "Description"
F 5 "10022554" H 5500 2850 50  0001 C CNN "Item Number"
F 6 "BOURNS_RMS1" V 5550 2950 50  0001 C CNN "Manufacturer"
F 7 "CR0603-FX-1001ELF" V 5550 2950 50  0001 C CNN "Manufacturer_No"
F 8 "VISHAY_RMS1" H 0   0   50  0001 C CNN "Manufacturer2"
F 9 "YAGEO_RMS1" H 0   0   50  0001 C CNN "Manufacturer3"
F 10 "CRCW06031K00FKEA" H 0   0   50  0001 C CNN "Manufacturer_No2"
F 11 "RC0603FR-071KL" H 0   0   50  0001 C CNN "Manufacturer_No3"
	1    5550 2950
	0    1    1    0   
$EndComp
$Comp
L V_Resistor:R0603_1k_1%_10022554 R36
U 1 1 5E880FA4
P 5550 2850
F 0 "R36" V 5500 2650 50  0000 C CNN
F 1 "1k" V 5500 3000 50  0000 C CNN
F 2 "AllModules:RESC1608X50AN" V 5480 2850 50  0001 C CNN
F 3 "" H 5550 2850 50  0001 C CNN
F 4 "RESISTOR, 1K OHM, 0.063W,+/-1%, 0603" H 5500 2750 50  0001 C CNN "Description"
F 5 "10022554" H 5500 2750 50  0001 C CNN "Item Number"
F 6 "BOURNS_RMS1" V 5550 2850 50  0001 C CNN "Manufacturer"
F 7 "CR0603-FX-1001ELF" V 5550 2850 50  0001 C CNN "Manufacturer_No"
F 8 "VISHAY_RMS1" H 0   0   50  0001 C CNN "Manufacturer2"
F 9 "YAGEO_RMS1" H 0   0   50  0001 C CNN "Manufacturer3"
F 10 "CRCW06031K00FKEA" H 0   0   50  0001 C CNN "Manufacturer_No2"
F 11 "RC0603FR-071KL" H 0   0   50  0001 C CNN "Manufacturer_No3"
	1    5550 2850
	0    1    1    0   
$EndComp
$Comp
L V_Resistor:R0603_1k_1%_10022554 R35
U 1 1 5E880BBF
P 5550 2750
F 0 "R35" V 5500 2550 50  0000 C CNN
F 1 "1k" V 5500 2900 50  0000 C CNN
F 2 "AllModules:RESC1608X50AN" V 5480 2750 50  0001 C CNN
F 3 "" H 5550 2750 50  0001 C CNN
F 4 "RESISTOR, 1K OHM, 0.063W,+/-1%, 0603" H 5500 2650 50  0001 C CNN "Description"
F 5 "10022554" H 5500 2650 50  0001 C CNN "Item Number"
F 6 "BOURNS_RMS1" V 5550 2750 50  0001 C CNN "Manufacturer"
F 7 "CR0603-FX-1001ELF" V 5550 2750 50  0001 C CNN "Manufacturer_No"
F 8 "VISHAY_RMS1" H 0   0   50  0001 C CNN "Manufacturer2"
F 9 "YAGEO_RMS1" H 0   0   50  0001 C CNN "Manufacturer3"
F 10 "CRCW06031K00FKEA" H 0   0   50  0001 C CNN "Manufacturer_No2"
F 11 "RC0603FR-071KL" H 0   0   50  0001 C CNN "Manufacturer_No3"
	1    5550 2750
	0    1    1    0   
$EndComp
$Comp
L V_Resistor:R0603_1k_1%_10022554 R47
U 1 1 5E88371E
P 5550 3950
F 0 "R47" V 5500 3750 50  0000 C CNN
F 1 "1k" V 5500 4100 50  0000 C CNN
F 2 "AllModules:RESC1608X50AN" V 5480 3950 50  0001 C CNN
F 3 "" H 5550 3950 50  0001 C CNN
F 4 "RESISTOR, 1K OHM, 0.063W,+/-1%, 0603" H 5500 3850 50  0001 C CNN "Description"
F 5 "10022554" H 5500 3850 50  0001 C CNN "Item Number"
F 6 "BOURNS_RMS1" V 5550 3950 50  0001 C CNN "Manufacturer"
F 7 "CR0603-FX-1001ELF" V 5550 3950 50  0001 C CNN "Manufacturer_No"
F 8 "VISHAY_RMS1" H 0   0   50  0001 C CNN "Manufacturer2"
F 9 "YAGEO_RMS1" H 0   0   50  0001 C CNN "Manufacturer3"
F 10 "CRCW06031K00FKEA" H 0   0   50  0001 C CNN "Manufacturer_No2"
F 11 "RC0603FR-071KL" H 0   0   50  0001 C CNN "Manufacturer_No3"
	1    5550 3950
	0    1    1    0   
$EndComp
$Comp
L V_Resistor:R1206_4k7_5% R44
U 1 1 5E882D06
P 9200 3550
F 0 "R44" V 9150 3350 50  0000 C CNN
F 1 "4.7k" V 9150 3750 50  0000 C CNN
F 2 "AllModules:RESC3216X60N" V 9130 3550 50  0001 C CNN
F 3 "" H 9200 3550 50  0001 C CNN
F 4 "RESISTOR 4.7K OHM 1/4W 5% 1206" H 9150 3450 50  0001 C CNN "Description"
F 5 "10049136" H 9150 3450 50  0001 C CNN "Item Number"
F 6 "VISHAY_RMS1" V 9200 3550 50  0001 C CNN "Manufacturer"
F 7 "CRCW12064K70JNEA" V 9200 3550 50  0001 C CNN "Manufacturer_No"
F 8 "BOURNS_RMS1" H 0   0   50  0001 C CNN "Manufacturer2"
F 9 "YAGEO_RMS1" H 0   0   50  0001 C CNN "Manufacturer3"
F 10 "CR1206-JW-472ELF " H 0   0   50  0001 C CNN "Manufacturer_No2"
F 11 "RC1206JR-074K7L" H 0   0   50  0001 C CNN "Manufacturer_No3"
	1    9200 3550
	0    1    1    0   
$EndComp
$Comp
L V_IC:PIC18F43K22T-IPT U4
U 1 1 5E87E2C8
P 3800 3400
F 0 "U4" H 2800 4650 50  0000 C CNN
F 1 "PIC18F43K22T-IPT" H 4450 4650 50  0000 C CNN
F 2 "AllModules:QFP80P1200X1200X120-44N" H 3800 3400 50  0001 C CIN
F 3 "" H 3800 3150 50  0001 C CNN
F 4 "MICROCONTROLLER PROGRAMMED - POWERPACK2" H 2800 4750 50  0001 C CNN "Description"
F 5 "10126894" H 2800 4750 50  0001 C CNN "Item Number"
F 6 "MICROCHIP" H 2800 4750 50  0001 C CNN "Manufacturer"
F 7 "10126894" H 2800 4750 50  0001 C CNN "Manufacturer_No"
	1    3800 3400
	1    0    0    -1  
$EndComp
$Comp
L V_Connector:Molex_52207-1933_1x19-1MP_P1.00mm_Horizontal J12
U 1 1 5E9022C0
P 10800 3250
F 0 "J12" H 10692 2125 50  0000 C CNN
F 1 "Molex_52207-1933_1x19-1MP_P1.00mm_Horizontal" H 10692 2216 50  0001 C CNN
F 2 "AllModules:CON-52207-1960" H 10800 3250 50  0001 C CNN
F 3 "" H 10800 3250 50  0001 C CNN
F 4 "CONNECTOR ZIF, 19 CONTACTS, 1 MM" H 10692 2225 50  0001 C CNN "Description"
F 5 "10107894" H 10692 2225 50  0001 C CNN "Item Number"
F 6 "MOLEX_RMS1" H 10800 3250 50  0001 C CNN "Manufacturer"
F 7 "52207-1960" H 10692 2225 50  0001 C CNN "Manufacturer_No"
F 8 "MOLEX_RMS1" H 0   0   50  0001 C CNN "Manufacturer2"
F 9 "52207-1985" H 0   0   50  0001 C CNN "Manufacturer_No2"
	1    10800 3250
	1    0    0    1   
$EndComp
$Comp
L V_Power:+VDC_PERM #PWR0132
U 1 1 5E9422DF
P 10350 3450
F 0 "#PWR0132" H 10350 3300 50  0001 C CNN
F 1 "+VDC_PERM" V 10365 3577 50  0000 L CNN
F 2 "" H 10350 3450 50  0001 C CNN
F 3 "" H 10350 3450 50  0001 C CNN
	1    10350 3450
	0    -1   -1   0   
$EndComp
$Comp
L V_Power:+5V #PWR0133
U 1 1 5E942FF6
P 10350 3250
F 0 "#PWR0133" H 10350 3100 50  0001 C CNN
F 1 "+5V" V 10365 3378 50  0000 L CNN
F 2 "" H 10350 3250 50  0001 C CNN
F 3 "" H 10350 3250 50  0001 C CNN
	1    10350 3250
	0    -1   -1   0   
$EndComp
$Comp
L V_Power:GND #PWR0134
U 1 1 5E958B97
P 10250 2350
F 0 "#PWR0134" H 10250 2100 50  0001 C CNN
F 1 "GND" V 10255 2222 50  0000 R CNN
F 2 "" H 10250 2350 50  0001 C CNN
F 3 "" H 10250 2350 50  0001 C CNN
	1    10250 2350
	0    1    1    0   
$EndComp
$Comp
L V_Power:GND #PWR0135
U 1 1 5E951987
P 10550 6100
F 0 "#PWR0135" H 10550 5850 50  0001 C CNN
F 1 "GND" H 10555 5927 50  0000 C CNN
F 2 "" H 10550 6100 50  0001 C CNN
F 3 "" H 10550 6100 50  0001 C CNN
	1    10550 6100
	1    0    0    -1  
$EndComp
$Comp
L V_Diode:SMA6J28A D14
U 1 1 5E9514D0
P 10550 5550
F 0 "D14" V 10504 5629 50  0000 L CNN
F 1 "SMA6J28A" V 10595 5629 50  0000 L CNN
F 2 "AllModules:DIOM5126X203N_SWP" H 10550 5350 50  0001 C CNN
F 3 "" H 10500 5550 50  0001 C CNN
F 4 "DIODE TRANSIL 33V, SMA" H 10504 5729 50  0001 C CNN "Description"
F 5 "10060347" H 10504 5729 50  0001 C CNN "Item Number"
F 6 "ST MICROELECTRONICS_RMS1" V 10641 5629 50  0001 L CNN "Manufacturer"
F 7 "SMA6J28A-TR" V 10686 5629 50  0001 L CNN "Manufacturer_No"
	1    10550 5550
	0    1    1    0   
$EndComp
$Comp
L V_Power:GND #PWR0136
U 1 1 5E944184
P 7400 6150
F 0 "#PWR0136" H 7400 5900 50  0001 C CNN
F 1 "GND" H 7405 5977 50  0000 C CNN
F 2 "" H 7400 6150 50  0001 C CNN
F 3 "" H 7400 6150 50  0001 C CNN
	1    7400 6150
	1    0    0    -1  
$EndComp
$Comp
L V_Power:GNDA #PWR0137
U 1 1 5E93FC0C
P 9450 6100
F 0 "#PWR0137" H 9450 5850 50  0001 C CNN
F 1 "GNDA" H 9455 5927 50  0000 C CNN
F 2 "" H 9450 6100 50  0001 C CNN
F 3 "" H 9450 6100 50  0001 C CNN
	1    9450 6100
	1    0    0    -1  
$EndComp
$Comp
L V_Capacitor:C0603_100nF_50V_10% C25
U 1 1 5E935537
P 9200 5550
F 0 "C25" H 9315 5596 50  0000 L CNN
F 1 "100n" H 9315 5505 50  0000 L CNN
F 2 "AllModules:CAPC1608X86N" H 9238 5400 50  0001 C CNN
F 3 "" H 9200 5550 50  0001 C CNN
F 4 "CAPACITOR CERAMIC 100NF 50V 10% X7R 0603" H 9315 5696 50  0001 C CNN "Description"
F 5 "10021386" H 9315 5696 50  0001 C CNN "Item Number"
F 6 "KEMET_RMS1" H 9200 5550 50  0001 C CNN "Manufacturer"
F 7 "C0603C104K5RACTU" H 9200 5550 50  0001 C CNN "Manufacturer_No"
	1    9200 5550
	-1   0    0    1   
$EndComp
$Comp
L V_Resistor:R0603_10k_1%_10022548 R49
U 1 1 5E934E22
P 9700 5550
F 0 "R49" H 9630 5504 50  0000 R CNN
F 1 "10k" H 9630 5595 50  0000 R CNN
F 2 "AllModules:RESC1608X50AN" V 9630 5550 50  0001 C CNN
F 3 "" H 9700 5550 50  0001 C CNN
F 4 "RESISTOR,10K OHM.0.063W,+/-1%,0603" H 9650 5450 50  0001 C CNN "Description"
F 5 "10022548" H 9650 5450 50  0001 C CNN "Item Number"
F 6 "YAGEO_RMS1" V 9700 5550 50  0001 C CNN "Manufacturer"
F 7 "RC0603FR-0710KL" V 9700 5550 50  0001 C CNN "Manufacturer_No"
F 8 "SAMSUNG_RMS1" H 0   0   50  0001 C CNN "Manufacturer2"
F 9 "BOURNS_RMS1" H 0   0   50  0001 C CNN "Manufacturer3"
F 10 "RC1608F103CS" H 0   0   50  0001 C CNN "Manufacturer_No2"
F 11 "CR0603-FX-1002ELF" H 0   0   50  0001 C CNN "Manufacturer_No3"
	1    9700 5550
	-1   0    0    1   
$EndComp
$Comp
L V_Resistor:R0603_62k_1% R48
U 1 1 5E933AAF
P 9700 4950
F 0 "R48" H 9630 4904 50  0000 R CNN
F 1 "62k" H 9630 4995 50  0000 R CNN
F 2 "AllModules:RESC1608X50AN" V 9630 4950 50  0001 C CNN
F 3 "" H 9700 4950 50  0001 C CNN
F 4 "RESISTOR 62 KOHM 0.063W +/-1% 0603" H 9650 4850 50  0001 C CNN "Description"
F 5 "10113301" H 9650 4850 50  0001 C CNN "Item Number"
F 6 "YAGEO_RMS1" V 9700 4950 50  0001 C CNN "Manufacturer"
F 7 "RC0603FR-0762KL" V 9700 4950 50  0001 C CNN "Manufacturer_No"
	1    9700 4950
	-1   0    0    1   
$EndComp
$Comp
L V_Diode:PESD5V0S4UD D12
U 1 1 5E8A8461
P 7550 5750
F 0 "D12" H 7525 5700 50  0000 L CNN
F 1 "PESD5V0S4UD" H 7150 5625 50  0000 L CNN
F 2 "AllModules:SOT95P275X110-6N" H 7550 5750 50  0001 C CNN
F 3 "" H 7550 5750 50  0001 C CNN
F 4 "DIODE NETWORK ESD PROTECT 30 KV SOT457" H 7450 5750 50  0001 C CNN "Description"
F 5 "10021365" H 7450 5750 50  0001 C CNN "Item Number"
F 6 "NXP SEMICONDUCTORS_RMS1" H 7450 5750 50  0001 C CNN "Manufacturer"
F 7 "PESD5V0S4UD,115" H 7450 5750 50  0001 C CNN "Manufacturer_No"
	1    7550 5750
	-1   0    0    -1  
$EndComp
$Comp
L V_Diode:PESD5V0S4UD D13
U 1 1 5E8ABEBE
P 8150 5750
F 0 "D13" H 8125 5700 50  0000 L CNN
F 1 "PESD5V0S4UD" H 7750 5625 50  0000 L CNN
F 2 "AllModules:SOT95P275X110-6N" H 8150 5750 50  0001 C CNN
F 3 "" H 8150 5750 50  0001 C CNN
F 4 "DIODE NETWORK ESD PROTECT 30 KV SOT457" H 8050 5750 50  0001 C CNN "Description"
F 5 "10021365" H 8050 5750 50  0001 C CNN "Item Number"
F 6 "NXP SEMICONDUCTORS_RMS1" H 8050 5750 50  0001 C CNN "Manufacturer"
F 7 "PESD5V0S4UD,115" H 8050 5750 50  0001 C CNN "Manufacturer_No"
	1    8150 5750
	-1   0    0    -1  
$EndComp
$Comp
L V_Diode:PESD5V0S4UD D11
U 1 1 5E8A4E28
P 6950 5750
F 0 "D11" H 6925 5700 50  0000 L CNN
F 1 "PESD5V0S4UD" H 6550 5625 50  0000 L CNN
F 2 "AllModules:SOT95P275X110-6N" H 6950 5750 50  0001 C CNN
F 3 "" H 6950 5750 50  0001 C CNN
F 4 "DIODE NETWORK ESD PROTECT 30 KV SOT457" H 6850 5750 50  0001 C CNN "Description"
F 5 "10021365" H 6850 5750 50  0001 C CNN "Item Number"
F 6 "NXP SEMICONDUCTORS_RMS1" H 6850 5750 50  0001 C CNN "Manufacturer"
F 7 "PESD5V0S4UD,115" H 6850 5750 50  0001 C CNN "Manufacturer_No"
	1    6950 5750
	-1   0    0    -1  
$EndComp
$Comp
L V_Diode:PESD5V0S4UD D10
U 1 1 5E88C7CE
P 6350 5750
F 0 "D10" H 6325 5700 50  0000 L CNN
F 1 "PESD5V0S4UD" H 5950 5625 50  0000 L CNN
F 2 "AllModules:SOT95P275X110-6N" H 6350 5750 50  0001 C CNN
F 3 "" H 6350 5750 50  0001 C CNN
F 4 "DIODE NETWORK ESD PROTECT 30 KV SOT457" H 6250 5750 50  0001 C CNN "Description"
F 5 "10021365" H 6250 5750 50  0001 C CNN "Item Number"
F 6 "NXP SEMICONDUCTORS_RMS1" H 6250 5750 50  0001 C CNN "Manufacturer"
F 7 "PESD5V0S4UD,115" H 6250 5750 50  0001 C CNN "Manufacturer_No"
	1    6350 5750
	-1   0    0    -1  
$EndComp
$Comp
L V_Capacitor:C0603_100nF_50V_10% C24
U 1 1 5E9BB5C2
P 5200 1600
F 0 "C24" H 5315 1646 50  0000 L CNN
F 1 "100n" H 5315 1555 50  0000 L CNN
F 2 "AllModules:CAPC1608X86N" H 5238 1450 50  0001 C CNN
F 3 "" H 5200 1600 50  0001 C CNN
F 4 "CAPACITOR CERAMIC 100NF 50V 10% X7R 0603" H 5315 1746 50  0001 C CNN "Description"
F 5 "10021386" H 5315 1746 50  0001 C CNN "Item Number"
F 6 "KEMET_RMS1" H 5200 1600 50  0001 C CNN "Manufacturer"
F 7 "C0603C104K5RACTU" H 5200 1600 50  0001 C CNN "Manufacturer_No"
	1    5200 1600
	-1   0    0    1   
$EndComp
$Comp
L V_Power:+3.0VREF #PWR0138
U 1 1 5EA046DC
P 2300 4350
F 0 "#PWR0138" H 2300 4200 50  0001 C CNN
F 1 "+3.0VREF" V 2315 4478 50  0000 L CNN
F 2 "" H 2300 4350 50  0001 C CNN
F 3 "" H 2300 4350 50  0001 C CNN
	1    2300 4350
	0    -1   -1   0   
$EndComp
$Comp
L V_Power:+5V #PWR0139
U 1 1 5EA2A611
P 1400 1600
F 0 "#PWR0139" H 1400 1450 50  0001 C CNN
F 1 "+5V" H 1415 1773 50  0000 C CNN
F 2 "" H 1400 1600 50  0001 C CNN
F 3 "" H 1400 1600 50  0001 C CNN
	1    1400 1600
	1    0    0    -1  
$EndComp
$Comp
L V_Capacitor:C0603_100nF_50V_10% C23
U 1 1 5EA446D2
P 4750 1600
F 0 "C23" H 4865 1646 50  0000 L CNN
F 1 "100n" H 4865 1555 50  0000 L CNN
F 2 "AllModules:CAPC1608X86N" H 4788 1450 50  0001 C CNN
F 3 "" H 4750 1600 50  0001 C CNN
F 4 "CAPACITOR CERAMIC 100NF 50V 10% X7R 0603" H 4865 1746 50  0001 C CNN "Description"
F 5 "10021386" H 4865 1746 50  0001 C CNN "Item Number"
F 6 "KEMET_RMS1" H 4750 1600 50  0001 C CNN "Manufacturer"
F 7 "C0603C104K5RACTU" H 4750 1600 50  0001 C CNN "Manufacturer_No"
	1    4750 1600
	-1   0    0    1   
$EndComp
$Comp
L V_Capacitor:C0603_10uF_20% C22
U 1 1 5EA44CC5
P 4300 1600
F 0 "C22" H 4415 1646 50  0000 L CNN
F 1 "10u" H 4415 1555 50  0000 L CNN
F 2 "AllModules:CAPC1608X86N" H 4338 1450 50  0001 C CNN
F 3 "" H 4300 1600 50  0001 C CNN
F 4 "CAPACITOR CERAMIC 10UF 6.3V 20% X5R 0603" H 4415 1746 50  0001 C CNN "Description"
F 5 "10021370" H 4415 1746 50  0001 C CNN "Item Number"
F 6 "KEMET_RMS1" H 4300 1600 50  0001 C CNN "Manufacturer"
F 7 "C0603C106M9PACTM" H 4300 1600 50  0001 C CNN "Manufacturer_No"
F 8 "YAGEO_RMS1" H 0   0   50  0001 C CNN "Manufacturer2"
F 9 "MURATA_RMS1" H 0   0   50  0001 C CNN "Manufacturer3"
F 10 "CC0603MRX5R5BB106" H 0   0   50  0001 C CNN "Manufacturer_No2"
F 11 "GRM188R60J106ME47D" H 0   0   50  0001 C CNN "Manufacturer_No3"
	1    4300 1600
	-1   0    0    1   
$EndComp
$Comp
L V_Power:+5V #PWR0140
U 1 1 5EA4D723
P 5200 1000
F 0 "#PWR0140" H 5200 850 50  0001 C CNN
F 1 "+5V" H 5215 1173 50  0000 C CNN
F 2 "" H 5200 1000 50  0001 C CNN
F 3 "" H 5200 1000 50  0001 C CNN
	1    5200 1000
	1    0    0    -1  
$EndComp
$Comp
L V_Power:GND #PWR0141
U 1 1 5EA9900D
P 5200 2000
F 0 "#PWR0141" H 5200 1750 50  0001 C CNN
F 1 "GND" H 5205 1827 50  0000 C CNN
F 2 "" H 5200 2000 50  0001 C CNN
F 3 "" H 5200 2000 50  0001 C CNN
	1    5200 2000
	1    0    0    -1  
$EndComp
$Comp
L V_Power:GND #PWR0142
U 1 1 5EAA1DDD
P 3800 4950
F 0 "#PWR0142" H 3800 4700 50  0001 C CNN
F 1 "GND" H 3805 4777 50  0000 C CNN
F 2 "" H 3800 4950 50  0001 C CNN
F 3 "" H 3800 4950 50  0001 C CNN
	1    3800 4950
	1    0    0    -1  
$EndComp
$Comp
L V_Connector:Conn_01x05 J13
U 1 1 5EAC4760
P 750 3950
F 0 "J13" H 668 3525 50  0000 C CNN
F 1 "S5B-ZR-SM4A-TF" H 668 3616 50  0000 C CNN
F 2 "AllModules:CON-S5B-ZR-SM4A-TF" H 750 3950 50  0001 C CNN
F 3 "" H 750 3950 50  0001 C CNN
F 4 "CONNECTOR, ZH, 5 CIRCUITS, 1.5 MM" H 750 3950 50  0001 C CNN "Description"
F 5 "10060350" H 668 3625 50  0001 C CNN "Item Number"
F 6 "J.S.T. CORPORATION" H 750 3950 50  0001 C CNN "Manufacturer"
F 7 "S5B-ZR-SM4A-TF" H 750 3950 50  0001 C CNN "Manufacturer_No"
	1    750  3950
	-1   0    0    1   
$EndComp
$Comp
L V_Power:GND #PWR0143
U 1 1 5EAE8BC9
P 1150 4500
F 0 "#PWR0143" H 1150 4250 50  0001 C CNN
F 1 "GND" H 1155 4327 50  0000 C CNN
F 2 "" H 1150 4500 50  0001 C CNN
F 3 "" H 1150 4500 50  0001 C CNN
	1    1150 4500
	1    0    0    -1  
$EndComp
$Comp
L V_Power:+5V #PWR0144
U 1 1 5EAF26B7
P 1250 3250
F 0 "#PWR0144" H 1250 3100 50  0001 C CNN
F 1 "+5V" H 1265 3423 50  0000 C CNN
F 2 "" H 1250 3250 50  0001 C CNN
F 3 "" H 1250 3250 50  0001 C CNN
	1    1250 3250
	1    0    0    -1  
$EndComp
Text HLabel 5400 4050 2    50   Output ~ 0
CHARG_BAT1
Text HLabel 5400 4150 2    50   Output ~ 0
DISCH_BAT1
Text HLabel 5400 4250 2    50   Output ~ 0
CHARG_BAT2
Text HLabel 5400 4350 2    50   Output ~ 0
DISCH_BAT2
Text HLabel 5800 2450 2    50   Output ~ 0
ID_BAT_READ
Text HLabel 8850 3550 0    50   Input ~ 0
V_DC_CHARGER
Text HLabel 8850 3350 0    50   Output ~ 0
BP
Text HLabel 2250 2600 0    50   Input ~ 0
V_CH
Text HLabel 2250 2700 0    50   Output ~ 0
V_EN
Text HLabel 2250 3150 0    50   Input ~ 0
TEMP_BAT2
Text HLabel 2250 3250 0    50   Input ~ 0
TEMP_BAT1
Text HLabel 2250 3350 0    50   Output ~ 0
FAN_EN
Text HLabel 2250 3550 0    50   Output ~ 0
ID_BAT1
Text HLabel 2250 3650 0    50   Output ~ 0
ID_BAT2
Text HLabel 2300 4050 0    50   Input ~ 0
VBAT1_MEAS
Text HLabel 2300 4150 0    50   Input ~ 0
VBAT2_MEAS
Text HLabel 2300 4250 0    50   Input ~ 0
IBAT_MEAS
Text Label 1100 4150 2    50   ~ 0
MCLR
Text Label 1050 3750 2    50   ~ 0
PGC
Text Label 1050 3850 2    50   ~ 0
PGD
Text Notes 650  5650 0    50   ~ 0
Note: Place J13 conn in the upper Bottom side
Text Notes 8700 1950 0    50   ~ 0
Note: J12 conn - SMD component, place on Bottom left side
Wire Wire Line
	5400 3950 5000 3950
Wire Wire Line
	5000 3650 5400 3650
Wire Wire Line
	5400 3550 5000 3550
Wire Wire Line
	5000 3450 5400 3450
Wire Wire Line
	5400 3350 5000 3350
Wire Wire Line
	5000 3250 5400 3250
Wire Wire Line
	5400 3150 5000 3150
Wire Wire Line
	5000 3050 5400 3050
Wire Wire Line
	5400 2950 5000 2950
Wire Wire Line
	5000 2850 5400 2850
Wire Wire Line
	5400 2750 5000 2750
Wire Wire Line
	5000 2650 5400 2650
Wire Wire Line
	5400 2550 5000 2550
Wire Wire Line
	6200 3950 5700 3950
Wire Wire Line
	6300 3650 5700 3650
Wire Wire Line
	6600 3550 5700 3550
Wire Wire Line
	6700 3450 5700 3450
Wire Wire Line
	6800 3350 5700 3350
Wire Wire Line
	6900 3250 5700 3250
Wire Wire Line
	6900 3650 6900 3250
Wire Wire Line
	6800 3750 6800 3350
Wire Wire Line
	6700 3450 6700 3850
Wire Wire Line
	6600 3950 6600 3550
Wire Wire Line
	6300 4050 6300 3650
Wire Wire Line
	6200 4150 6200 3950
Wire Wire Line
	9350 3550 10600 3550
Wire Wire Line
	8850 3550 9050 3550
Wire Wire Line
	10600 3250 10450 3250
Wire Wire Line
	10600 2350 10400 2350
Wire Wire Line
	10600 2450 10400 2450
Wire Wire Line
	10400 2450 10400 2350
Wire Wire Line
	10400 2350 10250 2350
Wire Wire Line
	10600 3950 6800 3950
Wire Wire Line
	10600 4050 6500 4050
Wire Wire Line
	10600 4150 6400 4150
Wire Wire Line
	10550 6100 10550 5700
Wire Wire Line
	7400 6000 7100 6000
Wire Wire Line
	7400 6150 7400 6000
Wire Wire Line
	7700 6000 7400 6000
Wire Wire Line
	7700 5850 7700 6000
Wire Wire Line
	7100 6000 6800 6000
Wire Wire Line
	7100 5850 7100 6000
Wire Wire Line
	6500 6000 6500 5850
Wire Wire Line
	8300 6000 8000 6000
Wire Wire Line
	8300 5850 8300 6000
Wire Wire Line
	9450 5950 9200 5950
Wire Wire Line
	9450 6100 9450 5950
Wire Wire Line
	9200 5950 9200 5700
Wire Wire Line
	9700 5950 9450 5950
Wire Wire Line
	9700 5700 9700 5950
Wire Wire Line
	9200 5250 8950 5250
Wire Wire Line
	9700 5250 9700 5100
Wire Wire Line
	9200 5250 9200 5400
Wire Wire Line
	9700 5250 9200 5250
Wire Wire Line
	9700 5400 9700 5250
Wire Wire Line
	10350 3450 10550 3450
Wire Wire Line
	8850 3350 9700 3350
Wire Wire Line
	8200 2550 8200 5500
Wire Wire Line
	8100 2650 8100 5500
Wire Wire Line
	8000 2750 8000 5500
Wire Wire Line
	7700 2850 7700 5500
Wire Wire Line
	7600 2950 7600 5500
Wire Wire Line
	7500 3050 7500 5500
Wire Wire Line
	7400 3150 7400 5500
Wire Wire Line
	10600 3650 7100 3650
Wire Wire Line
	7400 3150 10600 3150
Wire Wire Line
	7500 3050 10600 3050
Wire Wire Line
	7600 2950 10600 2950
Wire Wire Line
	7700 2850 10600 2850
Wire Wire Line
	8000 2750 10600 2750
Wire Wire Line
	8100 2650 10600 2650
Wire Wire Line
	8200 2550 10600 2550
Wire Wire Line
	5700 2650 8100 2650
Wire Wire Line
	5700 2750 8000 2750
Wire Wire Line
	5700 2950 7600 2950
Wire Wire Line
	5700 3050 7500 3050
Wire Wire Line
	5700 3150 7400 3150
Wire Wire Line
	5700 2550 8200 2550
Wire Wire Line
	5700 2850 7700 2850
Wire Wire Line
	7100 3650 7100 5500
Wire Wire Line
	7100 3650 6900 3650
Wire Wire Line
	7000 3750 7000 5500
Wire Wire Line
	7000 3750 6800 3750
Wire Wire Line
	6900 3850 6900 5500
Wire Wire Line
	6900 3850 6700 3850
Wire Wire Line
	6800 3950 6800 5500
Wire Wire Line
	6800 3950 6600 3950
Wire Wire Line
	6500 4050 6500 5500
Wire Wire Line
	6500 4050 6300 4050
Wire Wire Line
	6400 4150 6400 5500
Wire Wire Line
	6400 4150 6200 4150
Wire Wire Line
	8300 5500 8300 4250
Wire Wire Line
	8300 4250 10450 4250
Wire Wire Line
	10450 4250 10450 3250
Wire Wire Line
	10450 3250 10350 3250
Wire Wire Line
	5000 2450 5800 2450
Wire Wire Line
	5400 4050 5000 4050
Wire Wire Line
	5000 4150 5400 4150
Wire Wire Line
	5400 4250 5000 4250
Wire Wire Line
	5000 4350 5400 4350
Wire Wire Line
	2600 2600 2250 2600
Wire Wire Line
	2600 2700 2250 2700
Wire Wire Line
	2600 3050 2250 3050
Wire Wire Line
	2600 3150 2250 3150
Wire Wire Line
	2600 3250 2250 3250
Wire Wire Line
	2600 3350 2250 3350
Wire Wire Line
	2600 3550 2250 3550
Wire Wire Line
	2600 3650 2250 3650
Wire Wire Line
	2300 4050 2600 4050
Wire Wire Line
	2600 4150 2300 4150
Wire Wire Line
	2600 4250 2300 4250
Wire Wire Line
	2300 4350 2600 4350
Wire Wire Line
	6300 5250 1650 5250
Wire Wire Line
	1650 5250 1650 3850
Wire Wire Line
	1650 3850 2600 3850
Wire Wire Line
	6200 5500 6200 5350
Wire Wire Line
	6200 5350 1550 5350
Wire Wire Line
	1550 5350 1550 3750
Wire Wire Line
	1550 3750 2600 3750
Wire Wire Line
	6300 5250 6300 5500
Wire Wire Line
	2600 3950 1400 3950
Wire Wire Line
	1400 3950 1400 2150
Wire Wire Line
	1400 1850 1400 1600
Wire Wire Line
	3900 2100 3900 1250
Wire Wire Line
	3700 1250 3700 2100
Wire Wire Line
	5200 1450 5200 1250
Wire Wire Line
	5200 1250 4750 1250
Wire Wire Line
	4750 1450 4750 1250
Wire Wire Line
	4750 1250 4300 1250
Wire Wire Line
	4300 1450 4300 1250
Wire Wire Line
	4300 1250 3900 1250
Wire Wire Line
	4300 1750 4300 1900
Wire Wire Line
	4300 1900 4750 1900
Wire Wire Line
	5200 1900 5200 1750
Wire Wire Line
	4750 1750 4750 1900
Wire Wire Line
	4750 1900 5200 1900
Wire Wire Line
	3700 1250 3900 1250
Wire Wire Line
	5200 1000 5200 1250
Wire Wire Line
	5200 2000 5200 1900
Wire Wire Line
	3900 4700 3900 4900
Wire Wire Line
	3900 4900 3800 4900
Wire Wire Line
	3700 4900 3700 4700
Wire Wire Line
	3800 4950 3800 4900
Wire Wire Line
	3800 4900 3700 4900
Wire Wire Line
	950  3750 1550 3750
Wire Wire Line
	950  3850 1650 3850
Wire Wire Line
	950  4150 1400 4150
Wire Wire Line
	1400 4150 1400 3950
Wire Wire Line
	950  3950 1150 3950
Wire Wire Line
	1150 3950 1150 4500
Wire Wire Line
	950  4050 1250 4050
Wire Wire Line
	1250 4050 1250 3250
Connection ~ 10400 2350
Connection ~ 7400 6000
Connection ~ 7700 6000
Connection ~ 7100 6000
Connection ~ 9450 5950
Connection ~ 9200 5250
Connection ~ 9700 5250
Connection ~ 7400 3150
Connection ~ 7500 3050
Connection ~ 7600 2950
Connection ~ 7700 2850
Connection ~ 8000 2750
Connection ~ 8100 2650
Connection ~ 8200 2550
Connection ~ 7100 3650
Connection ~ 7000 3750
Connection ~ 6900 3850
Connection ~ 6800 3950
Connection ~ 6500 4050
Connection ~ 6400 4150
Connection ~ 10450 3250
Connection ~ 3900 1250
Connection ~ 4750 1250
Connection ~ 4300 1250
Connection ~ 4750 1900
Connection ~ 5200 1250
Connection ~ 5200 1900
Connection ~ 3800 4900
Connection ~ 1550 3750
Connection ~ 1650 3850
Connection ~ 1400 3950
Text Label 8950 5250 2    50   ~ 0
BP_INFO
Text Label 2250 3050 2    50   ~ 0
BP_INFO
Text Notes 650  4150 1    50   ~ 10
ICSP Prog
Wire Wire Line
	7000 3750 10600 3750
Wire Wire Line
	9700 3350 9700 4800
Connection ~ 9700 3350
Wire Wire Line
	9700 3350 10600 3350
Wire Wire Line
	6900 3850 10600 3850
Wire Wire Line
	10550 5400 10550 3450
Connection ~ 10550 3450
Wire Wire Line
	10550 3450 10600 3450
Wire Wire Line
	2600 2500 2250 2500
Wire Wire Line
	1725 2900 2600 2900
Wire Wire Line
	1575 2800 2600 2800
Wire Wire Line
	1725 2150 1725 2900
Wire Wire Line
	1575 2150 1575 2800
$Comp
L V_Connector:TestPoint RX1
U 1 1 5ED5FB52
P 1725 2150
F 0 "RX1" H 1675 2350 50  0000 L CNN
F 1 "TestPoint" H 1783 2177 50  0001 L CNN
F 2 "AllModules:TP-40R-NSA" H 1925 2150 50  0001 C CNN
F 3 "" H 1925 2150 50  0001 C CNN
F 4 "TEST POINT" H -50 0   50  0001 C CNN "Description"
F 5 "10022924" H -50 0   50  0001 C CNN "Item Number"
F 6 "NICOMATIC_RMS1" H -50 0   50  0001 C CNN "Manufacturer"
F 7 "KEYSTONE ELECTRONICS CORP" H -50 0   50  0001 C CNN "Manufacturer2"
F 8 "C12000B" H -50 0   50  0001 C CNN "Manufacturer_No"
F 9 "5015" H -50 0   50  0001 C CNN "Manufacturer_No2"
	1    1725 2150
	1    0    0    -1  
$EndComp
$Comp
L V_Connector:TestPoint TX1
U 1 1 5ED5F142
P 1575 2150
F 0 "TX1" H 1525 2350 50  0000 L CNN
F 1 "TestPoint" H 1633 2177 50  0001 L CNN
F 2 "AllModules:TP-40R-NSA" H 1775 2150 50  0001 C CNN
F 3 "" H 1775 2150 50  0001 C CNN
F 4 "TEST POINT" H -50 0   50  0001 C CNN "Description"
F 5 "10022924" H -50 0   50  0001 C CNN "Item Number"
F 6 "NICOMATIC_RMS1" H -50 0   50  0001 C CNN "Manufacturer"
F 7 "KEYSTONE ELECTRONICS CORP" H -50 0   50  0001 C CNN "Manufacturer2"
F 8 "C12000B" H -50 0   50  0001 C CNN "Manufacturer_No"
F 9 "5015" H -50 0   50  0001 C CNN "Manufacturer_No2"
	1    1575 2150
	1    0    0    -1  
$EndComp
Text HLabel 2250 2500 0    50   Input ~ 0
TEMP_MEAS
Wire Wire Line
	8000 5850 8000 6000
Connection ~ 8000 6000
Wire Wire Line
	8000 6000 7700 6000
Wire Wire Line
	7400 5850 7400 6000
Wire Wire Line
	6800 5850 6800 6000
Connection ~ 6800 6000
Wire Wire Line
	6800 6000 6500 6000
Wire Wire Line
	6500 6000 6200 6000
Wire Wire Line
	6200 6000 6200 5850
Connection ~ 6500 6000
$EndSCHEMATC
