EESchema Schematic File Version 4
EELAYER 30 0
EELAYER END
$Descr A3 16535 11693
encoding utf-8
Sheet 1 3
Title ""
Date "2020-04-06"
Rev "1"
Comp ""
Comment1 "Design for OSHPark 4-Layer Service"
Comment2 ""
Comment3 ""
Comment4 ""
$EndDescr
$Comp
L V_Power:+12V #PWR019
U 1 1 5E881F7D
P 1475 5175
F 0 "#PWR019" H 1475 5025 50  0001 C CNN
F 1 "+12V" H 1490 5348 50  0000 C CNN
F 2 "" H 1475 5175 50  0001 C CNN
F 3 "" H 1475 5175 50  0001 C CNN
	1    1475 5175
	1    0    0    -1  
$EndComp
$Comp
L V_Capacitor:C0402_680pF_50V_5% C4
U 1 1 5E88308B
P 6000 3250
F 0 "C4" H 6050 3350 50  0000 L CNN
F 1 "680pF" H 6025 3150 50  0000 L CNN
F 2 "AllModules:C0402_1b" H 6038 3100 50  0001 C CNN
F 3 "" H 6000 3250 50  0001 C CNN
F 4 "CAPACITOR, CERAMIC, 680 PF, 50V, +/-5%, 0402" H 0   0   50  0001 C CNN "Description"
F 5 "10022132" H 0   0   50  0001 C CNN "Item Number"
F 6 "MURATA MANUFACTURING CO., LTD." H 0   0   50  0001 C CNN "Manufacturer"
F 7 "YAGEO_RMS1" H 0   0   50  0001 C CNN "Manufacturer2"
F 8 "YAGEO_RMS1" H 0   0   50  0001 C CNN "Manufacturer3"
F 9 "GRM1555C1H681JA01D" H 0   0   50  0001 C CNN "Manufacturer_No"
F 10 "CC0402JRX7R9BB681" H 0   0   50  0001 C CNN "Manufacturer_No2"
F 11 "CC0402JRX7R9BB681" H 0   0   50  0001 C CNN "Manufacturer_No3"
	1    6000 3250
	1    0    0    -1  
$EndComp
$Comp
L V_Capacitor:C0402_100nF_16V_10% C10
U 1 1 5E8CCB53
P 1875 5350
F 0 "C10" V 2025 5300 50  0000 L CNN
F 1 "100nF" V 1725 5200 50  0000 L CNN
F 2 "AllModules:C0402_1b" H 1913 5200 50  0001 C CNN
F 3 "" H 1875 5350 50  0001 C CNN
F 4 "CAPACITOR,100NF,16V,+/-10%,X7R,0402" H 0   0   50  0001 C CNN "Description"
F 5 "10022607" H 0   0   50  0001 C CNN "Item Number"
F 6 "MURATA" H 0   0   50  0001 C CNN "Manufacturer"
F 7 "YAGEO_RMS1" H 0   0   50  0001 C CNN "Manufacturer2"
F 8 "YAGEO_RMS1" H 0   0   50  0001 C CNN "Manufacturer3"
F 9 "GRM155R71C104JA88J" H 0   0   50  0001 C CNN "Manufacturer_No"
F 10 "CC0402KRX7R7BB104" H 0   0   50  0001 C CNN "Manufacturer_No2"
F 11 "CC0402KRX7R7BB104" H 0   0   50  0001 C CNN "Manufacturer_No3"
	1    1875 5350
	0    1    1    0   
$EndComp
$Comp
L V_Capacitor:C0402_100nF_16V_10% C9
U 1 1 5E8DEB54
P 8050 4300
F 0 "C9" V 8200 4225 50  0000 L CNN
F 1 "100nF" V 7900 4175 50  0000 L CNN
F 2 "AllModules:C0402_1b" H 8088 4150 50  0001 C CNN
F 3 "" H 8050 4300 50  0001 C CNN
F 4 "CAPACITOR,100NF,16V,+/-10%,X7R,0402" H 0   0   50  0001 C CNN "Description"
F 5 "10022607" H 0   0   50  0001 C CNN "Item Number"
F 6 "MURATA" H 0   0   50  0001 C CNN "Manufacturer"
F 7 "YAGEO_RMS1" H 0   0   50  0001 C CNN "Manufacturer2"
F 8 "YAGEO_RMS1" H 0   0   50  0001 C CNN "Manufacturer3"
F 9 "GRM155R71C104JA88J" H 0   0   50  0001 C CNN "Manufacturer_No"
F 10 "CC0402KRX7R7BB104" H 0   0   50  0001 C CNN "Manufacturer_No2"
F 11 "CC0402KRX7R7BB104" H 0   0   50  0001 C CNN "Manufacturer_No3"
	1    8050 4300
	0    1    1    0   
$EndComp
$Comp
L V_Capacitor:C0402_100nF_16V_10% C30
U 1 1 5EA0990A
P 14325 6575
F 0 "C30" V 14475 6425 50  0000 L CNN
F 1 "100nF" V 14150 6475 50  0000 L CNN
F 2 "AllModules:C0402_1b" H 14363 6425 50  0001 C CNN
F 3 "" H 14325 6575 50  0001 C CNN
F 4 "CAPACITOR,100NF,16V,+/-10%,X7R,0402" H 0   0   50  0001 C CNN "Description"
F 5 "10022607" H 0   0   50  0001 C CNN "Item Number"
F 6 "MURATA" H 0   0   50  0001 C CNN "Manufacturer"
F 7 "YAGEO_RMS1" H 0   0   50  0001 C CNN "Manufacturer2"
F 8 "YAGEO_RMS1" H 0   0   50  0001 C CNN "Manufacturer3"
F 9 "GRM155R71C104JA88J" H 0   0   50  0001 C CNN "Manufacturer_No"
F 10 "CC0402KRX7R7BB104" H 0   0   50  0001 C CNN "Manufacturer_No2"
F 11 "CC0402KRX7R7BB104" H 0   0   50  0001 C CNN "Manufacturer_No3"
	1    14325 6575
	0    -1   -1   0   
$EndComp
$Comp
L V_Resistor:R0402_NC R25
U 1 1 5EA20431
P 13250 7900
F 0 "R25" V 13150 7825 50  0000 L CNN
F 1 "NC" V 13250 7850 50  0000 L CNN
F 2 "AllModules:R0402_1" V 13180 7900 50  0001 C CNN
F 3 "~" H 13250 7900 50  0001 C CNN
	1    13250 7900
	0    1    1    0   
$EndComp
$Comp
L V_Power:GND #PWR032
U 1 1 5EA22D9C
P 13500 8500
F 0 "#PWR032" H 13500 8250 50  0001 C CNN
F 1 "GND" H 13505 8327 50  0000 C CNN
F 2 "" H 13500 8500 50  0001 C CNN
F 3 "" H 13500 8500 50  0001 C CNN
	1    13500 8500
	1    0    0    -1  
$EndComp
$Comp
L V_Capacitor:C0603_33nF_16V_10% C13
U 1 1 5EA46C5B
P 11800 7050
F 0 "C13" H 11625 6950 50  0000 L CNN
F 1 "33nF" H 11575 7175 50  0000 L CNN
F 2 "AllModules:C0603_1b" H 11838 6900 50  0001 C CNN
F 3 "" H 11800 7050 50  0001 C CNN
F 4 "CAPACITOR,33NF,+/-10%,16V,X7R,0603" H 0   0   50  0001 C CNN "Description"
F 5 "10022627" H 0   0   50  0001 C CNN "Item Number"
F 6 "AVX_RMS1" H 0   0   50  0001 C CNN "Manufacturer"
F 7 "YAGEO_RMS1" H 0   0   50  0001 C CNN "Manufacturer2"
F 8 "YAGEO_RMS1" H 0   0   50  0001 C CNN "Manufacturer3"
F 9 "0603YC333KAT2A" H 0   0   50  0001 C CNN "Manufacturer_No"
F 10 "CC0603KRX7R7BB333" H 0   0   50  0001 C CNN "Manufacturer_No2"
F 11 "CC0603KRX7R7BB333" H 0   0   50  0001 C CNN "Manufacturer_No3"
	1    11800 7050
	1    0    0    -1  
$EndComp
$Comp
L V_Power:GND #PWR025
U 1 1 5EA48DDB
P 11800 7500
F 0 "#PWR025" H 11800 7250 50  0001 C CNN
F 1 "GND" H 11805 7327 50  0000 C CNN
F 2 "" H 11800 7500 50  0001 C CNN
F 3 "" H 11800 7500 50  0001 C CNN
	1    11800 7500
	1    0    0    -1  
$EndComp
$Comp
L V_Capacitor:C0603_33nF_16V_10% C14
U 1 1 5EA56715
P 12250 5500
F 0 "C14" V 12100 5425 50  0000 L CNN
F 1 "33nF" V 12400 5425 50  0000 L CNN
F 2 "AllModules:C0603_1b" H 12288 5350 50  0001 C CNN
F 3 "" H 12250 5500 50  0001 C CNN
F 4 "CAPACITOR,33NF,+/-10%,16V,X7R,0603" H 0   0   50  0001 C CNN "Description"
F 5 "10022627" H 0   0   50  0001 C CNN "Item Number"
F 6 "AVX_RMS1" H 0   0   50  0001 C CNN "Manufacturer"
F 7 "YAGEO_RMS1" H 0   0   50  0001 C CNN "Manufacturer2"
F 8 "YAGEO_RMS1" H 0   0   50  0001 C CNN "Manufacturer3"
F 9 "0603YC333KAT2A" H 0   0   50  0001 C CNN "Manufacturer_No"
F 10 "CC0603KRX7R7BB333" H 0   0   50  0001 C CNN "Manufacturer_No2"
F 11 "CC0603KRX7R7BB333" H 0   0   50  0001 C CNN "Manufacturer_No3"
	1    12250 5500
	0    -1   -1   0   
$EndComp
$Comp
L V_Power:GND #PWR017
U 1 1 5EA70AEB
P 13325 6300
F 0 "#PWR017" H 13325 6050 50  0001 C CNN
F 1 "GND" H 13330 6127 50  0000 C CNN
F 2 "" H 13325 6300 50  0001 C CNN
F 3 "" H 13325 6300 50  0001 C CNN
	1    13325 6300
	1    0    0    -1  
$EndComp
Wire Wire Line
	14175 6575 14100 6575
Wire Wire Line
	14475 6575 14525 6575
$Comp
L V_Power:+5V #PWR018
U 1 1 5EA917AB
P 14100 6525
F 0 "#PWR018" H 14100 6375 50  0001 C CNN
F 1 "+5V" H 14115 6698 50  0000 C CNN
F 2 "" H 14100 6525 50  0001 C CNN
F 3 "" H 14100 6525 50  0001 C CNN
	1    14100 6525
	1    0    0    -1  
$EndComp
Wire Wire Line
	14550 6225 14700 6225
Wire Wire Line
	14250 6225 13825 6225
Connection ~ 13825 6225
Wire Wire Line
	13825 6225 13700 6225
Wire Wire Line
	13400 6225 13325 6225
Wire Wire Line
	13325 6225 13325 6300
Wire Wire Line
	13400 7900 13500 7900
Wire Wire Line
	13700 7900 13600 7900
Connection ~ 13600 7900
Wire Wire Line
	13400 7000 13600 7000
$Comp
L V_Power:GND #PWR026
U 1 1 5EAE4D06
P 12500 7600
F 0 "#PWR026" H 12500 7350 50  0001 C CNN
F 1 "GND" H 12505 7427 50  0000 C CNN
F 2 "" H 12500 7600 50  0001 C CNN
F 3 "" H 12500 7600 50  0001 C CNN
	1    12500 7600
	1    0    0    -1  
$EndComp
$Comp
L V_IC:LM358 IC2
U 2 1 5EA35D87
P 12200 6500
F 0 "IC2" H 12275 6675 50  0000 C CNN
F 1 "MC33172" H 12350 6325 50  0000 C CNN
F 2 "AllModules:MX.A8_COMPOSANT_1" H 12200 6500 50  0001 C CNN
F 3 "" H 12200 6500 50  0001 C CNN
F 4 "IC, DOUBLE LOW POWER OPERATIONAL AMPLIFIER" H 0   0   50  0001 C CNN "Description"
F 5 "10022144" H 0   0   50  0001 C CNN "Item Number"
F 6 "ON SEMICONDUCTOR_RMS1" H 0   0   50  0001 C CNN "Manufacturer"
F 7 "ON SEMICONDUCTOR_RMS1" H 0   0   50  0001 C CNN "Manufacturer2"
F 8 "MC33172DG" H 0   0   50  0001 C CNN "Manufacturer_No"
F 9 "MC33172DR2G" H 0   0   50  0001 C CNN "Manufacturer_No2"
	2    12200 6500
	1    0    0    1   
$EndComp
Wire Wire Line
	9100 2500 9300 2500
Wire Wire Line
	8500 2400 8400 2400
Wire Wire Line
	8400 2400 8400 2050
Connection ~ 8400 2050
Wire Wire Line
	8400 2050 8675 2050
Wire Wire Line
	8975 2050 9300 2050
Wire Wire Line
	9300 2050 9300 2400
$Comp
L V_Power:GND #PWR03
U 1 1 5ED65B6D
P 7825 2175
F 0 "#PWR03" H 7825 1925 50  0001 C CNN
F 1 "GND" H 7830 2002 50  0000 C CNN
F 2 "" H 7825 2175 50  0001 C CNN
F 3 "" H 7825 2175 50  0001 C CNN
	1    7825 2175
	1    0    0    -1  
$EndComp
Wire Wire Line
	7900 2050 7825 2050
Wire Wire Line
	7825 2050 7825 2175
$Comp
L V_IC:LM358 IC2
U 1 1 5EDFDF3B
P 6725 3000
F 0 "IC2" H 6800 3175 50  0000 C CNN
F 1 "MC33172" H 6800 2800 50  0000 C CNN
F 2 "AllModules:MX.A8_COMPOSANT_1" H 6725 3000 50  0001 C CNN
F 3 "" H 6725 3000 50  0001 C CNN
F 4 "IC, DOUBLE LOW POWER OPERATIONAL AMPLIFIER" H 0   0   50  0001 C CNN "Description"
F 5 "10022144" H 0   0   50  0001 C CNN "Item Number"
F 6 "ON SEMICONDUCTOR_RMS1" H 0   0   50  0001 C CNN "Manufacturer"
F 7 "ON SEMICONDUCTOR_RMS1" H 0   0   50  0001 C CNN "Manufacturer2"
F 8 "MC33172DG" H 0   0   50  0001 C CNN "Manufacturer_No"
F 9 "MC33172DR2G" H 0   0   50  0001 C CNN "Manufacturer_No2"
	1    6725 3000
	1    0    0    -1  
$EndComp
Wire Wire Line
	7025 3000 7150 3000
Wire Wire Line
	7150 3000 7150 3475
$Comp
L V_Power:GND #PWR013
U 1 1 5EF0B672
P 7800 4900
F 0 "#PWR013" H 7800 4650 50  0001 C CNN
F 1 "GND" H 7805 4727 50  0000 C CNN
F 2 "" H 7800 4900 50  0001 C CNN
F 3 "" H 7800 4900 50  0001 C CNN
	1    7800 4900
	1    0    0    -1  
$EndComp
$Comp
L V_Power:GND #PWR014
U 1 1 5EF0B9B2
P 8700 4900
F 0 "#PWR014" H 8700 4650 50  0001 C CNN
F 1 "GND" H 8705 4727 50  0000 C CNN
F 2 "" H 8700 4900 50  0001 C CNN
F 3 "" H 8700 4900 50  0001 C CNN
	1    8700 4900
	1    0    0    -1  
$EndComp
$Comp
L V_Connector:Conn_01x07 J1
U 1 1 5EFBAE64
P 1800 2500
F 0 "J1" H 1800 2075 50  0000 C CNN
F 1 "to CPU board" H 1825 2925 50  0000 C CNN
F 2 "AllModules:BAR7-3-2-COVIDIEN_1" H 1800 2500 50  0001 C CNN
F 3 "~" H 1800 2500 50  0001 C CNN
F 4 "10099028" H 1800 2500 50  0001 C CNN "Item Number"
F 5 "CONNECTOR,FEMALE 7-PIN CPU" H 1800 2500 50  0001 C CNN "Description"
F 6 "J.S.T. CORPORATION" H 1800 2500 50  0001 C CNN "Manufacturer"
F 7 "ZHR-7" H 1800 2500 50  0001 C CNN "Manufacturer_No"
	1    1800 2500
	-1   0    0    1   
$EndComp
Text Notes 875  2225 0    50   ~ 0
INHIB-STOP-INV-CPU
Text Notes 875  2325 0    50   ~ 0
SUPPLY-BUZ-CPU
Text Notes 875  2425 0    50   ~ 0
TEST-BUZZER-CPU
Text Notes 875  2525 0    50   ~ 0
STOP-INV-CPU
Text Notes 875  2625 0    50   ~ 0
PWM-BUZZER-CPU
Text Notes 875  2725 0    50   ~ 0
+5V_CPU
Text Notes 875  2825 0    50   ~ 0
GND
Wire Wire Line
	2000 2600 2600 2600
Wire Wire Line
	2000 2500 2800 2500
Wire Wire Line
	2000 2400 3000 2400
Wire Wire Line
	2800 2300 2000 2300
Wire Wire Line
	2000 2200 3200 2200
Wire Wire Line
	2400 2700 2000 2700
Wire Wire Line
	2200 2800 2000 2800
Wire Wire Line
	6425 2900 6000 2900
Wire Wire Line
	6000 2900 6000 3100
Wire Wire Line
	6425 3100 6325 3100
Wire Wire Line
	6325 3100 6325 3475
Wire Wire Line
	6325 3475 7150 3475
$Comp
L V_Power:GND #PWR06
U 1 1 5F3608D2
P 6000 3500
F 0 "#PWR06" H 6000 3250 50  0001 C CNN
F 1 "GND" H 6005 3327 50  0000 C CNN
F 2 "" H 6000 3500 50  0001 C CNN
F 3 "" H 6000 3500 50  0001 C CNN
	1    6000 3500
	1    0    0    -1  
$EndComp
Wire Wire Line
	6000 3400 6000 3500
$Comp
L V_Capacitor:C0402_680pF_50V_5% C6
U 1 1 5F37E1A4
P 6600 2400
F 0 "C6" V 6750 2325 50  0000 L CNN
F 1 "680pF" V 6425 2275 50  0000 L CNN
F 2 "AllModules:C0402_1b" H 6638 2250 50  0001 C CNN
F 3 "" H 6600 2400 50  0001 C CNN
F 4 "CAPACITOR, CERAMIC, 680 PF, 50V, +/-5%, 0402" H 0   0   50  0001 C CNN "Description"
F 5 "10022132" H 0   0   50  0001 C CNN "Item Number"
F 6 "MURATA MANUFACTURING CO., LTD." H 0   0   50  0001 C CNN "Manufacturer"
F 7 "YAGEO_RMS1" H 0   0   50  0001 C CNN "Manufacturer2"
F 8 "YAGEO_RMS1" H 0   0   50  0001 C CNN "Manufacturer3"
F 9 "GRM1555C1H681JA01D" H 0   0   50  0001 C CNN "Manufacturer_No"
F 10 "CC0402JRX7R9BB681" H 0   0   50  0001 C CNN "Manufacturer_No2"
F 11 "CC0402JRX7R9BB681" H 0   0   50  0001 C CNN "Manufacturer_No3"
	1    6600 2400
	0    1    1    0   
$EndComp
Wire Wire Line
	7150 2400 7150 3000
Connection ~ 7150 3000
Wire Wire Line
	6750 2400 7150 2400
$Comp
L V_Power:GND #PWR07
U 1 1 5F3CF03A
P 4900 3500
F 0 "#PWR07" H 4900 3250 50  0001 C CNN
F 1 "GND" H 4905 3327 50  0000 C CNN
F 2 "" H 4900 3500 50  0001 C CNN
F 3 "" H 4900 3500 50  0001 C CNN
	1    4900 3500
	1    0    0    -1  
$EndComp
Connection ~ 6000 2900
Wire Wire Line
	5400 2900 5500 2900
Wire Wire Line
	5900 2900 6000 2900
Wire Wire Line
	5500 2900 5500 2400
Wire Wire Line
	5500 2400 6450 2400
Connection ~ 5500 2900
Wire Wire Line
	5500 2900 5600 2900
Connection ~ 7150 3475
$Comp
L V_IC:LM358 IC3
U 3 1 5F9FC870
P 1575 5825
F 0 "IC3" H 1275 5975 50  0000 C CNN
F 1 "MC33172" H 1225 5625 50  0000 C CNN
F 2 "AllModules:MX.A8_COMPOSANT_1" H 1575 5825 50  0001 C CNN
F 3 "" H 1575 5825 50  0001 C CNN
F 4 "IC, DOUBLE LOW POWER OPERATIONAL AMPLIFIER" H 0   0   50  0001 C CNN "Description"
F 5 "10022144" H 0   0   50  0001 C CNN "Item Number"
F 6 "ON SEMICONDUCTOR_RMS1" H 0   0   50  0001 C CNN "Manufacturer"
F 7 "ON SEMICONDUCTOR_RMS1" H 0   0   50  0001 C CNN "Manufacturer2"
F 8 "MC33172DG" H 0   0   50  0001 C CNN "Manufacturer_No"
F 9 "MC33172DR2G" H 0   0   50  0001 C CNN "Manufacturer_No2"
	3    1575 5825
	1    0    0    -1  
$EndComp
Wire Wire Line
	1475 6125 1475 6250
Wire Wire Line
	1475 5175 1475 5350
$Comp
L V_Capacitor:C0402_100nF_16V_10% C11
U 1 1 5FA59D9B
P 1875 6250
F 0 "C11" V 2025 6200 50  0000 L CNN
F 1 "100nF" V 1725 6125 50  0000 L CNN
F 2 "AllModules:C0402_1b" H 1913 6100 50  0001 C CNN
F 3 "" H 1875 6250 50  0001 C CNN
F 4 "CAPACITOR,100NF,16V,+/-10%,X7R,0402" H 0   0   50  0001 C CNN "Description"
F 5 "10022607" H 0   0   50  0001 C CNN "Item Number"
F 6 "MURATA" H 0   0   50  0001 C CNN "Manufacturer"
F 7 "YAGEO_RMS1" H 0   0   50  0001 C CNN "Manufacturer2"
F 8 "YAGEO_RMS1" H 0   0   50  0001 C CNN "Manufacturer3"
F 9 "GRM155R71C104JA88J" H 0   0   50  0001 C CNN "Manufacturer_No"
F 10 "CC0402KRX7R7BB104" H 0   0   50  0001 C CNN "Manufacturer_No2"
F 11 "CC0402KRX7R7BB104" H 0   0   50  0001 C CNN "Manufacturer_No3"
	1    1875 6250
	0    1    1    0   
$EndComp
Wire Wire Line
	1725 6250 1475 6250
Connection ~ 1475 6250
Wire Wire Line
	1475 6250 1475 6375
Connection ~ 1475 5350
Wire Wire Line
	1475 5350 1475 5525
$Comp
L V_Power:GND #PWR022
U 1 1 5FAA2BE8
P 2200 5475
F 0 "#PWR022" H 2200 5225 50  0001 C CNN
F 1 "GND" H 2205 5302 50  0000 C CNN
F 2 "" H 2200 5475 50  0001 C CNN
F 3 "" H 2200 5475 50  0001 C CNN
	1    2200 5475
	1    0    0    -1  
$EndComp
$Comp
L V_Power:GND #PWR028
U 1 1 5FAA3129
P 2175 6350
F 0 "#PWR028" H 2175 6100 50  0001 C CNN
F 1 "GND" H 2180 6177 50  0000 C CNN
F 2 "" H 2175 6350 50  0001 C CNN
F 3 "" H 2175 6350 50  0001 C CNN
	1    2175 6350
	1    0    0    -1  
$EndComp
Wire Wire Line
	2200 5350 2200 5475
Wire Wire Line
	2025 5350 2200 5350
Wire Wire Line
	2025 6250 2175 6250
Wire Wire Line
	2175 6250 2175 6350
$Comp
L V_Power:+12V #PWR020
U 1 1 5FB28637
P 3050 5175
F 0 "#PWR020" H 3050 5025 50  0001 C CNN
F 1 "+12V" H 3065 5348 50  0000 C CNN
F 2 "" H 3050 5175 50  0001 C CNN
F 3 "" H 3050 5175 50  0001 C CNN
	1    3050 5175
	1    0    0    -1  
$EndComp
$Comp
L V_Capacitor:C0402_100nF_16V_10% C7
U 1 1 5FB28643
P 3450 5350
F 0 "C7" V 3600 5300 50  0000 L CNN
F 1 "100nF" V 3300 5200 50  0000 L CNN
F 2 "AllModules:C0402_1b" H 3488 5200 50  0001 C CNN
F 3 "" H 3450 5350 50  0001 C CNN
F 4 "CAPACITOR,100NF,16V,+/-10%,X7R,0402" H 0   0   50  0001 C CNN "Description"
F 5 "10022607" H 0   0   50  0001 C CNN "Item Number"
F 6 "MURATA" H 0   0   50  0001 C CNN "Manufacturer"
F 7 "YAGEO_RMS1" H 0   0   50  0001 C CNN "Manufacturer2"
F 8 "YAGEO_RMS1" H 0   0   50  0001 C CNN "Manufacturer3"
F 9 "GRM155R71C104JA88J" H 0   0   50  0001 C CNN "Manufacturer_No"
F 10 "CC0402KRX7R7BB104" H 0   0   50  0001 C CNN "Manufacturer_No2"
F 11 "CC0402KRX7R7BB104" H 0   0   50  0001 C CNN "Manufacturer_No3"
	1    3450 5350
	0    -1   -1   0   
$EndComp
Wire Wire Line
	3050 6125 3050 6250
Wire Wire Line
	3050 5175 3050 5350
$Comp
L V_Capacitor:C0402_100nF_16V_10% C8
U 1 1 5FB28651
P 3450 6250
F 0 "C8" V 3600 6200 50  0000 L CNN
F 1 "100nF" V 3300 6125 50  0000 L CNN
F 2 "AllModules:C0402_1b" H 3488 6100 50  0001 C CNN
F 3 "" H 3450 6250 50  0001 C CNN
F 4 "CAPACITOR,100NF,16V,+/-10%,X7R,0402" H 0   0   50  0001 C CNN "Description"
F 5 "10022607" H 0   0   50  0001 C CNN "Item Number"
F 6 "MURATA" H 0   0   50  0001 C CNN "Manufacturer"
F 7 "YAGEO_RMS1" H 0   0   50  0001 C CNN "Manufacturer2"
F 8 "YAGEO_RMS1" H 0   0   50  0001 C CNN "Manufacturer3"
F 9 "GRM155R71C104JA88J" H 0   0   50  0001 C CNN "Manufacturer_No"
F 10 "CC0402KRX7R7BB104" H 0   0   50  0001 C CNN "Manufacturer_No2"
F 11 "CC0402KRX7R7BB104" H 0   0   50  0001 C CNN "Manufacturer_No3"
	1    3450 6250
	0    -1   -1   0   
$EndComp
Connection ~ 3050 6250
Wire Wire Line
	3050 6250 3050 6375
Wire Wire Line
	3300 5350 3050 5350
Connection ~ 3050 5350
Wire Wire Line
	3050 5350 3050 5525
$Comp
L V_Power:GND #PWR023
U 1 1 5FB2865D
P 3775 5475
F 0 "#PWR023" H 3775 5225 50  0001 C CNN
F 1 "GND" H 3780 5302 50  0000 C CNN
F 2 "" H 3775 5475 50  0001 C CNN
F 3 "" H 3775 5475 50  0001 C CNN
	1    3775 5475
	1    0    0    -1  
$EndComp
$Comp
L V_Power:GND #PWR030
U 1 1 5FB28663
P 3750 6350
F 0 "#PWR030" H 3750 6100 50  0001 C CNN
F 1 "GND" H 3755 6177 50  0000 C CNN
F 2 "" H 3750 6350 50  0001 C CNN
F 3 "" H 3750 6350 50  0001 C CNN
	1    3750 6350
	1    0    0    -1  
$EndComp
Wire Wire Line
	3775 5350 3775 5475
Wire Wire Line
	3600 5350 3775 5350
Wire Wire Line
	3600 6250 3750 6250
Wire Wire Line
	3750 6250 3750 6350
Wire Wire Line
	8400 4300 8400 2600
Wire Wire Line
	8500 2600 8400 2600
Wire Wire Line
	8200 2050 8400 2050
Wire Wire Line
	4000 2600 4900 2600
Wire Wire Line
	4000 2750 4900 2750
Connection ~ 4250 3300
Wire Wire Line
	4250 3200 4250 3300
$Comp
L V_Power:+5V #PWR05
U 1 1 5F8D454B
P 4250 3200
F 0 "#PWR05" H 4250 3050 50  0001 C CNN
F 1 "+5V" H 4350 3250 50  0000 C CNN
F 2 "" H 4250 3200 50  0001 C CNN
F 3 "" H 4250 3200 50  0001 C CNN
	1    4250 3200
	1    0    0    -1  
$EndComp
$Comp
L V_Power:GND #PWR08
U 1 1 5F26F747
P 4250 3900
F 0 "#PWR08" H 4250 3650 50  0001 C CNN
F 1 "GND" H 4255 3727 50  0000 C CNN
F 2 "" H 4250 3900 50  0001 C CNN
F 3 "" H 4250 3900 50  0001 C CNN
	1    4250 3900
	1    0    0    -1  
$EndComp
Wire Wire Line
	4000 3300 4150 3300
$Comp
L V_Capacitor:C0402_220pF_50V_5% C2
U 1 1 5E87D053
P 4250 3525
F 0 "C2" H 4365 3571 50  0000 L CNN
F 1 "220pF" H 4300 3425 50  0000 L CNN
F 2 "AllModules:C0402_1b" H 4288 3375 50  0001 C CNN
F 3 "" H 4250 3525 50  0001 C CNN
F 4 "CAPACITOR CERAMIC, 220PF, 50V,+/-5%, NPO,0402" H 0   0   50  0001 C CNN "Description"
F 5 "10022966" H 0   0   50  0001 C CNN "Item Number"
F 6 "YAGEO_RMS1" H 0   0   50  0001 C CNN "Manufacturer"
F 7 "MURATA MANUFACTURING CO., LTD." H 0   0   50  0001 C CNN "Manufacturer2"
F 8 "YAGEO_RMS1" H 0   0   50  0001 C CNN "Manufacturer3"
F 9 "CC0402JRNPO9BN221" H 0   0   50  0001 C CNN "Manufacturer_No"
F 10 "GRM1555C1H221JA01D" H 0   0   50  0001 C CNN "Manufacturer_No2"
F 11 "CC0402JRNPO9BN221" H 0   0   50  0001 C CNN "Manufacturer_No3"
	1    4250 3525
	1    0    0    -1  
$EndComp
$Comp
L V_Inductor:L_Core_Ferrite L1
U 1 1 5E87AB3F
P 3850 3300
F 0 "L1" V 3950 3300 50  0000 C CNN
F 1 "Core_Ferrite" V 3775 3275 50  0000 C CNN
F 2 "AllModules:RC1206_1" H 3850 3300 50  0001 C CNN
F 3 "" H 3850 3300 50  0001 C CNN
F 4 "SMD FERRITE, 1A,1206" H 0   0   50  0001 C CNN "Description"
F 5 "10022911" H 0   0   50  0001 C CNN "Item Number"
F 6 "WURTH ELEKTRONIK GMBH" H 0   0   50  0001 C CNN "Manufacturer"
F 7 "74279218" H 0   0   50  0001 C CNN "Manufacturer_No"
	1    3850 3300
	0    -1   -1   0   
$EndComp
$Comp
L V_Fuse:Fuse_10022141 FU1
U 1 1 5E879854
P 3450 3300
F 0 "FU1" V 3375 3300 50  0000 C CNN
F 1 "500mA" V 3525 3300 50  0000 C CNN
F 2 "AllModules:F6126_1" V 3380 3300 50  0001 C CNN
F 3 "" H 3450 3300 50  0001 C CNN
F 4 "FUSE, FAST ACTING, SMD, 500MA" H 0   0   50  0001 C CNN "Description"
F 5 "10022141" H 0   0   50  0001 C CNN "Item Number"
F 6 "LITTELFUSE_RMS1" H 0   0   50  0001 C CNN "Manufacturer"
F 7 "0451.500MRL" H 0   0   50  0001 C CNN "Manufacturer_No"
	1    3450 3300
	0    -1   -1   0   
$EndComp
Wire Wire Line
	4250 3625 4250 3800
Wire Wire Line
	4250 3800 3850 3800
Wire Wire Line
	2200 2800 2200 3800
Connection ~ 4250 3800
Wire Wire Line
	4250 3800 4250 3900
Wire Wire Line
	3700 3300 3600 3300
Wire Wire Line
	3300 3300 2400 3300
Wire Wire Line
	2400 2700 2400 3300
Wire Wire Line
	14525 6575 14525 6650
Wire Wire Line
	14100 7500 14100 7400
Wire Wire Line
	14700 6225 14700 7100
$Comp
L V_Power:GND #PWR021
U 1 1 5EA0E815
P 14525 6650
F 0 "#PWR021" H 14525 6400 50  0001 C CNN
F 1 "GND" H 14530 6477 50  0000 C CNN
F 2 "" H 14525 6650 50  0001 C CNN
F 3 "" H 14525 6650 50  0001 C CNN
	1    14525 6650
	1    0    0    -1  
$EndComp
$Comp
L V_Power:GND #PWR027
U 1 1 5E9F8A01
P 14100 7500
F 0 "#PWR027" H 14100 7250 50  0001 C CNN
F 1 "GND" H 14105 7327 50  0000 C CNN
F 2 "" H 14100 7500 50  0001 C CNN
F 3 "" H 14100 7500 50  0001 C CNN
	1    14100 7500
	1    0    0    -1  
$EndComp
$Comp
L V_IC:LMV321 IC4
U 1 1 5E9F6105
P 14200 7100
F 0 "IC4" H 14350 7250 50  0000 L CNN
F 1 "LMV321" H 14375 7000 50  0000 L CNN
F 2 "AllModules:SOT23-5_1" H 14200 7100 50  0001 L CNN
F 3 "" H 14200 7100 50  0001 C CNN
F 4 "OPERATIONAL AMPLIFIER, SOT23-5" H 0   0   50  0001 C CNN "Description"
F 5 "10022145" H 0   0   50  0001 C CNN "Item Number"
F 6 "NATIONAL SEMICONDUCTOR_RMS1" H 0   0   50  0001 C CNN "Manufacturer"
F 7 "TEXAS INSTRUMENTS_RMS1" H 0   0   50  0001 C CNN "Manufacturer2"
F 8 "LMV321M5 NOPB" H 0   0   50  0001 C CNN "Manufacturer_No"
F 9 "LMV321IDBVT" H 0   0   50  0001 C CNN "Manufacturer_No2"
	1    14200 7100
	1    0    0    -1  
$EndComp
Wire Wire Line
	13600 7000 13600 7900
Wire Wire Line
	13600 7000 13900 7000
Connection ~ 13600 7000
Wire Wire Line
	13825 7200 13900 7200
Wire Wire Line
	13825 6225 13825 7200
Wire Wire Line
	14100 6525 14100 6575
Wire Wire Line
	14100 6800 14100 6575
Connection ~ 14100 6575
Wire Wire Line
	14500 7100 14700 7100
$Comp
L V_IC:LM358 IC3
U 1 1 5E8962E9
P 8800 2500
F 0 "IC3" H 8875 2325 50  0000 C CNN
F 1 "MC33172" H 8925 2675 50  0000 C CNN
F 2 "AllModules:MX.A8_COMPOSANT_1" H 8800 2500 50  0001 C CNN
F 3 "" H 8800 2500 50  0001 C CNN
F 4 "IC, DOUBLE LOW POWER OPERATIONAL AMPLIFIER" H 0   0   50  0001 C CNN "Description"
F 5 "10022144" H 0   0   50  0001 C CNN "Item Number"
F 6 "ON SEMICONDUCTOR_RMS1" H 0   0   50  0001 C CNN "Manufacturer"
F 7 "ON SEMICONDUCTOR_RMS1" H 0   0   50  0001 C CNN "Manufacturer2"
F 8 "MC33172DG" H 0   0   50  0001 C CNN "Manufacturer_No"
F 9 "MC33172DR2G" H 0   0   50  0001 C CNN "Manufacturer_No2"
	1    8800 2500
	1    0    0    1   
$EndComp
$Comp
L V_IC:LM358 IC2
U 3 1 5FB28649
P 3150 5825
F 0 "IC2" H 2850 5975 50  0000 C CNN
F 1 "MC33172" H 2800 5625 50  0000 C CNN
F 2 "AllModules:MX.A8_COMPOSANT_1" H 3150 5825 50  0001 C CNN
F 3 "" H 3150 5825 50  0001 C CNN
F 4 "IC, DOUBLE LOW POWER OPERATIONAL AMPLIFIER" H 0   0   50  0001 C CNN "Description"
F 5 "10022144" H 0   0   50  0001 C CNN "Item Number"
F 6 "ON SEMICONDUCTOR_RMS1" H 0   0   50  0001 C CNN "Manufacturer"
F 7 "ON SEMICONDUCTOR_RMS1" H 0   0   50  0001 C CNN "Manufacturer2"
F 8 "MC33172DG" H 0   0   50  0001 C CNN "Manufacturer_No"
F 9 "MC33172DR2G" H 0   0   50  0001 C CNN "Manufacturer_No2"
	3    3150 5825
	1    0    0    -1  
$EndComp
$Comp
L V_Resistor:R0402_200k_1% R69
U 1 1 5EA89989
P 13850 7900
F 0 "R69" H 13850 8000 50  0000 C CNN
F 1 "200k" H 13850 7900 50  0000 C CNN
F 2 "AllModules:R0402_1" H 13850 8100 50  0001 C CNN
F 3 "" H 13850 7900 50  0001 C CNN
F 4 "RESISTOR,200 KOHM,+/-1%,0.063W,0402" H 13850 8100 50  0001 C CNN "Description"
F 5 "10023292" H 13850 8100 50  0001 C CNN "Item Number"
F 6 "YAGEO_RMS1" H 0   0   50  0001 C CNN "Manufacturer"
F 7 "VISHAY_RMS1" H 0   0   50  0001 C CNN "Manufacturer2"
F 8 "YAGEO_RMS1" H 0   0   50  0001 C CNN "Manufacturer3"
F 9 "RC0402FR-07200KL" H 0   0   50  0001 C CNN "Manufacturer_No"
F 10 "CRCW0402200KFKED" H 0   0   50  0001 C CNN "Manufacturer_No2"
F 11 "RC0402FR-07200KL" H 0   0   50  0001 C CNN "Manufacturer_No3"
	1    13850 7900
	-1   0    0    1   
$EndComp
$Comp
L V_Resistor:R0402_100k_1% R59
U 1 1 5EA8B1EB
P 13500 8250
F 0 "R59" H 13500 8350 50  0000 C CNN
F 1 "100k" H 13500 8250 50  0000 C CNN
F 2 "AllModules:R0402_1" H 13500 8450 50  0001 C CNN
F 3 "" H 13500 8250 50  0001 C CNN
F 4 "RESISTOR 100K OHM, 0.063W, +/-1%, 0402" H 13500 8450 50  0001 C CNN "Description"
F 5 "10022149" H 13500 8450 50  0001 C CNN "Item Number"
F 6 "VISHAY_RMS1" H 0   0   50  0001 C CNN "Manufacturer"
F 7 "YAGEO_RMS1" H 0   0   50  0001 C CNN "Manufacturer2"
F 8 "YAGEO_RMS1" H 0   0   50  0001 C CNN "Manufacturer3"
F 9 "CRCW0402100KFKED" H 0   0   50  0001 C CNN "Manufacturer_No"
F 10 "RC0402FR-07100KL" H 0   0   50  0001 C CNN "Manufacturer_No2"
F 11 "RC0402FR-07100KL" H 0   0   50  0001 C CNN "Manufacturer_No3"
	1    13500 8250
	0    1    1    0   
$EndComp
$Comp
L V_Resistor:R0402_100k_1% R24
U 1 1 5EA8E1A5
P 13250 7000
F 0 "R24" H 13250 7100 50  0000 C CNN
F 1 "100k" H 13250 7000 50  0000 C CNN
F 2 "AllModules:R0402_1" H 13250 7200 50  0001 C CNN
F 3 "" H 13250 7000 50  0001 C CNN
F 4 "RESISTOR 100K OHM, 0.063W, +/-1%, 0402" H 13250 7200 50  0001 C CNN "Description"
F 5 "10022149" H 13325 6900 50  0001 C CNN "Item Number"
F 6 "VISHAY_RMS1" H 0   0   50  0001 C CNN "Manufacturer"
F 7 "YAGEO_RMS1" H 0   0   50  0001 C CNN "Manufacturer2"
F 8 "YAGEO_RMS1" H 0   0   50  0001 C CNN "Manufacturer3"
F 9 "CRCW0402100KFKED" H 0   0   50  0001 C CNN "Manufacturer_No"
F 10 "RC0402FR-07100KL" H 0   0   50  0001 C CNN "Manufacturer_No2"
F 11 "RC0402FR-07100KL" H 0   0   50  0001 C CNN "Manufacturer_No3"
	1    13250 7000
	-1   0    0    1   
$EndComp
$Comp
L V_Resistor:R0402_100k_1% R29
U 1 1 5EA90255
P 14400 6225
F 0 "R29" H 14400 6125 50  0000 C CNN
F 1 "100k" H 14400 6225 50  0000 C CNN
F 2 "AllModules:R0402_1" H 14400 6425 50  0001 C CNN
F 3 "" H 14400 6225 50  0001 C CNN
F 4 "RESISTOR 100K OHM, 0.063W, +/-1%, 0402" H 14400 6425 50  0001 C CNN "Description"
F 5 "10022149" H 14400 6425 50  0001 C CNN "Item Number"
F 6 "VISHAY_RMS1" H 0   0   50  0001 C CNN "Manufacturer"
F 7 "YAGEO_RMS1" H 0   0   50  0001 C CNN "Manufacturer2"
F 8 "YAGEO_RMS1" H 0   0   50  0001 C CNN "Manufacturer3"
F 9 "CRCW0402100KFKED" H 0   0   50  0001 C CNN "Manufacturer_No"
F 10 "RC0402FR-07100KL" H 0   0   50  0001 C CNN "Manufacturer_No2"
F 11 "RC0402FR-07100KL" H 0   0   50  0001 C CNN "Manufacturer_No3"
	1    14400 6225
	-1   0    0    1   
$EndComp
$Comp
L V_Resistor:R0402_68k_1% R27
U 1 1 5EA91372
P 13550 6225
F 0 "R27" H 13550 6125 50  0000 C CNN
F 1 "68k" H 13550 6225 50  0000 C CNN
F 2 "AllModules:R0402_1" H 13550 6425 50  0001 C CNN
F 3 "" H 13550 6225 50  0001 C CNN
F 4 "RESISTOR, 68 KOHM,+/-1%, 0.063W, 0402" H 13550 6425 50  0001 C CNN "Description"
F 5 "10021556" H 13550 6425 50  0001 C CNN "Item Number"
F 6 "YAGEO_RMS1" H 0   0   50  0001 C CNN "Manufacturer"
F 7 "VISHAY_RMS1" H 0   0   50  0001 C CNN "Manufacturer2"
F 8 "YAGEO_RMS1" H 0   0   50  0001 C CNN "Manufacturer3"
F 9 "RC0402FR-0768KL" H 0   0   50  0001 C CNN "Manufacturer_No"
F 10 "CRCW040268K0FKED" H 0   0   50  0001 C CNN "Manufacturer_No2"
F 11 "RC0402FR-0768KL" H 0   0   50  0001 C CNN "Manufacturer_No3"
	1    13550 6225
	-1   0    0    1   
$EndComp
$Comp
L V_Resistor:R0402_2k2_1% R23
U 1 1 5EA9CBEC
P 12700 6750
F 0 "R23" H 12700 6850 50  0000 C CNN
F 1 "2.2k" H 12700 6750 50  0000 C CNN
F 2 "AllModules:R0402_1" H 12700 6950 50  0001 C CNN
F 3 "" H 12700 6750 50  0001 C CNN
F 4 "RESISTOR, 2.2 KOHM, +/-1%, 0.063W, 0402" H 12700 6950 50  0001 C CNN "Description"
F 5 "10022957" H 12700 6950 50  0001 C CNN "Item Number"
F 6 "YAGEO_RMS1" H 0   0   50  0001 C CNN "Manufacturer"
F 7 "YAGEO_RMS1" H 0   0   50  0001 C CNN "Manufacturer2"
F 8 "VISHAY_RMS1" H 0   0   50  0001 C CNN "Manufacturer3"
F 9 "RC0402FR-072K2L" H 0   0   50  0001 C CNN "Manufacturer_No"
F 10 "232270672202L" H 0   0   50  0001 C CNN "Manufacturer_No2"
F 11 "CRCW04022K20FKED" H 0   0   50  0001 C CNN "Manufacturer_No3"
	1    12700 6750
	0    1    1    0   
$EndComp
Wire Wire Line
	12900 2500 12200 2500
Wire Wire Line
	12900 1500 12900 1600
Connection ~ 12900 1500
Wire Wire Line
	12450 1500 12450 2800
Wire Wire Line
	12900 1500 12450 1500
Wire Wire Line
	12900 3475 12900 3400
Connection ~ 12900 3475
Wire Wire Line
	12450 3475 12450 3100
Wire Wire Line
	12900 3475 12450 3475
Wire Wire Line
	12900 1425 12900 1500
Wire Wire Line
	13400 1800 13400 2500
Wire Wire Line
	13200 1800 13400 1800
Wire Wire Line
	13400 2500 13525 2500
Connection ~ 13400 2500
Wire Wire Line
	13400 3200 13200 3200
Wire Wire Line
	13400 2500 13400 3200
Wire Wire Line
	12900 2075 12900 2000
Wire Wire Line
	12900 2500 12900 2625
Connection ~ 12900 2500
Wire Wire Line
	13000 2500 12900 2500
Wire Wire Line
	12900 2375 12900 2500
Wire Wire Line
	12900 3000 12900 2925
Wire Wire Line
	12900 3525 12900 3475
Wire Wire Line
	13525 2500 13625 2500
Connection ~ 13525 2500
Wire Wire Line
	13525 1950 13525 2500
Wire Wire Line
	13825 1950 13525 1950
Wire Wire Line
	13300 2500 13400 2500
Wire Wire Line
	14350 1950 14350 2400
Wire Wire Line
	14125 1950 14350 1950
Wire Wire Line
	14225 2400 14350 2400
Wire Wire Line
	14350 2600 14350 2725
Wire Wire Line
	14225 2600 14350 2600
$Comp
L V_Power:-12V #PWR010
U 1 1 5E99DE51
P 12900 3525
F 0 "#PWR010" H 12900 3625 50  0001 C CNN
F 1 "-12V" H 12900 3675 50  0000 C CNN
F 2 "" H 12900 3525 50  0001 C CNN
F 3 "" H 12900 3525 50  0001 C CNN
	1    12900 3525
	-1   0    0    1   
$EndComp
$Comp
L V_Power:+12V #PWR01
U 1 1 5E99DE4B
P 12900 1425
F 0 "#PWR01" H 12900 1275 50  0001 C CNN
F 1 "+12V" H 12915 1598 50  0000 C CNN
F 2 "" H 12900 1425 50  0001 C CNN
F 3 "" H 12900 1425 50  0001 C CNN
	1    12900 1425
	1    0    0    -1  
$EndComp
$Comp
L V_Capacitor:C_470uF_40V_20% C12
U 1 1 5E95457C
P 12450 2950
F 0 "C12" H 12475 3075 50  0000 L CNN
F 1 "470μF" H 12200 2825 50  0000 L CNN
F 2 "AllModules:AX10X30_1" H 12488 2800 50  0001 C CNN
F 3 "" H 12450 2950 50  0001 C CNN
F 4 "CAPACITOR ELECTROLYTIC,470UF,40V,+/-20%" H 0   0   50  0001 C CNN "Description"
F 5 "10022133" H 0   0   50  0001 C CNN "Item Number"
F 6 "VISHAY_RMS1" H 0   0   50  0001 C CNN "Manufacturer"
F 7 "VISHAY_RMS1" H 0   0   50  0001 C CNN "Manufacturer2"
F 8 "222202117471" H 0   0   50  0001 C CNN "Manufacturer_No"
F 9 "MAL202117471E3" H 0   0   50  0001 C CNN "Manufacturer_No2"
	1    12450 2950
	1    0    0    -1  
$EndComp
$Comp
L V_Power:GND #PWR04
U 1 1 5E939516
P 14350 2725
F 0 "#PWR04" H 14350 2475 50  0001 C CNN
F 1 "GND" H 14355 2552 50  0000 C CNN
F 2 "" H 14350 2725 50  0001 C CNN
F 3 "" H 14350 2725 50  0001 C CNN
	1    14350 2725
	1    0    0    -1  
$EndComp
$Comp
L V_IC:LM358 IC3
U 2 1 5E906CDE
P 13925 2500
F 0 "IC3" H 14000 2675 50  0000 C CNN
F 1 "MC33172" H 14000 2300 50  0000 C CNN
F 2 "AllModules:MX.A8_COMPOSANT_1" H 13925 2500 50  0001 C CNN
F 3 "" H 13925 2500 50  0001 C CNN
F 4 "IC, DOUBLE LOW POWER OPERATIONAL AMPLIFIER" H 0   0   50  0001 C CNN "Description"
F 5 "10022144" H 0   0   50  0001 C CNN "Item Number"
F 6 "ON SEMICONDUCTOR_RMS1" H 0   0   50  0001 C CNN "Manufacturer"
F 7 "ON SEMICONDUCTOR_RMS1" H 0   0   50  0001 C CNN "Manufacturer2"
F 8 "MC33172DG" H 0   0   50  0001 C CNN "Manufacturer_No"
F 9 "MC33172DR2G" H 0   0   50  0001 C CNN "Manufacturer_No2"
	2    13925 2500
	-1   0    0    1   
$EndComp
$Comp
L V_Resistor:R0402_33R_1% R15
U 1 1 5EADE678
P 11500 2450
F 0 "R15" H 11500 2550 50  0000 C CNN
F 1 "33" H 11500 2450 50  0000 C CNN
F 2 "AllModules:R0402_1" H 11500 2650 50  0001 C CNN
F 3 "" H 11500 2450 50  0001 C CNN
F 4 "RESISTOR, 33 OHM, +/-1%,0.063W, 0402" H 11500 2650 50  0001 C CNN "Description"
F 5 "10022745" H 11500 2650 50  0001 C CNN "Item Number"
F 6 "VISHAY_RMS1" H 0   0   50  0001 C CNN "Manufacturer"
F 7 "YAGEO_RMS1" H 0   0   50  0001 C CNN "Manufacturer2"
F 8 "YAGEO_RMS1" H 0   0   50  0001 C CNN "Manufacturer3"
F 9 "CRCW040233R0FKED" H 0   0   50  0001 C CNN "Manufacturer_No"
F 10 "RC0402FR-0733RL" H 0   0   50  0001 C CNN "Manufacturer_No2"
F 11 "RC0402FR-0733RL" H 0   0   50  0001 C CNN "Manufacturer_No3"
	1    11500 2450
	0    -1   -1   0   
$EndComp
$Comp
L V_Resistor:R0402_150k_1% R21
U 1 1 5EADFF19
P 12250 5900
F 0 "R21" H 12250 6000 50  0000 C CNN
F 1 "150k" H 12250 5900 50  0000 C CNN
F 2 "AllModules:R0402_1" H 12250 6100 50  0001 C CNN
F 3 "" H 12250 5900 50  0001 C CNN
F 4 "RESISTOR, 150 KOHM,+/-1%,0.063W,0402" H 12250 6100 50  0001 C CNN "Description"
F 5 "10022881" H 12250 6100 50  0001 C CNN "Item Number"
F 6 "YAGEO_RMS1" H 0   0   50  0001 C CNN "Manufacturer"
F 7 "YAGEO_RMS1" H 0   0   50  0001 C CNN "Manufacturer2"
F 8 "VISHAY_RMS1" H 0   0   50  0001 C CNN "Manufacturer3"
F 9 "232270671504L" H 0   0   50  0001 C CNN "Manufacturer_No"
F 10 "RC0402FR-07150KL" H 0   0   50  0001 C CNN "Manufacturer_No2"
F 11 "CRCW0402150KFKED" H 0   0   50  0001 C CNN "Manufacturer_No3"
	1    12250 5900
	1    0    0    -1  
$EndComp
$Comp
L V_Resistor:R0402_10k_1% R16
U 1 1 5EAE2485
P 11700 4850
F 0 "R16" H 11700 4950 50  0000 C CNN
F 1 "10k" H 11700 4850 50  0000 C CNN
F 2 "AllModules:R0402_1" H 11700 5050 50  0001 C CNN
F 3 "" H 11700 4850 50  0001 C CNN
F 4 "RESISTOR,10K OHM, 0.063W, +/-1%, 0402" H 11700 5050 50  0001 C CNN "Description"
F 5 "10022150" H 11700 5050 50  0001 C CNN "Item Number"
F 6 "YAGEO_RMS1" H 0   0   50  0001 C CNN "Manufacturer"
F 7 "VISHAY_RMS1" H 0   0   50  0001 C CNN "Manufacturer2"
F 8 "YAGEO_RMS1" H 0   0   50  0001 C CNN "Manufacturer3"
F 9 "RC0402FR-0710KL" H 0   0   50  0001 C CNN "Manufacturer_No"
F 10 "CRCW040210K0FKED" H 0   0   50  0001 C CNN "Manufacturer_No2"
F 11 "RC0402FR-0710KL" H 0   0   50  0001 C CNN "Manufacturer_No3"
	1    11700 4850
	0    1    1    0   
$EndComp
$Comp
L V_Resistor:R0402_10k_1% R17
U 1 1 5EAE3A2A
P 11300 5150
F 0 "R17" H 11300 5250 50  0000 C CNN
F 1 "10k" H 11300 5150 50  0000 C CNN
F 2 "AllModules:R0402_1" H 11300 5350 50  0001 C CNN
F 3 "" H 11300 5150 50  0001 C CNN
F 4 "RESISTOR,10K OHM, 0.063W, +/-1%, 0402" H 11300 5350 50  0001 C CNN "Description"
F 5 "10022150" H 11300 5350 50  0001 C CNN "Item Number"
F 6 "YAGEO_RMS1" H 0   0   50  0001 C CNN "Manufacturer"
F 7 "VISHAY_RMS1" H 0   0   50  0001 C CNN "Manufacturer2"
F 8 "YAGEO_RMS1" H 0   0   50  0001 C CNN "Manufacturer3"
F 9 "RC0402FR-0710KL" H 0   0   50  0001 C CNN "Manufacturer_No"
F 10 "CRCW040210K0FKED" H 0   0   50  0001 C CNN "Manufacturer_No2"
F 11 "RC0402FR-0710KL" H 0   0   50  0001 C CNN "Manufacturer_No3"
	1    11300 5150
	0    1    1    0   
$EndComp
$Comp
L V_Resistor:R0402_32k4_1% R28
U 1 1 5EAE478D
P 14700 2400
F 0 "R28" H 14700 2500 50  0000 C CNN
F 1 "32.4k" H 14700 2400 50  0000 C CNN
F 2 "AllModules:R0402_1" H 14700 2600 50  0001 C CNN
F 3 "" H 14700 2400 50  0001 C CNN
F 4 "RESISTOR,32.4 KOHMS,0.063W,+/-1%,0402" H 14700 2600 50  0001 C CNN "Description"
F 5 "10022154" H 14700 2600 50  0001 C CNN "Item Number"
F 6 "YAGEO_RMS1" H 0   0   50  0001 C CNN "Manufacturer"
F 7 "VISHAY_RMS1" H 0   0   50  0001 C CNN "Manufacturer2"
F 8 "YAGEO_RMS1" H 0   0   50  0001 C CNN "Manufacturer3"
F 9 "RC0402FR-0732K4L" H 0   0   50  0001 C CNN "Manufacturer_No"
F 10 "CRCW040232K4FKED" H 0   0   50  0001 C CNN "Manufacturer_No2"
F 11 "RC0402FR-0732K4L" H 0   0   50  0001 C CNN "Manufacturer_No3"
	1    14700 2400
	1    0    0    -1  
$EndComp
$Comp
L V_Resistor:R0402_137k_1% R26
U 1 1 5EAE68B0
P 13975 1950
F 0 "R26" H 13975 2050 50  0000 C CNN
F 1 "137k" H 13975 1950 50  0000 C CNN
F 2 "AllModules:R0402_1" H 13975 2150 50  0001 C CNN
F 3 "" H 13975 1950 50  0001 C CNN
F 4 "RESISTOR, 137 KOHM, +/-1%,0.063W,0402" H 13975 2150 50  0001 C CNN "Description"
F 5 "10021468" H 13975 2150 50  0001 C CNN "Item Number"
F 6 "VISHAY_RMS1" H 0   0   50  0001 C CNN "Manufacturer"
F 7 "YAGEO_RMS1" H 0   0   50  0001 C CNN "Manufacturer2"
F 8 "YAGEO_RMS1" H 0   0   50  0001 C CNN "Manufacturer3"
F 9 "CRCW0402137KFKED" H 0   0   50  0001 C CNN "Manufacturer_No"
F 10 "RC0402FR-07137KL" H 0   0   50  0001 C CNN "Manufacturer_No2"
F 11 "RC0402FR-07137KL" H 0   0   50  0001 C CNN "Manufacturer_No3"
	1    13975 1950
	1    0    0    -1  
$EndComp
$Comp
L V_Resistor:R0402_470R_1% R22
U 1 1 5EAE98B3
P 13150 2500
F 0 "R22" H 13150 2600 50  0000 C CNN
F 1 "470" H 13150 2500 50  0000 C CNN
F 2 "AllModules:R0402_1" H 13150 2700 50  0001 C CNN
F 3 "" H 13150 2500 50  0001 C CNN
F 4 "RESISTOR, 470 OHM, 0.063W, +/-1%, 0402" H 13150 2700 50  0001 C CNN "Description"
F 5 "10022156" H 13150 2700 50  0001 C CNN "Item Number"
F 6 "YAGEO_RMS1" H 0   0   50  0001 C CNN "Manufacturer"
F 7 "YAGEO_RMS1" H 0   0   50  0001 C CNN "Manufacturer2"
F 8 "VISHAY_RMS1" H 0   0   50  0001 C CNN "Manufacturer3"
F 9 "RC0402FR-07470RL" H 0   0   50  0001 C CNN "Manufacturer_No"
F 10 "RC0402FR-07470RL" H 0   0   50  0001 C CNN "Manufacturer_No2"
F 11 "CRCW0402470RFKED" H 0   0   50  0001 C CNN "Manufacturer_No3"
	1    13150 2500
	1    0    0    -1  
$EndComp
$Comp
L V_Resistor:R0402_1R5_1% R19
U 1 1 5EAEB7F1
P 12900 2225
F 0 "R19" H 12900 2325 50  0000 C CNN
F 1 "1.5" H 12900 2225 50  0000 C CNN
F 2 "AllModules:R0402_1" H 12900 2425 50  0001 C CNN
F 3 "" H 12900 2225 50  0001 C CNN
F 4 "RESISTOR, 1.5 OHM,+/-1%,0.063W,0402" H 12900 2425 50  0001 C CNN "Description"
F 5 "10022725" H 12900 2425 50  0001 C CNN "Item Number"
F 6 "YAGEO_RMS1" H 0   0   50  0001 C CNN "Manufacturer"
F 7 "YAGEO_RMS1" H 0   0   50  0001 C CNN "Manufacturer2"
F 8 "VISHAY_RMS1" H 0   0   50  0001 C CNN "Manufacturer3"
F 9 "RC0402FR-071R5L" H 0   0   50  0001 C CNN "Manufacturer_No"
F 10 "RC0402FR-071R5L" H 0   0   50  0001 C CNN "Manufacturer_No2"
F 11 "CRCW04021R50FKED" H 0   0   50  0001 C CNN "Manufacturer_No3"
	1    12900 2225
	0    -1   -1   0   
$EndComp
$Comp
L V_Resistor:R0402_1R5_1% R20
U 1 1 5EAEDC7F
P 12900 2775
F 0 "R20" H 12900 2875 50  0000 C CNN
F 1 "1.5" H 12900 2775 50  0000 C CNN
F 2 "AllModules:R0402_1" H 12900 2975 50  0001 C CNN
F 3 "" H 12900 2775 50  0001 C CNN
F 4 "RESISTOR, 1.5 OHM,+/-1%,0.063W,0402" H 12900 2975 50  0001 C CNN "Description"
F 5 "10022725" H 12900 2975 50  0001 C CNN "Item Number"
F 6 "YAGEO_RMS1" H 0   0   50  0001 C CNN "Manufacturer"
F 7 "YAGEO_RMS1" H 0   0   50  0001 C CNN "Manufacturer2"
F 8 "VISHAY_RMS1" H 0   0   50  0001 C CNN "Manufacturer3"
F 9 "RC0402FR-071R5L" H 0   0   50  0001 C CNN "Manufacturer_No"
F 10 "RC0402FR-071R5L" H 0   0   50  0001 C CNN "Manufacturer_No2"
F 11 "CRCW04021R50FKED" H 0   0   50  0001 C CNN "Manufacturer_No3"
	1    12900 2775
	0    -1   -1   0   
$EndComp
$Comp
L V_Resistor:R0402_32k4_1% R9
U 1 1 5EAF2BD4
P 8050 2050
F 0 "R9" H 8050 2150 50  0000 C CNN
F 1 "32.4k" H 8050 2050 50  0000 C CNN
F 2 "AllModules:R0402_1" H 8050 2250 50  0001 C CNN
F 3 "" H 8050 2050 50  0001 C CNN
F 4 "RESISTOR,32.4 KOHMS,0.063W,+/-1%,0402" H 8050 2250 50  0001 C CNN "Description"
F 5 "10022154" H 8050 2250 50  0001 C CNN "Item Number"
F 6 "YAGEO_RMS1" H 0   0   50  0001 C CNN "Manufacturer"
F 7 "VISHAY_RMS1" H 0   0   50  0001 C CNN "Manufacturer2"
F 8 "YAGEO_RMS1" H 0   0   50  0001 C CNN "Manufacturer3"
F 9 "RC0402FR-0732K4L" H 0   0   50  0001 C CNN "Manufacturer_No"
F 10 "CRCW040232K4FKED" H 0   0   50  0001 C CNN "Manufacturer_No2"
F 11 "RC0402FR-0732K4L" H 0   0   50  0001 C CNN "Manufacturer_No3"
	1    8050 2050
	1    0    0    -1  
$EndComp
$Comp
L V_Resistor:R0402_105k_1% R11
U 1 1 5EAF4C77
P 8825 2050
F 0 "R11" H 8825 2150 50  0000 C CNN
F 1 "105k" H 8825 2050 50  0000 C CNN
F 2 "AllModules:R0402_1" H 8825 2250 50  0001 C CNN
F 3 "" H 8825 2050 50  0001 C CNN
F 4 "RESISTOR,105 KOHM,0.063W,+/-1%,0402" H 8825 2250 50  0001 C CNN "Description"
F 5 "10022155" H 8825 2250 50  0001 C CNN "Item Number"
F 6 "YAGEO_RMS1" H 0   0   50  0001 C CNN "Manufacturer"
F 7 "YAGEO_RMS1" H 0   0   50  0001 C CNN "Manufacturer2"
F 8 "VISHAY_RMS1" H 0   0   50  0001 C CNN "Manufacturer3"
F 9 "RC0402FR-07105KL" H 0   0   50  0001 C CNN "Manufacturer_No"
F 10 "RC0402FR-07105KL" H 0   0   50  0001 C CNN "Manufacturer_No2"
F 11 "CRCW0402105KFKED" H 0   0   50  0001 C CNN "Manufacturer_No3"
	1    8825 2050
	1    0    0    -1  
$EndComp
$Comp
L V_Resistor:R0402_100k_1% R10
U 1 1 5EAF61C9
P 8700 4650
F 0 "R10" H 8700 4750 50  0000 C CNN
F 1 "100k" H 8700 4650 50  0000 C CNN
F 2 "AllModules:R0402_1" H 8700 4850 50  0001 C CNN
F 3 "" H 8700 4650 50  0001 C CNN
F 4 "RESISTOR 100K OHM, 0.063W, +/-1%, 0402" H 8700 4850 50  0001 C CNN "Description"
F 5 "10022149" H 8700 4850 50  0001 C CNN "Item Number"
F 6 "VISHAY_RMS1" H 0   0   50  0001 C CNN "Manufacturer"
F 7 "YAGEO_RMS1" H 0   0   50  0001 C CNN "Manufacturer2"
F 8 "YAGEO_RMS1" H 0   0   50  0001 C CNN "Manufacturer3"
F 9 "CRCW0402100KFKED" H 0   0   50  0001 C CNN "Manufacturer_No"
F 10 "RC0402FR-07100KL" H 0   0   50  0001 C CNN "Manufacturer_No2"
F 11 "RC0402FR-07100KL" H 0   0   50  0001 C CNN "Manufacturer_No3"
	1    8700 4650
	0    -1   -1   0   
$EndComp
Wire Wire Line
	11700 5000 11700 5500
Wire Wire Line
	11700 6400 11900 6400
Wire Wire Line
	12400 5500 12700 5500
Wire Wire Line
	12700 5500 12700 5900
Wire Wire Line
	12400 5900 12700 5900
Wire Wire Line
	12100 5900 11700 5900
Connection ~ 11700 5900
Wire Wire Line
	11700 5900 11700 6400
Wire Wire Line
	12100 5500 11700 5500
Connection ~ 11700 5500
Wire Wire Line
	11700 5500 11700 5900
Wire Wire Line
	11800 7200 11800 7350
Wire Wire Line
	11300 7200 11300 7350
Wire Wire Line
	11300 7350 11800 7350
Connection ~ 11800 7350
Wire Wire Line
	11800 7350 11800 7500
Wire Wire Line
	11300 6900 11300 6600
Wire Wire Line
	11300 6600 11800 6600
Wire Wire Line
	11800 6900 11800 6600
Connection ~ 11800 6600
Wire Wire Line
	11800 6600 11900 6600
Wire Wire Line
	11300 5300 11300 6600
Connection ~ 11300 6600
Wire Wire Line
	11700 4700 11700 3000
Wire Wire Line
	11700 3000 12000 3000
Wire Wire Line
	12000 3000 12000 2800
Wire Wire Line
	11000 2800 11000 3000
Wire Wire Line
	11000 3000 11500 3000
Connection ~ 11700 3000
Wire Wire Line
	11300 5000 11300 2000
Wire Wire Line
	12000 2200 12000 2000
Wire Wire Line
	12000 2000 11500 2000
Wire Wire Line
	11000 2000 11000 2200
Wire Wire Line
	11500 2600 11500 3000
Connection ~ 11500 3000
Wire Wire Line
	11500 3000 11700 3000
Wire Wire Line
	11500 2300 11500 2000
Connection ~ 11500 2000
Wire Wire Line
	11500 2000 11300 2000
Connection ~ 11300 2000
Wire Wire Line
	11300 2000 11000 2000
Wire Wire Line
	14350 2400 14550 2400
Connection ~ 14350 2400
Wire Wire Line
	14850 2400 15000 2400
Wire Wire Line
	15000 2400 15000 4300
$Comp
L V_Resistor:R0402_1k_1% R8
U 1 1 5EE632F2
P 7800 4650
F 0 "R8" H 7800 4750 50  0000 C CNN
F 1 "1k" H 7800 4650 50  0000 C CNN
F 2 "AllModules:R0402_1" H 7800 4850 50  0001 C CNN
F 3 "" H 7800 4650 50  0001 C CNN
F 4 "RESISTOR, 1 KOHM, 0.063W,+/-1%, 0402" H 7800 4850 50  0001 C CNN "Description"
F 5 "10022153" H 7800 4850 50  0001 C CNN "Item Number"
F 6 "YAGEO_RMS1" H 0   0   50  0001 C CNN "Manufacturer"
F 7 "YAGEO_RMS1" H 0   0   50  0001 C CNN "Manufacturer2"
F 8 "VISHAY_RMS1" H 0   0   50  0001 C CNN "Manufacturer3"
F 9 "RC0402FR-071KL" H 0   0   50  0001 C CNN "Manufacturer_No"
F 10 "RC0402FR-071KL" H 0   0   50  0001 C CNN "Manufacturer_No2"
F 11 "CRCW04021K00FKED" H 0   0   50  0001 C CNN "Manufacturer_No3"
	1    7800 4650
	0    1    1    0   
$EndComp
$Comp
L V_Resistor:R0402_100k_1% R1
U 1 1 5EE68B27
P 4900 3250
F 0 "R1" H 4900 3350 50  0000 C CNN
F 1 "100k" H 4900 3250 50  0000 C CNN
F 2 "AllModules:R0402_1" H 4900 3450 50  0001 C CNN
F 3 "" H 4900 3250 50  0001 C CNN
F 4 "RESISTOR 100K OHM, 0.063W, +/-1%, 0402" H 4900 3450 50  0001 C CNN "Description"
F 5 "10022149" H 4900 3450 50  0001 C CNN "Item Number"
F 6 "VISHAY_RMS1" H 0   0   50  0001 C CNN "Manufacturer"
F 7 "YAGEO_RMS1" H 0   0   50  0001 C CNN "Manufacturer2"
F 8 "YAGEO_RMS1" H 0   0   50  0001 C CNN "Manufacturer3"
F 9 "CRCW0402100KFKED" H 0   0   50  0001 C CNN "Manufacturer_No"
F 10 "RC0402FR-07100KL" H 0   0   50  0001 C CNN "Manufacturer_No2"
F 11 "RC0402FR-07100KL" H 0   0   50  0001 C CNN "Manufacturer_No3"
	1    4900 3250
	0    -1   -1   0   
$EndComp
$Comp
L V_Resistor:R0402_10k_1% R4
U 1 1 5EE69FB2
P 5250 2900
F 0 "R4" H 5250 3000 50  0000 C CNN
F 1 "10k" H 5250 2900 50  0000 C CNN
F 2 "AllModules:R0402_1" H 5250 3100 50  0001 C CNN
F 3 "" H 5250 2900 50  0001 C CNN
F 4 "RESISTOR,10K OHM, 0.063W, +/-1%, 0402" H 5250 3100 50  0001 C CNN "Description"
F 5 "10022150" H 5250 3100 50  0001 C CNN "Item Number"
F 6 "YAGEO_RMS1" H 0   0   50  0001 C CNN "Manufacturer"
F 7 "VISHAY_RMS1" H 0   0   50  0001 C CNN "Manufacturer2"
F 8 "YAGEO_RMS1" H 0   0   50  0001 C CNN "Manufacturer3"
F 9 "RC0402FR-0710KL" H 0   0   50  0001 C CNN "Manufacturer_No"
F 10 "CRCW040210K0FKED" H 0   0   50  0001 C CNN "Manufacturer_No2"
F 11 "RC0402FR-0710KL" H 0   0   50  0001 C CNN "Manufacturer_No3"
	1    5250 2900
	-1   0    0    1   
$EndComp
$Comp
L V_Resistor:R0402_10k_1% R5
U 1 1 5EE6DF49
P 5750 2900
F 0 "R5" H 5750 3000 50  0000 C CNN
F 1 "10k" H 5750 2900 50  0000 C CNN
F 2 "AllModules:R0402_1" H 5750 3100 50  0001 C CNN
F 3 "" H 5750 2900 50  0001 C CNN
F 4 "RESISTOR,10K OHM, 0.063W, +/-1%, 0402" H 5750 3100 50  0001 C CNN "Description"
F 5 "10022150" H 5750 3100 50  0001 C CNN "Item Number"
F 6 "YAGEO_RMS1" H 0   0   50  0001 C CNN "Manufacturer"
F 7 "VISHAY_RMS1" H 0   0   50  0001 C CNN "Manufacturer2"
F 8 "YAGEO_RMS1" H 0   0   50  0001 C CNN "Manufacturer3"
F 9 "RC0402FR-0710KL" H 0   0   50  0001 C CNN "Manufacturer_No"
F 10 "CRCW040210K0FKED" H 0   0   50  0001 C CNN "Manufacturer_No2"
F 11 "RC0402FR-0710KL" H 0   0   50  0001 C CNN "Manufacturer_No3"
	1    5750 2900
	-1   0    0    1   
$EndComp
Wire Wire Line
	4900 3500 4900 3400
Wire Wire Line
	5100 2900 4900 2900
Wire Wire Line
	4900 2900 4900 3100
Connection ~ 4900 2900
Wire Wire Line
	4900 2900 4000 2900
Text Label 4900 2600 2    50   ~ 0
TESTBUZ
Text Label 4900 2750 2    50   ~ 0
STOP-INV
Wire Wire Line
	3500 7700 2600 7700
Wire Wire Line
	3500 7800 2600 7800
Wire Wire Line
	2600 7900 3500 7900
Text Label 2600 7700 0    50   ~ 0
SUPPLY-BUZ
Text Label 2600 7900 0    50   ~ 0
INHIB-STOP-INV
Text Label 2600 7800 0    50   ~ 0
STOP-INV
Wire Wire Line
	12700 6600 12700 6500
Connection ~ 12700 5900
Wire Wire Line
	12500 6500 12700 6500
Connection ~ 12700 6500
Wire Wire Line
	12700 6500 12700 5900
Wire Wire Line
	13100 7000 12700 7000
Wire Wire Line
	12700 7000 12700 6900
Wire Wire Line
	12700 7000 12500 7000
Wire Wire Line
	12500 7000 12500 7200
Connection ~ 12700 7000
Wire Wire Line
	12500 7500 12500 7600
Text Label 12100 7000 0    50   ~ 0
BUZ-ACT
Wire Wire Line
	12500 7000 12100 7000
Connection ~ 12500 7000
Text Label 12750 7900 0    50   ~ 0
VBAT
Wire Wire Line
	13100 7900 12750 7900
Wire Wire Line
	13500 7900 13500 8100
Connection ~ 13500 7900
Wire Wire Line
	13500 7900 13600 7900
Wire Wire Line
	13500 8400 13500 8500
Text Label 14350 7900 2    50   ~ 0
VCHARG
Wire Wire Line
	14000 7900 14350 7900
Text Label 5600 7800 2    50   ~ 0
VBAT
Wire Wire Line
	5000 7800 5600 7800
Text Label 5600 7700 2    50   ~ 0
BUZ-ACT
Wire Wire Line
	5000 7700 5600 7700
Text Label 5600 7900 2    50   ~ 0
VCHARG
Wire Wire Line
	5000 7900 5600 7900
Wire Wire Line
	14700 7100 15200 7100
Text Label 15200 7100 2    50   ~ 0
TESTBUZ
Connection ~ 14700 7100
$Comp
L V_Connector:Fiducial J2
U 1 1 5EA28D60
P 7150 7500
F 0 "J2" H 7150 7700 50  0000 C CNN
F 1 "MIRECMS" H 7150 7625 50  0000 C CNN
F 2 "AllModules:MIRECMS-SAFT_1" H 7150 7500 50  0001 C CNN
F 3 "" H 7150 7500 50  0001 C CNN
F 4 "" H 0   0   50  0001 C CNN "Description"
F 5 "" H 0   0   50  0001 C CNN "Item Number"
F 6 "" H 0   0   50  0001 C CNN "Manufacturer"
F 7 "" H 0   0   50  0001 C CNN "Manufacturer_No"
	1    7150 7500
	1    0    0    -1  
$EndComp
$Comp
L V_Mechanical:Fiducial J3
U 1 1 5EA29F64
P 7150 7900
F 0 "J3" H 7150 8100 50  0000 C CNN
F 1 "MIRECMS" H 7150 8025 50  0000 C CNN
F 2 "AllModules:MIRECMS-SAFT_1" H 7150 7900 50  0001 C CNN
F 3 "~" H 7150 7900 50  0001 C CNN
	1    7150 7900
	1    0    0    -1  
$EndComp
Text Notes 6800 7100 0    100  ~ 0
FIDUCIALS
$Comp
L V_Power:PWR_FLAG #FLG0103
U 1 1 5EA400AD
P 3850 3900
F 0 "#FLG0103" H 3850 3975 50  0001 C CNN
F 1 "PWR_FLAG" H 3850 4073 50  0000 C CNN
F 2 "" H 3850 3900 50  0001 C CNN
F 3 "" H 3850 3900 50  0001 C CNN
	1    3850 3900
	-1   0    0    1   
$EndComp
$Comp
L V_Power:PWR_FLAG #FLG0105
U 1 1 5EA6C177
P 4150 3200
F 0 "#FLG0105" H 4150 3275 50  0001 C CNN
F 1 "PWR_FLAG" H 4100 3350 50  0000 L CNN
F 2 "" H 4150 3200 50  0001 C CNN
F 3 "" H 4150 3200 50  0001 C CNN
	1    4150 3200
	1    0    0    -1  
$EndComp
Text Label 4900 2450 2    50   ~ 0
INHIB-STOP-INV
Text Label 4900 2300 2    50   ~ 0
SUPPLY-BUZ
Wire Wire Line
	4900 2450 4000 2450
Wire Wire Line
	3100 2300 4900 2300
$Comp
L V_Resistor:R0402_150k_1% R18
U 1 1 5EA9EA69
P 11300 7050
F 0 "R18" H 11300 7150 50  0000 C CNN
F 1 "150k" H 11300 7050 50  0000 C CNN
F 2 "AllModules:R0402_1" H 11300 7250 50  0001 C CNN
F 3 "" H 11300 7050 50  0001 C CNN
F 4 "RESISTOR, 150 KOHM,+/-1%,0.063W,0402" H 11300 7250 50  0001 C CNN "Description"
F 5 "10022881" H 11300 7250 50  0001 C CNN "Item Number"
F 6 "YAGEO_RMS1" H 0   0   50  0001 C CNN "Manufacturer"
F 7 "YAGEO_RMS1" H 0   0   50  0001 C CNN "Manufacturer2"
F 8 "VISHAY_RMS1" H 0   0   50  0001 C CNN "Manufacturer3"
F 9 "232270671504L" H 0   0   50  0001 C CNN "Manufacturer_No"
F 10 "RC0402FR-07150KL" H 0   0   50  0001 C CNN "Manufacturer_No2"
F 11 "CRCW0402150KFKED" H 0   0   50  0001 C CNN "Manufacturer_No3"
	1    11300 7050
	0    -1   -1   0   
$EndComp
$Comp
L V_Transistor:BC857 T4
U 1 1 5ED1DCB7
P 13000 3200
F 0 "T4" H 13200 3275 50  0000 L CNN
F 1 "BC857" H 13200 3200 50  0000 L CNN
F 2 "AllModules:SOT23-BEC_1" H 13200 3125 50  0001 L CIN
F 3 "" H 13000 3200 50  0001 L CNN
F 4 "TRANSISTOR, BIPOLAR, PNP, 45V, 100MA, SOT23" H 0   0   50  0001 C CNN "Description"
F 5 "10024444" H 0   0   50  0001 C CNN "Item Number"
F 6 "NXP SEMICONDUCTORS_RMS1" H 0   0   50  0001 C CNN "Manufacturer"
F 7 "NXP SEMICONDUCTORS_RMS1" H 0   0   50  0001 C CNN "Manufacturer2"
F 8 "BC857,215" H 0   0   50  0001 C CNN "Manufacturer_No"
F 9 "BC857" H 0   0   50  0001 C CNN "Manufacturer_No2"
	1    13000 3200
	-1   0    0    -1  
$EndComp
$Comp
L V_Transistor:BC847 T3
U 1 1 5ED662DA
P 13000 1800
F 0 "T3" H 13200 1875 50  0000 L CNN
F 1 "BC847" H 13200 1800 50  0000 L CNN
F 2 "AllModules:SOT23-BEC_1" H 13200 1725 50  0001 L CIN
F 3 "" H 13000 1800 50  0001 L CNN
F 4 "10024443" H 13200 1950 50  0001 L CNN "Item Number"
F 5 "TRANSISTOR, BIPOLAR, NPN, 45V, 100MA, SOT23" H 0   0   50  0001 C CNN "Description"
F 6 "NXP SEMICONDUCTORS_RMS1" H 0   0   50  0001 C CNN "Manufacturer"
F 7 "NXP SEMICONDUCTORS_RMS1" H 0   0   50  0001 C CNN "Manufacturer2"
F 8 "BC847,215" H 0   0   50  0001 C CNN "Manufacturer_No"
F 9 "BC847" H 0   0   50  0001 C CNN "Manufacturer_No2"
	1    13000 1800
	-1   0    0    -1  
$EndComp
Wire Wire Line
	3050 6250 3300 6250
Wire Wire Line
	4250 3300 4250 3425
Wire Wire Line
	1475 5350 1725 5350
Wire Wire Line
	10500 2300 10500 2500
Wire Wire Line
	10500 2500 10800 2500
Wire Wire Line
	10500 2700 10500 2500
Connection ~ 10500 2500
Wire Wire Line
	9900 2500 10300 2500
Wire Wire Line
	10300 2300 10300 2500
$Comp
L V_Diode:BAT54S D4
U 1 1 5EBC356D
P 12000 2500
F 0 "D4" V 12125 2300 50  0000 L CNN
F 1 "BAT54S" V 11875 2575 50  0000 L CNN
F 2 "AllModules:SOT23-1G_1" H 12075 2625 50  0001 L CNN
F 3 "https://assets.nexperia.com/documents/data-sheet/BAT54_SER.pdf" H 11880 2500 50  0001 C CNN
F 4 "10022518" H 12000 2700 50  0001 C CNN "Item Number"
F 5 "DIODE SCHOTTKY, 200MA,30V,SOD23DIO" H 0   0   50  0001 C CNN "Description"
F 6 "NXP SEMICONDUCTORS_RMS1" H 0   0   50  0001 C CNN "Manufacturer"
F 7 "BAT54S,215" H 0   0   50  0001 C CNN "Manufacturer_No"
F 8 "NXP SEMICONDUCTORS_RMS1" H 0   0   50  0001 C CNN "Manufacturer2"
F 9 "BAT54S" H 0   0   50  0001 C CNN "Manufacturer_No2"
	1    12000 2500
	0    1    -1   0   
$EndComp
$Comp
L V_Diode:BAT54S D3
U 1 1 5EBCBDC4
P 11000 2500
F 0 "D3" V 11125 2300 50  0000 L CNN
F 1 "BAT54S" V 10875 2575 50  0000 L CNN
F 2 "AllModules:SOT23-1G_1" H 11075 2625 50  0001 L CNN
F 3 "https://assets.nexperia.com/documents/data-sheet/BAT54_SER.pdf" H 10880 2500 50  0001 C CNN
F 4 "10022518" H 11000 2700 50  0001 C CNN "Item Number"
F 5 "DIODE SCHOTTKY, 200MA,30V,SOD23DIO" H 0   0   50  0001 C CNN "Description"
F 6 "NXP SEMICONDUCTORS_RMS1" H 0   0   50  0001 C CNN "Manufacturer"
F 7 "NXP SEMICONDUCTORS_RMS1" H 0   0   50  0001 C CNN "Manufacturer2"
F 8 "BAT54S,215" H 0   0   50  0001 C CNN "Manufacturer_No"
F 9 "BAT54S" H 0   0   50  0001 C CNN "Manufacturer_No2"
	1    11000 2500
	0    -1   -1   0   
$EndComp
$Comp
L V_Inductor:BK3216xxxxx FI1
U 1 1 5EB5F4EF
P 3700 2700
F 0 "FI1" H 3575 3100 50  0000 L BNN
F 1 "BK32164M102-T" H 3400 2300 50  0000 L BNN
F 2 "AllModules:WE-FA_1" H 3300 2200 50  0001 L BNN
F 3 "" H 3400 1650 50  0001 L BNN
F 4 "10099024" H 3500 3175 50  0001 L BNN "Item Number"
F 5 "FERRITE, 1K AT 100MHZ, 0.8 OHM, 50MA" H 0   0   50  0001 C CNN "Description"
F 6 "TAIYO YUDEN_RMS1" H 0   0   50  0001 C CNN "Manufacturer"
F 7 "VISHAY_RMS1" H 0   0   50  0001 C CNN "Manufacturer2"
F 8 "BK32164M102-T" H 0   0   50  0001 C CNN "Manufacturer_No"
F 9 "ILAS-1206-ER-102V" H 0   0   50  0001 C CNN "Manufacturer_No2"
	1    3700 2700
	1    0    0    -1  
$EndComp
Text Label 4900 2900 2    50   ~ 0
PWM-BUZ
Text Label 2050 2200 0    50   ~ 0
INHIB-STOP-INV-CPU
Text Label 2050 2300 0    50   ~ 0
SUPPLY-BUZ-CPU
Text Label 2050 2400 0    50   ~ 0
TEST-BUZZER-CPU
Text Label 2050 2500 0    50   ~ 0
STOP-INV-CPU
Text Label 2050 2600 0    50   ~ 0
PWM-BUZZER-CPU
Text Label 2050 2700 0    50   ~ 0
+5V_CPU
Wire Wire Line
	4150 3200 4150 3300
Connection ~ 4150 3300
Wire Wire Line
	4150 3300 4250 3300
$Comp
L V_Diode:BAT54C D2
U 1 1 5F042781
P 7500 4300
F 0 "D2" H 7350 4525 50  0000 L CNN
F 1 "BAT54C" H 7250 4300 50  0000 C CNN
F 2 "AllModules:SOT23-1G_1" H 7625 4350 50  0001 L CNN
F 3 "" H 7420 4400 50  0001 C CNN
F 4 "10022653" H 7700 4425 40  0001 C CNN "Item Number"
F 5 "DIODE SCHOTTKY DOUBLE,30V, 200MA,SOT23" H 0   0   50  0001 C CNN "Description"
F 6 "NXP SEMICONDUCTORS_RMS1" H 0   0   50  0001 C CNN "Manufacturer"
F 7 "NXP SEMICONDUCTORS_RMS1" H 0   0   50  0001 C CNN "Manufacturer2"
F 8 "BAT54C,215" H 0   0   50  0001 C CNN "Manufacturer_No"
F 9 "BAT54C" H 0   0   50  0001 C CNN "Manufacturer_No2"
	1    7500 4300
	1    0    0    1   
$EndComp
Wire Wire Line
	3850 3900 3850 3800
Connection ~ 3850 3800
Wire Wire Line
	4600 4500 4000 4500
Connection ~ 4600 4500
Wire Wire Line
	4600 4800 4600 4500
Wire Wire Line
	5000 5500 5000 5600
Connection ~ 5000 5500
Wire Wire Line
	4600 5500 4600 5100
Wire Wire Line
	5000 5500 4600 5500
$Comp
L V_Resistor:R0402_51k1_1% R7
U 1 1 5EE6575D
P 6600 5450
F 0 "R7" H 6600 5550 50  0000 C CNN
F 1 "51.1k" H 6600 5450 50  0000 C CNN
F 2 "AllModules:R0402_1" H 6600 5650 50  0001 C CNN
F 3 "" H 6600 5450 50  0001 C CNN
F 4 "RESISTOR, 51.1 KOHM, 0.063W, +/-1%,0402" H 6600 5650 50  0001 C CNN "Description"
F 5 "10022152" H 6600 5650 50  0001 C CNN "Item Number"
F 6 "YAGEO_RMS1" H 0   0   50  0001 C CNN "Manufacturer"
F 7 "VISHAY_RMS1" H 0   0   50  0001 C CNN "Manufacturer2"
F 8 "YAGEO_RMS1" H 0   0   50  0001 C CNN "Manufacturer3"
F 9 "RC0402FR-0751K1L" H 0   0   50  0001 C CNN "Manufacturer_No"
F 10 "CRCW040251K1FKED" H 0   0   50  0001 C CNN "Manufacturer_No2"
F 11 "RC0402FR-0751K1L" H 0   0   50  0001 C CNN "Manufacturer_No3"
	1    6600 5450
	0    -1   -1   0   
$EndComp
Wire Wire Line
	5700 5400 5700 5500
$Comp
L V_IC:LMC7211 IC1
U 1 1 5ED9EC08
P 5800 5100
F 0 "IC1" H 5800 5300 50  0000 L CNN
F 1 "LMC7211" H 5800 4900 50  0000 L CNN
F 2 "AllModules:SOT23-5_1" H 5975 5050 50  0001 L CNN
F 3 "" H 5800 5100 50  0001 C CNN
F 4 "10099025" H 5975 5400 50  0001 C CNN "Item Number"
F 5 "VOLTAGE COMPARATOR" H 0   0   50  0001 C CNN "Description"
F 6 "NATIONAL SEMICONDUCTOR_RMS1" H 0   0   50  0001 C CNN "Manufacturer"
F 7 "NATIONAL SEMICONDUCTOR_RMS1" H 0   0   50  0001 C CNN "Manufacturer2"
F 8 "LMC7211AIM5 NOPB" H 0   0   50  0001 C CNN "Manufacturer_No"
F 9 "LMC7211BIM5 NOPB" H 0   0   50  0001 C CNN "Manufacturer_No2"
	1    5800 5100
	1    0    0    -1  
$EndComp
Text Label 4000 4500 0    50   ~ 0
SUPPLY-BUZ
$Comp
L V_Resistor:R0402_100k_1% R3
U 1 1 5EAFA9E8
P 5000 5250
F 0 "R3" H 5000 5350 50  0000 C CNN
F 1 "100k" H 5000 5250 50  0000 C CNN
F 2 "AllModules:R0402_1" H 5000 5450 50  0001 C CNN
F 3 "" H 5000 5250 50  0001 C CNN
F 4 "RESISTOR 100K OHM, 0.063W, +/-1%, 0402" H 5000 5450 50  0001 C CNN "Description"
F 5 "10022149" H 5000 5450 50  0001 C CNN "Item Number"
F 6 "VISHAY_RMS1" H 0   0   50  0001 C CNN "Manufacturer"
F 7 "YAGEO_RMS1" H 0   0   50  0001 C CNN "Manufacturer2"
F 8 "YAGEO_RMS1" H 0   0   50  0001 C CNN "Manufacturer3"
F 9 "CRCW0402100KFKED" H 0   0   50  0001 C CNN "Manufacturer_No"
F 10 "RC0402FR-07100KL" H 0   0   50  0001 C CNN "Manufacturer_No2"
F 11 "RC0402FR-07100KL" H 0   0   50  0001 C CNN "Manufacturer_No3"
	1    5000 5250
	0    -1   -1   0   
$EndComp
$Comp
L V_Resistor:R0402_100k_1% R2
U 1 1 5EAF8964
P 5000 4750
F 0 "R2" H 5000 4850 50  0000 C CNN
F 1 "100k" H 5000 4750 50  0000 C CNN
F 2 "AllModules:R0402_1" H 5000 4950 50  0001 C CNN
F 3 "" H 5000 4750 50  0001 C CNN
F 4 "RESISTOR 100K OHM, 0.063W, +/-1%, 0402" H 5000 4950 50  0001 C CNN "Description"
F 5 "10022149" H 5000 4950 50  0001 C CNN "Item Number"
F 6 "VISHAY_RMS1" H 0   0   50  0001 C CNN "Manufacturer"
F 7 "YAGEO_RMS1" H 0   0   50  0001 C CNN "Manufacturer2"
F 8 "YAGEO_RMS1" H 0   0   50  0001 C CNN "Manufacturer3"
F 9 "CRCW0402100KFKED" H 0   0   50  0001 C CNN "Manufacturer_No"
F 10 "RC0402FR-07100KL" H 0   0   50  0001 C CNN "Manufacturer_No2"
F 11 "RC0402FR-07100KL" H 0   0   50  0001 C CNN "Manufacturer_No3"
	1    5000 4750
	0    -1   -1   0   
$EndComp
Wire Wire Line
	5300 5000 5000 5000
Connection ~ 5300 5000
Connection ~ 6600 5100
Wire Wire Line
	5700 4500 5000 4500
Wire Wire Line
	5700 4800 5700 4500
Connection ~ 5000 4500
Wire Wire Line
	5000 4500 4600 4500
Wire Wire Line
	5000 4500 5000 4600
Wire Wire Line
	6600 5100 6600 5300
Wire Wire Line
	6100 5100 6600 5100
Wire Wire Line
	5350 5800 5350 5950
Connection ~ 5350 5800
Wire Wire Line
	6600 5800 6600 5600
Wire Wire Line
	5350 5800 6600 5800
Wire Wire Line
	5350 6350 5350 6250
Wire Wire Line
	5350 5200 5350 5800
Wire Wire Line
	5500 5200 5350 5200
$Comp
L V_Power:GND #PWR024
U 1 1 5EE6AC54
P 5350 6350
F 0 "#PWR024" H 5350 6100 50  0001 C CNN
F 1 "GND" H 5355 6177 50  0000 C CNN
F 2 "" H 5350 6350 50  0001 C CNN
F 3 "" H 5350 6350 50  0001 C CNN
	1    5350 6350
	1    0    0    -1  
$EndComp
$Comp
L V_Power:GND #PWR016
U 1 1 5EE6684B
P 5700 5500
F 0 "#PWR016" H 5700 5250 50  0001 C CNN
F 1 "GND" H 5705 5327 50  0000 C CNN
F 2 "" H 5700 5500 50  0001 C CNN
F 3 "" H 5700 5500 50  0001 C CNN
	1    5700 5500
	1    0    0    -1  
$EndComp
Wire Wire Line
	5000 5400 5000 5500
$Comp
L V_Power:GND #PWR015
U 1 1 5EE5EBD1
P 5000 5600
F 0 "#PWR015" H 5000 5350 50  0001 C CNN
F 1 "GND" H 5005 5427 50  0000 C CNN
F 2 "" H 5000 5600 50  0001 C CNN
F 3 "" H 5000 5600 50  0001 C CNN
	1    5000 5600
	1    0    0    -1  
$EndComp
Connection ~ 5000 5000
Wire Wire Line
	5000 5100 5000 5000
Wire Wire Line
	5000 5000 5000 4900
Wire Wire Line
	5500 5000 5300 5000
$Comp
L V_Capacitor:C0805_10nF_16V_2% C3
U 1 1 5E8D63CA
P 5350 6100
F 0 "C3" H 5235 6054 50  0000 R CNN
F 1 "10nF" H 5235 6145 50  0000 R CNN
F 2 "AllModules:C0805_1b" H 5388 5950 50  0001 C CNN
F 3 "" H 5350 6100 50  0001 C CNN
F 4 "CAPACITOR, 10NF, 16V +/2%, 0805" H 0   0   50  0001 C CNN "Description"
F 5 "10022958" H 0   0   50  0001 C CNN "Item Number"
F 6 "PANASONIC_RMS1" H 0   0   50  0001 C CNN "Manufacturer"
F 7 "ECHU1C103GX5" H 0   0   50  0001 C CNN "Manufacturer_No"
	1    5350 6100
	-1   0    0    1   
$EndComp
$Comp
L V_Capacitor:C0402_100nF_16V_10% C5
U 1 1 5E8CCB59
P 4600 4950
F 0 "C5" V 4525 5025 50  0000 L CNN
F 1 "100nF" V 4750 4850 50  0000 L CNN
F 2 "AllModules:C0402_1b" H 4638 4800 50  0001 C CNN
F 3 "" H 4600 4950 50  0001 C CNN
F 4 "CAPACITOR,100NF,16V,+/-10%,X7R,0402" H 0   0   50  0001 C CNN "Description"
F 5 "10022607" H 0   0   50  0001 C CNN "Item Number"
F 6 "MURATA" H 0   0   50  0001 C CNN "Manufacturer"
F 7 "YAGEO_RMS1" H 0   0   50  0001 C CNN "Manufacturer2"
F 8 "YAGEO_RMS1" H 0   0   50  0001 C CNN "Manufacturer3"
F 9 "GRM155R71C104JA88J" H 0   0   50  0001 C CNN "Manufacturer_No"
F 10 "CC0402KRX7R7BB104" H 0   0   50  0001 C CNN "Manufacturer_No2"
F 11 "CC0402KRX7R7BB104" H 0   0   50  0001 C CNN "Manufacturer_No3"
	1    4600 4950
	1    0    0    -1  
$EndComp
Wire Wire Line
	6000 4200 6600 4200
Wire Wire Line
	5300 4200 5300 5000
Wire Wire Line
	5700 4200 5300 4200
$Comp
L V_Resistor:R0402_59k_1% R6
U 1 1 5EE74830
P 5850 4200
F 0 "R6" H 5850 4300 50  0000 C CNN
F 1 "59k" H 5850 4200 50  0000 C CNN
F 2 "AllModules:R0402_1" H 5850 4400 50  0001 C CNN
F 3 "" H 5850 4200 50  0001 C CNN
F 4 "RESISTOR 59 KOHMS, 0.063W, +/-1% 0402" H 5850 4400 50  0001 C CNN "Description"
F 5 "10022151" H 5850 4400 50  0001 C CNN "Item Number"
F 6 "VISHAY_RMS1" H 0   0   50  0001 C CNN "Manufacturer"
F 7 "YAGEO_RMS1" H 0   0   50  0001 C CNN "Manufacturer2"
F 8 "YAGEO_RMS1" H 0   0   50  0001 C CNN "Manufacturer3"
F 9 "CRCW040259K0FKED" H 0   0   50  0001 C CNN "Manufacturer_No"
F 10 "RC0402FR-0759KL" H 0   0   50  0001 C CNN "Manufacturer_No2"
F 11 "RC0402FR-0759KL" H 0   0   50  0001 C CNN "Manufacturer_No3"
	1    5850 4200
	1    0    0    -1  
$EndComp
$Comp
L V_Transistor:BC847 T1
U 1 1 5EB8903A
P 9800 1700
F 0 "T1" H 10000 1775 50  0000 L CNN
F 1 "BC847" H 10000 1700 50  0000 L CNN
F 2 "AllModules:SOT23-BEC_1" H 10000 1625 50  0001 L CIN
F 3 "" H 9800 1700 50  0001 L CNN
F 4 "10024443" H 10000 1850 50  0001 L CNN "Item Number"
F 5 "TRANSISTOR, BIPOLAR, NPN, 45V, 100MA, SOT23" H 0   0   50  0001 C CNN "Description"
F 6 "NXP SEMICONDUCTORS_RMS1" H 0   0   50  0001 C CNN "Manufacturer"
F 7 "NXP SEMICONDUCTORS_RMS1" H 0   0   50  0001 C CNN "Manufacturer2"
F 8 "BC847,215" H 0   0   50  0001 C CNN "Manufacturer_No"
F 9 "BC847" H 0   0   50  0001 C CNN "Manufacturer_No2"
	1    9800 1700
	1    0    0    -1  
$EndComp
$Comp
L V_Transistor:BC857 T2
U 1 1 5EB8423D
P 9800 3200
F 0 "T2" H 10000 3275 50  0000 L CNN
F 1 "BC857" H 10000 3200 50  0000 L CNN
F 2 "AllModules:SOT23-BEC_1" H 10000 3125 50  0001 L CIN
F 3 "" H 9800 3200 50  0001 L CNN
F 4 "TRANSISTOR, BIPOLAR, PNP, 45V, 100MA, SOT23" H 0   0   50  0001 C CNN "Description"
F 5 "10024444" H 0   0   50  0001 C CNN "Item Number"
F 6 "NXP SEMICONDUCTORS_RMS1" H 0   0   50  0001 C CNN "Manufacturer"
F 7 "NXP SEMICONDUCTORS_RMS1" H 0   0   50  0001 C CNN "Manufacturer2"
F 8 "BC857,215" H 0   0   50  0001 C CNN "Manufacturer_No"
F 9 "BC857" H 0   0   50  0001 C CNN "Manufacturer_No2"
	1    9800 3200
	1    0    0    -1  
$EndComp
$Comp
L V_Resistor:R0402_470R_1% R12
U 1 1 5EAF15D6
P 9650 2400
F 0 "R12" H 9650 2500 50  0000 C CNN
F 1 "470" H 9650 2400 50  0000 C CNN
F 2 "AllModules:R0402_1" H 9650 2600 50  0001 C CNN
F 3 "" H 9650 2400 50  0001 C CNN
F 4 "RESISTOR, 470 OHM, 0.063W, +/-1%, 0402" H 9650 2600 50  0001 C CNN "Description"
F 5 "10022156" H 9650 2600 50  0001 C CNN "Item Number"
F 6 "YAGEO_RMS1" H 0   0   50  0001 C CNN "Manufacturer"
F 7 "YAGEO_RMS1" H 0   0   50  0001 C CNN "Manufacturer2"
F 8 "VISHAY_RMS1" H 0   0   50  0001 C CNN "Manufacturer3"
F 9 "RC0402FR-07470RL" H 0   0   50  0001 C CNN "Manufacturer_No"
F 10 "RC0402FR-07470RL" H 0   0   50  0001 C CNN "Manufacturer_No2"
F 11 "CRCW0402470RFKED" H 0   0   50  0001 C CNN "Manufacturer_No3"
	1    9650 2400
	1    0    0    -1  
$EndComp
$Comp
L V_Resistor:R0402_1R5_1% R14
U 1 1 5EAF08D9
P 9900 2750
F 0 "R14" H 9900 2850 50  0000 C CNN
F 1 "1.5" H 9900 2750 50  0000 C CNN
F 2 "AllModules:R0402_1" H 9900 2950 50  0001 C CNN
F 3 "" H 9900 2750 50  0001 C CNN
F 4 "RESISTOR, 1.5 OHM,+/-1%,0.063W,0402" H 9900 2950 50  0001 C CNN "Description"
F 5 "10022725" H 9900 2950 50  0001 C CNN "Item Number"
F 6 "YAGEO_RMS1" H 0   0   50  0001 C CNN "Manufacturer"
F 7 "YAGEO_RMS1" H 0   0   50  0001 C CNN "Manufacturer2"
F 8 "VISHAY_RMS1" H 0   0   50  0001 C CNN "Manufacturer3"
F 9 "RC0402FR-071R5L" H 0   0   50  0001 C CNN "Manufacturer_No"
F 10 "RC0402FR-071R5L" H 0   0   50  0001 C CNN "Manufacturer_No2"
F 11 "CRCW04021R50FKED" H 0   0   50  0001 C CNN "Manufacturer_No3"
	1    9900 2750
	0    -1   -1   0   
$EndComp
$Comp
L V_Resistor:R0402_1R5_1% R13
U 1 1 5EAEECA2
P 9900 2150
F 0 "R13" H 9900 2250 50  0000 C CNN
F 1 "1.5" H 9900 2150 50  0000 C CNN
F 2 "AllModules:R0402_1" H 9900 2350 50  0001 C CNN
F 3 "" H 9900 2150 50  0001 C CNN
F 4 "RESISTOR, 1.5 OHM,+/-1%,0.063W,0402" H 9900 2350 50  0001 C CNN "Description"
F 5 "10022725" H 9900 2350 50  0001 C CNN "Item Number"
F 6 "YAGEO_RMS1" H 0   0   50  0001 C CNN "Manufacturer"
F 7 "YAGEO_RMS1" H 0   0   50  0001 C CNN "Manufacturer2"
F 8 "VISHAY_RMS1" H 0   0   50  0001 C CNN "Manufacturer3"
F 9 "RC0402FR-071R5L" H 0   0   50  0001 C CNN "Manufacturer_No"
F 10 "RC0402FR-071R5L" H 0   0   50  0001 C CNN "Manufacturer_No2"
F 11 "CRCW04021R50FKED" H 0   0   50  0001 C CNN "Manufacturer_No3"
	1    9900 2150
	0    -1   -1   0   
$EndComp
$Comp
L V_Power:+12V #PWR02
U 1 1 5EB6F4DC
P 9900 1400
F 0 "#PWR02" H 9900 1250 50  0001 C CNN
F 1 "+12V" H 9915 1573 50  0000 C CNN
F 2 "" H 9900 1400 50  0001 C CNN
F 3 "" H 9900 1400 50  0001 C CNN
	1    9900 1400
	1    0    0    -1  
$EndComp
Connection ~ 10300 2500
Wire Wire Line
	10300 2500 10300 2700
Wire Wire Line
	9900 2300 9900 2400
Connection ~ 9900 2500
Wire Wire Line
	9900 2500 9900 2600
Wire Wire Line
	9800 2400 9900 2400
Connection ~ 9900 2400
Wire Wire Line
	9900 2400 9900 2500
Wire Wire Line
	9500 2400 9300 2400
Connection ~ 9300 2400
Wire Wire Line
	9300 2400 9300 2500
Wire Wire Line
	9900 1900 9900 2000
Wire Wire Line
	9600 1700 9300 1700
Wire Wire Line
	9300 1700 9300 2050
Connection ~ 9300 2050
Wire Wire Line
	9900 1400 9900 1500
Wire Wire Line
	9300 2500 9300 3200
Wire Wire Line
	9300 3200 9600 3200
Connection ~ 9300 2500
Wire Wire Line
	9900 2900 9900 3000
Wire Wire Line
	9900 3400 9900 3500
Wire Wire Line
	8700 4500 8700 4300
Wire Wire Line
	8700 4900 8700 4800
Wire Wire Line
	6600 4200 6600 5000
Wire Wire Line
	6600 5000 7000 5000
Wire Wire Line
	7000 5000 7000 4400
Wire Wire Line
	7000 4400 7200 4400
Connection ~ 6600 5000
Wire Wire Line
	6600 5000 6600 5100
Wire Wire Line
	7150 4200 7200 4200
Wire Wire Line
	7150 3475 7150 4200
Wire Wire Line
	8200 4300 8400 4300
Connection ~ 8400 4300
Wire Wire Line
	7800 4500 7800 4300
Wire Wire Line
	7700 4300 7800 4300
Connection ~ 7800 4300
Wire Wire Line
	7800 4300 7900 4300
Wire Wire Line
	7800 4800 7800 4900
Connection ~ 8700 4300
Wire Wire Line
	8700 4300 15000 4300
Wire Wire Line
	8400 4300 8700 4300
$Comp
L V_Buzzer:Buzzer BUZ2
U 1 1 5F18A730
P 10400 2800
F 0 "BUZ2" V 10575 2800 50  0000 C CNN
F 1 "PKM33EPH" V 10650 2800 50  0000 C CNN
F 2 "AllModules:PKM33EPH-1201C_1" H 10425 2625 50  0001 C CNN
F 3 "" V 10375 2900 50  0001 C CNN
F 4 "10022130" H 10400 3050 50  0001 C CNN "Item Number"
F 5 "BUZZER" H 0   0   50  0001 C CNN "Description"
F 6 "MURATA MANUFACTURING CO., LTD." H 0   0   50  0001 C CNN "Manufacturer"
F 7 "PKM33EPH1201C" H 0   0   50  0001 C CNN "Manufacturer_No"
	1    10400 2800
	0    -1   1    0   
$EndComp
NoConn ~ 10400 2700
$Comp
L V_Buzzer:Buzzer BUZ1
U 1 1 5F1A6F3E
P 10400 2200
F 0 "BUZ1" V 10575 2200 50  0000 C CNN
F 1 "PKM33EPH" V 10650 2200 50  0000 C CNN
F 2 "AllModules:PKM33EPH-1201C_1" H 10425 2025 50  0001 C CNN
F 3 "" V 10375 2300 50  0001 C CNN
F 4 "10022130" H 10400 2450 50  0001 C CNN "Item Number"
F 5 "BUZZER" H 0   0   50  0001 C CNN "Description"
F 6 "MURATA MANUFACTURING CO., LTD." H 0   0   50  0001 C CNN "Manufacturer"
F 7 "PKM33EPH1201C" H 0   0   50  0001 C CNN "Manufacturer_No"
	1    10400 2200
	0    -1   -1   0   
$EndComp
NoConn ~ 10400 2300
Text Notes 3475 2025 0    76   ~ 0
FI1 original part numbers:\nBourns MA3216-102M4 Preferred\nVishay ILAS-1206-ER-102V Alternate
$Comp
L V_Diode:MBRM120 D1
U 1 1 5ECDFA95
P 2950 2300
F 0 "D1" H 3075 2350 50  0000 C CNN
F 1 "NC" H 3075 2250 50  0000 C CNN
F 2 "AllModules:DO216AA_1" H 2950 2250 50  0001 C CNN
F 3 "" H 3050 2450 50  0001 C CNN
F 4 "10022140" H 2950 2500 50  0001 C CNN "Item Number"
F 5 "DIODE SCHOTTKY, 20V, 1A, DO216AA" H 0   0   50  0001 C CNN "Description"
F 6 "ON SEMICONDUCTOR_RMS1" H 0   0   50  0001 C CNN "Manufacturer"
F 7 "MBRM120LT1G" H 0   0   50  0001 C CNN "Manufacturer_No"
	1    2950 2300
	1    0    0    -1  
$EndComp
$Comp
L V_Diode:BZX84C2V7 D5
U 1 1 5ED68B8C
P 12500 7350
F 0 "D5" H 12500 7450 50  0000 C CNN
F 1 "BZX84C2V7" H 12500 7250 50  0000 C CNN
F 2 "AllModules:SOT23-1G_1" H 12500 7175 50  0001 C CNN
F 3 "" H 12500 7350 50  0001 C CNN
F 4 "10022139" H 12500 7550 50  0001 C CNN "Item Number"
F 5 "DIODE ZENER, 2.7V, 0.35W, SOT23" H 0   0   50  0001 C CNN "Description"
F 6 "NXP SEMICONDUCTORS_RMS1" H 0   0   50  0001 C CNN "Manufacturer"
F 7 "NXP SEMICONDUCTORS_RMS1" H 0   0   50  0001 C CNN "Manufacturer2"
F 8 "BZX84-C2V7" H 0   0   50  0001 C CNN "Manufacturer_No"
F 9 "BZX84-C2V7,215" H 0   0   50  0001 C CNN "Manufacturer_No2"
	1    12500 7350
	0    -1   -1   0   
$EndComp
$Sheet
S 3500 7600 1500 700 
U 5E89C6B8
F0 "GR106768_buzzer_charger" 50
F1 "GR106768_buzzer_charger.sch" 50
F2 "BUZ-ACT" I R 5000 7700 50 
F3 "SUPPLY-BUZ" O L 3500 7700 50 
F4 "STOP-INV" I L 3500 7800 50 
F5 "INHIB-STOP-INV" I L 3500 7900 50 
F6 "VBAT" O R 5000 7800 50 
F7 "VCHARG" O R 5000 7900 50 
$EndSheet
$Sheet
S 3500 8600 1500 700 
U 5EA82184
F0 "Vias and PTH" 50
F1 "Holes.sch" 50
$EndSheet
Wire Wire Line
	2600 3800 2200 3800
Connection ~ 2600 3800
Wire Wire Line
	2800 3800 2600 3800
Connection ~ 2800 3800
Wire Wire Line
	3000 3800 2800 3800
Connection ~ 3000 3800
Wire Wire Line
	3850 3800 3200 3800
Wire Wire Line
	3200 3800 3000 3800
Connection ~ 3200 3800
Wire Wire Line
	3200 2200 3200 2450
Wire Wire Line
	3200 2450 3400 2450
Connection ~ 3200 2450
Connection ~ 3000 2600
Wire Wire Line
	3000 2400 3000 2600
Wire Wire Line
	3400 2600 3000 2600
Wire Wire Line
	2800 2500 2800 2750
Wire Wire Line
	2800 2750 3400 2750
Connection ~ 2800 2750
Wire Wire Line
	2600 2600 2600 2900
Wire Wire Line
	3400 2900 2600 2900
Connection ~ 2600 2900
Wire Wire Line
	2600 3700 2600 3800
Wire Wire Line
	2800 3700 2800 3800
Wire Wire Line
	3000 3700 3000 3800
Wire Wire Line
	3200 3700 3200 3800
Wire Wire Line
	3000 2600 3000 3400
Wire Wire Line
	2600 3400 2600 2900
Wire Wire Line
	2800 3400 2800 2750
Wire Wire Line
	3200 3400 3200 2450
$Comp
L V_Power:-12V #PWR0105
U 1 1 5EB01B2E
P 9900 3500
F 0 "#PWR0105" H 9900 3600 50  0001 C CNN
F 1 "-12V" H 9900 3650 50  0000 C CNN
F 2 "" H 9900 3500 50  0001 C CNN
F 3 "" H 9900 3500 50  0001 C CNN
	1    9900 3500
	-1   0    0    1   
$EndComp
$Comp
L V_Power:-12V #PWR0106
U 1 1 5EB0B682
P 1475 6375
F 0 "#PWR0106" H 1475 6475 50  0001 C CNN
F 1 "-12V" H 1475 6525 50  0000 C CNN
F 2 "" H 1475 6375 50  0001 C CNN
F 3 "" H 1475 6375 50  0001 C CNN
	1    1475 6375
	-1   0    0    1   
$EndComp
$Comp
L V_Power:-12V #PWR0107
U 1 1 5EB0F511
P 3050 6375
F 0 "#PWR0107" H 3050 6475 50  0001 C CNN
F 1 "-12V" H 3050 6525 50  0000 C CNN
F 2 "" H 3050 6375 50  0001 C CNN
F 3 "" H 3050 6375 50  0001 C CNN
	1    3050 6375
	-1   0    0    1   
$EndComp
$Comp
L V_Capacitor:C0612_47pF_50V_10% C1
U 1 1 5EC82919
P 2900 3550
F 0 "C1" H 3400 3550 50  0000 C CNN
F 1 "47pF" H 3450 3450 50  0000 C CNN
F 2 "AllModules:C0612-4_1" H 2900 3550 50  0001 C CNN
F 3 "" H 2800 3550 50  0001 C CNN
F 4 "10095973" H 2925 3925 50  0001 C CNN "Item Number"
F 5 "CAPACITOR ARRAY, 47PF, 50V, +/-10%,NPO,0612" H 0   0   50  0001 C CNN "Description"
F 6 "AVX_RMS1" H 0   0   50  0001 C CNN "Manufacturer"
F 7 "YAGEO_RMS1" H 0   0   50  0001 C CNN "Manufacturer2"
F 8 "W3A45A470KAT2A" H 0   0   50  0001 C CNN "Manufacturer_No"
F 9 "CA0612JRNPO9BN470" H 0   0   50  0001 C CNN "Manufacturer_No2"
	1    2900 3550
	-1   0    0    -1  
$EndComp
$EndSCHEMATC
