EESchema Schematic File Version 4
EELAYER 30 0
EELAYER END
$Descr A3 16535 11693
encoding utf-8
Sheet 2 3
Title "GR106768 buzzer charger"
Date "2020-04-04"
Rev "1.0"
Comp ""
Comment1 ""
Comment2 ""
Comment3 ""
Comment4 ""
$EndDescr
$Comp
L V_Power:+12V #PWR034
U 1 1 5E89E8AE
P 1600 2075
F 0 "#PWR034" H 1600 1925 50  0001 C CNN
F 1 "+12V" H 1615 2248 50  0000 C CNN
F 2 "" H 1600 2075 50  0001 C CNN
F 3 "" H 1600 2075 50  0001 C CNN
	1    1600 2075
	1    0    0    -1  
$EndComp
$Comp
L V_Capacitor:C0402_100nF_16V_10% C15
U 1 1 5E8A0888
P 1600 2675
F 0 "C15" H 1650 2775 50  0000 L CNN
F 1 "100nF" H 1625 2575 50  0000 L CNN
F 2 "AllModules:C0402_1b" H 1638 2525 50  0001 C CNN
F 3 "" H 1600 2675 50  0001 C CNN
F 4 "CAPACITOR,100NF,16V,+/-10%,X7R,0402" H 0   0   50  0001 C CNN "Description"
F 5 "10022607" H 0   0   50  0001 C CNN "Item Number"
F 6 "MURATA" H 0   0   50  0001 C CNN "Manufacturer"
F 7 "YAGEO_RMS1" H 0   0   50  0001 C CNN "Manufacturer2"
F 8 "YAGEO_RMS1" H 0   0   50  0001 C CNN "Manufacturer3"
F 9 "GRM155R71C104JA88J" H 0   0   50  0001 C CNN "Manufacturer_No"
F 10 "CC0402KRX7R7BB104" H 0   0   50  0001 C CNN "Manufacturer_No2"
F 11 "CC0402KRX7R7BB104" H 0   0   50  0001 C CNN "Manufacturer_No3"
	1    1600 2675
	-1   0    0    1   
$EndComp
$Comp
L V_Capacitor:C0402_100nF_16V_10% C31
U 1 1 5E8A58B8
P 15600 3650
F 0 "C31" H 15625 3775 50  0000 L CNN
F 1 "100nF" H 15625 3550 50  0000 L CNN
F 2 "AllModules:C0402_1b" H 15638 3500 50  0001 C CNN
F 3 "" H 15600 3650 50  0001 C CNN
F 4 "CAPACITOR,100NF,16V,+/-10%,X7R,0402" H 0   0   50  0001 C CNN "Description"
F 5 "10022607" H 0   0   50  0001 C CNN "Item Number"
F 6 "MURATA" H 0   0   50  0001 C CNN "Manufacturer"
F 7 "YAGEO_RMS1" H 0   0   50  0001 C CNN "Manufacturer2"
F 8 "YAGEO_RMS1" H 0   0   50  0001 C CNN "Manufacturer3"
F 9 "GRM155R71C104JA88J" H 0   0   50  0001 C CNN "Manufacturer_No"
F 10 "CC0402KRX7R7BB104" H 0   0   50  0001 C CNN "Manufacturer_No2"
F 11 "CC0402KRX7R7BB104" H 0   0   50  0001 C CNN "Manufacturer_No3"
	1    15600 3650
	-1   0    0    1   
$EndComp
$Comp
L V_Power:+12V #PWR041
U 1 1 5E965347
P 15200 3200
F 0 "#PWR041" H 15200 3050 50  0001 C CNN
F 1 "+12V" H 15215 3373 50  0000 C CNN
F 2 "" H 15200 3200 50  0001 C CNN
F 3 "" H 15200 3200 50  0001 C CNN
	1    15200 3200
	1    0    0    -1  
$EndComp
$Comp
L V_Capacitor:C0402_100pF_50V_5%_10098981 C28
U 1 1 5E966C43
P 14600 3850
F 0 "C28" H 14625 3950 50  0000 L CNN
F 1 "100pF" H 14625 3750 50  0000 L CNN
F 2 "AllModules:C0402_1b" H 14638 3700 50  0001 C CNN
F 3 "" H 14600 3850 50  0001 C CNN
F 4 "CAPACITOR,100PF,50V,+/-5%,C0G,0402" H 0   0   50  0001 C CNN "Description"
F 5 "10098981" H 0   0   50  0001 C CNN "Item Number"
F 6 "MURATA MANUFACTURING CO., LTD." H 0   0   50  0001 C CNN "Manufacturer"
F 7 "YAGEO/PHYCOMP_RMS1" H 0   0   50  0001 C CNN "Manufacturer2"
F 8 "YAGEO/PHYCOMP_RMS1" H 0   0   50  0001 C CNN "Manufacturer3"
F 9 "GRM1555C1H101JZ01D" H 0   0   50  0001 C CNN "Manufacturer_No"
F 10 "CC0402JRNPO9BN101" H 0   0   50  0001 C CNN "Manufacturer_No2"
F 11 "CC0402JRNPO9BN101" H 0   0   50  0001 C CNN "Manufacturer_No3"
	1    14600 3850
	-1   0    0    1   
$EndComp
$Comp
L V_Capacitor:C1206_10uF_16V_10% C22
U 1 1 5E96C675
P 12750 2800
F 0 "C22" H 12550 2950 50  0000 L CNN
F 1 "10μF" H 12525 2700 50  0000 L CNN
F 2 "AllModules:RC1206_1" H 12788 2650 50  0001 C CNN
F 3 "" H 12750 2800 50  0001 C CNN
F 4 "CAPACITOR CERAMIC,10UF,16V,X5R,+/-10%,1206" H 0   0   50  0001 C CNN "Description"
F 5 "10022137" H 0   0   50  0001 C CNN "Item Number"
F 6 "KEMET_RMS1" H 0   0   50  0001 C CNN "Manufacturer"
F 7 "YAGEO" H 0   0   50  0001 C CNN "Manufacturer2"
F 8 "TDK_RMS1" H 0   0   50  0001 C CNN "Manufacturer3"
F 9 "C1206C106K4PACTU" H 0   0   50  0001 C CNN "Manufacturer_No"
F 10 "CC1206KKX5R7BB106" H 0   0   50  0001 C CNN "Manufacturer_No2"
F 11 "C3216X5R1C106KT" H 0   0   50  0001 C CNN "Manufacturer_No3"
	1    12750 2800
	1    0    0    -1  
$EndComp
$Comp
L V_Power:GND #PWR047
U 1 1 5E975EE9
P 15600 4000
F 0 "#PWR047" H 15600 3750 50  0001 C CNN
F 1 "GND" H 15605 3827 50  0000 C CNN
F 2 "" H 15600 4000 50  0001 C CNN
F 3 "" H 15600 4000 50  0001 C CNN
	1    15600 4000
	1    0    0    -1  
$EndComp
Wire Wire Line
	1600 2075 1600 2400
Connection ~ 1600 2400
Wire Wire Line
	1600 2400 1600 2525
Connection ~ 2800 2400
Wire Wire Line
	2800 2400 2100 2400
Wire Wire Line
	3175 1950 2800 1950
Wire Wire Line
	2800 1950 2800 2400
$Comp
L V_Power:GND #PWR038
U 1 1 5E8BECDF
P 1600 2950
F 0 "#PWR038" H 1600 2700 50  0001 C CNN
F 1 "GND" H 1605 2777 50  0000 C CNN
F 2 "" H 1600 2950 50  0001 C CNN
F 3 "" H 1600 2950 50  0001 C CNN
	1    1600 2950
	1    0    0    -1  
$EndComp
Wire Wire Line
	1600 2825 1600 2950
$Comp
L V_Power:GND #PWR044
U 1 1 5E8C2540
P 2100 3500
F 0 "#PWR044" H 2100 3250 50  0001 C CNN
F 1 "GND" H 2105 3327 50  0000 C CNN
F 2 "" H 2100 3500 50  0001 C CNN
F 3 "" H 2100 3500 50  0001 C CNN
	1    2100 3500
	1    0    0    -1  
$EndComp
Wire Wire Line
	3675 2400 3600 2400
Wire Wire Line
	3475 1950 4075 1950
Wire Wire Line
	4075 1950 4075 2400
Wire Wire Line
	4075 2775 3975 2775
Wire Wire Line
	3975 2400 4075 2400
Connection ~ 4075 2400
Wire Wire Line
	4075 2400 4075 2775
Wire Wire Line
	4200 2400 4075 2400
$Comp
L V_Power:GND #PWR036
U 1 1 5E8D0614
P 4700 2800
F 0 "#PWR036" H 4700 2550 50  0001 C CNN
F 1 "GND" H 4705 2627 50  0000 C CNN
F 2 "" H 4700 2800 50  0001 C CNN
F 3 "" H 4700 2800 50  0001 C CNN
	1    4700 2800
	1    0    0    -1  
$EndComp
Wire Wire Line
	4700 2400 4700 2450
Wire Wire Line
	4500 2400 4700 2400
Wire Wire Line
	4700 2750 4700 2800
Wire Wire Line
	3675 2775 3300 2775
Wire Wire Line
	3300 2775 3300 2700
Wire Wire Line
	2800 2400 3000 2400
Wire Wire Line
	3300 2775 3300 3450
Wire Wire Line
	3300 4275 3450 4275
Connection ~ 3300 2775
$Comp
L V_Power:GND #PWR048
U 1 1 5E94F1D0
P 3000 4175
F 0 "#PWR048" H 3000 3925 50  0001 C CNN
F 1 "GND" H 2850 4125 50  0000 C CNN
F 2 "" H 3000 4175 50  0001 C CNN
F 3 "" H 3000 4175 50  0001 C CNN
	1    3000 4175
	1    0    0    -1  
$EndComp
Wire Wire Line
	3000 4100 3000 4175
Wire Wire Line
	3000 3700 3000 3450
Wire Wire Line
	3000 3450 3300 3450
Connection ~ 3300 3450
Wire Wire Line
	3300 3450 3300 4275
$Comp
L V_Power:GND #PWR046
U 1 1 5E95AFAB
P 4475 3975
F 0 "#PWR046" H 4475 3725 50  0001 C CNN
F 1 "GND" H 4475 3825 50  0000 C CNN
F 2 "" H 4475 3975 50  0001 C CNN
F 3 "" H 4475 3975 50  0001 C CNN
	1    4475 3975
	1    0    0    -1  
$EndComp
Wire Wire Line
	4475 3600 4475 3550
Wire Wire Line
	4475 3550 4225 3550
Wire Wire Line
	4225 3550 4225 4275
Wire Wire Line
	4225 4275 4150 4275
Connection ~ 4475 3550
Wire Wire Line
	4475 3550 4475 3500
Wire Wire Line
	4475 3975 4475 3900
Wire Wire Line
	4475 3200 4475 3000
Wire Wire Line
	4475 3000 2600 3000
$Comp
L V_Power:GND #PWR055
U 1 1 5E967967
P 3350 5275
F 0 "#PWR055" H 3350 5025 50  0001 C CNN
F 1 "GND" H 3350 5125 50  0000 C CNN
F 2 "" H 3350 5275 50  0001 C CNN
F 3 "" H 3350 5275 50  0001 C CNN
	1    3350 5275
	1    0    0    -1  
$EndComp
Wire Wire Line
	3450 4575 3350 4575
Wire Wire Line
	3350 4575 3350 4675
Wire Wire Line
	3350 5275 3350 5175
$Comp
L V_Capacitor:C0402_100nF_16V_10% C16
U 1 1 5E9712FB
P 2650 5025
F 0 "C16" H 2700 5150 50  0000 L CNN
F 1 "100nF" H 2675 4925 50  0000 L CNN
F 2 "AllModules:C0402_1b" H 2688 4875 50  0001 C CNN
F 3 "" H 2650 5025 50  0001 C CNN
F 4 "CAPACITOR,100NF,16V,+/-10%,X7R,0402" H 0   0   50  0001 C CNN "Description"
F 5 "10022607" H 0   0   50  0001 C CNN "Item Number"
F 6 "MURATA" H 0   0   50  0001 C CNN "Manufacturer"
F 7 "YAGEO_RMS1" H 0   0   50  0001 C CNN "Manufacturer2"
F 8 "YAGEO_RMS1" H 0   0   50  0001 C CNN "Manufacturer3"
F 9 "GRM155R71C104JA88J" H 0   0   50  0001 C CNN "Manufacturer_No"
F 10 "CC0402KRX7R7BB104" H 0   0   50  0001 C CNN "Manufacturer_No2"
F 11 "CC0402KRX7R7BB104" H 0   0   50  0001 C CNN "Manufacturer_No3"
	1    2650 5025
	1    0    0    -1  
$EndComp
$Comp
L V_Power:GND #PWR054
U 1 1 5E972DD2
P 2650 5275
F 0 "#PWR054" H 2650 5025 50  0001 C CNN
F 1 "GND" H 2650 5125 50  0000 C CNN
F 2 "" H 2650 5275 50  0001 C CNN
F 3 "" H 2650 5275 50  0001 C CNN
	1    2650 5275
	1    0    0    -1  
$EndComp
Wire Wire Line
	2650 5275 2650 5175
Wire Wire Line
	2650 4875 2650 4675
Wire Wire Line
	2650 4675 2850 4675
Wire Wire Line
	3450 4475 2650 4475
Wire Wire Line
	2650 4475 2650 4675
Connection ~ 2650 4675
Wire Wire Line
	2500 4475 2500 3000
Wire Wire Line
	1150 4000 1050 4000
$Comp
L V_Capacitor:C0402_100nF_16V_10% C17
U 1 1 5E9BFCE7
P 5100 4875
F 0 "C17" H 5125 4975 50  0000 L CNN
F 1 "100nF" H 5125 4775 50  0000 L CNN
F 2 "AllModules:C0402_1b" H 5138 4725 50  0001 C CNN
F 3 "" H 5100 4875 50  0001 C CNN
F 4 "CAPACITOR,100NF,16V,+/-10%,X7R,0402" H 0   0   50  0001 C CNN "Description"
F 5 "10022607" H 0   0   50  0001 C CNN "Item Number"
F 6 "MURATA" H 0   0   50  0001 C CNN "Manufacturer"
F 7 "YAGEO_RMS1" H 0   0   50  0001 C CNN "Manufacturer2"
F 8 "YAGEO_RMS1" H 0   0   50  0001 C CNN "Manufacturer3"
F 9 "GRM155R71C104JA88J" H 0   0   50  0001 C CNN "Manufacturer_No"
F 10 "CC0402KRX7R7BB104" H 0   0   50  0001 C CNN "Manufacturer_No2"
F 11 "CC0402KRX7R7BB104" H 0   0   50  0001 C CNN "Manufacturer_No3"
	1    5100 4875
	-1   0    0    1   
$EndComp
$Comp
L V_Power:+12V #PWR042
U 1 1 5E9DCF7E
P 4825 3375
F 0 "#PWR042" H 4825 3225 50  0001 C CNN
F 1 "+12V" H 4840 3548 50  0000 C CNN
F 2 "" H 4825 3375 50  0001 C CNN
F 3 "" H 4825 3375 50  0001 C CNN
	1    4825 3375
	1    0    0    -1  
$EndComp
Wire Wire Line
	4150 4375 4825 4375
Wire Wire Line
	4825 4375 4825 4150
Wire Wire Line
	4825 3775 4825 3850
Wire Wire Line
	4825 3375 4825 3475
Wire Wire Line
	5100 4475 5100 4725
Wire Wire Line
	5100 4475 5575 4475
Wire Wire Line
	5575 4475 5575 4725
Wire Wire Line
	5575 5025 5575 5100
Wire Wire Line
	5575 5100 5100 5100
Connection ~ 5100 5100
Wire Wire Line
	5100 5100 5100 5025
Wire Wire Line
	4700 2400 5000 2400
Wire Wire Line
	5575 2400 5575 4075
Connection ~ 4700 2400
Wire Wire Line
	5575 4475 5575 4375
Connection ~ 5575 4475
$Comp
L V_Power:GND #PWR049
U 1 1 5EA135B0
P 6325 4225
F 0 "#PWR049" H 6325 3975 50  0001 C CNN
F 1 "GND" H 6325 4075 50  0000 C CNN
F 2 "" H 6325 4225 50  0001 C CNN
F 3 "" H 6325 4225 50  0001 C CNN
	1    6325 4225
	1    0    0    -1  
$EndComp
$Comp
L V_Jumper:JUMP_0U SJ1
U 1 1 5EA158D9
P 5850 3700
F 0 "SJ1" V 5900 3900 50  0000 R CNN
F 1 "Jumper_Small" H 6075 3600 50  0000 R CNN
F 2 "AllModules:TB-CMS-AIROX-2_1" H 5850 3700 50  0001 C CNN
F 3 "" H 5850 3700 50  0001 C CNN
F 4 "RESISTANCE, 0 OHM,0603" H 0   0   50  0001 C CNN "Description"
F 5 "10023185" H 0   0   50  0001 C CNN "Item Number"
F 6 "YAGEO_RMS1" H 0   0   50  0001 C CNN "Manufacturer"
F 7 "YAGEO_RMS1" H 0   0   50  0001 C CNN "Manufacturer2"
F 8 "YAGEO_RMS1" H 0   0   50  0001 C CNN "Manufacturer3"
F 9 "RC0603JR-070RL" H 0   0   50  0001 C CNN "Manufacturer_No"
F 10 "RC0603JR-070RL" H 0   0   50  0001 C CNN "Manufacturer_No2"
F 11 "RC0603JR-070RL" H 0   0   50  0001 C CNN "Manufacturer_No3"
	1    5850 3700
	0    -1   -1   0   
$EndComp
Wire Wire Line
	5850 3900 5850 4125
Wire Wire Line
	5850 4125 6325 4125
Wire Wire Line
	6325 4125 6325 4025
Wire Wire Line
	6325 4225 6325 4125
Connection ~ 6325 4125
Wire Wire Line
	6425 3400 6425 3625
$Comp
L V_Power:GND #PWR056
U 1 1 5EA31DDC
P 4425 5225
F 0 "#PWR056" H 4425 4975 50  0001 C CNN
F 1 "GND" H 4425 5075 50  0000 C CNN
F 2 "" H 4425 5225 50  0001 C CNN
F 3 "" H 4425 5225 50  0001 C CNN
	1    4425 5225
	1    0    0    -1  
$EndComp
Wire Wire Line
	4150 4575 4425 4575
Wire Wire Line
	4425 4575 4425 5100
Wire Wire Line
	5100 5100 4425 5100
Connection ~ 4425 5100
Wire Wire Line
	4425 5100 4425 5225
Wire Wire Line
	4150 4475 5100 4475
Connection ~ 5100 4475
Wire Wire Line
	6950 3500 6950 4125
Wire Wire Line
	6950 4125 6325 4125
Wire Wire Line
	6950 3200 6950 3050
Wire Wire Line
	6950 2600 6950 2400
Wire Wire Line
	6950 2400 5575 2400
Connection ~ 5575 2400
$Comp
L V_Capacitor:C0402_100nF_16V_10% C18
U 1 1 5EA7B49D
P 7275 3475
F 0 "C18" H 7325 3575 50  0000 L CNN
F 1 "100nF" H 7300 3375 50  0000 L CNN
F 2 "AllModules:C0402_1b" H 7313 3325 50  0001 C CNN
F 3 "" H 7275 3475 50  0001 C CNN
F 4 "CAPACITOR,100NF,16V,+/-10%,X7R,0402" H 0   0   50  0001 C CNN "Description"
F 5 "10022607" H 0   0   50  0001 C CNN "Item Number"
F 6 "MURATA" H 0   0   50  0001 C CNN "Manufacturer"
F 7 "YAGEO_RMS1" H 0   0   50  0001 C CNN "Manufacturer2"
F 8 "YAGEO_RMS1" H 0   0   50  0001 C CNN "Manufacturer3"
F 9 "GRM155R71C104JA88J" H 0   0   50  0001 C CNN "Manufacturer_No"
F 10 "CC0402KRX7R7BB104" H 0   0   50  0001 C CNN "Manufacturer_No2"
F 11 "CC0402KRX7R7BB104" H 0   0   50  0001 C CNN "Manufacturer_No3"
	1    7275 3475
	1    0    0    -1  
$EndComp
$Comp
L V_Power:GND #PWR045
U 1 1 5EA7F7B1
P 7275 3725
F 0 "#PWR045" H 7275 3475 50  0001 C CNN
F 1 "GND" H 7275 3575 50  0000 C CNN
F 2 "" H 7275 3725 50  0001 C CNN
F 3 "" H 7275 3725 50  0001 C CNN
	1    7275 3725
	1    0    0    -1  
$EndComp
Wire Wire Line
	7900 3050 7275 3050
Connection ~ 6950 3050
Wire Wire Line
	6950 3050 6950 2900
Wire Wire Line
	7275 3325 7275 3050
Connection ~ 7275 3050
Wire Wire Line
	7275 3050 6950 3050
Wire Wire Line
	7275 3625 7275 3725
$Comp
L V_Power:GND #PWR043
U 1 1 5EA89EC9
P 8200 3500
F 0 "#PWR043" H 8200 3250 50  0001 C CNN
F 1 "GND" H 8300 3375 50  0000 C CNN
F 2 "" H 8200 3500 50  0001 C CNN
F 3 "" H 8200 3500 50  0001 C CNN
	1    8200 3500
	1    0    0    -1  
$EndComp
Wire Wire Line
	8200 3500 8200 3450
Wire Wire Line
	8100 3825 8100 3875
Wire Wire Line
	8100 3875 7625 3875
Wire Wire Line
	7625 3875 7625 3250
Wire Wire Line
	7625 3250 7900 3250
$Comp
L V_Capacitor:C0402_100nF_16V_10% C19
U 1 1 5EA920AC
P 8400 2700
F 0 "C19" V 8650 2700 50  0000 C CNN
F 1 "100nF" V 8550 2700 50  0000 C CNN
F 2 "AllModules:C0402_1b" H 8438 2550 50  0001 C CNN
F 3 "" H 8400 2700 50  0001 C CNN
F 4 "CAPACITOR,100NF,16V,+/-10%,X7R,0402" H 0   0   50  0001 C CNN "Description"
F 5 "10022607" H 0   0   50  0001 C CNN "Item Number"
F 6 "MURATA" H 0   0   50  0001 C CNN "Manufacturer"
F 7 "YAGEO_RMS1" H 0   0   50  0001 C CNN "Manufacturer2"
F 8 "YAGEO_RMS1" H 0   0   50  0001 C CNN "Manufacturer3"
F 9 "GRM155R71C104JA88J" H 0   0   50  0001 C CNN "Manufacturer_No"
F 10 "CC0402KRX7R7BB104" H 0   0   50  0001 C CNN "Manufacturer_No2"
F 11 "CC0402KRX7R7BB104" H 0   0   50  0001 C CNN "Manufacturer_No3"
	1    8400 2700
	0    -1   -1   0   
$EndComp
$Comp
L V_Power:GND #PWR037
U 1 1 5EA92EED
P 8750 2800
F 0 "#PWR037" H 8750 2550 50  0001 C CNN
F 1 "GND" H 8750 2650 50  0000 C CNN
F 2 "" H 8750 2800 50  0001 C CNN
F 3 "" H 8750 2800 50  0001 C CNN
	1    8750 2800
	1    0    0    -1  
$EndComp
Wire Wire Line
	8550 2700 8750 2700
Wire Wire Line
	8750 2700 8750 2800
Connection ~ 6950 2400
Wire Wire Line
	8500 3150 8725 3150
Wire Wire Line
	8725 3150 8725 3350
Wire Wire Line
	8100 3875 8725 3875
Wire Wire Line
	8725 3875 8725 3650
Connection ~ 8100 3875
Wire Wire Line
	9300 2400 9075 2400
Wire Wire Line
	9075 2500 9075 2400
Connection ~ 9075 2400
Wire Wire Line
	9500 2700 9500 2900
Wire Wire Line
	9500 2900 9075 2900
Wire Wire Line
	9075 2900 9075 2800
Wire Wire Line
	9500 3150 9500 2900
Connection ~ 9500 2900
Wire Wire Line
	8725 3150 9500 3150
Connection ~ 8725 3150
Wire Wire Line
	10325 2400 10075 2400
Wire Wire Line
	10075 2525 10075 2400
Connection ~ 10075 2400
Wire Wire Line
	10075 2400 9800 2400
Wire Wire Line
	10075 2825 10075 2900
Wire Wire Line
	10075 2900 10500 2900
Wire Wire Line
	10525 2900 10525 2700
Wire Wire Line
	10075 2250 10075 2400
Wire Wire Line
	3400 6500 3200 6500
Wire Wire Line
	3100 6500 3100 6600
Wire Wire Line
	3600 7000 3100 7000
Wire Wire Line
	3100 7000 3100 6900
Connection ~ 3100 6500
Wire Wire Line
	4300 6500 3800 6500
$Comp
L V_Power:GND #PWR071
U 1 1 5E962FC1
P 4500 8500
F 0 "#PWR071" H 4500 8250 50  0001 C CNN
F 1 "GND" H 4500 8350 50  0000 C CNN
F 2 "" H 4500 8500 50  0001 C CNN
F 3 "" H 4500 8500 50  0001 C CNN
	1    4500 8500
	1    0    0    -1  
$EndComp
$Comp
L V_Power:+5V #PWR068
U 1 1 5E99F3AE
P 6100 7700
F 0 "#PWR068" H 6100 7550 50  0001 C CNN
F 1 "+5V" H 6115 7873 50  0000 C CNN
F 2 "" H 6100 7700 50  0001 C CNN
F 3 "" H 6100 7700 50  0001 C CNN
	1    6100 7700
	1    0    0    -1  
$EndComp
$Comp
L V_Resistor:R0402_NC R48
U 1 1 5E9BACF2
P 8350 5400
F 0 "R48" V 8250 5400 50  0000 C CNN
F 1 "NC" V 8350 5400 50  0000 C CNN
F 2 "AllModules:R0402_1" V 8280 5400 50  0001 C CNN
F 3 "~" H 8350 5400 50  0001 C CNN
	1    8350 5400
	0    -1   -1   0   
$EndComp
$Comp
L V_Resistor:R0402_NC R60
U 1 1 5E9BBB0B
P 8100 4750
F 0 "R60" H 7950 4750 50  0000 C CNN
F 1 "NC" V 8100 4750 50  0000 C CNN
F 2 "AllModules:R0402_1" V 8030 4750 50  0001 C CNN
F 3 "~" H 8100 4750 50  0001 C CNN
	1    8100 4750
	-1   0    0    1   
$EndComp
$Comp
L V_Capacitor:C0603_330nF_16V_10% C20
U 1 1 5E9BC806
P 8350 5000
F 0 "C20" V 8175 4925 50  0000 L CNN
F 1 "330nF" V 8500 4925 50  0000 L CNN
F 2 "AllModules:C0603_1b" H 8388 4850 50  0001 C CNN
F 3 "" H 8350 5000 50  0001 C CNN
F 4 "CAPACITOR CERAMIC, 330 NF, 16V, X7R, 0603,+/-10%" H 0   0   50  0001 C CNN "Description"
F 5 "10022134" H 0   0   50  0001 C CNN "Item Number"
F 6 "KEMET_RMS1" H 0   0   50  0001 C CNN "Manufacturer"
F 7 "KEMET_RMS1" H 0   0   50  0001 C CNN "Manufacturer2"
F 8 "C0603C334K4RACTU" H 0   0   50  0001 C CNN "Manufacturer_No"
F 9 "C0603C334K4RAC" H 0   0   50  0001 C CNN "Manufacturer_No2"
	1    8350 5000
	0    1    1    0   
$EndComp
$Comp
L V_Power:GND #PWR061
U 1 1 5E9BF600
P 9300 5900
F 0 "#PWR061" H 9300 5650 50  0001 C CNN
F 1 "GND" H 9300 5750 50  0000 C CNN
F 2 "" H 9300 5900 50  0001 C CNN
F 3 "" H 9300 5900 50  0001 C CNN
	1    9300 5900
	1    0    0    -1  
$EndComp
$Comp
L V_Capacitor:C0402_4n7F_16V_10% C35
U 1 1 5E9C4E7A
P 10000 5400
F 0 "C35" H 9885 5354 50  0000 R CNN
F 1 "4.7nF" H 9885 5445 50  0000 R CNN
F 2 "AllModules:C0402_1b" H 10038 5250 50  0001 C CNN
F 3 "" H 10000 5400 50  0001 C CNN
F 4 "CAPACITOR,4.7NF,16V,+/-10%,0402" H 0   0   50  0001 C CNN "Description"
F 5 "10021390" H 0   0   50  0001 C CNN "Item Number"
F 6 "YAGEO_RMS1" H 0   0   50  0001 C CNN "Manufacturer"
F 7 "YAGEO_RMS1" H 0   0   50  0001 C CNN "Manufacturer2"
F 8 "CC0402KRX7R7BB472" H 0   0   50  0001 C CNN "Manufacturer_No"
F 9 "CC0402KRX7R7BB472" H 0   0   50  0001 C CNN "Manufacturer_No2"
	1    10000 5400
	-1   0    0    1   
$EndComp
$Comp
L V_Capacitor:C0402_NC C34
U 1 1 5EA224D5
P 12275 8350
F 0 "C34" H 12160 8304 50  0000 R CNN
F 1 "NC" H 12160 8395 50  0000 R CNN
F 2 "AllModules:C0402_1b" H 12313 8200 50  0001 C CNN
F 3 "~" H 12275 8350 50  0001 C CNN
	1    12275 8350
	-1   0    0    1   
$EndComp
$Comp
L V_Power:GND #PWR072
U 1 1 5EA25B59
P 11900 8625
F 0 "#PWR072" H 11900 8375 50  0001 C CNN
F 1 "GND" H 11900 8475 50  0000 C CNN
F 2 "" H 11900 8625 50  0001 C CNN
F 3 "" H 11900 8625 50  0001 C CNN
	1    11900 8625
	1    0    0    -1  
$EndComp
Wire Wire Line
	14325 7450 14500 7450
Connection ~ 14500 7450
Wire Wire Line
	14500 7450 15000 7450
$Comp
L V_Power:GND #PWR070
U 1 1 5EA49016
P 14500 8200
F 0 "#PWR070" H 14500 7950 50  0001 C CNN
F 1 "GND" H 14500 8050 50  0000 C CNN
F 2 "" H 14500 8200 50  0001 C CNN
F 3 "" H 14500 8200 50  0001 C CNN
	1    14500 8200
	1    0    0    -1  
$EndComp
Wire Wire Line
	14500 8200 14500 8050
Wire Wire Line
	14200 7850 13900 7850
Wire Wire Line
	13900 7850 13900 7450
Wire Wire Line
	13900 7450 14025 7450
Wire Wire Line
	14325 8700 14500 8700
Wire Wire Line
	14500 8900 14500 8700
$Comp
L V_Power:GND #PWR075
U 1 1 5EA71DB5
P 14500 9425
F 0 "#PWR075" H 14500 9175 50  0001 C CNN
F 1 "GND" H 14500 9275 50  0000 C CNN
F 2 "" H 14500 9425 50  0001 C CNN
F 3 "" H 14500 9425 50  0001 C CNN
	1    14500 9425
	1    0    0    -1  
$EndComp
Wire Wire Line
	14500 9425 14500 9300
Wire Wire Line
	14025 8700 13900 8700
Wire Wire Line
	13900 8700 13900 9100
Wire Wire Line
	13900 9100 14200 9100
Wire Wire Line
	13900 7850 13900 8200
Wire Wire Line
	13900 8200 13550 8200
Connection ~ 13900 7850
Wire Wire Line
	13900 8200 13900 8700
Connection ~ 13900 8200
Connection ~ 13900 8700
$Comp
L V_Capacitor:C0402_100nF_16V_10% C33
U 1 1 5EAC1081
P 13475 7700
F 0 "C33" V 13650 7625 50  0000 L CNN
F 1 "100nF" V 13300 7600 50  0000 L CNN
F 2 "AllModules:C0402_1b" H 13513 7550 50  0001 C CNN
F 3 "" H 13475 7700 50  0001 C CNN
F 4 "CAPACITOR,100NF,16V,+/-10%,X7R,0402" H 0   0   50  0001 C CNN "Description"
F 5 "10022607" H 0   0   50  0001 C CNN "Item Number"
F 6 "MURATA" H 0   0   50  0001 C CNN "Manufacturer"
F 7 "YAGEO_RMS1" H 0   0   50  0001 C CNN "Manufacturer2"
F 8 "YAGEO_RMS1" H 0   0   50  0001 C CNN "Manufacturer3"
F 9 "GRM155R71C104JA88J" H 0   0   50  0001 C CNN "Manufacturer_No"
F 10 "CC0402KRX7R7BB104" H 0   0   50  0001 C CNN "Manufacturer_No2"
F 11 "CC0402KRX7R7BB104" H 0   0   50  0001 C CNN "Manufacturer_No3"
	1    13475 7700
	0    -1   -1   0   
$EndComp
$Comp
L V_Power:GND #PWR069
U 1 1 5EAD1AF4
P 13700 7850
F 0 "#PWR069" H 13700 7600 50  0001 C CNN
F 1 "GND" H 13700 7700 50  0000 C CNN
F 2 "" H 13700 7850 50  0001 C CNN
F 3 "" H 13700 7850 50  0001 C CNN
	1    13700 7850
	1    0    0    -1  
$EndComp
Wire Wire Line
	13625 7700 13700 7700
Wire Wire Line
	13700 7700 13700 7850
Wire Wire Line
	13325 7700 13150 7700
Wire Wire Line
	13150 7700 13150 7900
$Comp
L V_Power:GND #PWR074
U 1 1 5EAE4018
P 13250 8625
F 0 "#PWR074" H 13250 8375 50  0001 C CNN
F 1 "GND" H 13250 8475 50  0000 C CNN
F 2 "" H 13250 8625 50  0001 C CNN
F 3 "" H 13250 8625 50  0001 C CNN
	1    13250 8625
	1    0    0    -1  
$EndComp
Wire Wire Line
	13150 8600 12650 8600
Wire Wire Line
	12650 8600 12650 8300
Wire Wire Line
	12650 8300 12950 8300
$Comp
L V_Power:GND #PWR073
U 1 1 5EAFF44E
P 12275 8625
F 0 "#PWR073" H 12275 8375 50  0001 C CNN
F 1 "GND" H 12275 8475 50  0000 C CNN
F 2 "" H 12275 8625 50  0001 C CNN
F 3 "" H 12275 8625 50  0001 C CNN
	1    12275 8625
	1    0    0    -1  
$EndComp
Wire Wire Line
	12275 8500 12275 8625
Wire Wire Line
	12950 8100 12275 8100
Wire Wire Line
	12275 8100 12275 8200
Wire Wire Line
	11700 8100 11900 8100
Connection ~ 12275 8100
Wire Wire Line
	11900 8200 11900 8100
Connection ~ 11900 8100
Wire Wire Line
	11900 8100 12275 8100
Wire Wire Line
	11900 8625 11900 8500
Wire Wire Line
	13150 7700 11250 7700
Wire Wire Line
	11250 7700 11250 8100
Wire Wire Line
	11250 8100 11400 8100
Connection ~ 13150 7700
Wire Wire Line
	8200 5400 8100 5400
Wire Wire Line
	8100 4900 8100 5000
Connection ~ 8100 5000
Wire Wire Line
	8100 5000 7900 5000
Wire Wire Line
	8100 5400 8100 5000
Wire Wire Line
	8300 5800 8100 5800
Wire Wire Line
	8600 5600 8600 5400
Wire Wire Line
	8500 5400 8600 5400
Connection ~ 8600 5400
Wire Wire Line
	8600 5400 8600 5000
Wire Wire Line
	8200 5000 8100 5000
Wire Wire Line
	8500 5000 8600 5000
Connection ~ 8600 5000
Wire Wire Line
	9550 5000 9550 5075
Wire Wire Line
	8600 5000 9150 5000
Wire Wire Line
	9150 5200 9150 5000
Wire Wire Line
	9150 5500 9150 5800
Wire Wire Line
	9300 5900 9300 5800
Wire Wire Line
	9300 5800 9550 5800
Wire Wire Line
	9550 5800 9550 5675
Wire Wire Line
	10000 5000 10000 5250
Wire Wire Line
	10000 5550 10000 5800
Wire Wire Line
	10200 5000 10000 5000
Connection ~ 10000 5000
Wire Wire Line
	10500 5200 10500 5800
Wire Wire Line
	10500 5800 10000 5800
Connection ~ 10000 5800
$Comp
L V_Power:+5V #PWR050
U 1 1 5ECFC16F
P 8100 4500
F 0 "#PWR050" H 8100 4350 50  0001 C CNN
F 1 "+5V" H 8115 4673 50  0000 C CNN
F 2 "" H 8100 4500 50  0001 C CNN
F 3 "" H 8100 4500 50  0001 C CNN
	1    8100 4500
	1    0    0    -1  
$EndComp
Wire Wire Line
	8100 4500 8100 4600
Wire Wire Line
	10500 2900 10500 4800
$Comp
L V_Power:GND #PWR051
U 1 1 5EE001F8
P 13100 5000
F 0 "#PWR051" H 13100 4750 50  0001 C CNN
F 1 "GND" H 13100 4850 50  0000 C CNN
F 2 "" H 13100 5000 50  0001 C CNN
F 3 "" H 13100 5000 50  0001 C CNN
	1    13100 5000
	1    0    0    -1  
$EndComp
$Comp
L V_Power:GND #PWR040
U 1 1 5EE5841C
P 12750 3000
F 0 "#PWR040" H 12750 2750 50  0001 C CNN
F 1 "GND" H 12750 2850 50  0000 C CNN
F 2 "" H 12750 3000 50  0001 C CNN
F 3 "" H 12750 3000 50  0001 C CNN
	1    12750 3000
	1    0    0    -1  
$EndComp
$Comp
L V_Power:GND #PWR052
U 1 1 5EF0055A
P 15000 5000
F 0 "#PWR052" H 15000 4750 50  0001 C CNN
F 1 "GND" H 15000 4850 50  0000 C CNN
F 2 "" H 15000 5000 50  0001 C CNN
F 3 "" H 15000 5000 50  0001 C CNN
	1    15000 5000
	1    0    0    -1  
$EndComp
$Comp
L V_Capacitor:C1206_10uF_16V_10% C29
U 1 1 5EF41CB7
P 15400 4450
F 0 "C29" H 15450 4575 50  0000 L CNN
F 1 "10μF" H 15450 4350 50  0000 L CNN
F 2 "AllModules:RC1206_1" H 15438 4300 50  0001 C CNN
F 3 "" H 15400 4450 50  0001 C CNN
F 4 "CAPACITOR CERAMIC,10UF,16V,X5R,+/-10%,1206" H 0   0   50  0001 C CNN "Description"
F 5 "10022137" H 0   0   50  0001 C CNN "Item Number"
F 6 "KEMET_RMS1" H 0   0   50  0001 C CNN "Manufacturer"
F 7 "YAGEO" H 0   0   50  0001 C CNN "Manufacturer2"
F 8 "TDK_RMS1" H 0   0   50  0001 C CNN "Manufacturer3"
F 9 "C1206C106K4PACTU" H 0   0   50  0001 C CNN "Manufacturer_No"
F 10 "CC1206KKX5R7BB106" H 0   0   50  0001 C CNN "Manufacturer_No2"
F 11 "C3216X5R1C106KT" H 0   0   50  0001 C CNN "Manufacturer_No3"
	1    15400 4450
	-1   0    0    1   
$EndComp
$Comp
L V_Capacitor:C1210_47uF_16V C23
U 1 1 5EFCD4D1
P 12000 4750
F 0 "C23" H 11750 4850 50  0000 L CNN
F 1 "47μF" H 11775 4650 50  0000 L CNN
F 2 "AllModules:C1210_1" H 12038 4600 50  0001 C CNN
F 3 "" H 12000 4750 50  0001 C CNN
F 4 "CAPACITOR,47UF,16V,1210,X5R" H 0   0   50  0001 C CNN "Description"
F 5 "10021463" H 0   0   50  0001 C CNN "Item Number"
F 6 "KEMET_RMS1" H 0   0   50  0001 C CNN "Manufacturer"
F 7 "TAIYO YUDEN_RMS1" H 0   0   50  0001 C CNN "Manufacturer2"
F 8 "YAGEO_RMS1" H 0   0   50  0001 C CNN "Manufacturer3"
F 9 "C1210C476M4PACTU" H 0   0   50  0001 C CNN "Manufacturer_No"
F 10 "EMK325BJ476MM-T" H 0   0   50  0001 C CNN "Manufacturer_No2"
F 11 "CC1210KKX5R7BB476" H 0   0   50  0001 C CNN "Manufacturer_No3"
	1    12000 4750
	-1   0    0    1   
$EndComp
$Comp
L V_Power:GND #PWR058
U 1 1 5EFCFE35
P 12000 5250
F 0 "#PWR058" H 12000 5000 50  0001 C CNN
F 1 "GND" H 12000 5100 50  0000 C CNN
F 2 "" H 12000 5250 50  0001 C CNN
F 3 "" H 12000 5250 50  0001 C CNN
	1    12000 5250
	1    0    0    -1  
$EndComp
$Comp
L V_Capacitor:C0805_1uF_25V_10% C24
U 1 1 5E93D7C9
P 11900 6000
F 0 "C24" V 12075 5925 50  0000 L CNN
F 1 "1uF" V 11725 5900 50  0000 L CNN
F 2 "AllModules:C0805_1b" H 11938 5850 50  0001 C CNN
F 3 "" H 11900 6000 50  0001 C CNN
F 4 "CAPACITOR CERAMIC,X7R,1UF,25V,+/10%, 0805" H 0   0   50  0001 C CNN "Description"
F 5 "10099021" H 0   0   50  0001 C CNN "Item Number"
F 6 "TDK_RMS1" H 0   0   50  0001 C CNN "Manufacturer"
F 7 "KEMET_RMS1" H 0   0   50  0001 C CNN "Manufacturer2"
F 8 "AVX_RMS1" H 0   0   50  0001 C CNN "Manufacturer3"
F 9 "C2012X7R1E105K125AB" H 0   0   50  0001 C CNN "Manufacturer_No"
F 10 "C0805C105K3RACTU" H 0   0   50  0001 C CNN "Manufacturer_No2"
F 11 "08053C105KAZ2A" H 0   0   50  0001 C CNN "Manufacturer_No3"
	1    11900 6000
	0    1    1    0   
$EndComp
$Comp
L V_Power:GND #PWR064
U 1 1 5E942887
P 12300 6500
F 0 "#PWR064" H 12300 6250 50  0001 C CNN
F 1 "GND" H 12300 6350 50  0000 C CNN
F 2 "" H 12300 6500 50  0001 C CNN
F 3 "" H 12300 6500 50  0001 C CNN
	1    12300 6500
	1    0    0    -1  
$EndComp
$Comp
L V_Capacitor:C1206_10uF_16V_10% C26
U 1 1 5E946687
P 13000 6250
F 0 "C26" H 13075 6375 50  0000 L CNN
F 1 "10μF" H 13075 6150 50  0000 L CNN
F 2 "AllModules:RC1206_1" H 13038 6100 50  0001 C CNN
F 3 "" H 13000 6250 50  0001 C CNN
F 4 "CAPACITOR CERAMIC,10UF,16V,X5R,+/-10%,1206" H 0   0   50  0001 C CNN "Description"
F 5 "10022137" H 0   0   50  0001 C CNN "Item Number"
F 6 "KEMET_RMS1" H 0   0   50  0001 C CNN "Manufacturer"
F 7 "YAGEO" H 0   0   50  0001 C CNN "Manufacturer2"
F 8 "TDK_RMS1" H 0   0   50  0001 C CNN "Manufacturer3"
F 9 "C1206C106K4PACTU" H 0   0   50  0001 C CNN "Manufacturer_No"
F 10 "CC1206KKX5R7BB106" H 0   0   50  0001 C CNN "Manufacturer_No2"
F 11 "C3216X5R1C106KT" H 0   0   50  0001 C CNN "Manufacturer_No3"
	1    13000 6250
	1    0    0    -1  
$EndComp
$Comp
L V_Capacitor:C0402_100nF_16V_10% C32
U 1 1 5E9480AB
P 13450 6250
F 0 "C32" H 13400 6150 50  0000 R CNN
F 1 "100nF" H 13400 6350 50  0000 R CNN
F 2 "AllModules:C0402_1b" H 13488 6100 50  0001 C CNN
F 3 "" H 13450 6250 50  0001 C CNN
F 4 "CAPACITOR,100NF,16V,+/-10%,X7R,0402" H 0   0   50  0001 C CNN "Description"
F 5 "10022607" H 0   0   50  0001 C CNN "Item Number"
F 6 "MURATA" H 0   0   50  0001 C CNN "Manufacturer"
F 7 "YAGEO_RMS1" H 0   0   50  0001 C CNN "Manufacturer2"
F 8 "YAGEO_RMS1" H 0   0   50  0001 C CNN "Manufacturer3"
F 9 "GRM155R71C104JA88J" H 0   0   50  0001 C CNN "Manufacturer_No"
F 10 "CC0402KRX7R7BB104" H 0   0   50  0001 C CNN "Manufacturer_No2"
F 11 "CC0402KRX7R7BB104" H 0   0   50  0001 C CNN "Manufacturer_No3"
	1    13450 6250
	-1   0    0    1   
$EndComp
$Comp
L V_Power:GND #PWR065
U 1 1 5E948A57
P 13000 6500
F 0 "#PWR065" H 13000 6250 50  0001 C CNN
F 1 "GND" H 13000 6350 50  0000 C CNN
F 2 "" H 13000 6500 50  0001 C CNN
F 3 "" H 13000 6500 50  0001 C CNN
	1    13000 6500
	1    0    0    -1  
$EndComp
$Comp
L V_Power:GND #PWR066
U 1 1 5E948DCB
P 13450 6500
F 0 "#PWR066" H 13450 6250 50  0001 C CNN
F 1 "GND" H 13450 6350 50  0000 C CNN
F 2 "" H 13450 6500 50  0001 C CNN
F 3 "" H 13450 6500 50  0001 C CNN
	1    13450 6500
	1    0    0    -1  
$EndComp
Wire Wire Line
	12500 4300 12400 4300
Wire Wire Line
	12500 4400 12200 4400
Wire Wire Line
	12400 4300 12400 4900
Wire Wire Line
	12750 2650 12750 2400
Wire Wire Line
	12750 3000 12750 2950
Wire Wire Line
	12050 6000 12300 6000
Wire Wire Line
	12300 6500 12300 6400
Wire Wire Line
	12300 6100 12300 6000
Connection ~ 12300 6000
Wire Wire Line
	12300 6000 12500 6000
Wire Wire Line
	12800 6000 12950 6000
Wire Wire Line
	13000 6000 13000 6100
Wire Wire Line
	13450 6000 13450 6100
Connection ~ 13000 6000
Wire Wire Line
	13000 6500 13000 6400
Wire Wire Line
	13450 6500 13450 6400
Wire Wire Line
	13450 6000 13900 6000
Connection ~ 13450 6000
$Comp
L V_Capacitor:C1210_47uF_16V C21
U 1 1 5EBD18AF
P 14400 4800
F 0 "C21" H 14450 4900 50  0000 L CNN
F 1 "47μF" H 14425 4700 50  0000 L CNN
F 2 "AllModules:C1210_1" H 14438 4650 50  0001 C CNN
F 3 "" H 14400 4800 50  0001 C CNN
F 4 "CAPACITOR,47UF,16V,1210,X5R" H 0   0   50  0001 C CNN "Description"
F 5 "10021463" H 0   0   50  0001 C CNN "Item Number"
F 6 "KEMET_RMS1" H 0   0   50  0001 C CNN "Manufacturer"
F 7 "TAIYO YUDEN_RMS1" H 0   0   50  0001 C CNN "Manufacturer2"
F 8 "YAGEO_RMS1" H 0   0   50  0001 C CNN "Manufacturer3"
F 9 "C1210C476M4PACTU" H 0   0   50  0001 C CNN "Manufacturer_No"
F 10 "EMK325BJ476MM-T" H 0   0   50  0001 C CNN "Manufacturer_No2"
F 11 "CC1210KKX5R7BB476" H 0   0   50  0001 C CNN "Manufacturer_No3"
	1    14400 4800
	-1   0    0    1   
$EndComp
$Comp
L V_Power:GND #PWR060
U 1 1 5EC8139C
P 14400 5250
F 0 "#PWR060" H 14400 5000 50  0001 C CNN
F 1 "GND" H 14400 5100 50  0000 C CNN
F 2 "" H 14400 5250 50  0001 C CNN
F 3 "" H 14400 5250 50  0001 C CNN
	1    14400 5250
	1    0    0    -1  
$EndComp
$Comp
L V_Capacitor:C0402_100pF_50V_5%_10098981 C27
U 1 1 5ED70130
P 13250 5625
F 0 "C27" H 13135 5579 50  0000 R CNN
F 1 "100pF" H 13135 5670 50  0000 R CNN
F 2 "AllModules:C0402_1b" H 13288 5475 50  0001 C CNN
F 3 "" H 13250 5625 50  0001 C CNN
F 4 "CAPACITOR,100PF,50V,+/-5%,C0G,0402" H 0   0   50  0001 C CNN "Description"
F 5 "10098981" H 0   0   50  0001 C CNN "Item Number"
F 6 "MURATA MANUFACTURING CO., LTD." H 0   0   50  0001 C CNN "Manufacturer"
F 7 "YAGEO/PHYCOMP_RMS1" H 0   0   50  0001 C CNN "Manufacturer2"
F 8 "YAGEO/PHYCOMP_RMS1" H 0   0   50  0001 C CNN "Manufacturer3"
F 9 "GRM1555C1H101JZ01D" H 0   0   50  0001 C CNN "Manufacturer_No"
F 10 "CC0402JRNPO9BN101" H 0   0   50  0001 C CNN "Manufacturer_No2"
F 11 "CC0402JRNPO9BN101" H 0   0   50  0001 C CNN "Manufacturer_No3"
	1    13250 5625
	-1   0    0    1   
$EndComp
Wire Wire Line
	12500 4200 12300 4200
Wire Wire Line
	12950 5475 12950 5350
Wire Wire Line
	13250 5350 13250 5475
Wire Wire Line
	14100 4200 14100 4500
$Comp
L V_Power:GND #PWR059
U 1 1 5EDF07FA
P 14100 5250
F 0 "#PWR059" H 14100 5000 50  0001 C CNN
F 1 "GND" H 14100 5100 50  0000 C CNN
F 2 "" H 14100 5250 50  0001 C CNN
F 3 "" H 14100 5250 50  0001 C CNN
	1    14100 5250
	1    0    0    -1  
$EndComp
Wire Wire Line
	13700 4200 14100 4200
Wire Wire Line
	13700 4400 14250 4400
Wire Wire Line
	12300 4200 12300 5350
Wire Wire Line
	12700 3800 12700 3700
Wire Wire Line
	11500 3700 11500 6000
$Comp
L V_Power:GND #PWR039
U 1 1 5F3FEC1F
P 11250 3075
F 0 "#PWR039" H 11250 2825 50  0001 C CNN
F 1 "GND" H 11250 2925 50  0000 C CNN
F 2 "" H 11250 3075 50  0001 C CNN
F 3 "" H 11250 3075 50  0001 C CNN
	1    11250 3075
	1    0    0    -1  
$EndComp
Wire Wire Line
	11250 2400 11250 2675
Wire Wire Line
	11475 2675 11250 2675
Connection ~ 11250 2400
Wire Wire Line
	11775 2400 12025 2400
$Comp
L V_Resistor:R0402_NC R50
U 1 1 5F4E8BA1
P 10425 1275
F 0 "R50" V 10325 1275 50  0000 C CNN
F 1 "NC" V 10425 1275 50  0000 C CNN
F 2 "AllModules:R0402_1" V 10355 1275 50  0001 C CNN
F 3 "~" H 10425 1275 50  0001 C CNN
	1    10425 1275
	0    -1   -1   0   
$EndComp
$Comp
L V_Power:+5V #PWR033
U 1 1 5F560D4C
P 11025 1150
F 0 "#PWR033" H 11025 1000 50  0001 C CNN
F 1 "+5V" H 11040 1323 50  0000 C CNN
F 2 "" H 11025 1150 50  0001 C CNN
F 3 "" H 11025 1150 50  0001 C CNN
	1    11025 1150
	1    0    0    -1  
$EndComp
Wire Wire Line
	11650 1275 12025 1275
Wire Wire Line
	12025 1275 12025 2400
Connection ~ 12025 2400
Wire Wire Line
	10575 1275 11025 1275
Wire Wire Line
	9800 2400 9800 1275
Wire Wire Line
	9800 1275 10275 1275
Connection ~ 9800 2400
Wire Wire Line
	9800 2400 9700 2400
Wire Wire Line
	11025 1150 11025 1275
Connection ~ 11025 1275
Wire Wire Line
	11025 1275 11350 1275
Wire Wire Line
	12025 2400 12200 2400
Wire Wire Line
	11250 7700 11250 3350
Wire Wire Line
	11250 3350 11525 3350
Wire Wire Line
	11525 3350 11525 3075
Wire Wire Line
	11525 3075 12025 3075
Wire Wire Line
	12025 2400 12025 2675
Wire Wire Line
	11250 2725 11250 2675
Connection ~ 11250 2675
Wire Wire Line
	11250 3075 11250 3025
Wire Wire Line
	11775 2675 12025 2675
Connection ~ 12025 2675
Wire Wire Line
	12025 2675 12025 3075
NoConn ~ 6525 4025
Wire Wire Line
	14500 7450 14500 7650
Text Notes 2650 5925 0    50   ~ 0
BATTERY SWITCH CIRCUIT
Text HLabel 1050 4000 0    50   Input ~ 0
BUZ-ACT
Text HLabel 11350 2000 2    50   Output ~ 0
SUPPLY-BUZ
Text HLabel 7900 5000 0    50   Input ~ 0
STOP-INV
Text HLabel 7900 5800 0    50   Input ~ 0
INHIB-STOP-INV
Wire Wire Line
	8100 5800 7900 5800
Connection ~ 8100 5800
Text HLabel 10075 2250 1    50   Output ~ 0
VBAT
Text HLabel 1050 4200 0    50   Input ~ 0
SUPPLY-BUZ
Wire Wire Line
	1150 4200 1050 4200
$Comp
L V_IC:LM317L_SO8 IC5
U 1 1 5E89DE00
P 3300 2400
F 0 "IC5" H 3300 2642 50  0000 C CNN
F 1 "LM317L_SO8" H 3300 2551 50  0000 C CNN
F 2 "AllModules:MX.A8_COMPOSANT_1" H 3300 2600 50  0001 C CIN
F 3 "" H 3300 2200 50  0001 C CNN
F 4 "IC,ADJUSTABLE REGULATOR,0.1A" H 0   0   50  0001 C CNN "Description"
F 5 "10099026" H 0   0   50  0001 C CNN "Item Number"
F 6 "NATIONAL SEMICONDUCTOR_RMS1" H 0   0   50  0001 C CNN "Manufacturer"
F 7 "NATIONAL SEMICONDUCTOR_RMS1" H 0   0   50  0001 C CNN "Manufacturer2"
F 8 "ON SEMICONDUCTOR_RMS1" H 0   0   50  0001 C CNN "Manufacturer3"
F 9 "LM317LM NOPB" H 0   0   50  0001 C CNN "Manufacturer_No"
F 10 "LM317LMX/NOPB" H 0   0   50  0001 C CNN "Manufacturer_No2"
F 11 "LM317LBDG" H 0   0   50  0001 C CNN "Manufacturer_No3"
	1    3300 2400
	1    0    0    -1  
$EndComp
$Comp
L V_Inductor:L_10022624 L4
U 1 1 5E96440E
P 12650 6000
F 0 "L4" V 12750 5975 50  0000 C CNN
F 1 "15μH" V 12575 6000 50  0000 C CNN
F 2 "AllModules:WETPC-S_1" H 12650 6000 50  0001 C CNN
F 3 "" H 12650 6000 50  0001 C CNN
F 4 "INDUCTOR, STORAGE, 15UH, WE-TPC" H 0   0   50  0001 C CNN "Description"
F 5 "10022624" H 0   0   50  0001 C CNN "Item Number"
F 6 "TAIYO YUDEN_RMS1" H 0   0   50  0001 C CNN "Manufacturer"
F 7 "WURTH ELEKTRONIK GMBH" H 0   0   50  0001 C CNN "Manufacturer2"
F 8 "NR 4012T 150M" H 0   0   50  0001 C CNN "Manufacturer_No"
F 9 "744031150" H 0   0   50  0001 C CNN "Manufacturer_No2"
	1    12650 6000
	0    -1   -1   0   
$EndComp
Connection ~ 13100 3400
$Comp
L V_Transistor:Si2315BDS T6
U 1 1 5EB4B38F
P 9500 2500
F 0 "T6" V 9842 2500 50  0000 C CNN
F 1 "Si2315BDS" V 9751 2500 50  0000 C CNN
F 2 "AllModules:SOT23-GSD_1" H 9700 2600 50  0001 C CNN
F 3 "" H 9500 2500 50  0001 C CNN
F 4 "TRANSISTOR, MOSFET, P CHANNEL, 12V, 3.8A, SOT23" H 0   0   50  0001 C CNN "Description"
F 5 "10024446" H 0   0   50  0001 C CNN "Item Number"
F 6 "VISHAY_RMS1" H 0   0   50  0001 C CNN "Manufacturer"
F 7 "SI2315BDS-T1-E3" H 0   0   50  0001 C CNN "Manufacturer_No"
	1    9500 2500
	0    1    -1   0   
$EndComp
$Comp
L V_Transistor:Si2315BDS T8
U 1 1 5EB4CC82
P 10525 2500
F 0 "T8" V 10867 2500 50  0000 C CNN
F 1 "Si2315BDS" V 10776 2500 50  0000 C CNN
F 2 "AllModules:SOT23-GSD_1" H 10725 2600 50  0001 C CNN
F 3 "" H 10525 2500 50  0001 C CNN
F 4 "TRANSISTOR, MOSFET, P CHANNEL, 12V, 3.8A, SOT23" H 0   0   50  0001 C CNN "Description"
F 5 "10024446" H 0   0   50  0001 C CNN "Item Number"
F 6 "VISHAY_RMS1" H 0   0   50  0001 C CNN "Manufacturer"
F 7 "SI2315BDS-T1-E3" H 0   0   50  0001 C CNN "Manufacturer_No"
	1    10525 2500
	0    1    -1   0   
$EndComp
$Comp
L V_Transistor:Si2312BDS T9
U 1 1 5EB4DE23
P 14400 9100
F 0 "T9" H 14600 9150 50  0000 L CNN
F 1 "Si2312BDS" H 14600 9050 50  0000 L CNN
F 2 "AllModules:SOT23-GSD_1" H 14600 9200 50  0001 C CNN
F 3 "" H 14400 9100 50  0001 C CNN
F 4 "TRANSISTOR, MOSFET, N CHANNEL, 20V, 5A, SOT23" H 0   0   50  0001 C CNN "Description"
F 5 "10024445" H 0   0   50  0001 C CNN "Item Number"
F 6 "VISHAY_RMS1" H 0   0   50  0001 C CNN "Manufacturer"
F 7 "SI2312BDS-T1-E3" H 0   0   50  0001 C CNN "Manufacturer_No"
	1    14400 9100
	1    0    0    -1  
$EndComp
$Comp
L V_Transistor:Si2312BDS T10
U 1 1 5EBA07D3
P 14400 7850
F 0 "T10" H 14600 7900 50  0000 L CNN
F 1 "Si2312BDS" H 14600 7800 50  0000 L CNN
F 2 "AllModules:SOT23-GSD_1" H 14600 7950 50  0001 C CNN
F 3 "" H 14400 7850 50  0001 C CNN
F 4 "TRANSISTOR, MOSFET, N CHANNEL, 20V, 5A, SOT23" H 0   0   50  0001 C CNN "Description"
F 5 "10024445" H 0   0   50  0001 C CNN "Item Number"
F 6 "VISHAY_RMS1" H 0   0   50  0001 C CNN "Manufacturer"
F 7 "SI2312BDS-T1-E3" H 0   0   50  0001 C CNN "Manufacturer_No"
	1    14400 7850
	1    0    0    -1  
$EndComp
$Comp
L V_Transistor:Si2312BDS T7
U 1 1 5EBA11BD
P 10400 5000
F 0 "T7" H 10600 5050 50  0000 L CNN
F 1 "Si2312BDS" H 10600 4950 50  0000 L CNN
F 2 "AllModules:SOT23-GSD_1" H 10600 5100 50  0001 C CNN
F 3 "" H 10400 5000 50  0001 C CNN
F 4 "TRANSISTOR, MOSFET, N CHANNEL, 20V, 5A, SOT23" H 0   0   50  0001 C CNN "Description"
F 5 "10024445" H 0   0   50  0001 C CNN "Item Number"
F 6 "VISHAY_RMS1" H 0   0   50  0001 C CNN "Manufacturer"
F 7 "SI2312BDS-T1-E3" H 0   0   50  0001 C CNN "Manufacturer_No"
	1    10400 5000
	1    0    0    -1  
$EndComp
$Comp
L V_Transistor:Si2312BDS T13
U 1 1 5EBA2D5F
P 4600 7900
F 0 "T13" H 4800 7950 50  0000 L CNN
F 1 "Si2312BDS" H 4800 7850 50  0000 L CNN
F 2 "AllModules:SOT23-GSD_1" H 4800 8000 50  0001 C CNN
F 3 "" H 4600 7900 50  0001 C CNN
F 4 "TRANSISTOR, MOSFET, N CHANNEL, 20V, 5A, SOT23" H 0   0   50  0001 C CNN "Description"
F 5 "10024445" H 0   0   50  0001 C CNN "Item Number"
F 6 "VISHAY_RMS1" H 0   0   50  0001 C CNN "Manufacturer"
F 7 "SI2312BDS-T1-E3" H 0   0   50  0001 C CNN "Manufacturer_No"
	1    4600 7900
	-1   0    0    -1  
$EndComp
$Comp
L V_Transistor:Si2315BDS T11
U 1 1 5EBAB0F6
P 3600 6600
F 0 "T11" V 3942 6600 50  0000 C CNN
F 1 "Si2315BDS" V 3851 6600 50  0000 C CNN
F 2 "AllModules:SOT23-GSD_1" H 3800 6700 50  0001 C CNN
F 3 "" H 3600 6600 50  0001 C CNN
F 4 "TRANSISTOR, MOSFET, P CHANNEL, 12V, 3.8A, SOT23" H 0   0   50  0001 C CNN "Description"
F 5 "10024446" H 0   0   50  0001 C CNN "Item Number"
F 6 "VISHAY_RMS1" H 0   0   50  0001 C CNN "Manufacturer"
F 7 "SI2315BDS-T1-E3" H 0   0   50  0001 C CNN "Manufacturer_No"
	1    3600 6600
	0    1    -1   0   
$EndComp
$Comp
L V_Transistor:Si2315BDS T12
U 1 1 5EBB039C
P 4500 6600
F 0 "T12" V 4842 6600 50  0000 C CNN
F 1 "Si2315BDS" V 4751 6600 50  0000 C CNN
F 2 "AllModules:SOT23-GSD_1" H 4700 6700 50  0001 C CNN
F 3 "" H 4500 6600 50  0001 C CNN
F 4 "TRANSISTOR, MOSFET, P CHANNEL, 12V, 3.8A, SOT23" H 0   0   50  0001 C CNN "Description"
F 5 "10024446" H 0   0   50  0001 C CNN "Item Number"
F 6 "VISHAY_RMS1" H 0   0   50  0001 C CNN "Manufacturer"
F 7 "SI2315BDS-T1-E3" H 0   0   50  0001 C CNN "Manufacturer_No"
	1    4500 6600
	0    -1   -1   0   
$EndComp
Connection ~ 2650 4475
Wire Wire Line
	2650 4475 2500 4475
Wire Wire Line
	3150 4675 3350 4675
Connection ~ 3350 4675
Wire Wire Line
	3350 4675 3350 4875
$Comp
L V_Power:GND #PWR0101
U 1 1 5EF7CFCF
P 2350 5200
F 0 "#PWR0101" H 2350 4950 50  0001 C CNN
F 1 "GND" H 2350 5050 50  0000 C CNN
F 2 "" H 2350 5200 50  0001 C CNN
F 3 "" H 2350 5200 50  0001 C CNN
	1    2350 5200
	1    0    0    -1  
$EndComp
$Comp
L V_Diode:BAT54C D6
U 1 1 5EFB9F08
P 1950 4100
AR Path="/5EFB9F08" Ref="D6"  Part="1" 
AR Path="/5E89C6B8/5EFB9F08" Ref="D6"  Part="1" 
F 0 "D6" H 1850 4400 50  0000 L CNN
F 1 "BAT54C" H 1700 4325 50  0000 L CNN
F 2 "AllModules:SOT23-1G_1" H 1675 3625 50  0001 L CNN
F 3 "" H 1870 4200 50  0001 C CNN
F 4 "DIODE SCHOTTKY DOUBLE,30V, 200MA,SOT23" H 2275 3925 60  0001 C CNN "Description"
F 5 "10022653" H 1950 4100 50  0001 C CNN "Item Number"
F 6 "NXP SEMICONDUCTORS_RMS1" H 0   0   50  0001 C CNN "Manufacturer"
F 7 "NXP SEMICONDUCTORS_RMS1" H 0   0   50  0001 C CNN "Manufacturer2"
F 8 "BAT54C,215" H 0   0   50  0001 C CNN "Manufacturer_No"
F 9 "BAT54C" H 0   0   50  0001 C CNN "Manufacturer_No2"
	1    1950 4100
	1    0    0    -1  
$EndComp
Wire Wire Line
	1450 4000 1650 4000
Wire Wire Line
	1450 4200 1650 4200
Wire Wire Line
	2350 4375 3450 4375
$Comp
L V_Transistor:Si2312BDS T5
U 1 1 5F15BC4B
P 2900 3900
F 0 "T5" H 3100 3950 50  0000 L CNN
F 1 "Si2312BDS" H 2550 4075 50  0000 L CNN
F 2 "AllModules:SOT23-GSD_1" H 3100 4000 50  0001 C CNN
F 3 "" H 2900 3900 50  0001 C CNN
F 4 "TRANSISTOR, MOSFET, N CHANNEL, 20V, 5A, SOT23" H 0   0   50  0001 C CNN "Description"
F 5 "10024445" H 0   0   50  0001 C CNN "Item Number"
F 6 "VISHAY_RMS1" H 0   0   50  0001 C CNN "Manufacturer"
F 7 "SI2312BDS-T1-E3" H 0   0   50  0001 C CNN "Manufacturer_No"
	1    2900 3900
	1    0    0    -1  
$EndComp
$Comp
L V_Diode:BAT54C D?
U 1 1 5EA7338A
P 5700 7900
AR Path="/5EA7338A" Ref="D?"  Part="1" 
AR Path="/5E89C6B8/5EA7338A" Ref="D16"  Part="1" 
F 0 "D16" H 5600 8200 50  0000 L CNN
F 1 "BAT54C" H 5450 8125 50  0000 L CNN
F 2 "AllModules:SOT23-1G_1" H 5425 7425 50  0001 L CNN
F 3 "" H 5620 8000 50  0001 C CNN
F 4 "DIODE SCHOTTKY DOUBLE,30V, 200MA,SOT23" H 6025 7725 60  0001 C CNN "Description"
F 5 "10022653" H 5700 7900 50  0001 C CNN "Item Number"
F 6 "NXP SEMICONDUCTORS_RMS1" H 0   0   50  0001 C CNN "Manufacturer"
F 7 "NXP SEMICONDUCTORS_RMS1" H 0   0   50  0001 C CNN "Manufacturer2"
F 8 "BAT54C,215" H 0   0   50  0001 C CNN "Manufacturer_No"
F 9 "BAT54C" H 0   0   50  0001 C CNN "Manufacturer_No2"
	1    5700 7900
	-1   0    0    -1  
$EndComp
Wire Wire Line
	6000 8000 8100 8000
Wire Wire Line
	8100 8000 8100 5800
Wire Wire Line
	6000 7800 6100 7800
Wire Wire Line
	6100 7800 6100 7700
Wire Wire Line
	4800 7900 5100 7900
Connection ~ 5100 7900
Wire Wire Line
	5100 7900 5500 7900
Wire Wire Line
	5100 8300 5100 8400
Wire Wire Line
	5100 8400 4500 8400
Wire Wire Line
	4500 8400 4500 8100
Wire Wire Line
	4500 8500 4500 8400
Connection ~ 4500 8400
Wire Wire Line
	4500 7500 4500 7700
Wire Wire Line
	3600 6800 3600 7000
$Comp
L V_Diode:BAT54C D?
U 1 1 5ED7AFF0
P 1900 6500
AR Path="/5ED7AFF0" Ref="D?"  Part="1" 
AR Path="/5E89C6B8/5ED7AFF0" Ref="D17"  Part="1" 
F 0 "D17" H 1800 6800 50  0000 L CNN
F 1 "BAT54C" H 1650 6725 50  0000 L CNN
F 2 "AllModules:SOT23-1G_1" H 1625 6025 50  0001 L CNN
F 3 "" H 1820 6600 50  0001 C CNN
F 4 "DIODE SCHOTTKY DOUBLE,30V, 200MA,SOT23" H 2225 6325 60  0001 C CNN "Description"
F 5 "10022653" H 1900 6500 50  0001 C CNN "Item Number"
F 6 "NXP SEMICONDUCTORS_RMS1" H 0   0   50  0001 C CNN "Manufacturer"
F 7 "NXP SEMICONDUCTORS_RMS1" H 0   0   50  0001 C CNN "Manufacturer2"
F 8 "BAT54C,215" H 0   0   50  0001 C CNN "Manufacturer_No"
F 9 "BAT54C" H 0   0   50  0001 C CNN "Manufacturer_No2"
	1    1900 6500
	1    0    0    1   
$EndComp
$Comp
L V_Power:+5V #PWR0102
U 1 1 5ED7E0FA
P 1400 6300
F 0 "#PWR0102" H 1400 6150 50  0001 C CNN
F 1 "+5V" H 1415 6473 50  0000 C CNN
F 2 "" H 1400 6300 50  0001 C CNN
F 3 "" H 1400 6300 50  0001 C CNN
	1    1400 6300
	1    0    0    -1  
$EndComp
Wire Wire Line
	1400 6300 1400 6400
Wire Wire Line
	1400 6600 1600 6600
Wire Wire Line
	1600 6400 1400 6400
Connection ~ 1400 6400
Wire Wire Line
	1400 6400 1400 6600
Wire Wire Line
	2100 6500 2300 6500
$Comp
L V_IC:TLV3011AIDBV IC9
U 1 1 5EA33A5F
P 13150 8200
F 0 "IC9" H 13300 8400 50  0000 C CNN
F 1 "TLV3011" H 13500 8075 50  0000 C CNN
F 2 "AllModules:SOT23-6_1" H 13350 8200 50  0001 C CNN
F 3 "" H 13150 8200 50  0001 C CNN
F 4 "IC, COMPARATOR WITH VOLTAGE REF, 1.8V, SOT23" H 13150 8200 50  0001 C CNN "Description"
F 5 "10022148" H 13150 8200 50  0001 C CNN "Item Number"
F 6 "TEXAS INSTRUMENTS_RMS1" H 13150 8200 50  0001 C CNN "Manufacturer"
F 7 "TLV3011AIDBVR" H 13150 8200 50  0001 C CNN "Manufacturer_No"
F 8 "TEXAS INSTRUMENTS_RMS1" H 0   0   50  0001 C CNN "Manufacturer2"
F 9 "TLV3011AIDBVT" H 0   0   50  0001 C CNN "Manufacturer_No2"
	1    13150 8200
	1    0    0    -1  
$EndComp
Wire Wire Line
	13250 8500 13250 8625
Wire Wire Line
	13150 8500 13150 8600
$Comp
L V_IC:TLV3011AIDBV IC7
U 1 1 5EB4E57D
P 8100 3150
F 0 "IC7" H 8250 3350 50  0000 C CNN
F 1 "TLV3011" H 8450 3025 50  0000 C CNN
F 2 "AllModules:SOT23-6_1" H 8300 3150 50  0001 C CNN
F 3 "" H 8100 3150 50  0001 C CNN
F 4 "IC, COMPARATOR WITH VOLTAGE REF, 1.8V, SOT23" H 8100 3150 50  0001 C CNN "Description"
F 5 "10022148" H 8100 3150 50  0001 C CNN "Item Number"
F 6 "TEXAS INSTRUMENTS_RMS1" H 8100 3150 50  0001 C CNN "Manufacturer"
F 7 "TLV3011AIDBVR" H 8100 3150 50  0001 C CNN "Manufacturer_No"
F 8 "TEXAS INSTRUMENTS_RMS1" H 0   0   50  0001 C CNN "Manufacturer2"
F 9 "TLV3011AIDBVT" H 0   0   50  0001 C CNN "Manufacturer_No2"
	1    8100 3150
	1    0    0    -1  
$EndComp
Wire Wire Line
	6950 2400 8100 2400
Wire Wire Line
	8100 2850 8100 2700
Connection ~ 8100 2400
Wire Wire Line
	8100 2400 9075 2400
Wire Wire Line
	8250 2700 8100 2700
Connection ~ 8100 2700
Wire Wire Line
	8100 2700 8100 2400
Wire Wire Line
	8100 3450 8100 3525
$Comp
L V_Resistor:R0805_33R_1% R36
U 1 1 5EA94404
P 3825 2400
F 0 "R36" H 3825 2500 50  0000 C CNN
F 1 "33" H 3825 2400 50  0000 C CNN
F 2 "AllModules:R0805_1b" H 3825 2600 50  0001 C CNN
F 3 "" H 3825 2400 50  0001 C CNN
F 4 "RESISTOR 33 OHM +/- 1% 0,125W,0805" H 3825 2600 50  0001 C CNN "Description"
F 5 "10025604" H 3825 2600 50  0001 C CNN "Item Number"
F 6 "VISHAY_RMS1" H 0   0   50  0001 C CNN "Manufacturer"
F 7 "YAGEO_RMS1" H 0   0   50  0001 C CNN "Manufacturer2"
F 8 "YAGEO_RMS1" H 0   0   50  0001 C CNN "Manufacturer3"
F 9 "CRCW080533R0FKEA" H 0   0   50  0001 C CNN "Manufacturer_No"
F 10 "RC0805FR-0733RL" H 0   0   50  0001 C CNN "Manufacturer_No2"
F 11 "RC0805FR-0733RL" H 0   0   50  0001 C CNN "Manufacturer_No3"
	1    3825 2400
	-1   0    0    1   
$EndComp
$Comp
L V_Resistor:R0805_470R_1% R71
U 1 1 5EA99BE9
P 2450 6500
F 0 "R71" V 2250 6500 50  0000 C CNN
F 1 "470" V 2350 6500 50  0000 C CNN
F 2 "AllModules:R0805_1b" H 2450 6700 50  0001 C CNN
F 3 "" H 2450 6500 50  0001 C CNN
F 4 "RESISTOR,470 OHM, 0.125W,+/-1%, 0805" H 2450 6700 50  0001 C CNN "Description"
F 5 "10022697" H 2450 6700 50  0001 C CNN "Item Number"
F 6 "YAGEO_RMS1" H 0   0   50  0001 C CNN "Manufacturer"
F 7 "VISHAY_RMS1" H 0   0   50  0001 C CNN "Manufacturer2"
F 8 "YAGEO_RMS1" H 0   0   50  0001 C CNN "Manufacturer3"
F 9 "RC0805FR-07470RL" H 0   0   50  0001 C CNN "Manufacturer_No"
F 10 "CRCW0805470RFKEA" H 0   0   50  0001 C CNN "Manufacturer_No2"
F 11 "RC0805FR-07470RL" H 0   0   50  0001 C CNN "Manufacturer_No3"
	1    2450 6500
	0    -1   1    0   
$EndComp
$Comp
L V_Resistor:R0402_59k_1% R45
U 1 1 5EE70D4C
P 8100 3675
F 0 "R45" H 8100 3775 50  0000 C CNN
F 1 "59k" H 8100 3675 50  0000 C CNN
F 2 "AllModules:R0402_1" H 8100 3875 50  0001 C CNN
F 3 "" H 8100 3675 50  0001 C CNN
F 4 "RESISTOR 59 KOHMS, 0.063W, +/-1% 0402" H 8100 3875 50  0001 C CNN "Description"
F 5 "10022151" H 8100 3875 50  0001 C CNN "Item Number"
F 6 "VISHAY_RMS1" H 0   0   50  0001 C CNN "Manufacturer"
F 7 "YAGEO_RMS1" H 0   0   50  0001 C CNN "Manufacturer2"
F 8 "YAGEO_RMS1" H 0   0   50  0001 C CNN "Manufacturer3"
F 9 "CRCW040259K0FKED" H 0   0   50  0001 C CNN "Manufacturer_No"
F 10 "RC0402FR-0759KL" H 0   0   50  0001 C CNN "Manufacturer_No2"
F 11 "RC0402FR-0759KL" H 0   0   50  0001 C CNN "Manufacturer_No3"
	1    8100 3675
	0    -1   -1   0   
$EndComp
Wire Wire Line
	14500 8700 15000 8700
Connection ~ 14500 8700
Text Label 15000 8700 2    50   ~ 0
SHDN2
Text Label 15000 7450 2    50   ~ 0
SHDN1
Text Label 14750 4400 2    50   ~ 0
SHDN1
$Comp
L V_Resistor:R0402_1k_1% R33
U 1 1 5F797D1C
P 2100 2700
F 0 "R33" H 2100 2800 50  0000 C CNN
F 1 "1k" H 2100 2700 50  0000 C CNN
F 2 "AllModules:R0402_1" H 2100 2900 50  0001 C CNN
F 3 "" H 2100 2700 50  0001 C CNN
F 4 "RESISTOR, 1 KOHM, 0.063W,+/-1%, 0402" H 2100 2900 50  0001 C CNN "Description"
F 5 "10022153" H 2100 2900 50  0001 C CNN "Item Number"
F 6 "YAGEO_RMS1" H 0   0   50  0001 C CNN "Manufacturer"
F 7 "YAGEO_RMS1" H 0   0   50  0001 C CNN "Manufacturer2"
F 8 "VISHAY_RMS1" H 0   0   50  0001 C CNN "Manufacturer3"
F 9 "RC0402FR-071KL" H 0   0   50  0001 C CNN "Manufacturer_No"
F 10 "RC0402FR-071KL" H 0   0   50  0001 C CNN "Manufacturer_No2"
F 11 "CRCW04021K00FKED" H 0   0   50  0001 C CNN "Manufacturer_No3"
	1    2100 2700
	0    -1   -1   0   
$EndComp
$Comp
L V_Resistor:R0402_10k_1% R66
U 1 1 5F79A593
P 3325 1950
F 0 "R66" H 3325 2050 50  0000 C CNN
F 1 "10k" H 3325 1950 50  0000 C CNN
F 2 "AllModules:R0402_1" H 3325 2150 50  0001 C CNN
F 3 "" H 3325 1950 50  0001 C CNN
F 4 "RESISTOR,10K OHM, 0.063W, +/-1%, 0402" H 3325 2150 50  0001 C CNN "Description"
F 5 "10022150" H 3325 2150 50  0001 C CNN "Item Number"
F 6 "YAGEO_RMS1" H 0   0   50  0001 C CNN "Manufacturer"
F 7 "VISHAY_RMS1" H 0   0   50  0001 C CNN "Manufacturer2"
F 8 "YAGEO_RMS1" H 0   0   50  0001 C CNN "Manufacturer3"
F 9 "RC0402FR-0710KL" H 0   0   50  0001 C CNN "Manufacturer_No"
F 10 "CRCW040210K0FKED" H 0   0   50  0001 C CNN "Manufacturer_No2"
F 11 "RC0402FR-0710KL" H 0   0   50  0001 C CNN "Manufacturer_No3"
	1    3325 1950
	-1   0    0    1   
$EndComp
$Comp
L V_Resistor:R0402_100k_1% R38
U 1 1 5F79AE7D
P 4475 3350
F 0 "R38" H 4475 3450 50  0000 C CNN
F 1 "100k" H 4475 3350 50  0000 C CNN
F 2 "AllModules:R0402_1" H 4475 3550 50  0001 C CNN
F 3 "" H 4475 3350 50  0001 C CNN
F 4 "RESISTOR 100K OHM, 0.063W, +/-1%, 0402" H 4475 3550 50  0001 C CNN "Description"
F 5 "10022149" H 4475 3550 50  0001 C CNN "Item Number"
F 6 "VISHAY_RMS1" H 0   0   50  0001 C CNN "Manufacturer"
F 7 "YAGEO_RMS1" H 0   0   50  0001 C CNN "Manufacturer2"
F 8 "YAGEO_RMS1" H 0   0   50  0001 C CNN "Manufacturer3"
F 9 "CRCW0402100KFKED" H 0   0   50  0001 C CNN "Manufacturer_No"
F 10 "RC0402FR-07100KL" H 0   0   50  0001 C CNN "Manufacturer_No2"
F 11 "RC0402FR-07100KL" H 0   0   50  0001 C CNN "Manufacturer_No3"
	1    4475 3350
	0    -1   -1   0   
$EndComp
$Comp
L V_Resistor:R0402_100k_1% R39
U 1 1 5F79C30E
P 4475 3750
F 0 "R39" H 4475 3850 50  0000 C CNN
F 1 "100k" H 4475 3750 50  0000 C CNN
F 2 "AllModules:R0402_1" H 4475 3950 50  0001 C CNN
F 3 "" H 4475 3750 50  0001 C CNN
F 4 "RESISTOR 100K OHM, 0.063W, +/-1%, 0402" H 4475 3950 50  0001 C CNN "Description"
F 5 "10022149" H 4475 3950 50  0001 C CNN "Item Number"
F 6 "VISHAY_RMS1" H 0   0   50  0001 C CNN "Manufacturer"
F 7 "YAGEO_RMS1" H 0   0   50  0001 C CNN "Manufacturer2"
F 8 "YAGEO_RMS1" H 0   0   50  0001 C CNN "Manufacturer3"
F 9 "CRCW0402100KFKED" H 0   0   50  0001 C CNN "Manufacturer_No"
F 10 "RC0402FR-07100KL" H 0   0   50  0001 C CNN "Manufacturer_No2"
F 11 "RC0402FR-07100KL" H 0   0   50  0001 C CNN "Manufacturer_No3"
	1    4475 3750
	0    -1   -1   0   
$EndComp
$Comp
L V_Resistor:R0402_220R_1% R37
U 1 1 5F79CD23
P 3825 2775
F 0 "R37" H 3825 2875 50  0000 C CNN
F 1 "220" H 3825 2775 50  0000 C CNN
F 2 "AllModules:R0402_1" H 3825 2975 50  0001 C CNN
F 3 "" H 3825 2775 50  0001 C CNN
F 4 "RESISTOR, 220 OHM,+/-1%, 0.063W, 0402" H 3825 2975 50  0001 C CNN "Description"
F 5 "10021387" H 3825 2975 50  0001 C CNN "Item Number"
F 6 "YAGEO_RMS1" H 0   0   50  0001 C CNN "Manufacturer"
F 7 "VISHAY_RMS1" H 0   0   50  0001 C CNN "Manufacturer2"
F 8 "YAGEO_RMS1" H 0   0   50  0001 C CNN "Manufacturer3"
F 9 "RC0402FR-07220RL" H 0   0   50  0001 C CNN "Manufacturer_No"
F 10 "CRCW0402220RFKED" H 0   0   50  0001 C CNN "Manufacturer_No2"
F 11 "RC0402FR-07220RL" H 0   0   50  0001 C CNN "Manufacturer_No3"
	1    3825 2775
	-1   0    0    1   
$EndComp
$Comp
L V_Resistor:R0402_100k_1% R42
U 1 1 5F7A03FF
P 5575 4875
F 0 "R42" H 5575 4975 50  0000 C CNN
F 1 "100k" H 5575 4875 50  0000 C CNN
F 2 "AllModules:R0402_1" H 5575 5075 50  0001 C CNN
F 3 "" H 5575 4875 50  0001 C CNN
F 4 "RESISTOR 100K OHM, 0.063W, +/-1%, 0402" H 5575 5075 50  0001 C CNN "Description"
F 5 "10022149" H 5575 5075 50  0001 C CNN "Item Number"
F 6 "VISHAY_RMS1" H 0   0   50  0001 C CNN "Manufacturer"
F 7 "YAGEO_RMS1" H 0   0   50  0001 C CNN "Manufacturer2"
F 8 "YAGEO_RMS1" H 0   0   50  0001 C CNN "Manufacturer3"
F 9 "CRCW0402100KFKED" H 0   0   50  0001 C CNN "Manufacturer_No"
F 10 "RC0402FR-07100KL" H 0   0   50  0001 C CNN "Manufacturer_No2"
F 11 "RC0402FR-07100KL" H 0   0   50  0001 C CNN "Manufacturer_No3"
	1    5575 4875
	0    1    1    0   
$EndComp
$Comp
L V_Resistor:R0402_180k_1% R41
U 1 1 5F7A2080
P 5575 4225
F 0 "R41" H 5575 4325 50  0000 C CNN
F 1 "180k" H 5575 4225 50  0000 C CNN
F 2 "AllModules:R0402_1" H 5575 4425 50  0001 C CNN
F 3 "" H 5575 4225 50  0001 C CNN
F 4 "RESISTOR, 180 KOHM, +/-1%, 0.063W.0402" H 5575 4425 50  0001 C CNN "Description"
F 5 "10021388" H 5575 4425 50  0001 C CNN "Item Number"
F 6 "YAGEO_RMS1" H 0   0   50  0001 C CNN "Manufacturer"
F 7 "VISHAY_RMS1" H 0   0   50  0001 C CNN "Manufacturer2"
F 8 "YAGEO_RMS1" H 0   0   50  0001 C CNN "Manufacturer3"
F 9 "RC0402FR-07180KL" H 0   0   50  0001 C CNN "Manufacturer_No"
F 10 "CRCW0402180KFKED" H 0   0   50  0001 C CNN "Manufacturer_No2"
F 11 "RC0402FR-07180KL" H 0   0   50  0001 C CNN "Manufacturer_No3"
	1    5575 4225
	0    1    1    0   
$EndComp
$Comp
L V_Resistor:R0402_4k7_1% R40
U 1 1 5F7A36E0
P 4825 3625
F 0 "R40" H 4825 3725 50  0000 C CNN
F 1 "4.7k" H 4825 3625 50  0000 C CNN
F 2 "AllModules:R0402_1" H 4825 3825 50  0001 C CNN
F 3 "" H 4825 3625 50  0001 C CNN
F 4 "RESISTOR,4.7 KOHM,+/-1%.0.063W,0402" H 4825 3825 50  0001 C CNN "Description"
F 5 "10021385" H 4825 3825 50  0001 C CNN "Item Number"
F 6 "PHYCOMP_RMS1" H 0   0   50  0001 C CNN "Manufacturer"
F 7 "VISHAY_RMS1" H 0   0   50  0001 C CNN "Manufacturer2"
F 8 "YAGEO/PHYCOMP_RMS1" H 0   0   50  0001 C CNN "Manufacturer3"
F 9 "RC0402FR-074K7L" H 0   0   50  0001 C CNN "Manufacturer_No"
F 10 "CRCW04024K70FKED" H 0   0   50  0001 C CNN "Manufacturer_No2"
F 11 "RC0402FR-074K7L" H 0   0   50  0001 C CNN "Manufacturer_No3"
	1    4825 3625
	0    1    1    0   
$EndComp
$Comp
L V_Resistor:R0402_10k_1% R68
U 1 1 5F7AA4CB
P 4500 7350
F 0 "R68" H 4500 7450 50  0000 C CNN
F 1 "10k" H 4500 7350 50  0000 C CNN
F 2 "AllModules:R0402_1" H 4500 7550 50  0001 C CNN
F 3 "" H 4500 7350 50  0001 C CNN
F 4 "RESISTOR,10K OHM, 0.063W, +/-1%, 0402" H 4500 7550 50  0001 C CNN "Description"
F 5 "10022150" H 4500 7550 50  0001 C CNN "Item Number"
F 6 "YAGEO_RMS1" H 0   0   50  0001 C CNN "Manufacturer"
F 7 "VISHAY_RMS1" H 0   0   50  0001 C CNN "Manufacturer2"
F 8 "YAGEO_RMS1" H 0   0   50  0001 C CNN "Manufacturer3"
F 9 "RC0402FR-0710KL" H 0   0   50  0001 C CNN "Manufacturer_No"
F 10 "CRCW040210K0FKED" H 0   0   50  0001 C CNN "Manufacturer_No2"
F 11 "RC0402FR-0710KL" H 0   0   50  0001 C CNN "Manufacturer_No3"
	1    4500 7350
	0    -1   -1   0   
$EndComp
Wire Wire Line
	5100 8000 5100 7900
$Comp
L V_Resistor:R0402_10k_1% R70
U 1 1 5F7A4F68
P 5100 8150
F 0 "R70" H 5100 8250 50  0000 C CNN
F 1 "10k" H 5100 8150 50  0000 C CNN
F 2 "AllModules:R0402_1" H 5100 8350 50  0001 C CNN
F 3 "" H 5100 8150 50  0001 C CNN
F 4 "RESISTOR,10K OHM, 0.063W, +/-1%, 0402" H 5100 8350 50  0001 C CNN "Description"
F 5 "10022150" H 5100 8350 50  0001 C CNN "Item Number"
F 6 "YAGEO_RMS1" H 0   0   50  0001 C CNN "Manufacturer"
F 7 "VISHAY_RMS1" H 0   0   50  0001 C CNN "Manufacturer2"
F 8 "YAGEO_RMS1" H 0   0   50  0001 C CNN "Manufacturer3"
F 9 "RC0402FR-0710KL" H 0   0   50  0001 C CNN "Manufacturer_No"
F 10 "CRCW040210K0FKED" H 0   0   50  0001 C CNN "Manufacturer_No2"
F 11 "RC0402FR-0710KL" H 0   0   50  0001 C CNN "Manufacturer_No3"
	1    5100 8150
	0    -1   -1   0   
$EndComp
$Comp
L V_Resistor:R0402_10k_1% R32
U 1 1 5F7AD158
P 2350 4850
F 0 "R32" H 2350 4950 50  0000 C CNN
F 1 "10k" H 2350 4850 50  0000 C CNN
F 2 "AllModules:R0402_1" H 2350 5050 50  0001 C CNN
F 3 "" H 2350 4850 50  0001 C CNN
F 4 "RESISTOR,10K OHM, 0.063W, +/-1%, 0402" H 2350 5050 50  0001 C CNN "Description"
F 5 "10022150" H 2350 5050 50  0001 C CNN "Item Number"
F 6 "YAGEO_RMS1" H 0   0   50  0001 C CNN "Manufacturer"
F 7 "VISHAY_RMS1" H 0   0   50  0001 C CNN "Manufacturer2"
F 8 "YAGEO_RMS1" H 0   0   50  0001 C CNN "Manufacturer3"
F 9 "RC0402FR-0710KL" H 0   0   50  0001 C CNN "Manufacturer_No"
F 10 "CRCW040210K0FKED" H 0   0   50  0001 C CNN "Manufacturer_No2"
F 11 "RC0402FR-0710KL" H 0   0   50  0001 C CNN "Manufacturer_No3"
	1    2350 4850
	0    -1   -1   0   
$EndComp
$Comp
L V_Resistor:R0402_0R R31
U 1 1 5F7D0109
P 1300 4200
F 0 "R31" H 1300 4300 50  0000 C CNN
F 1 "0" H 1300 4200 50  0000 C CNN
F 2 "AllModules:R0402_1" H 1300 4400 50  0001 C CNN
F 3 "" H 1300 4200 50  0001 C CNN
F 4 "RESISTOR,0 OHM,0.063W,0402" H 1300 4400 50  0001 C CNN "Description"
F 5 "10021557" H 1300 4400 50  0001 C CNN "Item Number"
F 6 "YAGEO_RMS1" H 0   0   50  0001 C CNN "Manufacturer"
F 7 "VISHAY_RMS1" H 0   0   50  0001 C CNN "Manufacturer2"
F 8 "YAGEO_RMS1" H 0   0   50  0001 C CNN "Manufacturer3"
F 9 "232270591001L" H 0   0   50  0001 C CNN "Manufacturer_No"
F 10 "CRCW04020000Z0ED" H 0   0   50  0001 C CNN "Manufacturer_No2"
F 11 "RC0402JR-070RL" H 0   0   50  0001 C CNN "Manufacturer_No3"
	1    1300 4200
	1    0    0    -1  
$EndComp
$Comp
L V_Resistor:R0402_0R R30
U 1 1 5F7D13B9
P 1300 4000
F 0 "R30" H 1300 4100 50  0000 C CNN
F 1 "0" H 1300 4000 50  0000 C CNN
F 2 "AllModules:R0402_1" H 1300 4200 50  0001 C CNN
F 3 "" H 1300 4000 50  0001 C CNN
F 4 "RESISTOR,0 OHM,0.063W,0402" H 1300 4200 50  0001 C CNN "Description"
F 5 "10021557" H 1300 4200 50  0001 C CNN "Item Number"
F 6 "YAGEO_RMS1" H 0   0   50  0001 C CNN "Manufacturer"
F 7 "VISHAY_RMS1" H 0   0   50  0001 C CNN "Manufacturer2"
F 8 "YAGEO_RMS1" H 0   0   50  0001 C CNN "Manufacturer3"
F 9 "232270591001L" H 0   0   50  0001 C CNN "Manufacturer_No"
F 10 "CRCW04020000Z0ED" H 0   0   50  0001 C CNN "Manufacturer_No2"
F 11 "RC0402JR-070RL" H 0   0   50  0001 C CNN "Manufacturer_No3"
	1    1300 4000
	1    0    0    -1  
$EndComp
$Comp
L V_Resistor:R0402_10k_1% R34
U 1 1 5F7D1FCC
P 3000 4675
F 0 "R34" H 3000 4775 50  0000 C CNN
F 1 "10k" H 3000 4675 50  0000 C CNN
F 2 "AllModules:R0402_1" H 3000 4875 50  0001 C CNN
F 3 "" H 3000 4675 50  0001 C CNN
F 4 "RESISTOR,10K OHM, 0.063W, +/-1%, 0402" H 3000 4875 50  0001 C CNN "Description"
F 5 "10022150" H 3000 4875 50  0001 C CNN "Item Number"
F 6 "YAGEO_RMS1" H 0   0   50  0001 C CNN "Manufacturer"
F 7 "VISHAY_RMS1" H 0   0   50  0001 C CNN "Manufacturer2"
F 8 "YAGEO_RMS1" H 0   0   50  0001 C CNN "Manufacturer3"
F 9 "RC0402FR-0710KL" H 0   0   50  0001 C CNN "Manufacturer_No"
F 10 "CRCW040210K0FKED" H 0   0   50  0001 C CNN "Manufacturer_No2"
F 11 "RC0402FR-0710KL" H 0   0   50  0001 C CNN "Manufacturer_No3"
	1    3000 4675
	-1   0    0    1   
$EndComp
$Comp
L V_Resistor:R0402_33k_1% R35
U 1 1 5F7D3642
P 3350 5025
F 0 "R35" H 3350 5125 50  0000 C CNN
F 1 "33k" H 3350 5025 50  0000 C CNN
F 2 "AllModules:R0402_1" H 3350 5225 50  0001 C CNN
F 3 "" H 3350 5025 50  0001 C CNN
F 4 "RESISTOR, 33 K OHM, +/-1%, 0.063W,0402" H 3350 5225 50  0001 C CNN "Description"
F 5 "10021558" H 3350 5225 50  0001 C CNN "Item Number"
F 6 "VISHAY_RMS1" H 0   0   50  0001 C CNN "Manufacturer"
F 7 "YAGEO_RMS1" H 0   0   50  0001 C CNN "Manufacturer2"
F 8 "YAGEO_RMS1" H 0   0   50  0001 C CNN "Manufacturer3"
F 9 "CRCW040233K0FKED" H 0   0   50  0001 C CNN "Manufacturer_No"
F 10 "RC0402FR-0733KL" H 0   0   50  0001 C CNN "Manufacturer_No2"
F 11 "RC0402FR-0733KL" H 0   0   50  0001 C CNN "Manufacturer_No3"
	1    3350 5025
	0    -1   -1   0   
$EndComp
$Comp
L V_Resistor:R0402_100k_1% R67
U 1 1 5F7D65CC
P 3100 6750
F 0 "R67" H 3100 6850 50  0000 C CNN
F 1 "100k" H 3100 6750 50  0000 C CNN
F 2 "AllModules:R0402_1" H 3100 6950 50  0001 C CNN
F 3 "" H 3100 6750 50  0001 C CNN
F 4 "RESISTOR 100K OHM, 0.063W, +/-1%, 0402" H 3100 6950 50  0001 C CNN "Description"
F 5 "10022149" H 3100 6950 50  0001 C CNN "Item Number"
F 6 "VISHAY_RMS1" H 0   0   50  0001 C CNN "Manufacturer"
F 7 "YAGEO_RMS1" H 0   0   50  0001 C CNN "Manufacturer2"
F 8 "YAGEO_RMS1" H 0   0   50  0001 C CNN "Manufacturer3"
F 9 "CRCW0402100KFKED" H 0   0   50  0001 C CNN "Manufacturer_No"
F 10 "RC0402FR-07100KL" H 0   0   50  0001 C CNN "Manufacturer_No2"
F 11 "RC0402FR-07100KL" H 0   0   50  0001 C CNN "Manufacturer_No3"
	1    3100 6750
	0    -1   -1   0   
$EndComp
$Comp
L V_Resistor:R0402_10k_1% R49
U 1 1 5F7D92D0
P 9150 5350
F 0 "R49" H 9150 5450 50  0000 C CNN
F 1 "10k" H 9150 5350 50  0000 C CNN
F 2 "AllModules:R0402_1" H 9150 5550 50  0001 C CNN
F 3 "" H 9150 5350 50  0001 C CNN
F 4 "RESISTOR,10K OHM, 0.063W, +/-1%, 0402" H 9150 5550 50  0001 C CNN "Description"
F 5 "10022150" H 9150 5550 50  0001 C CNN "Item Number"
F 6 "YAGEO_RMS1" H 0   0   50  0001 C CNN "Manufacturer"
F 7 "VISHAY_RMS1" H 0   0   50  0001 C CNN "Manufacturer2"
F 8 "YAGEO_RMS1" H 0   0   50  0001 C CNN "Manufacturer3"
F 9 "RC0402FR-0710KL" H 0   0   50  0001 C CNN "Manufacturer_No"
F 10 "CRCW040210K0FKED" H 0   0   50  0001 C CNN "Manufacturer_No2"
F 11 "RC0402FR-0710KL" H 0   0   50  0001 C CNN "Manufacturer_No3"
	1    9150 5350
	0    -1   -1   0   
$EndComp
$Comp
L V_Resistor:R0402_10k_1% R62
U 1 1 5F7DCC49
P 11900 8350
F 0 "R62" H 11900 8450 50  0000 C CNN
F 1 "10k" H 11900 8350 50  0000 C CNN
F 2 "AllModules:R0402_1" H 11900 8550 50  0001 C CNN
F 3 "" H 11900 8350 50  0001 C CNN
F 4 "RESISTOR,10K OHM, 0.063W, +/-1%, 0402" H 11900 8550 50  0001 C CNN "Description"
F 5 "10022150" H 11900 8550 50  0001 C CNN "Item Number"
F 6 "YAGEO_RMS1" H 0   0   50  0001 C CNN "Manufacturer"
F 7 "VISHAY_RMS1" H 0   0   50  0001 C CNN "Manufacturer2"
F 8 "YAGEO_RMS1" H 0   0   50  0001 C CNN "Manufacturer3"
F 9 "RC0402FR-0710KL" H 0   0   50  0001 C CNN "Manufacturer_No"
F 10 "CRCW040210K0FKED" H 0   0   50  0001 C CNN "Manufacturer_No2"
F 11 "RC0402FR-0710KL" H 0   0   50  0001 C CNN "Manufacturer_No3"
	1    11900 8350
	0    -1   -1   0   
$EndComp
$Comp
L V_Resistor:R0402_10k_1% R61
U 1 1 5F7DF763
P 11550 8100
F 0 "R61" H 11550 8200 50  0000 C CNN
F 1 "10k" H 11550 8100 50  0000 C CNN
F 2 "AllModules:R0402_1" H 11550 8300 50  0001 C CNN
F 3 "" H 11550 8100 50  0001 C CNN
F 4 "RESISTOR,10K OHM, 0.063W, +/-1%, 0402" H 11550 8300 50  0001 C CNN "Description"
F 5 "10022150" H 11550 8300 50  0001 C CNN "Item Number"
F 6 "YAGEO_RMS1" H 0   0   50  0001 C CNN "Manufacturer"
F 7 "VISHAY_RMS1" H 0   0   50  0001 C CNN "Manufacturer2"
F 8 "YAGEO_RMS1" H 0   0   50  0001 C CNN "Manufacturer3"
F 9 "RC0402FR-0710KL" H 0   0   50  0001 C CNN "Manufacturer_No"
F 10 "CRCW040210K0FKED" H 0   0   50  0001 C CNN "Manufacturer_No2"
F 11 "RC0402FR-0710KL" H 0   0   50  0001 C CNN "Manufacturer_No3"
	1    11550 8100
	-1   0    0    1   
$EndComp
$Comp
L V_Resistor:R0402_100k_1% R63
U 1 1 5F7E1CDC
P 14175 7450
F 0 "R63" H 14175 7550 50  0000 C CNN
F 1 "100k" H 14175 7450 50  0000 C CNN
F 2 "AllModules:R0402_1" H 14175 7650 50  0001 C CNN
F 3 "" H 14175 7450 50  0001 C CNN
F 4 "RESISTOR 100K OHM, 0.063W, +/-1%, 0402" H 14175 7650 50  0001 C CNN "Description"
F 5 "10022149" H 14175 7650 50  0001 C CNN "Item Number"
F 6 "VISHAY_RMS1" H 0   0   50  0001 C CNN "Manufacturer"
F 7 "YAGEO_RMS1" H 0   0   50  0001 C CNN "Manufacturer2"
F 8 "YAGEO_RMS1" H 0   0   50  0001 C CNN "Manufacturer3"
F 9 "CRCW0402100KFKED" H 0   0   50  0001 C CNN "Manufacturer_No"
F 10 "RC0402FR-07100KL" H 0   0   50  0001 C CNN "Manufacturer_No2"
F 11 "RC0402FR-07100KL" H 0   0   50  0001 C CNN "Manufacturer_No3"
	1    14175 7450
	1    0    0    -1  
$EndComp
$Comp
L V_Resistor:R0402_100k_1% R64
U 1 1 5F7E4EAE
P 14175 8700
F 0 "R64" H 14175 8800 50  0000 C CNN
F 1 "100k" H 14175 8700 50  0000 C CNN
F 2 "AllModules:R0402_1" H 14175 8900 50  0001 C CNN
F 3 "" H 14175 8700 50  0001 C CNN
F 4 "RESISTOR 100K OHM, 0.063W, +/-1%, 0402" H 14175 8900 50  0001 C CNN "Description"
F 5 "10022149" H 14175 8900 50  0001 C CNN "Item Number"
F 6 "VISHAY_RMS1" H 0   0   50  0001 C CNN "Manufacturer"
F 7 "YAGEO_RMS1" H 0   0   50  0001 C CNN "Manufacturer2"
F 8 "YAGEO_RMS1" H 0   0   50  0001 C CNN "Manufacturer3"
F 9 "CRCW0402100KFKED" H 0   0   50  0001 C CNN "Manufacturer_No"
F 10 "RC0402FR-07100KL" H 0   0   50  0001 C CNN "Manufacturer_No2"
F 11 "RC0402FR-07100KL" H 0   0   50  0001 C CNN "Manufacturer_No3"
	1    14175 8700
	1    0    0    -1  
$EndComp
$Comp
L V_Resistor:R0402_15k_1% R55
U 1 1 5F7E7532
P 13600 5350
F 0 "R55" H 13600 5450 50  0000 C CNN
F 1 "15k" H 13600 5350 50  0000 C CNN
F 2 "AllModules:R0402_1" H 13600 5550 50  0001 C CNN
F 3 "" H 13600 5350 50  0001 C CNN
F 4 "RESISTOR, 15 KOHM, +/-1%,0.063W,0402" H 13600 5550 50  0001 C CNN "Description"
F 5 "10024439" H 13600 5550 50  0001 C CNN "Item Number"
F 6 "YAGEO_RMS1" H 0   0   50  0001 C CNN "Manufacturer"
F 7 "VISHAY_RMS1" H 0   0   50  0001 C CNN "Manufacturer2"
F 8 "YAGEO_RMS1" H 0   0   50  0001 C CNN "Manufacturer3"
F 9 "RC0402FR-0715KL" H 0   0   50  0001 C CNN "Manufacturer_No"
F 10 "CRCW040215K0FKED" H 0   0   50  0001 C CNN "Manufacturer_No2"
F 11 "RC0402FR-0715KL" H 0   0   50  0001 C CNN "Manufacturer_No3"
	1    13600 5350
	-1   0    0    1   
$EndComp
$Comp
L V_Resistor:R0402_4k99_1% R58
U 1 1 5F7E993E
P 15000 4650
F 0 "R58" H 15000 4750 50  0000 C CNN
F 1 "4.99k" H 15000 4650 43  0000 C CNN
F 2 "AllModules:R0402_1" H 15000 4850 50  0001 C CNN
F 3 "" H 15000 4650 50  0001 C CNN
F 4 "RESISTOR, 4.99 KOHM, +/-1%, 1/16W,0402" H 15000 4850 50  0001 C CNN "Description"
F 5 "10024442" H 15000 4850 50  0001 C CNN "Item Number"
F 6 "YAGEO_RMS1" H 0   0   50  0001 C CNN "Manufacturer"
F 7 "YAGEO_RMS1" H 0   0   50  0001 C CNN "Manufacturer2"
F 8 "VISHAY_RMS1" H 0   0   50  0001 C CNN "Manufacturer3"
F 9 "RC0402FR-074K99L" H 0   0   50  0001 C CNN "Manufacturer_No"
F 10 "RC0402FR-074K99L" H 0   0   50  0001 C CNN "Manufacturer_No2"
F 11 "CRCW04024K99FKED" H 0   0   50  0001 C CNN "Manufacturer_No3"
	1    15000 4650
	0    1    1    0   
$EndComp
$Comp
L V_Resistor:R0402_54k9_1% R57
U 1 1 5F7EBE0F
P 15000 3850
F 0 "R57" H 15000 3950 50  0000 C CNN
F 1 "54.9k" H 15000 3850 43  0000 C CNN
F 2 "AllModules:R0402_1" H 15000 4050 50  0001 C CNN
F 3 "" H 15000 3850 50  0001 C CNN
F 4 "RESISTOR, 54.9 KOHM, +/-1%, 0.063W,0402" H 15000 4050 50  0001 C CNN "Description"
F 5 "10024441" H 15000 4050 50  0001 C CNN "Item Number"
F 6 "YAGEO_RMS1" H 0   0   50  0001 C CNN "Manufacturer"
F 7 "VISHAY_RMS1" H 0   0   50  0001 C CNN "Manufacturer2"
F 8 "YAGEO_RMS1" H 0   0   50  0001 C CNN "Manufacturer3"
F 9 "RC0402FR-0754K9L" H 0   0   50  0001 C CNN "Manufacturer_No"
F 10 "CRCW040254K9FKED" H 0   0   50  0001 C CNN "Manufacturer_No2"
F 11 "RC0402FR-0754K9L" H 0   0   50  0001 C CNN "Manufacturer_No3"
	1    15000 3850
	0    1    1    0   
$EndComp
$Comp
L V_Resistor:R0402_47k_1% R54
U 1 1 5F7ED945
P 14250 3900
F 0 "R54" H 14250 4000 50  0000 C CNN
F 1 "47k" H 14250 3900 50  0000 C CNN
F 2 "AllModules:R0402_1" H 14250 4100 50  0001 C CNN
F 3 "" H 14250 3900 50  0001 C CNN
F 4 "RESISTOR, 47 KOHM +/-1% 0,063W,0402" H 14250 4100 50  0001 C CNN "Description"
F 5 "10025554" H 14250 4100 50  0001 C CNN "Item Number"
F 6 "VISHAY_RMS1" H 0   0   50  0001 C CNN "Manufacturer"
F 7 "YAGEO_RMS1" H 0   0   50  0001 C CNN "Manufacturer2"
F 8 "YAGEO_RMS1" H 0   0   50  0001 C CNN "Manufacturer3"
F 9 "CRCW040247K0FKED" H 0   0   50  0001 C CNN "Manufacturer_No"
F 10 "232270674703L" H 0   0   50  0001 C CNN "Manufacturer_No2"
F 11 "RC0402FR-0747KL" H 0   0   50  0001 C CNN "Manufacturer_No3"
	1    14250 3900
	0    1    1    0   
$EndComp
$Comp
L V_Resistor:R0402_47k_1% R53
U 1 1 5F7F0C36
P 12200 4050
F 0 "R53" H 12200 4150 50  0000 C CNN
F 1 "47k" H 12200 4050 50  0000 C CNN
F 2 "AllModules:R0402_1" H 12200 4250 50  0001 C CNN
F 3 "" H 12200 4050 50  0001 C CNN
F 4 "RESISTOR, 47 KOHM +/-1% 0,063W,0402" H 12200 4250 50  0001 C CNN "Description"
F 5 "10025554" H 12200 4250 50  0001 C CNN "Item Number"
F 6 "VISHAY_RMS1" H 0   0   50  0001 C CNN "Manufacturer"
F 7 "YAGEO_RMS1" H 0   0   50  0001 C CNN "Manufacturer2"
F 8 "YAGEO_RMS1" H 0   0   50  0001 C CNN "Manufacturer3"
F 9 "CRCW040247K0FKED" H 0   0   50  0001 C CNN "Manufacturer_No"
F 10 "232270674703L" H 0   0   50  0001 C CNN "Manufacturer_No2"
F 11 "RC0402FR-0747KL" H 0   0   50  0001 C CNN "Manufacturer_No3"
	1    12200 4050
	0    1    1    0   
$EndComp
$Comp
L V_Resistor:R0402_182k_1% R56
U 1 1 5F7F2636
P 12950 5625
F 0 "R56" H 12950 5725 50  0000 C CNN
F 1 "182k" H 12950 5625 50  0000 C CNN
F 2 "AllModules:R0402_1" H 12950 5825 50  0001 C CNN
F 3 "" H 12950 5625 50  0001 C CNN
F 4 "RESISTOR, 182 KOHM,+/-1%, 0.063W,0402" H 12950 5825 50  0001 C CNN "Description"
F 5 "10024440" H 12950 5825 50  0001 C CNN "Item Number"
F 6 "YAGEO_RMS1" H 0   0   50  0001 C CNN "Manufacturer"
F 7 "VISHAY_RMS1" H 0   0   50  0001 C CNN "Manufacturer2"
F 8 "YAGEO_RMS1" H 0   0   50  0001 C CNN "Manufacturer3"
F 9 "RC0402FR-07182KL" H 0   0   50  0001 C CNN "Manufacturer_No"
F 10 "CRCW0402182KFKED" H 0   0   50  0001 C CNN "Manufacturer_No2"
F 11 "RC0402FR-07182KL" H 0   0   50  0001 C CNN "Manufacturer_No3"
	1    12950 5625
	0    1    1    0   
$EndComp
$Comp
L V_Resistor:R0402_10k_1% R51
U 1 1 5F7F446A
P 10075 2675
F 0 "R51" H 10075 2775 50  0000 C CNN
F 1 "10k" H 10075 2675 50  0000 C CNN
F 2 "AllModules:R0402_1" H 10075 2875 50  0001 C CNN
F 3 "" H 10075 2675 50  0001 C CNN
F 4 "RESISTOR,10K OHM, 0.063W, +/-1%, 0402" H 10075 2875 50  0001 C CNN "Description"
F 5 "10022150" H 10075 2875 50  0001 C CNN "Item Number"
F 6 "YAGEO_RMS1" H 0   0   50  0001 C CNN "Manufacturer"
F 7 "VISHAY_RMS1" H 0   0   50  0001 C CNN "Manufacturer2"
F 8 "YAGEO_RMS1" H 0   0   50  0001 C CNN "Manufacturer3"
F 9 "RC0402FR-0710KL" H 0   0   50  0001 C CNN "Manufacturer_No"
F 10 "CRCW040210K0FKED" H 0   0   50  0001 C CNN "Manufacturer_No2"
F 11 "RC0402FR-0710KL" H 0   0   50  0001 C CNN "Manufacturer_No3"
	1    10075 2675
	0    -1   -1   0   
$EndComp
$Comp
L V_Resistor:R0402_10k_1% R52
U 1 1 5F7FA2B9
P 9400 4650
F 0 "R52" H 9400 4750 50  0000 C CNN
F 1 "10k" H 9400 4650 50  0000 C CNN
F 2 "AllModules:R0402_1" H 9400 4850 50  0001 C CNN
F 3 "" H 9400 4650 50  0001 C CNN
F 4 "RESISTOR,10K OHM, 0.063W, +/-1%, 0402" H 9400 4850 50  0001 C CNN "Description"
F 5 "10022150" H 9400 4850 50  0001 C CNN "Item Number"
F 6 "YAGEO_RMS1" H 0   0   50  0001 C CNN "Manufacturer"
F 7 "VISHAY_RMS1" H 0   0   50  0001 C CNN "Manufacturer2"
F 8 "YAGEO_RMS1" H 0   0   50  0001 C CNN "Manufacturer3"
F 9 "RC0402FR-0710KL" H 0   0   50  0001 C CNN "Manufacturer_No"
F 10 "CRCW040210K0FKED" H 0   0   50  0001 C CNN "Manufacturer_No2"
F 11 "RC0402FR-0710KL" H 0   0   50  0001 C CNN "Manufacturer_No3"
	1    9400 4650
	0    -1   -1   0   
$EndComp
$Comp
L V_Resistor:R0402_2k2_1% R65
U 1 1 5F7FBFEE
P 11250 2875
F 0 "R65" H 11250 2975 50  0000 C CNN
F 1 "2.2k" H 11250 2875 50  0000 C CNN
F 2 "AllModules:R0402_1" H 11250 3075 50  0001 C CNN
F 3 "" H 11250 2875 50  0001 C CNN
F 4 "RESISTOR, 2.2 KOHM, +/-1%, 0.063W, 0402" H 11250 3075 50  0001 C CNN "Description"
F 5 "10022957" H 11250 3075 50  0001 C CNN "Item Number"
F 6 "YAGEO_RMS1" H 0   0   50  0001 C CNN "Manufacturer"
F 7 "YAGEO_RMS1" H 0   0   50  0001 C CNN "Manufacturer2"
F 8 "VISHAY_RMS1" H 0   0   50  0001 C CNN "Manufacturer3"
F 9 "RC0402FR-072K2L" H 0   0   50  0001 C CNN "Manufacturer_No"
F 10 "232270672202L" H 0   0   50  0001 C CNN "Manufacturer_No2"
F 11 "CRCW04022K20FKED" H 0   0   50  0001 C CNN "Manufacturer_No3"
	1    11250 2875
	0    -1   -1   0   
$EndComp
$Comp
L V_Resistor:R0402_100k_1% R47
U 1 1 5F7FDDA7
P 9075 2650
F 0 "R47" H 9075 2750 50  0000 C CNN
F 1 "100k" H 9075 2650 50  0000 C CNN
F 2 "AllModules:R0402_1" H 9075 2850 50  0001 C CNN
F 3 "" H 9075 2650 50  0001 C CNN
F 4 "RESISTOR 100K OHM, 0.063W, +/-1%, 0402" H 9075 2850 50  0001 C CNN "Description"
F 5 "10022149" H 9075 2850 50  0001 C CNN "Item Number"
F 6 "VISHAY_RMS1" H 0   0   50  0001 C CNN "Manufacturer"
F 7 "YAGEO_RMS1" H 0   0   50  0001 C CNN "Manufacturer2"
F 8 "YAGEO_RMS1" H 0   0   50  0001 C CNN "Manufacturer3"
F 9 "CRCW0402100KFKED" H 0   0   50  0001 C CNN "Manufacturer_No"
F 10 "RC0402FR-07100KL" H 0   0   50  0001 C CNN "Manufacturer_No2"
F 11 "RC0402FR-07100KL" H 0   0   50  0001 C CNN "Manufacturer_No3"
	1    9075 2650
	0    -1   -1   0   
$EndComp
$Comp
L V_Resistor:R0402_1M_1% R46
U 1 1 5F804D9A
P 8725 3500
F 0 "R46" H 8725 3600 50  0000 C CNN
F 1 "1M" H 8725 3500 50  0000 C CNN
F 2 "AllModules:R0402_1" H 8725 3700 50  0001 C CNN
F 3 "" H 8725 3500 50  0001 C CNN
F 4 "RESISTOR, 1 MOHM, +/-1%,0.063W,0402" H 8725 3700 50  0001 C CNN "Description"
F 5 "10021462" H 8725 3700 50  0001 C CNN "Item Number"
F 6 "YAGEO_RMS1" H 0   0   50  0001 C CNN "Manufacturer"
F 7 "YAGEO_RMS1" H 0   0   50  0001 C CNN "Manufacturer2"
F 8 "VISHAY_RMS1" H 0   0   50  0001 C CNN "Manufacturer3"
F 9 "RC0402FR-071ML" H 0   0   50  0001 C CNN "Manufacturer_No"
F 10 "RC0402FR-071ML" H 0   0   50  0001 C CNN "Manufacturer_No2"
F 11 "CRCW04021M00FKED" H 0   0   50  0001 C CNN "Manufacturer_No3"
	1    8725 3500
	0    -1   -1   0   
$EndComp
$Comp
L V_Resistor:R0402_1M5 R43
U 1 1 5F806711
P 6950 2750
F 0 "R43" H 6950 2850 50  0000 C CNN
F 1 "1.5M" H 6950 2750 50  0000 C CNN
F 2 "AllModules:R0402_1" H 6950 2950 50  0001 C CNN
F 3 "" H 6950 2750 50  0001 C CNN
F 4 "RESISTOR, 1.5 MOHM,0.063W, 0402" H 6950 2950 50  0001 C CNN "Description"
F 5 "10021389" H 6950 2950 50  0001 C CNN "Item Number"
F 6 "YAGEO_RMS1" H 0   0   50  0001 C CNN "Manufacturer"
F 7 "YAGEO_RMS1" H 0   0   50  0001 C CNN "Manufacturer2"
F 8 "VISHAY_RMS1" H 0   0   50  0001 C CNN "Manufacturer3"
F 9 "RC0402FR-071M5L" H 0   0   50  0001 C CNN "Manufacturer_No"
F 10 "RC0402FR-071M5L" H 0   0   50  0001 C CNN "Manufacturer_No2"
F 11 "CRCW04021M50FKED" H 0   0   50  0001 C CNN "Manufacturer_No3"
	1    6950 2750
	0    -1   -1   0   
$EndComp
$Comp
L V_Resistor:R0402_680k_1% R44
U 1 1 5F807891
P 6950 3350
F 0 "R44" H 6950 3450 50  0000 C CNN
F 1 "680k" H 6950 3350 50  0000 C CNN
F 2 "AllModules:R0402_1" H 6950 3550 50  0001 C CNN
F 3 "" H 6950 3350 50  0001 C CNN
F 4 "RESISTOR, 680 KOHM,+/-1%, 0.063W, 0402" H 6950 3550 50  0001 C CNN "Description"
F 5 "10021391" H 6950 3550 50  0001 C CNN "Item Number"
F 6 "YAGEO_RMS1" H 0   0   50  0001 C CNN "Manufacturer"
F 7 "YAGEO_RMS1" H 0   0   50  0001 C CNN "Manufacturer2"
F 8 "VISHAY_RMS1" H 0   0   50  0001 C CNN "Manufacturer3"
F 9 "RC0402FR-07680KL" H 0   0   50  0001 C CNN "Manufacturer_No"
F 10 "RC0402FR-07680KL" H 0   0   50  0001 C CNN "Manufacturer_No2"
F 11 "CRCW0402680KFKED" H 0   0   50  0001 C CNN "Manufacturer_No3"
	1    6950 3350
	0    -1   -1   0   
$EndComp
$Comp
L V_Power:PWR_FLAG #FLG0107
U 1 1 5EADF645
P 2600 2900
F 0 "#FLG0107" H 2600 2975 50  0001 C CNN
F 1 "PWR_FLAG" H 2600 3073 50  0000 C CNN
F 2 "" H 2600 2900 50  0001 C CNN
F 3 "" H 2600 2900 50  0001 C CNN
	1    2600 2900
	1    0    0    -1  
$EndComp
Wire Wire Line
	13200 3400 13100 3400
$Comp
L V_Inductor:L_10022162 L2
U 1 1 5E8C0A82
P 13350 3400
F 0 "L2" V 13425 3400 50  0000 C CNN
F 1 "10μH" V 13300 3400 50  0000 C CNN
F 2 "AllModules:WETPC-S_1" H 13350 3400 50  0001 C CNN
F 3 "" H 13350 3400 50  0001 C CNN
F 4 "INDUCTOR, STORAGE 10UH, WE-TPC" H 0   0   50  0001 C CNN "Description"
F 5 "10022162" H 0   0   50  0001 C CNN "Item Number"
F 6 "TAIYO YUDEN_RMS1" H 0   0   50  0001 C CNN "Manufacturer"
F 7 "WURTH ELEKTRONIK GMBH" H 0   0   50  0001 C CNN "Manufacturer2"
F 8 "NR 4018T 100M" H 0   0   50  0001 C CNN "Manufacturer_No"
F 9 "744031100" H 0   0   50  0001 C CNN "Manufacturer_No2"
	1    13350 3400
	0    -1   -1   0   
$EndComp
$Comp
L V_IC:LT3471 IC8
U 1 1 5EA71527
P 13100 4300
F 0 "IC8" H 13100 4450 65  0000 C CNN
F 1 "LT3471" H 13100 4350 50  0000 C CNN
F 2 "AllModules:DFN10_1" H 13550 3950 50  0001 C CNN
F 3 "" H 13100 4250 50  0001 C CNN
F 4 "SWITCHING REGULATOR,40V, 1.3 A" H 0   0   50  0001 C CNN "Description"
F 5 "10022158" H 0   0   50  0001 C CNN "Item Number"
F 6 "LINEAR TECHNOLOGY_RMS1" H 0   0   50  0001 C CNN "Manufacturer"
F 7 "LINEAR TECHNOLOGY_RMS1" H 0   0   50  0001 C CNN "Manufacturer2"
F 8 "LT3471EDD#PBF" H 0   0   50  0001 C CNN "Manufacturer_No"
F 9 "LT3471EDD#TRPBF" H 0   0   50  0001 C CNN "Manufacturer_No2"
	1    13100 4300
	-1   0    0    -1  
$EndComp
$Comp
L V_IC:bq2002_SN IC6
U 1 1 5EAF2236
P 3800 4425
F 0 "IC6" H 3800 4725 50  0000 C CNN
F 1 "BQ2002C" H 3800 4125 50  0000 C CNN
F 2 "AllModules:MX.A8_COMPOSANT_1" H 3800 4075 50  0001 C CNN
F 3 "" H 4000 4375 50  0001 C CNN
F 4 "IC, CHARGE CONTROLLER, NICD/NIMH" H 0   0   50  0001 C CNN "Description"
F 5 "10022147" H 0   0   50  0001 C CNN "Item Number"
F 6 "TEXAS INSTRUMENTS_RMS1" H 0   0   50  0001 C CNN "Manufacturer"
F 7 "TEXAS INSTRUMENTS_RMS1" H 0   0   50  0001 C CNN "Manufacturer2"
F 8 "BQ2002CSNTR" H 0   0   50  0001 C CNN "Manufacturer_No"
F 9 "BQ2002CSN" H 0   0   50  0001 C CNN "Manufacturer_No2"
	1    3800 4425
	-1   0    0    -1  
$EndComp
Wire Wire Line
	4500 7200 4500 7000
Wire Wire Line
	3600 7000 4500 7000
Connection ~ 3600 7000
Connection ~ 4500 7000
Wire Wire Line
	4500 7000 4500 6800
Wire Wire Line
	2600 6500 2800 6500
Connection ~ 2800 6500
Wire Wire Line
	2800 6500 3100 6500
Connection ~ 11250 7700
Connection ~ 9550 5000
Connection ~ 9550 5800
Wire Wire Line
	9550 5000 10000 5000
Wire Wire Line
	9550 5800 10000 5800
Wire Wire Line
	8900 5800 9150 5800
Connection ~ 9300 5800
Connection ~ 9150 5800
Wire Wire Line
	9150 5800 9300 5800
Connection ~ 9150 5000
Wire Wire Line
	9150 5000 9400 5000
Connection ~ 10500 2900
Wire Wire Line
	10500 2900 10525 2900
Wire Wire Line
	9400 4800 9400 5000
Connection ~ 9400 5000
Wire Wire Line
	9400 5000 9550 5000
Wire Wire Line
	9400 4500 9400 4400
$Comp
L V_Diode:BAT54S D9
U 1 1 5F3B7224
P 8600 5800
AR Path="/5F3B7224" Ref="D9"  Part="1" 
AR Path="/5E89C6B8/5F3B7224" Ref="D9"  Part="1" 
F 0 "D9" H 8550 5700 50  0000 L CNN
F 1 "BAT54S" H 8400 5600 50  0000 L CNN
F 2 "AllModules:SOT23-1G_1" H 8675 5925 50  0001 L CNN
F 3 "https://assets.nexperia.com/documents/data-sheet/BAT54_SER.pdf" H 8480 5800 50  0001 C CNN
F 4 "10022518" H 8600 6000 50  0001 C CNN "Item Number"
F 5 "DIODE SCHOTTKY, 200MA,30V,SOD23DIO" H 0   0   50  0001 C CNN "Description"
F 6 "NXP SEMICONDUCTORS_RMS1" H 0   0   50  0001 C CNN "Manufacturer"
F 7 "BAT54S,215" H 0   0   50  0001 C CNN "Manufacturer_No"
F 8 "NXP SEMICONDUCTORS_RMS1" H 0   0   50  0001 C CNN "Manufacturer2"
F 9 "BAT54S" H 0   0   50  0001 C CNN "Manufacturer_No2"
	1    8600 5800
	-1   0    0    -1  
$EndComp
Text Label 8750 5000 0    50   ~ 0
GT1
Wire Wire Line
	2800 6300 2800 6500
$Comp
L V_Power:+BATTV #PWR0103
U 1 1 5F586395
P 2800 6300
F 0 "#PWR0103" H 2800 6150 50  0001 C CNN
F 1 "+BATTV" H 2800 6440 50  0000 C CNN
F 2 "" H 2800 6300 50  0001 C CNN
F 3 "" H 2800 6300 50  0001 C CNN
	1    2800 6300
	1    0    0    -1  
$EndComp
$Comp
L V_Power:+BATTV #PWR0104
U 1 1 5F588533
P 6100 2700
F 0 "#PWR0104" H 6100 2550 50  0001 C CNN
F 1 "+BATTV" H 6100 2840 50  0000 C CNN
F 2 "" H 6100 2700 50  0001 C CNN
F 3 "" H 6100 2700 50  0001 C CNN
	1    6100 2700
	1    0    0    -1  
$EndComp
Wire Wire Line
	13900 6000 13900 6100
$Comp
L V_Diode:MBRM120 D12
U 1 1 5ECE2CDB
P 12300 6250
F 0 "D12" H 12300 6350 50  0000 C CNN
F 1 "MBRM120" H 12300 6150 50  0000 C CNN
F 2 "AllModules:DO216AA_1" H 12300 6200 50  0001 C CNN
F 3 "" H 12400 6400 50  0001 C CNN
F 4 "10022140" H 12300 6450 50  0001 C CNN "Item Number"
F 5 "DIODE SCHOTTKY, 20V, 1A, DO216AA" H 0   0   50  0001 C CNN "Description"
F 6 "ON SEMICONDUCTOR_RMS1" H 0   0   50  0001 C CNN "Manufacturer"
F 7 "MBRM120LT1G" H 0   0   50  0001 C CNN "Manufacturer_No"
	1    12300 6250
	0    -1   -1   0   
$EndComp
$Comp
L V_Diode:MBRM120 D10
U 1 1 5EDA2635
P 11500 1275
F 0 "D10" H 11500 1375 50  0000 C CNN
F 1 "MBRM120" H 11500 1175 50  0000 C CNN
F 2 "AllModules:DO216AA_1" H 11500 1225 50  0001 C CNN
F 3 "" H 11600 1425 50  0001 C CNN
F 4 "10022140" H 11500 1475 50  0001 C CNN "Item Number"
F 5 "DIODE SCHOTTKY, 20V, 1A, DO216AA" H 0   0   50  0001 C CNN "Description"
F 6 "ON SEMICONDUCTOR_RMS1" H 0   0   50  0001 C CNN "Manufacturer"
F 7 "MBRM120LT1G" H 0   0   50  0001 C CNN "Manufacturer_No"
	1    11500 1275
	-1   0    0    1   
$EndComp
$Comp
L V_Diode:MBRM120 D11
U 1 1 5EDA4D8D
P 11625 2400
F 0 "D11" H 11625 2500 50  0000 C CNN
F 1 "MBRM120" H 11625 2300 50  0000 C CNN
F 2 "AllModules:DO216AA_1" H 11625 2350 50  0001 C CNN
F 3 "" H 11725 2550 50  0001 C CNN
F 4 "10022140" H 11625 2600 50  0001 C CNN "Item Number"
F 5 "DIODE SCHOTTKY, 20V, 1A, DO216AA" H 0   0   50  0001 C CNN "Description"
F 6 "ON SEMICONDUCTOR_RMS1" H 0   0   50  0001 C CNN "Manufacturer"
F 7 "MBRM120LT1G" H 0   0   50  0001 C CNN "Manufacturer_No"
	1    11625 2400
	-1   0    0    1   
$EndComp
$Comp
L V_Diode:MBRM120 D14
U 1 1 5EDA4FFA
P 11625 2675
F 0 "D14" H 11625 2775 50  0000 C CNN
F 1 "MBRM120" H 11625 2575 50  0000 C CNN
F 2 "AllModules:DO216AA_1" H 11625 2625 50  0001 C CNN
F 3 "" H 11725 2825 50  0001 C CNN
F 4 "10022140" H 11625 2875 50  0001 C CNN "Item Number"
F 5 "DIODE SCHOTTKY, 20V, 1A, DO216AA" H 0   0   50  0001 C CNN "Description"
F 6 "ON SEMICONDUCTOR_RMS1" H 0   0   50  0001 C CNN "Manufacturer"
F 7 "MBRM120LT1G" H 0   0   50  0001 C CNN "Manufacturer_No"
	1    11625 2675
	-1   0    0    1   
$EndComp
$Comp
L V_Diode:BZX84B6V8 D15
U 1 1 5EDA7004
P 4700 2600
F 0 "D15" H 4700 2700 50  0000 C CNN
F 1 "BZX84B6V8" H 4700 2500 50  0000 C CNN
F 2 "AllModules:SOT23-1G_1" H 4700 2425 50  0001 C CNN
F 3 "" H 4700 2600 50  0001 C CNN
F 4 "10025605" H 4700 2800 50  0001 C CNN "Item Number"
F 5 "DIODE ZENER 0,35W 6,8V 2%" H 0   0   50  0001 C CNN "Description"
F 6 "VISHAY_RMS1" H 0   0   50  0001 C CNN "Manufacturer"
F 7 "ON SEMICONDUCTOR_RMS1" H 0   0   50  0001 C CNN "Manufacturer2"
F 8 "NXP SEMICONDUCTORS_RMS1" H 0   0   50  0001 C CNN "Manufacturer3"
F 9 "BZX84B6V8-E3-08" H 0   0   50  0001 C CNN "Manufacturer_No"
F 10 "BZX84B6V8LT1G" H 0   0   50  0001 C CNN "Manufacturer_No2"
F 11 "BZX84-B6V8,215" H 0   0   50  0001 C CNN "Manufacturer_No3"
	1    4700 2600
	0    -1   -1   0   
$EndComp
$Comp
L V_Diode:BZX84C5V1 D7
U 1 1 5EDA94D6
P 2100 3250
F 0 "D7" H 2100 3350 50  0000 C CNN
F 1 "BZX84C5V1" H 2100 3150 50  0000 C CNN
F 2 "AllModules:SOT23-1G_1" H 2100 3075 50  0001 C CNN
F 3 "" H 2100 3250 50  0001 C CNN
F 4 "10022657" H 2100 3450 50  0001 C CNN "Item Number"
F 5 "DIODE ZENER, 0.35,5.1V, SOT23" H 0   0   50  0001 C CNN "Description"
F 6 "NXP SEMICONDUCTORS_RMS1" H 0   0   50  0001 C CNN "Manufacturer"
F 7 "NXP SEMICONDUCTORS_RMS1" H 0   0   50  0001 C CNN "Manufacturer2"
F 8 "BZX84-C5V1" H 0   0   50  0001 C CNN "Manufacturer_No"
F 9 "BZX84-C5V1,215" H 0   0   50  0001 C CNN "Manufacturer_No2"
	1    2100 3250
	0    -1   -1   0   
$EndComp
$Comp
L V_Diode:MBRM120 D8
U 1 1 5EDAA652
P 4350 2400
F 0 "D8" H 4350 2500 50  0000 C CNN
F 1 "MBRM120" H 4350 2300 50  0000 C CNN
F 2 "AllModules:DO216AA_1" H 4350 2350 50  0001 C CNN
F 3 "" H 4450 2550 50  0001 C CNN
F 4 "10022140" H 4350 2600 50  0001 C CNN "Item Number"
F 5 "DIODE SCHOTTKY, 20V, 1A, DO216AA" H 0   0   50  0001 C CNN "Description"
F 6 "ON SEMICONDUCTOR_RMS1" H 0   0   50  0001 C CNN "Manufacturer"
F 7 "MBRM120LT1G" H 0   0   50  0001 C CNN "Manufacturer_No"
	1    4350 2400
	-1   0    0    1   
$EndComp
$Comp
L V_Diode:MBRM120 D13
U 1 1 5EDABE43
P 13850 3400
F 0 "D13" H 13850 3500 50  0000 C CNN
F 1 "MBRM120" H 13850 3300 50  0000 C CNN
F 2 "AllModules:DO216AA_1" H 13850 3350 50  0001 C CNN
F 3 "" H 13950 3550 50  0001 C CNN
F 4 "10022140" H 13850 3600 50  0001 C CNN "Item Number"
F 5 "DIODE SCHOTTKY, 20V, 1A, DO216AA" H 0   0   50  0001 C CNN "Description"
F 6 "ON SEMICONDUCTOR_RMS1" H 0   0   50  0001 C CNN "Manufacturer"
F 7 "MBRM120LT1G" H 0   0   50  0001 C CNN "Manufacturer_No"
	1    13850 3400
	-1   0    0    1   
$EndComp
Wire Wire Line
	13700 4500 13850 4500
Wire Wire Line
	13850 4500 13850 5350
Wire Wire Line
	13850 5350 13750 5350
Connection ~ 13850 4500
Wire Wire Line
	13850 4500 14100 4500
Wire Wire Line
	13100 2400 13100 3400
Connection ~ 12750 2400
Wire Wire Line
	12750 2400 13100 2400
Wire Wire Line
	13500 3400 13600 3400
Wire Wire Line
	13600 3400 13600 3700
Wire Wire Line
	13600 3700 13500 3700
Wire Wire Line
	13500 3700 13500 3800
Wire Wire Line
	13100 3400 13100 3500
Wire Wire Line
	13100 2400 14250 2400
Wire Wire Line
	14250 2400 14250 3750
Connection ~ 13100 2400
Wire Wire Line
	14250 4050 14250 4400
Wire Wire Line
	13700 4300 14600 4300
$Comp
L V_Inductor:L_10022624 L3
U 1 1 5E96380A
P 12850 3500
F 0 "L3" V 12950 3500 50  0000 C CNN
F 1 "15μH" V 12775 3500 50  0000 C CNN
F 2 "AllModules:WETPC-S_1" H 12850 3500 50  0001 C CNN
F 3 "" H 12850 3500 50  0001 C CNN
F 4 "INDUCTOR, STORAGE, 15UH, WE-TPC" H 0   0   50  0001 C CNN "Description"
F 5 "10022624" H 0   0   50  0001 C CNN "Item Number"
F 6 "TAIYO YUDEN_RMS1" H 0   0   50  0001 C CNN "Manufacturer"
F 7 "WURTH ELEKTRONIK GMBH" H 0   0   50  0001 C CNN "Manufacturer2"
F 8 "NR 4012T 150M" H 0   0   50  0001 C CNN "Manufacturer_No"
F 9 "744031150" H 0   0   50  0001 C CNN "Manufacturer_No2"
	1    12850 3500
	0    1    -1   0   
$EndComp
Wire Wire Line
	12200 3900 12200 2400
Connection ~ 12200 2400
Wire Wire Line
	12200 2400 12500 2400
Wire Wire Line
	12200 4200 12200 4400
Wire Wire Line
	11500 6000 11750 6000
Wire Wire Line
	13100 4700 13100 4900
Wire Wire Line
	12400 4900 13100 4900
Connection ~ 13100 4900
Wire Wire Line
	13100 4900 13100 5000
Wire Wire Line
	13000 6000 13250 6000
Connection ~ 13250 5350
Wire Wire Line
	13250 5350 13450 5350
Wire Wire Line
	12300 5350 12950 5350
Connection ~ 12950 5350
Wire Wire Line
	12950 5350 13250 5350
Wire Wire Line
	12950 5775 12950 6000
Connection ~ 12950 6000
Wire Wire Line
	12950 6000 13000 6000
Wire Wire Line
	13250 5775 13250 6000
Connection ~ 13250 6000
Wire Wire Line
	13250 6000 13450 6000
$Comp
L V_Capacitor:C0402_100nF_16V_10% C25
U 1 1 5E96DA27
P 14100 4800
F 0 "C25" H 14125 4900 50  0000 L CNN
F 1 "100nF" H 14125 4700 50  0000 L CNN
F 2 "AllModules:C0402_1b" H 14138 4650 50  0001 C CNN
F 3 "" H 14100 4800 50  0001 C CNN
F 4 "CAPACITOR,100NF,16V,+/-10%,X7R,0402" H 0   0   50  0001 C CNN "Description"
F 5 "10022607" H 0   0   50  0001 C CNN "Item Number"
F 6 "MURATA" H 0   0   50  0001 C CNN "Manufacturer"
F 7 "YAGEO_RMS1" H 0   0   50  0001 C CNN "Manufacturer2"
F 8 "YAGEO_RMS1" H 0   0   50  0001 C CNN "Manufacturer3"
F 9 "GRM155R71C104JA88J" H 0   0   50  0001 C CNN "Manufacturer_No"
F 10 "CC0402KRX7R7BB104" H 0   0   50  0001 C CNN "Manufacturer_No2"
F 11 "CC0402KRX7R7BB104" H 0   0   50  0001 C CNN "Manufacturer_No3"
	1    14100 4800
	-1   0    0    1   
$EndComp
Wire Wire Line
	13700 3400 13600 3400
Connection ~ 13600 3400
Wire Wire Line
	14000 3400 14600 3400
Wire Wire Line
	15000 4300 15000 4000
Wire Wire Line
	14400 4950 14400 5250
Wire Wire Line
	14250 4400 14400 4400
Connection ~ 14250 4400
Wire Wire Line
	14400 4650 14400 4400
Connection ~ 14400 4400
Wire Wire Line
	14400 4400 14750 4400
Wire Wire Line
	14100 4950 14100 5250
Wire Wire Line
	14100 4650 14100 4500
Connection ~ 14100 4500
Text Label 11700 4400 0    50   ~ 0
SHDN2
Wire Wire Line
	11700 4400 12000 4400
Connection ~ 12200 4400
Wire Wire Line
	12000 4600 12000 4400
Wire Wire Line
	12000 4900 12000 5250
Wire Wire Line
	11500 3700 12500 3700
Wire Wire Line
	12700 3500 12500 3500
Wire Wire Line
	12500 3500 12500 3700
Connection ~ 12500 3700
Wire Wire Line
	12500 3700 12700 3700
Wire Wire Line
	13000 3500 13100 3500
Connection ~ 13100 3500
Wire Wire Line
	13100 3500 13100 3800
Connection ~ 12000 4400
Wire Wire Line
	12000 4400 12200 4400
Wire Wire Line
	15000 3700 15000 3400
Connection ~ 15000 3400
Wire Wire Line
	15000 3400 15200 3400
Wire Wire Line
	14600 3700 14600 3400
Connection ~ 14600 3400
Wire Wire Line
	14600 3400 14700 3400
Wire Wire Line
	14600 4000 14600 4300
Connection ~ 14600 4300
Wire Wire Line
	14600 4300 15000 4300
Wire Wire Line
	15400 4300 15400 3400
Wire Wire Line
	15400 4600 15400 4900
Wire Wire Line
	15000 4800 15000 4900
Wire Wire Line
	15000 4900 15400 4900
Connection ~ 15000 4900
Wire Wire Line
	15000 4900 15000 5000
Wire Wire Line
	15000 4300 15000 4500
Connection ~ 15000 4300
Wire Wire Line
	15200 3200 15200 3400
Connection ~ 15200 3400
Wire Wire Line
	15200 3400 15400 3400
Wire Wire Line
	15400 3400 15600 3400
Wire Wire Line
	15600 3400 15600 3500
Connection ~ 15400 3400
Wire Wire Line
	15600 3800 15600 4000
Wire Wire Line
	5850 3400 6100 3400
Wire Wire Line
	6100 3250 6100 3400
Connection ~ 6100 3400
Wire Wire Line
	6100 3400 6425 3400
Wire Wire Line
	6100 2700 6100 2850
Wire Wire Line
	2100 2850 2100 3000
Wire Wire Line
	2500 3000 2100 3000
Connection ~ 2500 3000
Connection ~ 2100 3000
Wire Wire Line
	2100 3000 2100 3100
Wire Wire Line
	2100 2550 2100 2400
Connection ~ 2100 2400
Wire Wire Line
	2100 2400 1600 2400
Wire Wire Line
	2100 3400 2100 3500
Wire Wire Line
	2600 2900 2600 3000
Connection ~ 2600 3000
Wire Wire Line
	2600 3000 2500 3000
$Comp
L V_Switch:NK236-slideswitch SW1
U 1 1 603BE3EF
P 6425 3825
F 0 "SW1" V 6379 3973 50  0000 L CNN
F 1 "NK236_" V 6470 3973 50  0000 L CNN
F 2 "AllModules:NK236_1_1" H 6425 3825 50  0001 L CIN
F 3 "" H 6425 3825 50  0001 C CNN
F 4 "10025553" H 6425 4075 50  0001 C CNN "Item Number"
F 5 "DIL, SLIDE SWITCH" H 0   0   50  0001 C CNN "Description"
F 6 "APEM COMPONENTS INC" H 0   0   50  0001 C CNN "Manufacturer"
F 7 "NK236" H 0   0   50  0001 C CNN "Manufacturer_No"
	1    6425 3825
	0    1    1    0   
$EndComp
$Comp
L V_Battery:BuzzBattery BAT1
U 1 1 603E4DAA
P 6100 3050
F 0 "BAT1" H 6200 3150 50  0000 L CNN
F 1 "BT-4-V150H-4.8V_1" H 6200 3050 50  0000 L CNN
F 2 "AllModules:BT-4-V150H-4.8V_1" H 6200 2975 50  0001 L CIN
F 3 "" V 6100 3110 50  0001 C CNN
F 4 "10022129" H 6200 3250 50  0001 L CNN "Item Number"
F 5 "BATTERY NI-MH TYPE V150H 4.8V" H 0   0   50  0001 C CNN "Description"
F 6 "VARTA                           (917650)" H 0   0   50  0001 C CNN "Manufacturer"
F 7 "" H 0   0   50  0001 C CNN "Manufacturer2"
F 8 "VARTA_RMS1" H 0   0   50  0001 C CNN "Manufacturer3"
F 9 "55615 604 059" H 0   0   50  0001 C CNN "Manufacturer_No"
F 10 "" H 0   0   50  0001 C CNN "Manufacturer_No2"
F 11 "55615604940" H 0   0   50  0001 C CNN "Manufacturer_No3"
	1    6100 3050
	1    0    0    -1  
$EndComp
Wire Wire Line
	2350 4100 2150 4100
Wire Wire Line
	2350 3900 2700 3900
Wire Wire Line
	2350 3900 2350 4100
Connection ~ 2350 4375
Wire Wire Line
	2350 4375 2350 4700
Wire Wire Line
	2350 5000 2350 5200
Connection ~ 2350 4100
Wire Wire Line
	2350 4100 2350 4375
$Comp
L V_Diode:LED_AK LD1
U 1 1 607B7825
P 4825 4000
F 0 "LD1" H 4825 4100 50  0000 C CNN
F 1 "NC" H 4825 3900 50  0000 C CNN
F 2 "AllModules:D0603_1" H 4825 4000 50  0001 C CNN
F 3 "~" H 4825 4000 50  0001 C CNN
	1    4825 4000
	0    -1   -1   0   
$EndComp
$Comp
L V_Power:PWR_FLAG #FLG0101
U 1 1 608519A6
P 3200 6300
F 0 "#FLG0101" H 3200 6375 50  0001 C CNN
F 1 "PWR_FLAG" H 3200 6473 50  0000 C CNN
F 2 "" H 3200 6300 50  0001 C CNN
F 3 "" H 3200 6300 50  0001 C CNN
	1    3200 6300
	1    0    0    -1  
$EndComp
Wire Wire Line
	3200 6300 3200 6500
Connection ~ 3200 6500
Wire Wire Line
	3200 6500 3100 6500
Text HLabel 5200 2150 2    50   Output ~ 0
VCHARG
Wire Wire Line
	4700 6500 5200 6500
Text Label 5200 6500 2    50   ~ 0
VCHARG
Text Label 5200 2400 0    50   ~ 0
VCHARG
Wire Wire Line
	5200 2150 5000 2150
Wire Wire Line
	5000 2150 5000 2400
Connection ~ 5000 2400
Wire Wire Line
	5000 2400 5575 2400
$Comp
L V_Power:PWR_FLAG #FLG0102
U 1 1 608F1C61
P 5000 2000
F 0 "#FLG0102" H 5000 2075 50  0001 C CNN
F 1 "PWR_FLAG" H 5000 2173 50  0000 C CNN
F 2 "" H 5000 2000 50  0001 C CNN
F 3 "" H 5000 2000 50  0001 C CNN
	1    5000 2000
	1    0    0    -1  
$EndComp
Wire Wire Line
	5000 2000 5000 2150
Connection ~ 5000 2150
$Comp
L V_Power:PWR_FLAG #FLG0104
U 1 1 609138C8
P 10900 2300
F 0 "#FLG0104" H 10900 2375 50  0001 C CNN
F 1 "PWR_FLAG" H 10900 2473 50  0000 C CNN
F 2 "" H 10900 2300 50  0001 C CNN
F 3 "" H 10900 2300 50  0001 C CNN
	1    10900 2300
	1    0    0    -1  
$EndComp
$Comp
L V_Power:PWR_FLAG #FLG0106
U 1 1 60935571
P 12500 2200
F 0 "#FLG0106" H 12500 2275 50  0001 C CNN
F 1 "PWR_FLAG" H 12500 2373 50  0000 C CNN
F 2 "" H 12500 2200 50  0001 C CNN
F 3 "" H 12500 2200 50  0001 C CNN
	1    12500 2200
	1    0    0    -1  
$EndComp
Wire Wire Line
	12500 2200 12500 2400
Text Label 9000 4400 0    50   ~ 0
SUPPLY-BUZ
Wire Wire Line
	9000 4400 9400 4400
Wire Wire Line
	11250 2400 11475 2400
Wire Wire Line
	10725 2400 10900 2400
Wire Wire Line
	11100 2400 11100 2000
Wire Wire Line
	11100 2000 11350 2000
Text Label 11250 2000 2    50   ~ 0
SUPPLY-BUZ
Wire Wire Line
	10900 2300 10900 2400
Connection ~ 10900 2400
Connection ~ 11100 2400
Wire Wire Line
	11100 2400 11250 2400
Wire Wire Line
	10900 2400 11100 2400
$Comp
L V_Power:PWR_FLAG #FLG0108
U 1 1 5EA5154D
P 14700 3200
F 0 "#FLG0108" H 14700 3275 50  0001 C CNN
F 1 "PWR_FLAG" H 14700 3373 50  0000 C CNN
F 2 "" H 14700 3200 50  0001 C CNN
F 3 "" H 14700 3200 50  0001 C CNN
	1    14700 3200
	1    0    0    -1  
$EndComp
Wire Wire Line
	14700 3200 14700 3400
$Comp
L V_Power:PWR_FLAG #FLG0109
U 1 1 5EA721C5
P 13900 5900
F 0 "#FLG0109" H 13900 5975 50  0001 C CNN
F 1 "PWR_FLAG" H 13900 6073 50  0000 C CNN
F 2 "" H 13900 5900 50  0001 C CNN
F 3 "" H 13900 5900 50  0001 C CNN
	1    13900 5900
	1    0    0    -1  
$EndComp
Wire Wire Line
	13900 5900 13900 6000
Connection ~ 13900 6000
Connection ~ 12500 2400
Wire Wire Line
	12500 2400 12750 2400
Connection ~ 14700 3400
Wire Wire Line
	14700 3400 15000 3400
$Comp
L V_Connector:JumperBypass JP1
U 1 1 5E9C0175
P 9550 5375
F 0 "JP1" H 9736 5528 50  0000 R CNN
F 1 "Jumper" H 9796 5376 50  0000 R CNN
F 2 "AllModules:TB-CMS-AIROX_1" H 9550 5375 50  0001 C CNN
F 3 "" H 9550 5375 50  0001 C CNN
F 4 "COPPER WIRE, SWG20 DIA: 0.91" H 0   0   50  0001 C CNN "Description"
F 5 "10022541" H 0   0   50  0001 C CNN "Item Number"
F 6 "RS COMPONENTS LIMITED" H 0   0   50  0001 C CNN "Manufacturer"
F 7 "355063" H 0   0   50  0001 C CNN "Manufacturer_No"
	1    9550 5375
	1    0    0    -1  
$EndComp
Wire Wire Line
	5850 3400 5850 3500
$Comp
L V_Power:-12V #PWR0108
U 1 1 5EB523C3
P 13900 6100
F 0 "#PWR0108" H 14060 6030 50  0001 C CNN
F 1 "-12V" H 13915 6273 50  0000 C CNN
F 2 "" H 13900 6100 50  0001 C CNN
F 3 "" H 13900 6100 50  0001 C CNN
	1    13900 6100
	-1   0    0    1   
$EndComp
$EndSCHEMATC
