EESchema Schematic File Version 4
EELAYER 30 0
EELAYER END
$Descr A4 11693 8268
encoding utf-8
Sheet 3 3
Title ""
Date ""
Rev ""
Comp ""
Comment1 ""
Comment2 ""
Comment3 ""
Comment4 ""
$EndDescr
$Comp
L V_Mechanical:Via H1
U 1 1 5EA9C65C
P 7100 4750
F 0 "H1" H 7149 4785 50  0000 L CNN
F 1 "GND" H 7149 4705 35  0000 L CNN
F 2 "AllModules:Via_12x32" H 7100 4750 50  0001 C CNN
F 3 "~" H 7100 4750 50  0001 C CNN
	1    7100 4750
	1    0    0    -1  
$EndComp
$Comp
L V_Mechanical:Via H2
U 1 1 5EA9C65D
P 7100 4900
F 0 "H2" H 7051 4935 50  0000 R CNN
F 1 "GND" H 7051 4855 35  0000 R CNN
F 2 "AllModules:Via_12x32" H 7100 4900 50  0001 C CNN
F 3 "~" H 7100 4900 50  0001 C CNN
	1    7100 4900
	1    0    0    -1  
$EndComp
$Comp
L V_Mechanical:Via H3
U 1 1 5EA9C65E
P 4250 4450
F 0 "H3" H 4299 4485 50  0000 L CNN
F 1 "GND" H 4299 4405 35  0000 L CNN
F 2 "AllModules:Via_12x32" H 4250 4450 50  0001 C CNN
F 3 "~" H 4250 4450 50  0001 C CNN
	1    4250 4450
	1    0    0    -1  
$EndComp
$Comp
L V_Mechanical:Via H4
U 1 1 5EA9C65F
P 3500 2400
F 0 "H4" H 3549 2435 50  0000 L CNN
F 1 "GND" H 3549 2355 35  0000 L CNN
F 2 "AllModules:Via_12x32" H 3500 2400 50  0001 C CNN
F 3 "~" H 3500 2400 50  0001 C CNN
	1    3500 2400
	1    0    0    -1  
$EndComp
$Comp
L V_Mechanical:Via H5
U 1 1 5EA9C660
P 6700 3950
F 0 "H5" H 6749 3985 50  0000 L CNN
F 1 "GND" H 6749 3905 35  0000 L CNN
F 2 "AllModules:Via_12x32" H 6700 3950 50  0001 C CNN
F 3 "~" H 6700 3950 50  0001 C CNN
	1    6700 3950
	1    0    0    -1  
$EndComp
$Comp
L V_Mechanical:Via H6
U 1 1 5EA9C661
P 6150 3900
F 0 "H6" H 6199 3935 50  0000 L CNN
F 1 "GND" H 6199 3855 35  0000 L CNN
F 2 "AllModules:Via_12x32" H 6150 3900 50  0001 C CNN
F 3 "~" H 6150 3900 50  0001 C CNN
	1    6150 3900
	1    0    0    -1  
$EndComp
$Comp
L V_Mechanical:Via H7
U 1 1 5EA9C662
P 3200 1600
F 0 "H7" H 3249 1635 50  0000 L CNN
F 1 "GND" H 3249 1555 35  0000 L CNN
F 2 "AllModules:Via_12x32" H 3200 1600 50  0001 C CNN
F 3 "~" H 3200 1600 50  0001 C CNN
	1    3200 1600
	1    0    0    -1  
$EndComp
$Comp
L V_Mechanical:Via H8
U 1 1 5EA9C663
P 4250 2800
F 0 "H8" H 4299 2835 50  0000 L CNN
F 1 "GND" H 4299 2755 35  0000 L CNN
F 2 "AllModules:Via_12x32" H 4250 2800 50  0001 C CNN
F 3 "~" H 4250 2800 50  0001 C CNN
	1    4250 2800
	1    0    0    -1  
$EndComp
$Comp
L V_Mechanical:Via H9
U 1 1 5EA9C664
P 7100 3400
F 0 "H9" H 7149 3435 50  0000 L CNN
F 1 "GND" H 7149 3355 35  0000 L CNN
F 2 "AllModules:Via_12x32" H 7100 3400 50  0001 C CNN
F 3 "~" H 7100 3400 50  0001 C CNN
	1    7100 3400
	1    0    0    -1  
$EndComp
$Comp
L V_Mechanical:Via H10
U 1 1 5EA9C665
P 8200 2050
F 0 "H10" H 8249 2085 50  0000 L CNN
F 1 "GND" H 8249 2005 35  0000 L CNN
F 2 "AllModules:Via_12x32" H 8200 2050 50  0001 C CNN
F 3 "~" H 8200 2050 50  0001 C CNN
	1    8200 2050
	1    0    0    -1  
$EndComp
$Comp
L V_Mechanical:Via H11
U 1 1 5EB1BA4B
P 3750 4500
F 0 "H11" H 3799 4535 50  0000 L CNN
F 1 "GND" H 3799 4455 35  0000 L CNN
F 2 "AllModules:Via_12x32" H 3750 4500 50  0001 C CNN
F 3 "~" H 3750 4500 50  0001 C CNN
	1    3750 4500
	1    0    0    -1  
$EndComp
$Comp
L V_Mechanical:Via H12
U 1 1 5EA9C666
P 8050 3050
F 0 "H12" H 8099 3085 50  0000 L CNN
F 1 "GND" H 8099 3005 35  0000 L CNN
F 2 "AllModules:Via_12x32" H 8050 3050 50  0001 C CNN
F 3 "~" H 8050 3050 50  0001 C CNN
	1    8050 3050
	1    0    0    -1  
$EndComp
$Comp
L V_Mechanical:Via H13
U 1 1 5EA9C667
P 9350 1100
F 0 "H13" H 9399 1135 50  0000 L CNN
F 1 "GND" H 9399 1055 35  0000 L CNN
F 2 "AllModules:Via_12x32" H 9350 1100 50  0001 C CNN
F 3 "~" H 9350 1100 50  0001 C CNN
	1    9350 1100
	1    0    0    -1  
$EndComp
$Comp
L V_Mechanical:Via H14
U 1 1 5EA9C668
P 9350 800
F 0 "H14" H 9399 835 50  0000 L CNN
F 1 "GND" H 9399 755 35  0000 L CNN
F 2 "AllModules:Via_12x32" H 9350 800 50  0001 C CNN
F 3 "~" H 9350 800 50  0001 C CNN
	1    9350 800 
	1    0    0    -1  
$EndComp
$Comp
L V_Mechanical:Via H15
U 1 1 5EA9C669
P 8800 800
F 0 "H15" H 8849 835 50  0000 L CNN
F 1 "GND" H 8849 755 35  0000 L CNN
F 2 "AllModules:Via_12x32" H 8800 800 50  0001 C CNN
F 3 "~" H 8800 800 50  0001 C CNN
	1    8800 800 
	1    0    0    -1  
$EndComp
$Comp
L V_Mechanical:Via H16
U 1 1 5EA9C66A
P 8300 800
F 0 "H16" H 8349 835 50  0000 L CNN
F 1 "GND" H 8349 755 35  0000 L CNN
F 2 "AllModules:Via_12x32" H 8300 800 50  0001 C CNN
F 3 "~" H 8300 800 50  0001 C CNN
	1    8300 800 
	1    0    0    -1  
$EndComp
$Comp
L V_Mechanical:Via H17
U 1 1 5EA9C66B
P 7300 800
F 0 "H17" H 7349 835 50  0000 L CNN
F 1 "GND" H 7349 755 35  0000 L CNN
F 2 "AllModules:Via_12x32" H 7300 800 50  0001 C CNN
F 3 "~" H 7300 800 50  0001 C CNN
	1    7300 800 
	1    0    0    -1  
$EndComp
$Comp
L V_Mechanical:Via H18
U 1 1 5EA9C66C
P 6800 800
F 0 "H18" H 6849 835 50  0000 L CNN
F 1 "GND" H 6849 755 35  0000 L CNN
F 2 "AllModules:Via_12x32" H 6800 800 50  0001 C CNN
F 3 "~" H 6800 800 50  0001 C CNN
	1    6800 800 
	1    0    0    -1  
$EndComp
$Comp
L V_Mechanical:Via H19
U 1 1 5EA9C66D
P 6300 800
F 0 "H19" H 6349 835 50  0000 L CNN
F 1 "GND" H 6349 755 35  0000 L CNN
F 2 "AllModules:Via_12x32" H 6300 800 50  0001 C CNN
F 3 "~" H 6300 800 50  0001 C CNN
	1    6300 800 
	1    0    0    -1  
$EndComp
$Comp
L V_Mechanical:Via H20
U 1 1 5EA9C66E
P 5750 800
F 0 "H20" H 5799 835 50  0000 L CNN
F 1 "GND" H 5799 755 35  0000 L CNN
F 2 "AllModules:Via_12x32" H 5750 800 50  0001 C CNN
F 3 "~" H 5750 800 50  0001 C CNN
	1    5750 800 
	1    0    0    -1  
$EndComp
$Comp
L V_Mechanical:Via H21
U 1 1 5EA9C66F
P 5250 800
F 0 "H21" H 5299 835 50  0000 L CNN
F 1 "GND" H 5299 755 35  0000 L CNN
F 2 "AllModules:Via_12x32" H 5250 800 50  0001 C CNN
F 3 "~" H 5250 800 50  0001 C CNN
	1    5250 800 
	1    0    0    -1  
$EndComp
$Comp
L V_Mechanical:Via H22
U 1 1 5EA9C65A
P 4750 800
F 0 "H22" H 4799 835 50  0000 L CNN
F 1 "GND" H 4799 755 35  0000 L CNN
F 2 "AllModules:Via_12x32" H 4750 800 50  0001 C CNN
F 3 "~" H 4750 800 50  0001 C CNN
	1    4750 800 
	1    0    0    -1  
$EndComp
$Comp
L V_Mechanical:Via H23
U 1 1 5EA9C65B
P 4250 800
F 0 "H23" H 4299 835 50  0000 L CNN
F 1 "GND" H 4299 755 35  0000 L CNN
F 2 "AllModules:Via_12x32" H 4250 800 50  0001 C CNN
F 3 "~" H 4250 800 50  0001 C CNN
	1    4250 800 
	1    0    0    -1  
$EndComp
$Comp
L V_Mechanical:Via H24
U 1 1 5EA9C5D1
P 3750 800
F 0 "H24" H 3799 835 50  0000 L CNN
F 1 "GND" H 3799 755 35  0000 L CNN
F 2 "AllModules:Via_12x32" H 3750 800 50  0001 C CNN
F 3 "~" H 3750 800 50  0001 C CNN
	1    3750 800 
	1    0    0    -1  
$EndComp
$Comp
L V_Mechanical:Via H25
U 1 1 5EA9C5F9
P 3250 800
F 0 "H25" H 3299 835 50  0000 L CNN
F 1 "GND" H 3299 755 35  0000 L CNN
F 2 "AllModules:Via_12x32" H 3250 800 50  0001 C CNN
F 3 "~" H 3250 800 50  0001 C CNN
	1    3250 800 
	1    0    0    -1  
$EndComp
$Comp
L V_Mechanical:Via H26
U 1 1 5EA9C600
P 2000 800
F 0 "H26" H 2049 835 50  0000 L CNN
F 1 "GND" H 2049 755 35  0000 L CNN
F 2 "AllModules:Via_12x32" H 2000 800 50  0001 C CNN
F 3 "~" H 2000 800 50  0001 C CNN
	1    2000 800 
	1    0    0    -1  
$EndComp
$Comp
L V_Mechanical:Via H27
U 1 1 5EA9C5F7
P 3200 1200
F 0 "H27" H 3249 1235 50  0000 L CNN
F 1 "GND" H 3249 1155 35  0000 L CNN
F 2 "AllModules:Via_12x32" H 3200 1200 50  0001 C CNN
F 3 "~" H 3200 1200 50  0001 C CNN
	1    3200 1200
	1    0    0    -1  
$EndComp
$Comp
L V_Mechanical:Via H28
U 1 1 5EA9C602
P 2500 1200
F 0 "H28" H 2549 1235 50  0000 L CNN
F 1 "GND" H 2549 1155 35  0000 L CNN
F 2 "AllModules:Via_12x32" H 2500 1200 50  0001 C CNN
F 3 "~" H 2500 1200 50  0001 C CNN
	1    2500 1200
	1    0    0    -1  
$EndComp
$Comp
L V_Mechanical:Via H29
U 1 1 5EA9C603
P 7400 1250
F 0 "H29" H 7449 1285 50  0000 L CNN
F 1 "GND" H 7449 1205 35  0000 L CNN
F 2 "AllModules:Via_12x32" H 7400 1250 50  0001 C CNN
F 3 "~" H 7400 1250 50  0001 C CNN
	1    7400 1250
	1    0    0    -1  
$EndComp
$Comp
L V_Mechanical:Via H30
U 1 1 5EA9C604
P 2000 1300
F 0 "H30" H 2049 1335 50  0000 L CNN
F 1 "GND" H 2049 1255 35  0000 L CNN
F 2 "AllModules:Via_12x32" H 2000 1300 50  0001 C CNN
F 3 "~" H 2000 1300 50  0001 C CNN
	1    2000 1300
	1    0    0    -1  
$EndComp
$Comp
L V_Mechanical:Via H31
U 1 1 5EA9C605
P 9350 1550
F 0 "H31" H 9399 1585 50  0000 L CNN
F 1 "GND" H 9399 1505 35  0000 L CNN
F 2 "AllModules:Via_12x32" H 9350 1550 50  0001 C CNN
F 3 "~" H 9350 1550 50  0001 C CNN
	1    9350 1550
	1    0    0    -1  
$EndComp
$Comp
L V_Mechanical:Via H32
U 1 1 5EA9C606
P 6750 1600
F 0 "H32" H 6799 1635 50  0000 L CNN
F 1 "GND" H 6799 1555 35  0000 L CNN
F 2 "AllModules:Via_12x32" H 6750 1600 50  0001 C CNN
F 3 "~" H 6750 1600 50  0001 C CNN
	1    6750 1600
	1    0    0    -1  
$EndComp
$Comp
L V_Mechanical:Via H33
U 1 1 5EA9C5ED
P 2000 1800
F 0 "H33" H 2049 1835 50  0000 L CNN
F 1 "GND" H 2049 1755 35  0000 L CNN
F 2 "AllModules:Via_12x32" H 2000 1800 50  0001 C CNN
F 3 "~" H 2000 1800 50  0001 C CNN
	1    2000 1800
	1    0    0    -1  
$EndComp
$Comp
L V_Mechanical:Via H34
U 1 1 5EA9C5E4
P 7450 1950
F 0 "H34" H 7499 1985 50  0000 L CNN
F 1 "GND" H 7499 1905 35  0000 L CNN
F 2 "AllModules:Via_12x32" H 7450 1950 50  0001 C CNN
F 3 "~" H 7450 1950 50  0001 C CNN
	1    7450 1950
	1    0    0    -1  
$EndComp
$Comp
L V_Mechanical:Via H35
U 1 1 5EA9C5EB
P 2550 1900
F 0 "H35" H 2599 1935 50  0000 L CNN
F 1 "GND" H 2599 1855 35  0000 L CNN
F 2 "AllModules:Via_12x32" H 2550 1900 50  0001 C CNN
F 3 "~" H 2550 1900 50  0001 C CNN
	1    2550 1900
	1    0    0    -1  
$EndComp
$Comp
L V_Mechanical:Via H36
U 1 1 5EA9C5EC
P 6800 2050
F 0 "H36" H 6849 2085 50  0000 L CNN
F 1 "GND" H 6849 2005 35  0000 L CNN
F 2 "AllModules:Via_12x32" H 6800 2050 50  0001 C CNN
F 3 "~" H 6800 2050 50  0001 C CNN
	1    6800 2050
	1    0    0    -1  
$EndComp
$Comp
L V_Mechanical:Via H37
U 1 1 5EA9C5EE
P 9350 2050
F 0 "H37" H 9399 2085 50  0000 L CNN
F 1 "GND" H 9399 2005 35  0000 L CNN
F 2 "AllModules:Via_12x32" H 9350 2050 50  0001 C CNN
F 3 "~" H 9350 2050 50  0001 C CNN
	1    9350 2050
	1    0    0    -1  
$EndComp
$Comp
L V_Mechanical:Via H38
U 1 1 5EA9C5EF
P 5050 2100
F 0 "H38" H 5099 2135 50  0000 L CNN
F 1 "GND" H 5099 2055 35  0000 L CNN
F 2 "AllModules:Via_12x32" H 5050 2100 50  0001 C CNN
F 3 "~" H 5050 2100 50  0001 C CNN
	1    5050 2100
	1    0    0    -1  
$EndComp
$Comp
L V_Mechanical:Via H39
U 1 1 5EA9C5CB
P 4975 2100
F 0 "H39" H 4975 2250 50  0000 L CNN
F 1 "GND" H 4975 2175 35  0000 L CNN
F 2 "AllModules:Via_12x32" H 4975 2100 50  0001 C CNN
F 3 "~" H 4975 2100 50  0001 C CNN
	1    4975 2100
	1    0    0    -1  
$EndComp
$Comp
L V_Mechanical:Via H40
U 1 1 5EA9C5F6
P 4900 2100
F 0 "H40" H 4825 2250 50  0000 L CNN
F 1 "GND" H 4850 2175 35  0000 L CNN
F 2 "AllModules:Via_12x32" H 4900 2100 50  0001 C CNN
F 3 "~" H 4900 2100 50  0001 C CNN
	1    4900 2100
	1    0    0    -1  
$EndComp
$Comp
L V_Mechanical:Via H41
U 1 1 5EA9C5F5
P 4750 2100
F 0 "H41" H 4750 2264 50  0000 C CNN
F 1 "GND" H 4750 2184 35  0000 C CNN
F 2 "AllModules:Via_12x32" H 4750 2100 50  0001 C CNN
F 3 "~" H 4750 2100 50  0001 C CNN
	1    4750 2100
	1    0    0    -1  
$EndComp
$Comp
L V_Mechanical:Via H42
U 1 1 5EA9C5F4
P 5050 2200
F 0 "H42" H 5025 2125 50  0000 L CNN
F 1 "GND" H 5050 2075 35  0000 L CNN
F 2 "AllModules:Via_12x32" H 5050 2200 50  0001 C CNN
F 3 "~" H 5050 2200 50  0001 C CNN
	1    5050 2200
	1    0    0    -1  
$EndComp
$Comp
L V_Mechanical:Via H43
U 1 1 5EA9C5F3
P 4975 2200
F 0 "H43" H 4875 2125 50  0000 L CNN
F 1 "GND" H 4925 2075 35  0000 L CNN
F 2 "AllModules:Via_12x32" H 4975 2200 50  0001 C CNN
F 3 "~" H 4975 2200 50  0001 C CNN
	1    4975 2200
	1    0    0    -1  
$EndComp
$Comp
L V_Mechanical:Via H44
U 1 1 5EA9C5F2
P 4900 2200
F 0 "H44" H 4800 2150 50  0000 C CNN
F 1 "GND" H 4800 2100 35  0000 C CNN
F 2 "AllModules:Via_12x32" H 4900 2200 50  0001 C CNN
F 3 "~" H 4900 2200 50  0001 C CNN
	1    4900 2200
	1    0    0    -1  
$EndComp
$Comp
L V_Mechanical:Via H45
U 1 1 5EA9C5F1
P 5200 2300
F 0 "H45" H 5249 2335 50  0000 L CNN
F 1 "GND" H 5249 2255 35  0000 L CNN
F 2 "AllModules:Via_12x32" H 5200 2300 50  0001 C CNN
F 3 "~" H 5200 2300 50  0001 C CNN
	1    5200 2300
	1    0    0    -1  
$EndComp
$Comp
L V_Mechanical:Via H46
U 1 1 5EA9C5F0
P 4250 2250
F 0 "H46" H 4299 2285 50  0000 L CNN
F 1 "GND" H 4299 2205 35  0000 L CNN
F 2 "AllModules:Via_12x32" H 4250 2250 50  0001 C CNN
F 3 "~" H 4250 2250 50  0001 C CNN
	1    4250 2250
	1    0    0    -1  
$EndComp
$Comp
L V_Mechanical:Via H47
U 1 1 5EA9C5E3
P 2000 2300
F 0 "H47" H 2049 2335 50  0000 L CNN
F 1 "GND" H 2049 2255 35  0000 L CNN
F 2 "AllModules:Via_12x32" H 2000 2300 50  0001 C CNN
F 3 "~" H 2000 2300 50  0001 C CNN
	1    2000 2300
	1    0    0    -1  
$EndComp
$Comp
L V_Mechanical:Via H48
U 1 1 5EA9C5EA
P 9350 2550
F 0 "H48" H 9399 2585 50  0000 L CNN
F 1 "GND" H 9399 2505 35  0000 L CNN
F 2 "AllModules:Via_12x32" H 9350 2550 50  0001 C CNN
F 3 "~" H 9350 2550 50  0001 C CNN
	1    9350 2550
	1    0    0    -1  
$EndComp
$Comp
L V_Mechanical:Via H49
U 1 1 5EA9C5E9
P 4900 2650
F 0 "H49" H 4949 2685 50  0000 L CNN
F 1 "GND" H 4949 2605 35  0000 L CNN
F 2 "AllModules:Via_12x32" H 4900 2650 50  0001 C CNN
F 3 "~" H 4900 2650 50  0001 C CNN
	1    4900 2650
	1    0    0    -1  
$EndComp
$Comp
L V_Mechanical:Via H50
U 1 1 5EA9C5E8
P 2450 2800
F 0 "H50" H 2499 2835 50  0000 L CNN
F 1 "GND" H 2499 2755 35  0000 L CNN
F 2 "AllModules:Via_12x32" H 2450 2800 50  0001 C CNN
F 3 "~" H 2450 2800 50  0001 C CNN
	1    2450 2800
	1    0    0    -1  
$EndComp
$Comp
L V_Mechanical:Via H51
U 1 1 5EA9C5E7
P 2000 2800
F 0 "H51" H 2049 2835 50  0000 L CNN
F 1 "GND" H 2049 2755 35  0000 L CNN
F 2 "AllModules:Via_12x32" H 2000 2800 50  0001 C CNN
F 3 "~" H 2000 2800 50  0001 C CNN
	1    2000 2800
	1    0    0    -1  
$EndComp
$Comp
L V_Mechanical:Via H52
U 1 1 5EA9C5E6
P 6800 2950
F 0 "H52" H 6849 2985 50  0000 L CNN
F 1 "GND" H 6849 2905 35  0000 L CNN
F 2 "AllModules:Via_12x32" H 6800 2950 50  0001 C CNN
F 3 "~" H 6800 2950 50  0001 C CNN
	1    6800 2950
	1    0    0    -1  
$EndComp
$Comp
L V_Mechanical:Via H53
U 1 1 5EA9C5E5
P 7550 2950
F 0 "H53" H 7599 2985 50  0000 L CNN
F 1 "GND" H 7599 2905 35  0000 L CNN
F 2 "AllModules:Via_12x32" H 7550 2950 50  0001 C CNN
F 3 "~" H 7550 2950 50  0001 C CNN
	1    7550 2950
	1    0    0    -1  
$EndComp
$Comp
L V_Mechanical:Via H54
U 1 1 5EA9C60A
P 3450 3000
F 0 "H54" H 3499 3035 50  0000 L CNN
F 1 "GND" H 3499 2955 35  0000 L CNN
F 2 "AllModules:Via_12x32" H 3450 3000 50  0001 C CNN
F 3 "~" H 3450 3000 50  0001 C CNN
	1    3450 3000
	1    0    0    -1  
$EndComp
$Comp
L V_Mechanical:Via H55
U 1 1 5EA9C609
P 4800 3050
F 0 "H55" H 4849 3085 50  0000 L CNN
F 1 "GND" H 4849 3005 35  0000 L CNN
F 2 "AllModules:Via_12x32" H 4800 3050 50  0001 C CNN
F 3 "~" H 4800 3050 50  0001 C CNN
	1    4800 3050
	1    0    0    -1  
$EndComp
$Comp
L V_Mechanical:Via H56
U 1 1 5EA9C608
P 3150 3000
F 0 "H56" H 3199 3035 50  0000 L CNN
F 1 "GND" H 3199 2955 35  0000 L CNN
F 2 "AllModules:Via_12x32" H 3150 3000 50  0001 C CNN
F 3 "~" H 3150 3000 50  0001 C CNN
	1    3150 3000
	1    0    0    -1  
$EndComp
$Comp
L V_Mechanical:Via H57
U 1 1 5EA9C607
P 9350 3050
F 0 "H57" H 9399 3085 50  0000 L CNN
F 1 "GND" H 9399 3005 35  0000 L CNN
F 2 "AllModules:Via_12x32" H 9350 3050 50  0001 C CNN
F 3 "~" H 9350 3050 50  0001 C CNN
	1    9350 3050
	1    0    0    -1  
$EndComp
$Comp
L V_Mechanical:Via H58
U 1 1 5EA9C5FF
P 6050 3050
F 0 "H58" H 6099 3085 50  0000 L CNN
F 1 "GND" H 6099 3005 35  0000 L CNN
F 2 "AllModules:Via_12x32" H 6050 3050 50  0001 C CNN
F 3 "~" H 6050 3050 50  0001 C CNN
	1    6050 3050
	1    0    0    -1  
$EndComp
$Comp
L V_Mechanical:Via H59
U 1 1 5EA9C5FE
P 5500 3050
F 0 "H59" H 5549 3085 50  0000 L CNN
F 1 "GND" H 5549 3005 35  0000 L CNN
F 2 "AllModules:Via_12x32" H 5500 3050 50  0001 C CNN
F 3 "~" H 5500 3050 50  0001 C CNN
	1    5500 3050
	1    0    0    -1  
$EndComp
$Comp
L V_Mechanical:Via H60
U 1 1 5EA9C5FD
P 5250 3050
F 0 "H60" H 5299 3085 50  0000 L CNN
F 1 "GND" H 5299 3005 35  0000 L CNN
F 2 "AllModules:Via_12x32" H 5250 3050 50  0001 C CNN
F 3 "~" H 5250 3050 50  0001 C CNN
	1    5250 3050
	1    0    0    -1  
$EndComp
$Comp
L V_Mechanical:Via H61
U 1 1 5EA9C5FC
P 5800 3300
F 0 "H61" H 5849 3335 50  0000 L CNN
F 1 "GND" H 5849 3255 35  0000 L CNN
F 2 "AllModules:Via_12x32" H 5800 3300 50  0001 C CNN
F 3 "~" H 5800 3300 50  0001 C CNN
	1    5800 3300
	1    0    0    -1  
$EndComp
$Comp
L V_Mechanical:Via H62
U 1 1 5EA9C5FB
P 2450 3300
F 0 "H62" H 2499 3335 50  0000 L CNN
F 1 "GND" H 2499 3255 35  0000 L CNN
F 2 "AllModules:Via_12x32" H 2450 3300 50  0001 C CNN
F 3 "~" H 2450 3300 50  0001 C CNN
	1    2450 3300
	1    0    0    -1  
$EndComp
$Comp
L V_Mechanical:Via H63
U 1 1 5EA9C5FA
P 2000 3300
F 0 "H63" H 2049 3335 50  0000 L CNN
F 1 "GND" H 2049 3255 35  0000 L CNN
F 2 "AllModules:Via_12x32" H 2000 3300 50  0001 C CNN
F 3 "~" H 2000 3300 50  0001 C CNN
	1    2000 3300
	1    0    0    -1  
$EndComp
$Comp
L V_Mechanical:Via H64
U 1 1 5EA9C5F8
P 5650 3400
F 0 "H64" H 5650 3564 50  0000 C CNN
F 1 "GND" H 5650 3484 35  0000 C CNN
F 2 "AllModules:Via_12x32" H 5650 3400 50  0001 C CNN
F 3 "~" H 5650 3400 50  0001 C CNN
	1    5650 3400
	1    0    0    -1  
$EndComp
$Comp
L V_Mechanical:Via H65
U 1 1 5EA9C601
P 7700 3450
F 0 "H65" H 7749 3485 50  0000 L CNN
F 1 "GND" H 7749 3405 35  0000 L CNN
F 2 "AllModules:Via_12x32" H 7700 3450 50  0001 C CNN
F 3 "~" H 7700 3450 50  0001 C CNN
	1    7700 3450
	1    0    0    -1  
$EndComp
$Comp
L V_Mechanical:Via H66
U 1 1 5EA9C5C5
P 9350 3550
F 0 "H66" H 9399 3585 50  0000 L CNN
F 1 "GND" H 9399 3505 35  0000 L CNN
F 2 "AllModules:Via_12x32" H 9350 3550 50  0001 C CNN
F 3 "~" H 9350 3550 50  0001 C CNN
	1    9350 3550
	1    0    0    -1  
$EndComp
$Comp
L V_Mechanical:Via H67
U 1 1 5EA9C5C8
P 2950 3550
F 0 "H67" H 2999 3585 50  0000 L CNN
F 1 "GND" H 2999 3505 35  0000 L CNN
F 2 "AllModules:Via_12x32" H 2950 3550 50  0001 C CNN
F 3 "~" H 2950 3550 50  0001 C CNN
	1    2950 3550
	1    0    0    -1  
$EndComp
$Comp
L V_Mechanical:Via H68
U 1 1 5EA9C5C4
P 7150 3750
F 0 "H68" H 7199 3785 50  0000 L CNN
F 1 "GND" H 7199 3705 35  0000 L CNN
F 2 "AllModules:Via_12x32" H 7150 3750 50  0001 C CNN
F 3 "~" H 7150 3750 50  0001 C CNN
	1    7150 3750
	1    0    0    -1  
$EndComp
$Comp
L V_Mechanical:Via H69
U 1 1 5EA9C5C6
P 2450 3800
F 0 "H69" H 2499 3835 50  0000 L CNN
F 1 "GND" H 2499 3755 35  0000 L CNN
F 2 "AllModules:Via_12x32" H 2450 3800 50  0001 C CNN
F 3 "~" H 2450 3800 50  0001 C CNN
	1    2450 3800
	1    0    0    -1  
$EndComp
$Comp
L V_Mechanical:Via H70
U 1 1 5EA9C5C7
P 2000 3800
F 0 "H70" H 2049 3835 50  0000 L CNN
F 1 "GND" H 2049 3755 35  0000 L CNN
F 2 "AllModules:Via_12x32" H 2000 3800 50  0001 C CNN
F 3 "~" H 2000 3800 50  0001 C CNN
	1    2000 3800
	1    0    0    -1  
$EndComp
$Comp
L V_Mechanical:Via H71
U 1 1 5EA9C5D7
P 5200 3850
F 0 "H71" H 5249 3885 50  0000 L CNN
F 1 "GND" H 5249 3805 35  0000 L CNN
F 2 "AllModules:Via_12x32" H 5200 3850 50  0001 C CNN
F 3 "~" H 5200 3850 50  0001 C CNN
	1    5200 3850
	1    0    0    -1  
$EndComp
$Comp
L V_Mechanical:Via H72
U 1 1 5EA9C5E2
P 4500 3850
F 0 "H72" H 4549 3885 50  0000 L CNN
F 1 "GND" H 4549 3805 35  0000 L CNN
F 2 "AllModules:Via_12x32" H 4500 3850 50  0001 C CNN
F 3 "~" H 4500 3850 50  0001 C CNN
	1    4500 3850
	1    0    0    -1  
$EndComp
$Comp
L V_Mechanical:Via H73
U 1 1 5EA9C5E1
P 9350 4050
F 0 "H73" H 9450 4096 50  0000 L CNN
F 1 "GND" H 9450 4005 35  0000 L CNN
F 2 "AllModules:Via_12x32" H 9350 4050 50  0001 C CNN
F 3 "~" H 9350 4050 50  0001 C CNN
	1    9350 4050
	1    0    0    -1  
$EndComp
$Comp
L V_Mechanical:Via H74
U 1 1 5EA9C5E0
P 8700 4100
F 0 "H74" H 8800 4146 50  0000 L CNN
F 1 "GND" H 8800 4055 35  0000 L CNN
F 2 "AllModules:Via_12x32" H 8700 4100 50  0001 C CNN
F 3 "~" H 8700 4100 50  0001 C CNN
	1    8700 4100
	1    0    0    -1  
$EndComp
$Comp
L V_Mechanical:Via H75
U 1 1 5EA9C5DF
P 8050 4100
F 0 "H75" H 8150 4146 50  0000 L CNN
F 1 "GND" H 8150 4055 35  0000 L CNN
F 2 "AllModules:Via_12x32" H 8050 4100 50  0001 C CNN
F 3 "~" H 8050 4100 50  0001 C CNN
	1    8050 4100
	1    0    0    -1  
$EndComp
$Comp
L V_Mechanical:Via H76
U 1 1 5EA9C5DE
P 8750 4300
F 0 "H76" H 8799 4335 50  0000 L CNN
F 1 "GND" H 8799 4255 35  0000 L CNN
F 2 "AllModules:Via_12x32" H 8750 4300 50  0001 C CNN
F 3 "~" H 8750 4300 50  0001 C CNN
	1    8750 4300
	1    0    0    -1  
$EndComp
$Comp
L V_Mechanical:Via H77
U 1 1 5EA9C5DD
P 2450 4300
F 0 "H77" H 2499 4335 50  0000 L CNN
F 1 "GND" H 2499 4255 35  0000 L CNN
F 2 "AllModules:Via_12x32" H 2450 4300 50  0001 C CNN
F 3 "~" H 2450 4300 50  0001 C CNN
	1    2450 4300
	1    0    0    -1  
$EndComp
$Comp
L V_Mechanical:Via H78
U 1 1 5EA9C5DC
P 2000 4300
F 0 "H78" H 2049 4335 50  0000 L CNN
F 1 "GND" H 2049 4255 35  0000 L CNN
F 2 "AllModules:Via_12x32" H 2000 4300 50  0001 C CNN
F 3 "~" H 2000 4300 50  0001 C CNN
	1    2000 4300
	1    0    0    -1  
$EndComp
$Comp
L V_Mechanical:Via H79
U 1 1 5EA9C5DB
P 7600 4400
F 0 "H79" H 7600 4564 50  0000 C CNN
F 1 "GND" H 7600 4484 35  0000 C CNN
F 2 "AllModules:Via_12x32" H 7600 4400 50  0001 C CNN
F 3 "~" H 7600 4400 50  0001 C CNN
	1    7600 4400
	1    0    0    -1  
$EndComp
$Comp
L V_Mechanical:Via H81
U 1 1 5EA9C5DA
P 9350 4600
F 0 "H81" H 9399 4635 50  0000 L CNN
F 1 "GND" H 9399 4555 35  0000 L CNN
F 2 "AllModules:Via_12x32" H 9350 4600 50  0001 C CNN
F 3 "~" H 9350 4600 50  0001 C CNN
	1    9350 4600
	1    0    0    -1  
$EndComp
$Comp
L V_Mechanical:Via H82
U 1 1 5EA9C5D9
P 2000 4850
F 0 "H82" H 2049 4885 50  0000 L CNN
F 1 "GND" H 2049 4805 35  0000 L CNN
F 2 "AllModules:Via_12x32" H 2000 4850 50  0001 C CNN
F 3 "~" H 2000 4850 50  0001 C CNN
	1    2000 4850
	1    0    0    -1  
$EndComp
$Comp
L V_Mechanical:Via H83
U 1 1 5EA9C5D8
P 9350 5100
F 0 "H83" H 9399 5135 50  0000 L CNN
F 1 "GND" H 9399 5055 35  0000 L CNN
F 2 "AllModules:Via_12x32" H 9350 5100 50  0001 C CNN
F 3 "~" H 9350 5100 50  0001 C CNN
	1    9350 5100
	1    0    0    -1  
$EndComp
$Comp
L V_Mechanical:Via H84
U 1 1 5EA9C5CA
P 7050 5100
F 0 "H84" H 7099 5135 50  0000 L CNN
F 1 "GND" H 7099 5055 35  0000 L CNN
F 2 "AllModules:Via_12x32" H 7050 5100 50  0001 C CNN
F 3 "~" H 7050 5100 50  0001 C CNN
	1    7050 5100
	1    0    0    -1  
$EndComp
$Comp
L V_Mechanical:Via H85
U 1 1 5EA9C5D6
P 2000 5350
F 0 "H85" H 2049 5385 50  0000 L CNN
F 1 "GND" H 2049 5305 35  0000 L CNN
F 2 "AllModules:Via_12x32" H 2000 5350 50  0001 C CNN
F 3 "~" H 2000 5350 50  0001 C CNN
	1    2000 5350
	1    0    0    -1  
$EndComp
$Comp
L V_Mechanical:Via H86
U 1 1 5EA9C5D5
P 9200 5400
F 0 "H86" H 9249 5435 50  0000 L CNN
F 1 "GND" H 9249 5355 35  0000 L CNN
F 2 "AllModules:Via_12x32" H 9200 5400 50  0001 C CNN
F 3 "~" H 9200 5400 50  0001 C CNN
	1    9200 5400
	1    0    0    -1  
$EndComp
$Comp
L V_Mechanical:Via H87
U 1 1 5EA9C5D4
P 8700 5400
F 0 "H87" H 8749 5435 50  0000 L CNN
F 1 "GND" H 8749 5355 35  0000 L CNN
F 2 "AllModules:Via_12x32" H 8700 5400 50  0001 C CNN
F 3 "~" H 8700 5400 50  0001 C CNN
	1    8700 5400
	1    0    0    -1  
$EndComp
$Comp
L V_Mechanical:Via H88
U 1 1 5EA9C5D3
P 8450 5400
F 0 "H88" H 8499 5435 50  0000 L CNN
F 1 "GND" H 8499 5355 35  0000 L CNN
F 2 "AllModules:Via_12x32" H 8450 5400 50  0001 C CNN
F 3 "~" H 8450 5400 50  0001 C CNN
	1    8450 5400
	1    0    0    -1  
$EndComp
$Comp
L V_Mechanical:Via H89
U 1 1 5EA9C5D2
P 2900 5400
F 0 "H89" H 2949 5435 50  0000 L CNN
F 1 "GND" H 2949 5355 35  0000 L CNN
F 2 "AllModules:Via_12x32" H 2900 5400 50  0001 C CNN
F 3 "~" H 2900 5400 50  0001 C CNN
	1    2900 5400
	1    0    0    -1  
$EndComp
$Comp
L V_Mechanical:Via H90
U 1 1 5EA9C5D0
P 2400 5400
F 0 "H90" H 2449 5435 50  0000 L CNN
F 1 "GND" H 2449 5355 35  0000 L CNN
F 2 "AllModules:Via_12x32" H 2400 5400 50  0001 C CNN
F 3 "~" H 2400 5400 50  0001 C CNN
	1    2400 5400
	1    0    0    -1  
$EndComp
$Comp
L V_Mechanical:Via H91
U 1 1 5EA9C5CF
P 6000 5450
F 0 "H91" H 6049 5485 50  0000 L CNN
F 1 "GND" H 6049 5405 35  0000 L CNN
F 2 "AllModules:Via_12x32" H 6000 5450 50  0001 C CNN
F 3 "~" H 6000 5450 50  0001 C CNN
	1    6000 5450
	1    0    0    -1  
$EndComp
$Comp
L V_Mechanical:Via H92
U 1 1 5EA9C5CE
P 8450 5700
F 0 "H92" H 8499 5735 50  0000 L CNN
F 1 "GND" H 8499 5655 35  0000 L CNN
F 2 "AllModules:Via_12x32" H 8450 5700 50  0001 C CNN
F 3 "~" H 8450 5700 50  0001 C CNN
	1    8450 5700
	1    0    0    -1  
$EndComp
$Comp
L V_Mechanical:Via H93
U 1 1 5EA9C5CD
P 2900 5950
F 0 "H93" H 2949 5985 50  0000 L CNN
F 1 "GND" H 2949 5905 35  0000 L CNN
F 2 "AllModules:Via_12x32" H 2900 5950 50  0001 C CNN
F 3 "~" H 2900 5950 50  0001 C CNN
	1    2900 5950
	1    0    0    -1  
$EndComp
$Comp
L V_Mechanical:Via H94
U 1 1 5EA9C5CC
P 8450 6200
F 0 "H94" H 8499 6235 50  0000 L CNN
F 1 "GND" H 8499 6155 35  0000 L CNN
F 2 "AllModules:Via_12x32" H 8450 6200 50  0001 C CNN
F 3 "~" H 8450 6200 50  0001 C CNN
	1    8450 6200
	1    0    0    -1  
$EndComp
$Comp
L V_Mechanical:Via H95
U 1 1 5EA9C5C9
P 8050 6350
F 0 "H95" H 8099 6385 50  0000 L CNN
F 1 "GND" H 8099 6305 35  0000 L CNN
F 2 "AllModules:Via_12x32" H 8050 6350 50  0001 C CNN
F 3 "~" H 8050 6350 50  0001 C CNN
	1    8050 6350
	1    0    0    -1  
$EndComp
$Comp
L V_Mechanical:Via H96
U 1 1 5EA9C651
P 7550 6350
F 0 "H96" H 7599 6385 50  0000 L CNN
F 1 "GND" H 7599 6305 35  0000 L CNN
F 2 "AllModules:Via_12x32" H 7550 6350 50  0001 C CNN
F 3 "~" H 7550 6350 50  0001 C CNN
	1    7550 6350
	1    0    0    -1  
$EndComp
$Comp
L V_Mechanical:Via H97
U 1 1 5EA9C646
P 7050 6350
F 0 "H97" H 7099 6385 50  0000 L CNN
F 1 "GND" H 7099 6305 35  0000 L CNN
F 2 "AllModules:Via_12x32" H 7050 6350 50  0001 C CNN
F 3 "~" H 7050 6350 50  0001 C CNN
	1    7050 6350
	1    0    0    -1  
$EndComp
$Comp
L V_Mechanical:Via H98
U 1 1 5EA9C645
P 6550 6350
F 0 "H98" H 6599 6385 50  0000 L CNN
F 1 "GND" H 6599 6305 35  0000 L CNN
F 2 "AllModules:Via_12x32" H 6550 6350 50  0001 C CNN
F 3 "~" H 6550 6350 50  0001 C CNN
	1    6550 6350
	1    0    0    -1  
$EndComp
$Comp
L V_Mechanical:Via H99
U 1 1 5EA9C644
P 6000 6350
F 0 "H99" H 5925 6500 50  0000 L CNN
F 1 "GND" H 5950 6425 35  0000 L CNN
F 2 "AllModules:Via_12x32" H 6000 6350 50  0001 C CNN
F 3 "~" H 6000 6350 50  0001 C CNN
	1    6000 6350
	1    0    0    -1  
$EndComp
$Comp
L V_Mechanical:Via H100
U 1 1 5EA9C643
P 5500 6350
F 0 "H100" H 5549 6385 50  0000 L CNN
F 1 "GND" H 5549 6305 35  0000 L CNN
F 2 "AllModules:Via_12x32" H 5500 6350 50  0001 C CNN
F 3 "~" H 5500 6350 50  0001 C CNN
	1    5500 6350
	1    0    0    -1  
$EndComp
$Comp
L V_Mechanical:Via H101
U 1 1 5EA9C642
P 5000 6350
F 0 "H101" H 5049 6385 50  0000 L CNN
F 1 "GND" H 5049 6305 35  0000 L CNN
F 2 "AllModules:Via_12x32" H 5000 6350 50  0001 C CNN
F 3 "~" H 5000 6350 50  0001 C CNN
	1    5000 6350
	1    0    0    -1  
$EndComp
$Comp
L V_Mechanical:Via H102
U 1 1 5EA9C641
P 4500 6350
F 0 "H102" H 4549 6385 50  0000 L CNN
F 1 "GND" H 4549 6305 35  0000 L CNN
F 2 "AllModules:Via_12x32" H 4500 6350 50  0001 C CNN
F 3 "~" H 4500 6350 50  0001 C CNN
	1    4500 6350
	1    0    0    -1  
$EndComp
$Comp
L V_Mechanical:Via H103
U 1 1 5EA9C640
P 4000 6350
F 0 "H103" H 4049 6385 50  0000 L CNN
F 1 "GND" H 4049 6305 35  0000 L CNN
F 2 "AllModules:Via_12x32" H 4000 6350 50  0001 C CNN
F 3 "~" H 4000 6350 50  0001 C CNN
	1    4000 6350
	1    0    0    -1  
$EndComp
$Comp
L V_Mechanical:Via H104
U 1 1 5EA9C63F
P 3500 6350
F 0 "H104" H 3549 6385 50  0000 L CNN
F 1 "GND" H 3549 6305 35  0000 L CNN
F 2 "AllModules:Via_12x32" H 3500 6350 50  0001 C CNN
F 3 "~" H 3500 6350 50  0001 C CNN
	1    3500 6350
	1    0    0    -1  
$EndComp
$Comp
L V_Mechanical:Via H105
U 1 1 5EA9C63E
P 3000 6350
F 0 "H105" H 3049 6385 50  0000 L CNN
F 1 "GND" H 3049 6305 35  0000 L CNN
F 2 "AllModules:Via_12x32" H 3000 6350 50  0001 C CNN
F 3 "~" H 3000 6350 50  0001 C CNN
	1    3000 6350
	1    0    0    -1  
$EndComp
$Comp
L V_Mechanical:Via V1
U 1 1 5EA9C633
P 4700 4100
F 0 "V1" H 4749 4135 50  0000 L CNN
F 1 "+5V" H 4749 4055 35  0000 L CNN
F 2 "AllModules:Via_12x32-1._.3.4" H 4700 4100 50  0001 C CNN
F 3 "~" H 4700 4100 50  0001 C CNN
	1    4700 4100
	1    0    0    -1  
$EndComp
$Comp
L V_Mechanical:Via V2
U 1 1 5EA9C63C
P 3600 1150
F 0 "V2" H 3649 1185 50  0000 L CNN
F 1 "+5V" H 3649 1105 35  0000 L CNN
F 2 "AllModules:Via_12x32-1._.3.4" H 3600 1150 50  0001 C CNN
F 3 "~" H 3600 1150 50  0001 C CNN
	1    3600 1150
	1    0    0    -1  
$EndComp
$Comp
L V_Mechanical:Via V3
U 1 1 5EA9C63B
P 8500 3250
F 0 "V3" H 8452 3285 50  0000 R CNN
F 1 "+5V" H 8452 3205 35  0000 R CNN
F 2 "AllModules:Via_12x32-1._.3.4" H 8500 3250 50  0001 C CNN
F 3 "~" H 8500 3250 50  0001 C CNN
	1    8500 3250
	1    0    0    -1  
$EndComp
$Comp
L V_Mechanical:Via V4
U 1 1 5EA9C63A
P 4850 3450
F 0 "V4" H 4899 3485 50  0000 L CNN
F 1 "+5V" H 4899 3405 35  0000 L CNN
F 2 "AllModules:Via_12x32-1._.3.4" H 4850 3450 50  0001 C CNN
F 3 "~" H 4850 3450 50  0001 C CNN
	1    4850 3450
	1    0    0    -1  
$EndComp
$Comp
L V_Mechanical:Via V5
U 1 1 5EA9C639
P 7800 4350
F 0 "V5" H 7849 4385 50  0000 L CNN
F 1 "+5V" H 7849 4305 35  0000 L CNN
F 2 "AllModules:Via_12x32-1._.3.4" H 7800 4350 50  0001 C CNN
F 3 "~" H 7800 4350 50  0001 C CNN
	1    7800 4350
	1    0    0    -1  
$EndComp
$Comp
L V_Mechanical:Via V6
U 1 1 5EA9C638
P 3150 4850
F 0 "V6" H 3199 4885 50  0000 L CNN
F 1 "BUZ-ACT" H 3199 4805 35  0000 L CNN
F 2 "AllModules:Via_12x32-1._.3.4" H 3150 4850 50  0001 C CNN
F 3 "~" H 3150 4850 50  0001 C CNN
	1    3150 4850
	1    0    0    -1  
$EndComp
$Comp
L V_Mechanical:Via V7
U 1 1 5EA9C637
P 8600 3500
F 0 "V7" H 8649 3535 50  0000 L CNN
F 1 "BUZ-ACT" H 8649 3455 35  0000 L CNN
F 2 "AllModules:Via_12x32-1._.3.4" H 8600 3500 50  0001 C CNN
F 3 "~" H 8600 3500 50  0001 C CNN
	1    8600 3500
	1    0    0    -1  
$EndComp
$Comp
L V_Mechanical:Via V8
U 1 1 5EA9C636
P 7100 4450
F 0 "V8" H 7149 4485 50  0000 L CNN
F 1 "BUZ-ACT" H 7149 4405 35  0000 L CNN
F 2 "AllModules:Via_12x32-1._.3.4" H 7100 4450 50  0001 C CNN
F 3 "~" H 7100 4450 50  0001 C CNN
	1    7100 4450
	1    0    0    -1  
$EndComp
$Comp
L V_Mechanical:Via V9
U 1 1 5EA9C635
P 8450 4700
F 0 "V9" H 8499 4735 50  0000 L CNN
F 1 "BUZ-ACT" H 8499 4655 35  0000 L CNN
F 2 "AllModules:Via_12x32-1._.3.4" H 8450 4700 50  0001 C CNN
F 3 "~" H 8450 4700 50  0001 C CNN
	1    8450 4700
	1    0    0    -1  
$EndComp
$Comp
L V_Mechanical:Via V10
U 1 1 5EA9C634
P 2900 1950
F 0 "V10" H 2949 1985 50  0000 L CNN
F 1 "SUPPLY-BUZ-CPU" H 2949 1905 35  0000 L CNN
F 2 "AllModules:Via_12x32-1._.3.4" H 2900 1950 50  0001 C CNN
F 3 "~" H 2900 1950 50  0001 C CNN
	1    2900 1950
	1    0    0    -1  
$EndComp
$Comp
L V_Mechanical:Via V11
U 1 1 5EA9C63D
P 2800 2850
F 0 "V11" H 2800 2756 50  0000 C CNN
F 1 "SUPPLY-BUZ-CPU" H 2800 2676 35  0000 C CNN
F 2 "AllModules:Via_12x32-1._.3.4" H 2800 2850 50  0001 C CNN
F 3 "~" H 2800 2850 50  0001 C CNN
	1    2800 2850
	1    0    0    -1  
$EndComp
$Comp
L V_Mechanical:Via V12
U 1 1 5EA9C659
P 6000 1550
F 0 "V12" H 6049 1585 50  0000 L CNN
F 1 "-12V" H 6049 1505 35  0000 L CNN
F 2 "AllModules:Via_12x32-1._.3.4" H 6000 1550 50  0001 C CNN
F 3 "~" H 6000 1550 50  0001 C CNN
	1    6000 1550
	1    0    0    -1  
$EndComp
$Comp
L V_Mechanical:Via V13
U 1 1 5EA9C658
P 7400 1650
F 0 "V13" H 7449 1685 50  0000 L CNN
F 1 "-12V" H 7449 1605 35  0000 L CNN
F 2 "AllModules:Via_12x32-1._.3.4" H 7400 1650 50  0001 C CNN
F 3 "~" H 7400 1650 50  0001 C CNN
	1    7400 1650
	1    0    0    -1  
$EndComp
$Comp
L V_Mechanical:Via V14
U 1 1 5EA9C657
P 5300 2550
F 0 "V14" H 5349 2585 50  0000 L CNN
F 1 "-12V" H 5349 2505 35  0000 L CNN
F 2 "AllModules:Via_12x32-1._.3.4" H 5300 2550 50  0001 C CNN
F 3 "~" H 5300 2550 50  0001 C CNN
	1    5300 2550
	1    0    0    -1  
$EndComp
$Comp
L V_Mechanical:Via V15
U 1 1 5EA9C656
P 7700 4100
F 0 "V15" H 7749 4135 50  0000 L CNN
F 1 "-12V" H 7749 4055 35  0000 L CNN
F 2 "AllModules:Via_12x32-1._.3.4" H 7700 4100 50  0001 C CNN
F 3 "~" H 7700 4100 50  0001 C CNN
	1    7700 4100
	1    0    0    -1  
$EndComp
$Comp
L V_Mechanical:Via V16
U 1 1 5EA9C655
P 3350 3150
F 0 "V16" H 3350 3056 50  0000 C CNN
F 1 "N$78" H 3350 2976 35  0000 C CNN
F 2 "AllModules:Via_12x32-1._.3.4" H 3350 3150 50  0001 C CNN
F 3 "~" H 3350 3150 50  0001 C CNN
	1    3350 3150
	1    0    0    -1  
$EndComp
$Comp
L V_Mechanical:Via V17
U 1 1 5EA9C652
P 2850 3150
F 0 "V17" H 2899 3185 50  0000 L CNN
F 1 "N$78" H 2899 3105 35  0000 L CNN
F 2 "AllModules:Via_12x32-1._.3.4" H 2850 3150 50  0001 C CNN
F 3 "~" H 2850 3150 50  0001 C CNN
	1    2850 3150
	1    0    0    -1  
$EndComp
$Comp
L V_Mechanical:Via V18
U 1 1 5EA9C647
P 4250 4300
F 0 "V18" H 4250 4464 50  0000 C CNN
F 1 "N$58" H 4250 4384 35  0000 C CNN
F 2 "AllModules:Via_12x32-1._.3.4" H 4250 4300 50  0001 C CNN
F 3 "~" H 4250 4300 50  0001 C CNN
	1    4250 4300
	1    0    0    -1  
$EndComp
$Comp
L V_Mechanical:Via V19
U 1 1 5EA9C650
P 3050 4600
F 0 "V19" H 3050 4506 50  0000 C CNN
F 1 "N$58" H 3050 4426 35  0000 C CNN
F 2 "AllModules:Via_12x32-1._.3.4" H 3050 4600 50  0001 C CNN
F 3 "~" H 3050 4600 50  0001 C CNN
	1    3050 4600
	1    0    0    -1  
$EndComp
$Comp
L V_Mechanical:Via V20
U 1 1 5EA9C64F
P 8650 1500
F 0 "V20" H 8699 1535 50  0000 L CNN
F 1 "N$31" H 8699 1455 35  0000 L CNN
F 2 "AllModules:Via_12x32-1._.3.4" H 8650 1500 50  0001 C CNN
F 3 "~" H 8650 1500 50  0001 C CNN
	1    8650 1500
	1    0    0    -1  
$EndComp
$Comp
L V_Mechanical:Via V21
U 1 1 5EA9C64E
P 8750 2450
F 0 "V21" H 8799 2485 50  0000 L CNN
F 1 "GT1" H 8799 2405 35  0000 L CNN
F 2 "AllModules:Via_12x32-1._.3.4" H 8750 2450 50  0001 C CNN
F 3 "~" H 8750 2450 50  0001 C CNN
	1    8750 2450
	1    0    0    -1  
$EndComp
$Comp
L V_Mechanical:Via V22
U 1 1 5EA9C64D
P 9100 1050
F 0 "V22" H 9149 1085 50  0000 L CNN
F 1 "GT1" H 9149 1005 35  0000 L CNN
F 2 "AllModules:Via_12x32-1._.3.4" H 9100 1050 50  0001 C CNN
F 3 "~" H 9100 1050 50  0001 C CNN
	1    9100 1050
	1    0    0    -1  
$EndComp
$Comp
L V_Mechanical:Via V23
U 1 1 5EA9C64C
P 6000 1100
F 0 "V23" H 6049 1135 50  0000 L CNN
F 1 "+12V" H 6049 1055 35  0000 L CNN
F 2 "AllModules:Via_12x32-1._.3.4" H 6000 1100 50  0001 C CNN
F 3 "~" H 6000 1100 50  0001 C CNN
	1    6000 1100
	1    0    0    -1  
$EndComp
$Comp
L V_Mechanical:Via V24
U 1 1 5EA9C610
P 8400 1150
F 0 "V24" H 8449 1185 50  0000 L CNN
F 1 "+12V" H 8449 1105 35  0000 L CNN
F 2 "AllModules:Via_12x32-1._.3.4" H 8400 1150 50  0001 C CNN
F 3 "~" H 8400 1150 50  0001 C CNN
	1    8400 1150
	1    0    0    -1  
$EndComp
$Comp
L V_Mechanical:Via V25
U 1 1 5EA9C60F
P 6750 1250
F 0 "V25" H 6799 1285 50  0000 L CNN
F 1 "+12V" H 6799 1205 35  0000 L CNN
F 2 "AllModules:Via_12x32-1._.3.4" H 6750 1250 50  0001 C CNN
F 3 "~" H 6750 1250 50  0001 C CNN
	1    6750 1250
	1    0    0    -1  
$EndComp
$Comp
L V_Mechanical:Via V26
U 1 1 5EA9C60E
P 4400 2650
F 0 "V26" H 4449 2685 50  0000 L CNN
F 1 "+12V" H 4449 2605 35  0000 L CNN
F 2 "AllModules:Via_12x32-1._.3.4" H 4400 2650 50  0001 C CNN
F 3 "~" H 4400 2650 50  0001 C CNN
	1    4400 2650
	1    0    0    -1  
$EndComp
$Comp
L V_Mechanical:Via V27
U 1 1 5EA9C60D
P 4500 3400
F 0 "V27" H 4549 3435 50  0000 L CNN
F 1 "+12V" H 4549 3355 35  0000 L CNN
F 2 "AllModules:Via_12x32-1._.3.4" H 4500 3400 50  0001 C CNN
F 3 "~" H 4500 3400 50  0001 C CNN
	1    4500 3400
	1    0    0    -1  
$EndComp
$Comp
L V_Mechanical:Via V28
U 1 1 5EA9C60C
P 8050 3450
F 0 "V28" H 8099 3485 50  0000 L CNN
F 1 "+12V" H 8099 3405 35  0000 L CNN
F 2 "AllModules:Via_12x32-1._.3.4" H 8050 3450 50  0001 C CNN
F 3 "~" H 8050 3450 50  0001 C CNN
	1    8050 3450
	1    0    0    -1  
$EndComp
$Comp
L V_Mechanical:Via V29
U 1 1 5EA9C615
P 3900 4850
F 0 "V29" H 3949 4885 50  0000 L CNN
F 1 "BATTV" H 3949 4805 35  0000 L CNN
F 2 "AllModules:Via_12x32-1._._.4" H 3900 4850 50  0001 C CNN
F 3 "~" H 3900 4850 50  0001 C CNN
	1    3900 4850
	1    0    0    -1  
$EndComp
$Comp
L V_Mechanical:Via V30
U 1 1 5EA9C632
P 6500 2550
F 0 "V30" H 6549 2585 50  0000 L CNN
F 1 "N$19" H 6549 2505 35  0000 L CNN
F 2 "AllModules:Via_12x32-1._.3.4" H 6500 2550 50  0001 C CNN
F 3 "~" H 6500 2550 50  0001 C CNN
	1    6500 2550
	1    0    0    -1  
$EndComp
$Comp
L V_Mechanical:Via V31
U 1 1 5EA9C631
P 7650 1300
F 0 "V31" H 7699 1335 50  0000 L CNN
F 1 "N$18" H 7699 1255 35  0000 L CNN
F 2 "AllModules:Via_12x32-1._.3.4" H 7650 1300 50  0001 C CNN
F 3 "~" H 7650 1300 50  0001 C CNN
	1    7650 1300
	1    0    0    -1  
$EndComp
$Comp
L V_Mechanical:Via V32
U 1 1 5EA9C630
P 8350 1950
F 0 "V32" H 8350 2114 50  0000 C CNN
F 1 "N$18" H 8350 2034 35  0000 C CNN
F 2 "AllModules:Via_12x32-1._.3.4" H 8350 1950 50  0001 C CNN
F 3 "~" H 8350 1950 50  0001 C CNN
	1    8350 1950
	1    0    0    -1  
$EndComp
$Comp
L V_Mechanical:Via V33
U 1 1 5EA9C62F
P 6800 4150
F 0 "V33" H 6849 4185 50  0000 L CNN
F 1 "N$10" H 6849 4105 35  0000 L CNN
F 2 "AllModules:Via_12x32-1._._.4" H 6800 4150 50  0001 C CNN
F 3 "~" H 6800 4150 50  0001 C CNN
	1    6800 4150
	1    0    0    -1  
$EndComp
$Comp
L V_Mechanical:Via V34
U 1 1 5EA9C62E
P 5150 1600
F 0 "V34" H 5199 1635 50  0000 L CNN
F 1 "N$10" H 5199 1555 35  0000 L CNN
F 2 "AllModules:Via_12x32-1._.3.4" H 5150 1600 50  0001 C CNN
F 3 "~" H 5150 1600 50  0001 C CNN
	1    5150 1600
	1    0    0    -1  
$EndComp
$Comp
L V_Mechanical:Via V35
U 1 1 5EA9C62D
P 4800 1600
F 0 "V35" H 4849 1635 50  0000 L CNN
F 1 "N$10" H 4849 1555 35  0000 L CNN
F 2 "AllModules:Via_12x32-1._.3.4" H 4800 1600 50  0001 C CNN
F 3 "~" H 4800 1600 50  0001 C CNN
	1    4800 1600
	1    0    0    -1  
$EndComp
$Comp
L V_Mechanical:Via V36
U 1 1 5EA9C62C
P 4800 1550
F 0 "V36" H 4800 1714 50  0000 C CNN
F 1 "N$10" H 4800 1634 35  0000 C CNN
F 2 "AllModules:Via_12x32-1._.3.4" H 4800 1550 50  0001 C CNN
F 3 "~" H 4800 1550 50  0001 C CNN
	1    4800 1550
	1    0    0    -1  
$EndComp
$Comp
L V_Mechanical:Via V37
U 1 1 5EA9C62B
P 4450 1300
F 0 "V37" H 4499 1335 50  0000 L CNN
F 1 "N$10" H 4499 1255 35  0000 L CNN
F 2 "AllModules:Via_12x32-1._.3.4" H 4450 1300 50  0001 C CNN
F 3 "~" H 4450 1300 50  0001 C CNN
	1    4450 1300
	1    0    0    -1  
$EndComp
$Comp
L V_Mechanical:Via V38
U 1 1 5EA9C62A
P 5000 1300
F 0 "V38" H 5000 1464 50  0000 C CNN
F 1 "N$10" H 5000 1384 35  0000 C CNN
F 2 "AllModules:Via_12x32-1._.3.4" H 5000 1300 50  0001 C CNN
F 3 "~" H 5000 1300 50  0001 C CNN
	1    5000 1300
	1    0    0    -1  
$EndComp
$Comp
L V_Mechanical:Via V39
U 1 1 5EA9C61F
P 5550 1300
F 0 "V39" H 5599 1335 50  0000 L CNN
F 1 "N$10" H 5599 1255 35  0000 L CNN
F 2 "AllModules:Via_12x32-1._.3.4" H 5550 1300 50  0001 C CNN
F 3 "~" H 5550 1300 50  0001 C CNN
	1    5550 1300
	1    0    0    -1  
$EndComp
$Comp
L V_Mechanical:Via V40
U 1 1 5EA9C628
P 5150 1550
F 0 "V40" H 5150 1714 50  0000 C CNN
F 1 "N$10" H 5150 1634 35  0000 C CNN
F 2 "AllModules:Via_12x32-1._.3.4" H 5150 1550 50  0001 C CNN
F 3 "~" H 5150 1550 50  0001 C CNN
	1    5150 1550
	1    0    0    -1  
$EndComp
$Comp
L V_Mechanical:Via V41
U 1 1 5EA9C627
P 4100 900
F 0 "V41" H 4100 1064 50  0000 C CNN
F 1 "N$10" H 4100 984 35  0000 C CNN
F 2 "AllModules:Via_12x32-1._.3.4" H 4100 900 50  0001 C CNN
F 3 "~" H 4100 900 50  0001 C CNN
	1    4100 900 
	1    0    0    -1  
$EndComp
$Comp
L V_Mechanical:Via V42
U 1 1 5EA9C626
P 4100 1100
F 0 "V42" H 4051 1135 50  0000 R CNN
F 1 "N$10" H 4051 1055 35  0000 R CNN
F 2 "AllModules:Via_12x32-1._.3.4" H 4100 1100 50  0001 C CNN
F 3 "~" H 4100 1100 50  0001 C CNN
	1    4100 1100
	1    0    0    -1  
$EndComp
$Comp
L V_Mechanical:Via V43
U 1 1 5EA9C625
P 4100 1200
F 0 "V43" H 4149 1235 50  0000 L CNN
F 1 "N$10" H 4149 1155 35  0000 L CNN
F 2 "AllModules:Via_12x32-1._.3.4" H 4100 1200 50  0001 C CNN
F 3 "~" H 4100 1200 50  0001 C CNN
	1    4100 1200
	1    0    0    -1  
$EndComp
$Comp
L V_Mechanical:Via V44
U 1 1 5EA9C624
P 4100 1400
F 0 "V44" H 4051 1435 50  0000 R CNN
F 1 "N$10" H 4051 1355 35  0000 R CNN
F 2 "AllModules:Via_12x32-1._.3.4" H 4100 1400 50  0001 C CNN
F 3 "~" H 4100 1400 50  0001 C CNN
	1    4100 1400
	1    0    0    -1  
$EndComp
$Comp
L V_Mechanical:Via V45
U 1 1 5EA9C623
P 4100 1550
F 0 "V45" H 4149 1585 50  0000 L CNN
F 1 "N$10" H 4149 1505 35  0000 L CNN
F 2 "AllModules:Via_12x32-1._.3.4" H 4100 1550 50  0001 C CNN
F 3 "~" H 4100 1550 50  0001 C CNN
	1    4100 1550
	1    0    0    -1  
$EndComp
$Comp
L V_Mechanical:Via V46
U 1 1 5EA9C622
P 4100 1700
F 0 "V46" H 4051 1735 50  0000 R CNN
F 1 "N$10" H 4051 1655 35  0000 R CNN
F 2 "AllModules:Via_12x32-1._.3.4" H 4100 1700 50  0001 C CNN
F 3 "~" H 4100 1700 50  0001 C CNN
	1    4100 1700
	1    0    0    -1  
$EndComp
$Comp
L V_Mechanical:Via V47
U 1 1 5EA9C621
P 8600 3150
F 0 "V47" H 8600 3314 50  0000 C CNN
F 1 "STOP-INV" H 8600 3234 35  0000 C CNN
F 2 "AllModules:Via_12x32-1._.3.4" H 8600 3150 50  0001 C CNN
F 3 "~" H 8600 3150 50  0001 C CNN
	1    8600 3150
	1    0    0    -1  
$EndComp
$Comp
L V_Mechanical:Via V48
U 1 1 5EA9C620
P 7350 5600
F 0 "V48" H 7399 5635 50  0000 L CNN
F 1 "STOP-INV" H 7399 5555 35  0000 L CNN
F 2 "AllModules:Via_12x32-1._.3.4" H 7350 5600 50  0001 C CNN
F 3 "~" H 7350 5600 50  0001 C CNN
	1    7350 5600
	1    0    0    -1  
$EndComp
$Comp
L V_Mechanical:Via V49
U 1 1 5EA9C611
P 4150 2850
F 0 "V49" H 4101 2885 50  0000 R CNN
F 1 "VCHARG" H 4101 2805 35  0000 R CNN
F 2 "AllModules:Via_12x32-1._._.4" H 4150 2850 50  0001 C CNN
F 3 "~" H 4150 2850 50  0001 C CNN
	1    4150 2850
	1    0    0    -1  
$EndComp
$Comp
L V_Mechanical:Via V50
U 1 1 5EA9C612
P 7050 4600
F 0 "V50" H 7001 4635 50  0000 R CNN
F 1 "VCHARG" H 7001 4555 35  0000 R CNN
F 2 "AllModules:Via_12x32-1._.3.4" H 7050 4600 50  0001 C CNN
F 3 "~" H 7050 4600 50  0001 C CNN
	1    7050 4600
	1    0    0    -1  
$EndComp
$Comp
L V_Mechanical:Via V51
U 1 1 5EA9C613
P 4300 4900
F 0 "V51" H 4349 4935 50  0000 L CNN
F 1 "VCHARG" H 4349 4855 35  0000 L CNN
F 2 "AllModules:Via_12x32-1._.3.4" H 4300 4900 50  0001 C CNN
F 3 "~" H 4300 4900 50  0001 C CNN
	1    4300 4900
	1    0    0    -1  
$EndComp
$Comp
L V_Mechanical:Via V52
U 1 1 5EA9C614
P 5200 3500
F 0 "V52" H 5249 3535 50  0000 L CNN
F 1 "VCHARG" H 5249 3455 35  0000 L CNN
F 2 "AllModules:Via_12x32-1._._.4" H 5200 3500 50  0001 C CNN
F 3 "~" H 5200 3500 50  0001 C CNN
	1    5200 3500
	1    0    0    -1  
$EndComp
$Comp
L V_Mechanical:Via V53
U 1 1 5EA9C60B
P 7850 2150
F 0 "V53" H 7899 2185 50  0000 L CNN
F 1 "VBAT" H 7899 2105 35  0000 L CNN
F 2 "AllModules:Via_12x32-1._.3.4" H 7850 2150 50  0001 C CNN
F 3 "~" H 7850 2150 50  0001 C CNN
	1    7850 2150
	1    0    0    -1  
$EndComp
$Comp
L V_Mechanical:Via V54
U 1 1 5EA9C616
P 5050 3350
F 0 "V54" H 5099 3385 50  0000 L CNN
F 1 "VBAT" H 5099 3305 35  0000 L CNN
F 2 "AllModules:Via_12x32-1._.3.4" H 5050 3350 50  0001 C CNN
F 3 "~" H 5050 3350 50  0001 C CNN
	1    5050 3350
	1    0    0    -1  
$EndComp
$Comp
L V_Mechanical:Via V55
U 1 1 5EA9C617
P 7250 4200
F 0 "V55" H 7299 4235 50  0000 L CNN
F 1 "VBAT" H 7299 4155 35  0000 L CNN
F 2 "AllModules:Via_12x32-1._.3.4" H 7250 4200 50  0001 C CNN
F 3 "~" H 7250 4200 50  0001 C CNN
	1    7250 4200
	1    0    0    -1  
$EndComp
$Comp
L V_Mechanical:Via V56
U 1 1 5EA9C618
P 3450 1450
F 0 "V56" H 3499 1485 50  0000 L CNN
F 1 "SUPPLY-BUZ" H 3499 1405 35  0000 L CNN
F 2 "AllModules:Via_12x32-1._.3.4" H 3450 1450 50  0001 C CNN
F 3 "~" H 3450 1450 50  0001 C CNN
	1    3450 1450
	1    0    0    -1  
$EndComp
$Comp
L V_Mechanical:Via V57
U 1 1 5EA9C619
P 7700 2800
F 0 "V57" H 7700 2964 50  0000 C CNN
F 1 "SUPPLY-BUZ" H 7700 2884 35  0000 C CNN
F 2 "AllModules:Via_12x32-1._.3.4" H 7700 2800 50  0001 C CNN
F 3 "~" H 7700 2800 50  0001 C CNN
	1    7700 2800
	1    0    0    -1  
$EndComp
$Comp
L V_Mechanical:Via V58
U 1 1 5EA9C61A
P 7000 2850
F 0 "V58" H 7049 2885 50  0000 L CNN
F 1 "SUPPLY-BUZ" H 7049 2805 35  0000 L CNN
F 2 "AllModules:Via_12x32-1._.3.4" H 7000 2850 50  0001 C CNN
F 3 "~" H 7000 2850 50  0001 C CNN
	1    7000 2850
	1    0    0    -1  
$EndComp
$Comp
L V_Mechanical:Via V59
U 1 1 5EA9C61B
P 6300 2850
F 0 "V59" H 6300 3014 50  0000 C CNN
F 1 "SUPPLY-BUZ" H 6300 2934 35  0000 C CNN
F 2 "AllModules:Via_12x32-1._.3.4" H 6300 2850 50  0001 C CNN
F 3 "~" H 6300 2850 50  0001 C CNN
	1    6300 2850
	1    0    0    -1  
$EndComp
$Comp
L V_Mechanical:Via V60
U 1 1 5EA9C61C
P 3650 4500
F 0 "V60" H 3602 4535 50  0000 R CNN
F 1 "SUPPLY-BUZ" H 3602 4455 35  0000 R CNN
F 2 "AllModules:Via_12x32-1._.3.4" H 3650 4500 50  0001 C CNN
F 3 "~" H 3650 4500 50  0001 C CNN
	1    3650 4500
	1    0    0    -1  
$EndComp
$Comp
L V_Mechanical:Via V61
U 1 1 5EA9C61D
P 6450 3550
F 0 "V61" H 6499 3585 50  0000 L CNN
F 1 "SHDN2" H 6499 3505 35  0000 L CNN
F 2 "AllModules:Via_12x32-1._._.4" H 6450 3550 50  0001 C CNN
F 3 "~" H 6450 3550 50  0001 C CNN
	1    6450 3550
	1    0    0    -1  
$EndComp
$Comp
L V_Mechanical:Via V62
U 1 1 5EA9C61E
P 5050 1800
F 0 "V62" H 5099 1835 50  0000 L CNN
F 1 "SHDN2" H 5099 1755 35  0000 L CNN
F 2 "AllModules:Via_12x32-1._._.4" H 5050 1800 50  0001 C CNN
F 3 "~" H 5050 1800 50  0001 C CNN
	1    5050 1800
	1    0    0    -1  
$EndComp
$Comp
L V_Mechanical:Via V63
U 1 1 5EA9C629
P 5900 3550
F 0 "V63" H 5949 3585 50  0000 L CNN
F 1 "SHDN1" H 5949 3505 35  0000 L CNN
F 2 "AllModules:Via_12x32-1._._.4" H 5900 3550 50  0001 C CNN
F 3 "~" H 5900 3550 50  0001 C CNN
	1    5900 3550
	1    0    0    -1  
$EndComp
$Comp
L V_Mechanical:Via V64
U 1 1 5EA9C648
P 4900 1800
F 0 "V64" H 4852 1835 50  0000 R CNN
F 1 "SHDN1" H 4852 1755 35  0000 R CNN
F 2 "AllModules:Via_12x32-1._._.4" H 4900 1800 50  0001 C CNN
F 3 "~" H 4900 1800 50  0001 C CNN
	1    4900 1800
	1    0    0    -1  
$EndComp
$Comp
L V_Mechanical:Via V65
U 1 1 5EA9C649
P 4750 5550
F 0 "V65" H 4799 5585 50  0000 L CNN
F 1 "INHIB-STOP-INV" H 4799 5505 35  0000 L CNN
F 2 "AllModules:Via_12x32-1._.3.4" H 4750 5550 50  0001 C CNN
F 3 "~" H 4750 5550 50  0001 C CNN
	1    4750 5550
	1    0    0    -1  
$EndComp
$Comp
L V_Mechanical:Via V66
U 1 1 5EA9C64A
P 4750 4700
F 0 "V66" H 4799 4735 50  0000 L CNN
F 1 "INHIB-STOP-INV" H 4799 4655 35  0000 L CNN
F 2 "AllModules:Via_12x32-1._.3.4" H 4750 4700 50  0001 C CNN
F 3 "~" H 4750 4700 50  0001 C CNN
	1    4750 4700
	1    0    0    -1  
$EndComp
$Comp
L V_Mechanical:Via V67
U 1 1 5EA9C653
P 8700 3250
F 0 "V67" H 8749 3285 50  0000 L CNN
F 1 "INHIB-STOP-INV" H 8749 3205 35  0000 L CNN
F 2 "AllModules:Via_12x32-1._.3.4" H 8700 3250 50  0001 C CNN
F 3 "~" H 8700 3250 50  0001 C CNN
	1    8700 3250
	1    0    0    -1  
$EndComp
$Comp
L V_Mechanical:Via V68
U 1 1 5EA9C654
P 7150 5600
F 0 "V68" H 7150 5764 50  0000 C CNN
F 1 "INHIB-STOP-INV" H 7150 5684 35  0000 C CNN
F 2 "AllModules:Via_12x32-1._.3.4" H 7150 5600 50  0001 C CNN
F 3 "~" H 7150 5600 50  0001 C CNN
	1    7150 5600
	1    0    0    -1  
$EndComp
$Comp
L V_Mechanical:Via H80
U 1 1 5EA9C64B
P 2950 4500
F 0 "H80" H 2950 4664 50  0000 C CNN
F 1 "GND" H 2950 4584 35  0000 C CNN
F 2 "AllModules:Via_12x32" H 2950 4500 50  0001 C CNN
F 3 "~" H 2950 4500 50  0001 C CNN
	1    2950 4500
	1    0    0    -1  
$EndComp
$EndSCHEMATC
