EESchema Schematic File Version 4
EELAYER 30 0
EELAYER END
$Descr A3 16535 11693
encoding utf-8
Sheet 2 8
Title ""
Date ""
Rev ""
Comp ""
Comment1 ""
Comment2 ""
Comment3 ""
Comment4 ""
$EndDescr
$Comp
L V_Power:VALIM #PWR0145
U 1 1 5E92A2E7
P 650 1200
F 0 "#PWR0145" H 650 1050 50  0001 C CNN
F 1 "VALIM" H 665 1399 50  0000 C CNN
F 2 "" H 650 1200 50  0001 C CNN
F 3 "" H 650 1200 50  0001 C CNN
	1    650  1200
	1    0    0    -1  
$EndComp
$Comp
L V_Capacitor:C0603_10nF_50V_10% C116
U 1 1 5E92A825
P 850 1500
F 0 "C116" H 736 1454 50  0000 R CNN
F 1 "10nF" H 736 1545 50  0000 R CNN
F 2 "AllModules:C0603_1" H 888 1350 50  0001 C CNN
F 3 "" H 850 1500 50  0001 C CNN
F 4 "CAPACITOR CERAMIC,10NF,+/-10%,50V,0603" H 850 1500 50  0001 C CNN "Description"
F 5 "10022508" H 850 1500 50  0001 C CNN "Item Number"
F 6 "YAGEO_RMS1" H 850 1500 50  0001 C CNN "Manufacturer"
F 7 "CC0603KRX7R9BB103" H 850 1500 50  0001 C CNN "Manufacturer_No"
F 8 "YAGEO_RMS1" H 0   0   50  0001 C CNN "Manufacturer2"
F 9 "KEMET_RMS1" H 0   0   50  0001 C CNN "Manufacturer3"
F 10 "CC0603KRX7R9BB104" H 0   0   50  0001 C CNN "Manufacturer_No2"
F 11 "C0603C103K5RACTU" H 0   0   50  0001 C CNN "Manufacturer_No3"
	1    850  1500
	1    0    0    1   
$EndComp
$Comp
L V_Power:PGND #PWR0146
U 1 1 5E92BE89
P 850 1800
F 0 "#PWR0146" H 850 1550 50  0001 C CNN
F 1 "PGND" H 855 1627 50  0000 C CNN
F 2 "" H 850 1800 50  0001 C CNN
F 3 "" H 850 1800 50  0001 C CNN
	1    850  1800
	1    0    0    -1  
$EndComp
$Comp
L V_Filter:BNX002-01 FLTR1
U 1 1 5E92D027
P 1750 1400
AR Path="/5E92D027" Ref="FLTR1"  Part="1" 
AR Path="/5E92767C/5E92D027" Ref="FLTR1"  Part="1" 
F 0 "FLTR1" H 1725 1895 50  0000 C CNN
F 1 "BNX002-11" H 1725 1804 50  0000 C CNN
F 2 "AllModules:BNX002+SF-AIROX_1" H 1640 1420 50  0001 C CNN
F 3 "" H 1640 1420 50  0001 C CNN
F 4 "10022532" H 1640 1420 50  0001 C CNN "Item Number"
F 5 "MURATA MANUFACTURING CO., LTD." H 1640 1420 50  0001 C CNN "Manufacturer"
F 6 "BNX002-01" H 1750 1400 50  0001 C CNN "Manufacturer_No"
F 7 "FILTER CC, 1MHZ-1GHZ, 10A, 50V" H 1750 1400 50  0001 C CNN "Description"
F 8 "MURATA MANUFACTURING CO., LTD." H 0   0   50  0001 C CNN "Manufacturer2"
F 9 "MURATA MANUFACTURING CO., LTD." H 0   0   50  0001 C CNN "Manufacturer3"
F 10 "BNX00201" H 0   0   50  0001 C CNN "Manufacturer_No2"
F 11 "BNX002-11" H 0   0   50  0001 C CNN "Manufacturer_No3"
	1    1750 1400
	1    0    0    -1  
$EndComp
$Comp
L V_Capacitor:C0603_10nF_50V_10% C115
U 1 1 5E93D8B2
P 2450 1500
F 0 "C115" H 2565 1454 50  0000 L CNN
F 1 "10nF" H 2565 1545 50  0000 L CNN
F 2 "AllModules:C0603_1" H 2488 1350 50  0001 C CNN
F 3 "" H 2450 1500 50  0001 C CNN
F 4 "CAPACITOR CERAMIC,10NF,+/-10%,50V,0603" H 2450 1500 50  0001 C CNN "Description"
F 5 "10022508" H 2450 1500 50  0001 C CNN "Item Number"
F 6 "YAGEO_RMS1" H 2450 1500 50  0001 C CNN "Manufacturer"
F 7 "CC0603KRX7R9BB103" H 2450 1500 50  0001 C CNN "Manufacturer_No"
F 8 "YAGEO_RMS1" H 0   0   50  0001 C CNN "Manufacturer2"
F 9 "KEMET_RMS1" H 0   0   50  0001 C CNN "Manufacturer3"
F 10 "CC0603KRX7R9BB104" H 0   0   50  0001 C CNN "Manufacturer_No2"
F 11 "C0603C103K5RACTU" H 0   0   50  0001 C CNN "Manufacturer_No3"
	1    2450 1500
	1    0    0    1   
$EndComp
$Comp
L V_Capacitor:C_330uF C125
U 1 1 5E943BE0
P 2900 1500
F 0 "C125" H 2900 1900 50  0000 C CNN
F 1 "330uF" H 2900 1800 50  0000 C CNN
F 2 "AllModules:C-SC10_1" H 2938 1350 50  0001 C CNN
F 3 "" H 2900 1500 50  0001 C CNN
F 4 "CAPACITOR ELECTROLYTIC, 330UF,35V" H 2900 1500 50  0001 C CNN "Description"
F 5 "10022621" H 2900 1500 50  0001 C CNN "Item Number"
F 6 "PANASONIC_RMS1" H 2900 1500 50  0001 C CNN "Manufacturer"
F 7 "EEEFK1V331P" H 2900 1500 50  0001 C CNN "Manufacturer_No"
F 8 "RUBYCON" H 0   0   50  0001 C CNN "Manufacturer2"
F 9 "35TZV330M10X10.5 " H 0   0   50  0001 C CNN "Manufacturer_No2"
	1    2900 1500
	1    0    0    -1  
$EndComp
$Comp
L V_Power:PGND1 #PWR0147
U 1 1 5E9521DF
P 4700 1750
AR Path="/5E9521DF" Ref="#PWR0147"  Part="1" 
AR Path="/5E92767C/5E9521DF" Ref="#PWR0147"  Part="1" 
F 0 "#PWR0147" H 4700 1500 50  0001 C CNN
F 1 "PGND1" H 4705 1577 50  0000 C CNN
F 2 "" H 4700 1750 50  0001 C CNN
F 3 "" H 4700 1750 50  0001 C CNN
	1    4700 1750
	1    0    0    -1  
$EndComp
$Comp
L V_Capacitor:C_4u7F_10% C134
U 1 1 5E950133
P 4400 1500
F 0 "C134" H 4400 1100 50  0000 C CNN
F 1 "4.7uF" H 4400 1200 50  0000 C CNN
F 2 "AllModules:C1210_1" H 4438 1350 50  0001 C CNN
F 3 "" H 4400 1500 50  0001 C CNN
F 4 "CAPACITOR CERAMIC, 4.7UF,+/-10%,50V" H 4400 1500 50  0001 C CNN "Description"
F 5 "10039582" H 4400 1500 50  0001 C CNN "Item Number"
F 6 "KEMET" H 4400 1500 50  0001 C CNN "Manufacturer"
F 7 "C1210C475K5RACAUTO" H 4400 1500 50  0001 C CNN "Manufacturer_No"
F 8 "TDK" H 0   0   50  0001 C CNN "Manufacturer2"
F 9 "KEMET_RMS1" H 0   0   50  0001 C CNN "Manufacturer3"
F 10 "CNA6P1X7R1H475K250AE" H 0   0   50  0001 C CNN "Manufacturer_No2"
F 11 "C1210C475K5RAC" H 0   0   50  0001 C CNN "Manufacturer_No3"
	1    4400 1500
	1    0    0    1   
$EndComp
$Comp
L V_Capacitor:C_4u7F_10% C135
U 1 1 5E9505AC
P 4700 1500
F 0 "C135" H 4700 1100 50  0000 C CNN
F 1 "4.7uF" H 4700 1200 50  0000 C CNN
F 2 "AllModules:C1210_1" H 4738 1350 50  0001 C CNN
F 3 "" H 4700 1500 50  0001 C CNN
F 4 "CAPACITOR CERAMIC, 4.7UF,+/-10%,50V" H 4700 1500 50  0001 C CNN "Description"
F 5 "10039582" H 4700 1500 50  0001 C CNN "Item Number"
F 6 "KEMET" H 4700 1500 50  0001 C CNN "Manufacturer"
F 7 "C1210C475K5RACAUTO" H 4700 1500 50  0001 C CNN "Manufacturer_No"
F 8 "TDK" H 0   0   50  0001 C CNN "Manufacturer2"
F 9 "KEMET_RMS1" H 0   0   50  0001 C CNN "Manufacturer3"
F 10 "CNA6P1X7R1H475K250AE" H 0   0   50  0001 C CNN "Manufacturer_No2"
F 11 "C1210C475K5RAC" H 0   0   50  0001 C CNN "Manufacturer_No3"
	1    4700 1500
	1    0    0    1   
$EndComp
Wire Wire Line
	650  1200 650  1300
Wire Wire Line
	650  1300 850  1300
Wire Wire Line
	850  1300 850  1350
Connection ~ 850  1300
Wire Wire Line
	850  1300 1150 1300
Wire Wire Line
	2150 1300 2450 1300
Wire Wire Line
	4700 1300 4700 1350
Wire Wire Line
	4700 1750 4700 1700
Wire Wire Line
	4700 1700 4400 1700
Wire Wire Line
	2900 1700 2900 1650
Wire Wire Line
	2900 1300 2900 1350
Connection ~ 2900 1300
Wire Wire Line
	3500 1300 3500 1350
Wire Wire Line
	3500 1650 3500 1700
Connection ~ 3500 1300
Wire Wire Line
	3500 1300 3800 1300
Connection ~ 3500 1700
Wire Wire Line
	3800 1300 3800 1350
Wire Wire Line
	3800 1650 3800 1700
Connection ~ 3800 1300
Wire Wire Line
	3800 1300 4100 1300
Connection ~ 3800 1700
Wire Wire Line
	3800 1700 3500 1700
Wire Wire Line
	4100 1300 4100 1350
Wire Wire Line
	4100 1650 4100 1700
Connection ~ 4100 1300
Wire Wire Line
	4100 1300 4400 1300
Connection ~ 4100 1700
Wire Wire Line
	4100 1700 3800 1700
Wire Wire Line
	4400 1300 4400 1350
Connection ~ 4400 1300
Wire Wire Line
	4400 1300 4700 1300
Wire Wire Line
	4400 1650 4400 1700
Connection ~ 4400 1700
Wire Wire Line
	4400 1700 4100 1700
Wire Wire Line
	4700 1650 4700 1700
Connection ~ 4700 1700
$Comp
L V_Power:PGND1 #PWR0148
U 1 1 5E96A05D
P 2450 1750
AR Path="/5E96A05D" Ref="#PWR0148"  Part="1" 
AR Path="/5E92767C/5E96A05D" Ref="#PWR0148"  Part="1" 
F 0 "#PWR0148" H 2450 1500 50  0001 C CNN
F 1 "PGND1" H 2455 1577 50  0000 C CNN
F 2 "" H 2450 1750 50  0001 C CNN
F 3 "" H 2450 1750 50  0001 C CNN
	1    2450 1750
	1    0    0    -1  
$EndComp
Wire Wire Line
	2450 1750 2450 1700
Wire Wire Line
	2450 1350 2450 1300
Connection ~ 2450 1300
Wire Wire Line
	2450 1300 2900 1300
Wire Wire Line
	2150 1650 2250 1650
Wire Wire Line
	2250 1650 2250 1700
Wire Wire Line
	2250 1700 2450 1700
Connection ~ 2450 1700
Wire Wire Line
	2450 1700 2450 1650
Wire Wire Line
	2150 1550 2250 1550
Wire Wire Line
	2250 1550 2250 1650
Connection ~ 2250 1650
Wire Wire Line
	2150 1450 2250 1450
Wire Wire Line
	2250 1450 2250 1550
Connection ~ 2250 1550
Wire Wire Line
	1300 1550 1150 1550
Wire Wire Line
	1150 1750 850  1750
Connection ~ 850  1750
Wire Wire Line
	850  1750 850  1800
$Comp
L V_Power:+24VUTIL #PWR0149
U 1 1 5E97F1EF
P 15650 1150
AR Path="/5E97F1EF" Ref="#PWR0149"  Part="1" 
AR Path="/5E92767C/5E97F1EF" Ref="#PWR0149"  Part="1" 
F 0 "#PWR0149" H 15650 1000 50  0001 C CNN
F 1 "+24VUTIL" H 15665 1349 50  0000 C CNN
F 2 "" H 15650 1150 50  0001 C CNN
F 3 "" H 15650 1150 50  0001 C CNN
	1    15650 1150
	1    0    0    -1  
$EndComp
$Comp
L V_Capacitor:C0603_10nF_50V_10% C118
U 1 1 5E983546
P 15000 1450
F 0 "C118" H 14885 1404 50  0000 R CNN
F 1 "10nF" H 14885 1495 50  0000 R CNN
F 2 "AllModules:C0603_1" H 15038 1300 50  0001 C CNN
F 3 "" H 15000 1450 50  0001 C CNN
F 4 "CAPACITOR CERAMIC,10NF,+/-10%,50V,0603" H 15000 1450 50  0001 C CNN "Description"
F 5 "10022508" H 15000 1450 50  0001 C CNN "Item Number"
F 6 "YAGEO_RMS1" H 15000 1450 50  0001 C CNN "Manufacturer"
F 7 "CC0603KRX7R9BB103" H 15000 1450 50  0001 C CNN "Manufacturer_No"
F 8 "YAGEO_RMS1" H 0   0   50  0001 C CNN "Manufacturer2"
F 9 "KEMET_RMS1" H 0   0   50  0001 C CNN "Manufacturer3"
F 10 "CC0603KRX7R9BB104" H 0   0   50  0001 C CNN "Manufacturer_No2"
F 11 "C0603C103K5RACTU" H 0   0   50  0001 C CNN "Manufacturer_No3"
	1    15000 1450
	-1   0    0    1   
$EndComp
$Comp
L V_Power:PGND #PWR0150
U 1 1 5E98354C
P 15000 1750
F 0 "#PWR0150" H 15000 1500 50  0001 C CNN
F 1 "PGND" H 15005 1577 50  0000 C CNN
F 2 "" H 15000 1750 50  0001 C CNN
F 3 "" H 15000 1750 50  0001 C CNN
	1    15000 1750
	-1   0    0    -1  
$EndComp
$Comp
L V_Capacitor:C0603_10nF_50V_10% C117
U 1 1 5E983560
P 13300 1450
F 0 "C117" H 13185 1404 50  0000 R CNN
F 1 "10nF" H 13185 1495 50  0000 R CNN
F 2 "AllModules:C0603_1" H 13338 1300 50  0001 C CNN
F 3 "" H 13300 1450 50  0001 C CNN
F 4 "CAPACITOR CERAMIC,10NF,+/-10%,50V,0603" H 13300 1450 50  0001 C CNN "Description"
F 5 "10022508" H 13300 1450 50  0001 C CNN "Item Number"
F 6 "YAGEO_RMS1" H 13300 1450 50  0001 C CNN "Manufacturer"
F 7 "CC0603KRX7R9BB103" H 13300 1450 50  0001 C CNN "Manufacturer_No"
F 8 "YAGEO_RMS1" H 0   0   50  0001 C CNN "Manufacturer2"
F 9 "KEMET_RMS1" H 0   0   50  0001 C CNN "Manufacturer3"
F 10 "CC0603KRX7R9BB104" H 0   0   50  0001 C CNN "Manufacturer_No2"
F 11 "C0603C103K5RACTU" H 0   0   50  0001 C CNN "Manufacturer_No3"
	1    13300 1450
	-1   0    0    1   
$EndComp
Wire Wire Line
	15650 1150 15650 1250
Wire Wire Line
	15650 1250 15000 1250
Wire Wire Line
	15000 1250 15000 1300
Connection ~ 15000 1250
Wire Wire Line
	15000 1250 14800 1250
Wire Wire Line
	13800 1250 13300 1250
$Comp
L V_Power:PGND1 #PWR0151
U 1 1 5E98356D
P 13300 1700
AR Path="/5E98356D" Ref="#PWR0151"  Part="1" 
AR Path="/5E92767C/5E98356D" Ref="#PWR0151"  Part="1" 
F 0 "#PWR0151" H 13300 1450 50  0001 C CNN
F 1 "PGND1" H 13305 1527 50  0000 C CNN
F 2 "" H 13300 1700 50  0001 C CNN
F 3 "" H 13300 1700 50  0001 C CNN
	1    13300 1700
	-1   0    0    -1  
$EndComp
Wire Wire Line
	13300 1700 13300 1650
Wire Wire Line
	13300 1300 13300 1250
Connection ~ 13300 1250
Wire Wire Line
	13800 1600 13700 1600
Wire Wire Line
	13700 1600 13700 1650
Wire Wire Line
	13700 1650 13300 1650
Connection ~ 13300 1650
Wire Wire Line
	13300 1650 13300 1600
Wire Wire Line
	13800 1500 13700 1500
Wire Wire Line
	13700 1500 13700 1600
Connection ~ 13700 1600
Wire Wire Line
	13800 1400 13700 1400
Wire Wire Line
	13700 1400 13700 1500
Connection ~ 13700 1500
Wire Wire Line
	14650 1500 14800 1500
Wire Wire Line
	14800 1700 15000 1700
Connection ~ 15000 1700
Wire Wire Line
	15000 1700 15000 1750
$Comp
L V_Capacitor:C_4u7F_10% C29
U 1 1 5E94F31B
P 4100 1500
F 0 "C29" H 4100 1100 50  0000 C CNN
F 1 "4.7uF" H 4100 1200 50  0000 C CNN
F 2 "AllModules:C1210_1" H 4138 1350 50  0001 C CNN
F 3 "" H 4100 1500 50  0001 C CNN
F 4 "CAPACITOR CERAMIC, 4.7UF,+/-10%,50V" H 4100 1500 50  0001 C CNN "Description"
F 5 "10039582" H 4100 1500 50  0001 C CNN "Item Number"
F 6 "KEMET" H 4100 1500 50  0001 C CNN "Manufacturer"
F 7 "C1210C475K5RACAUTO" H 4100 1500 50  0001 C CNN "Manufacturer_No"
F 8 "TDK" H 0   0   50  0001 C CNN "Manufacturer2"
F 9 "KEMET_RMS1" H 0   0   50  0001 C CNN "Manufacturer3"
F 10 "CNA6P1X7R1H475K250AE" H 0   0   50  0001 C CNN "Manufacturer_No2"
F 11 "C1210C475K5RAC" H 0   0   50  0001 C CNN "Manufacturer_No3"
	1    4100 1500
	1    0    0    1   
$EndComp
$Comp
L V_Capacitor:C_10uF_50V_10% C28
U 1 1 5E948450
P 3800 1500
F 0 "C28" H 3800 1100 50  0000 C CNN
F 1 "10uF" H 3800 1200 50  0000 C CNN
F 2 "AllModules:C2220_1" H 3838 1350 50  0001 C CNN
F 3 "" H 3800 1500 50  0001 C CNN
F 4 "CAPACITOR CERAMIC, 10UF,+/-10%,50V 2220" H 3800 1500 50  0001 C CNN "Description"
F 5 "10039581" H 3800 1500 50  0001 C CNN "Item Number"
F 6 "AVX" H 3800 1500 50  0001 C CNN "Manufacturer"
F 7 "22205C106K4Z4A" H 3800 1500 50  0001 C CNN "Manufacturer_No"
F 8 "KEMET_RMS1" H 0   0   50  0001 C CNN "Manufacturer2"
F 9 "KEMET_RMS1" H 0   0   50  0001 C CNN "Manufacturer3"
F 10 "C2220X106K5RACAUTO" H 0   0   50  0001 C CNN "Manufacturer_No2"
F 11 "C2220X106K5RAC" H 0   0   50  0001 C CNN "Manufacturer_No3"
	1    3800 1500
	1    0    0    1   
$EndComp
Wire Wire Line
	2900 1300 3200 1300
Wire Wire Line
	3200 1300 3200 1350
Wire Wire Line
	3200 1650 3200 1700
Connection ~ 3200 1300
Wire Wire Line
	3200 1300 3500 1300
Connection ~ 3200 1700
Wire Wire Line
	3200 1700 2900 1700
Wire Wire Line
	3500 1700 3200 1700
$Comp
L V_Capacitor:C_330uF C42
U 1 1 5E9BB3DB
P 10700 1450
F 0 "C42" H 10700 1850 50  0000 C CNN
F 1 "330uF" H 10700 1750 50  0000 C CNN
F 2 "AllModules:C-SC10_1" H 10738 1300 50  0001 C CNN
F 3 "" H 10700 1450 50  0001 C CNN
F 4 "CAPACITOR ELECTROLYTIC, 330UF,35V" H 10700 1450 50  0001 C CNN "Description"
F 5 "10022621" H 10700 1450 50  0001 C CNN "Item Number"
F 6 "PANASONIC_RMS1" H 10700 1450 50  0001 C CNN "Manufacturer"
F 7 "EEEFK1V331P" H 10700 1450 50  0001 C CNN "Manufacturer_No"
F 8 "RUBYCON" H 0   0   50  0001 C CNN "Manufacturer2"
F 9 "35TZV330M10X10.5 " H 0   0   50  0001 C CNN "Manufacturer_No2"
	1    10700 1450
	-1   0    0    -1  
$EndComp
Wire Wire Line
	10700 1650 10700 1600
Wire Wire Line
	10700 1250 10700 1300
Connection ~ 10700 1250
Wire Wire Line
	10100 1250 10100 1300
Wire Wire Line
	10100 1600 10100 1650
Connection ~ 10100 1250
Wire Wire Line
	10100 1250 9800 1250
Connection ~ 10100 1650
Wire Wire Line
	9800 1250 9800 1300
Wire Wire Line
	9800 1600 9800 1650
Connection ~ 9800 1250
Wire Wire Line
	9800 1250 9500 1250
Connection ~ 9800 1650
Wire Wire Line
	9800 1650 10100 1650
Wire Wire Line
	9500 1650 9800 1650
$Comp
L V_Capacitor:C_10uF_50V_10% C136
U 1 1 5E9BB3F5
P 9800 1450
F 0 "C136" H 9800 1850 50  0000 C CNN
F 1 "10uF" H 9800 1750 50  0000 C CNN
F 2 "AllModules:C2220_1" H 9838 1300 50  0001 C CNN
F 3 "" H 9800 1450 50  0001 C CNN
F 4 "CAPACITOR CERAMIC, 10UF,+/-10%,50V 2220" H 9800 1450 50  0001 C CNN "Description"
F 5 "10039581" H 9800 1450 50  0001 C CNN "Item Number"
F 6 "AVX" H 9800 1450 50  0001 C CNN "Manufacturer"
F 7 "22205C106K4Z4A" H 9800 1450 50  0001 C CNN "Manufacturer_No"
F 8 "KEMET_RMS1" H 0   0   50  0001 C CNN "Manufacturer2"
F 9 "KEMET_RMS1" H 0   0   50  0001 C CNN "Manufacturer3"
F 10 "C2220X106K5RACAUTO" H 0   0   50  0001 C CNN "Manufacturer_No2"
F 11 "C2220X106K5RAC" H 0   0   50  0001 C CNN "Manufacturer_No3"
	1    9800 1450
	-1   0    0    -1  
$EndComp
$Comp
L V_Capacitor:C_10uF_50V_10% C138
U 1 1 5E9BB3FF
P 10400 1450
F 0 "C138" H 10400 1850 50  0000 C CNN
F 1 "10uF" H 10400 1750 50  0000 C CNN
F 2 "AllModules:C2220_1" H 10438 1300 50  0001 C CNN
F 3 "" H 10400 1450 50  0001 C CNN
F 4 "CAPACITOR CERAMIC, 10UF,+/-10%,50V 2220" H 10400 1450 50  0001 C CNN "Description"
F 5 "10039581" H 10400 1450 50  0001 C CNN "Item Number"
F 6 "AVX" H 10400 1450 50  0001 C CNN "Manufacturer"
F 7 "22205C106K4Z4A" H 10400 1450 50  0001 C CNN "Manufacturer_No"
F 8 "KEMET_RMS1" H 0   0   50  0001 C CNN "Manufacturer2"
F 9 "KEMET_RMS1" H 0   0   50  0001 C CNN "Manufacturer3"
F 10 "C2220X106K5RACAUTO" H 0   0   50  0001 C CNN "Manufacturer_No2"
F 11 "C2220X106K5RAC" H 0   0   50  0001 C CNN "Manufacturer_No3"
	1    10400 1450
	-1   0    0    -1  
$EndComp
Wire Wire Line
	10700 1250 10400 1250
Wire Wire Line
	10400 1250 10400 1300
Wire Wire Line
	10400 1600 10400 1650
Connection ~ 10400 1250
Wire Wire Line
	10400 1250 10100 1250
Connection ~ 10400 1650
Wire Wire Line
	10400 1650 10700 1650
Wire Wire Line
	10100 1650 10400 1650
$Comp
L V_Capacitor:C_10uF_50V_10% C137
U 1 1 5E9BB411
P 10100 1450
F 0 "C137" H 10100 1850 50  0000 C CNN
F 1 "10uF" H 10100 1750 50  0000 C CNN
F 2 "AllModules:C2220_1" H 10138 1300 50  0001 C CNN
F 3 "" H 10100 1450 50  0001 C CNN
F 4 "CAPACITOR CERAMIC, 10UF,+/-10%,50V 2220" H 10100 1450 50  0001 C CNN "Description"
F 5 "10039581" H 10100 1450 50  0001 C CNN "Item Number"
F 6 "AVX" H 10100 1450 50  0001 C CNN "Manufacturer"
F 7 "22205C106K4Z4A" H 10100 1450 50  0001 C CNN "Manufacturer_No"
F 8 "KEMET_RMS1" H 0   0   50  0001 C CNN "Manufacturer2"
F 9 "KEMET_RMS1" H 0   0   50  0001 C CNN "Manufacturer3"
F 10 "C2220X106K5RACAUTO" H 0   0   50  0001 C CNN "Manufacturer_No2"
F 11 "C2220X106K5RAC" H 0   0   50  0001 C CNN "Manufacturer_No3"
	1    10100 1450
	-1   0    0    -1  
$EndComp
Wire Wire Line
	10700 1250 10900 1250
Wire Wire Line
	9200 1250 9200 1300
Wire Wire Line
	9200 1600 9200 1650
Connection ~ 9200 1250
Wire Wire Line
	9200 1250 8900 1250
Connection ~ 9200 1650
Wire Wire Line
	8900 1250 8900 1300
Wire Wire Line
	8900 1600 8900 1650
Connection ~ 8900 1250
Wire Wire Line
	8900 1650 9200 1650
$Comp
L V_Capacitor:C_10uF_50V_10% C40
U 1 1 5E9BEC47
P 8900 1450
F 0 "C40" H 8900 1850 50  0000 C CNN
F 1 "10uF" H 8900 1750 50  0000 C CNN
F 2 "AllModules:C2220_1" H 8938 1300 50  0001 C CNN
F 3 "" H 8900 1450 50  0001 C CNN
F 4 "CAPACITOR CERAMIC, 10UF,+/-10%,50V 2220" H 8900 1450 50  0001 C CNN "Description"
F 5 "10039581" H 8900 1450 50  0001 C CNN "Item Number"
F 6 "AVX" H 8900 1450 50  0001 C CNN "Manufacturer"
F 7 "22205C106K4Z4A" H 8900 1450 50  0001 C CNN "Manufacturer_No"
F 8 "KEMET_RMS1" H 0   0   50  0001 C CNN "Manufacturer2"
F 9 "KEMET_RMS1" H 0   0   50  0001 C CNN "Manufacturer3"
F 10 "C2220X106K5RACAUTO" H 0   0   50  0001 C CNN "Manufacturer_No2"
F 11 "C2220X106K5RAC" H 0   0   50  0001 C CNN "Manufacturer_No3"
	1    8900 1450
	-1   0    0    -1  
$EndComp
$Comp
L V_Capacitor:C_10uF_50V_10% C43
U 1 1 5E9BEC51
P 9500 1450
F 0 "C43" H 9500 1850 50  0000 C CNN
F 1 "10uF" H 9500 1750 50  0000 C CNN
F 2 "AllModules:C2220_1" H 9538 1300 50  0001 C CNN
F 3 "" H 9500 1450 50  0001 C CNN
F 4 "CAPACITOR CERAMIC, 10UF,+/-10%,50V 2220" H 9500 1450 50  0001 C CNN "Description"
F 5 "10039581" H 9500 1450 50  0001 C CNN "Item Number"
F 6 "AVX" H 9500 1450 50  0001 C CNN "Manufacturer"
F 7 "22205C106K4Z4A" H 9500 1450 50  0001 C CNN "Manufacturer_No"
F 8 "KEMET_RMS1" H 0   0   50  0001 C CNN "Manufacturer2"
F 9 "KEMET_RMS1" H 0   0   50  0001 C CNN "Manufacturer3"
F 10 "C2220X106K5RACAUTO" H 0   0   50  0001 C CNN "Manufacturer_No2"
F 11 "C2220X106K5RAC" H 0   0   50  0001 C CNN "Manufacturer_No3"
	1    9500 1450
	-1   0    0    -1  
$EndComp
Wire Wire Line
	9500 1250 9500 1300
Wire Wire Line
	9500 1600 9500 1650
Connection ~ 9500 1250
Wire Wire Line
	9500 1250 9200 1250
Connection ~ 9500 1650
Wire Wire Line
	9200 1650 9500 1650
$Comp
L V_Capacitor:C_10uF_50V_10% C41
U 1 1 5E9BEC63
P 9200 1450
F 0 "C41" H 9200 1850 50  0000 C CNN
F 1 "10uF" H 9200 1750 50  0000 C CNN
F 2 "AllModules:C2220_1" H 9238 1300 50  0001 C CNN
F 3 "" H 9200 1450 50  0001 C CNN
F 4 "CAPACITOR CERAMIC, 10UF,+/-10%,50V 2220" H 9200 1450 50  0001 C CNN "Description"
F 5 "10039581" H 9200 1450 50  0001 C CNN "Item Number"
F 6 "AVX" H 9200 1450 50  0001 C CNN "Manufacturer"
F 7 "22205C106K4Z4A" H 9200 1450 50  0001 C CNN "Manufacturer_No"
F 8 "KEMET_RMS1" H 0   0   50  0001 C CNN "Manufacturer2"
F 9 "KEMET_RMS1" H 0   0   50  0001 C CNN "Manufacturer3"
F 10 "C2220X106K5RACAUTO" H 0   0   50  0001 C CNN "Manufacturer_No2"
F 11 "C2220X106K5RAC" H 0   0   50  0001 C CNN "Manufacturer_No3"
	1    9200 1450
	-1   0    0    -1  
$EndComp
Wire Wire Line
	11250 1250 11300 1250
$Comp
L V_Power:PGND1 #PWR0152
U 1 1 5E9FC942
P 9500 1700
AR Path="/5E9FC942" Ref="#PWR0152"  Part="1" 
AR Path="/5E92767C/5E9FC942" Ref="#PWR0152"  Part="1" 
F 0 "#PWR0152" H 9500 1450 50  0001 C CNN
F 1 "PGND1" H 9505 1527 50  0000 C CNN
F 2 "" H 9500 1700 50  0001 C CNN
F 3 "" H 9500 1700 50  0001 C CNN
	1    9500 1700
	1    0    0    -1  
$EndComp
Wire Wire Line
	9500 1700 9500 1650
Connection ~ 4700 1300
$Comp
L V_Resistor:R0603_47k_0.1% R63
U 1 1 5EA04B2C
P 12900 2150
F 0 "R63" H 12831 2104 50  0000 R CNN
F 1 "47k" H 12831 2195 50  0000 R CNN
F 2 "AllModules:R0603_1" V 12830 2150 50  0001 C CNN
F 3 "" H 12900 2150 50  0001 C CNN
F 4 "RESISTOR,47K OHM,0.063W,+/-0.1%,0603" H 12900 2150 50  0001 C CNN "Description"
F 5 "10022717" H 12900 2150 50  0001 C CNN "Item Number"
F 6 "YAGEO_RMS1" H 12900 2150 50  0001 C CNN "Manufacturer"
F 7 "RT0603BRE0747KL" H 12900 2150 50  0001 C CNN "Manufacturer_No"
F 8 "VISHAY_RMS1" H 0   0   50  0001 C CNN "Manufacturer2"
F 9 "PANASONIC_RMS1" H 0   0   50  0001 C CNN "Manufacturer3"
F 10 "MCT06030D4702BP500" H 0   0   50  0001 C CNN "Manufacturer_No2"
F 11 "ERA-3AEB473V " H 0   0   50  0001 C CNN "Manufacturer_No3"
	1    12900 2150
	1    0    0    1   
$EndComp
$Comp
L V_Resistor:R1206_15m_1% R62
U 1 1 5E9D1469
P 11100 1250
F 0 "R62" V 10893 1250 50  0000 C CNN
F 1 "0.015" V 10984 1250 50  0000 C CNN
F 2 "AllModules:RC1206_1" V 11030 1250 50  0001 C CNN
F 3 "" H 11100 1250 50  0001 C CNN
F 4 "RESISTOR,0.015 OHM, 0.5W,+/-1%,1206" V 11100 1250 50  0001 C CNN "Description"
F 5 "10022716" V 11100 1250 50  0001 C CNN "Item Number"
F 6 "WELWYN" V 11100 1250 50  0001 C CNN "Manufacturer"
F 7 "LRC-LRF1206LF-01-R015-F" V 11100 1250 50  0001 C CNN "Manufacturer_No"
F 8 "WELWYN" H 0   0   50  0001 C CNN "Manufacturer2"
F 9 "PANASONIC_RMS1" H 0   0   50  0001 C CNN "Manufacturer3"
F 10 "LRF1206-R015FW" H 0   0   50  0001 C CNN "Manufacturer_No2"
F 11 "ERJ8BWFR015V" H 0   0   50  0001 C CNN "Manufacturer_No3"
	1    11100 1250
	0    1    1    0   
$EndComp
$Comp
L V_Resistor:R0603_1k62_0.1% R67
U 1 1 5EA09C4F
P 12900 2550
F 0 "R67" H 12970 2596 50  0000 L CNN
F 1 "1.62k" H 12970 2505 50  0000 L CNN
F 2 "AllModules:R0603_1" V 12830 2550 50  0001 C CNN
F 3 "" H 12900 2550 50  0001 C CNN
F 4 "RESISTOR,1.62K OHM,0.063W,+/0.1%,0603" H 12900 2550 50  0001 C CNN "Description"
F 5 "10022718" H 12900 2550 50  0001 C CNN "Item Number"
F 6 "YAGEO_RMS1" H 12900 2550 50  0001 C CNN "Manufacturer"
F 7 "RT0603BRE071K62L" H 12900 2550 50  0001 C CNN "Manufacturer_No"
F 8 "WELWYN" H 0   0   50  0001 C CNN "Manufacturer2"
F 9 "TYCO ELECTRONICS" H 0   0   50  0001 C CNN "Manufacturer3"
F 10 "PCF0603R-1K62BT1" H 0   0   50  0001 C CNN "Manufacturer_No2"
F 11 "RN73C1J1K62BTG" H 0   0   50  0001 C CNN "Manufacturer_No3"
	1    12900 2550
	1    0    0    -1  
$EndComp
$Comp
L V_Power:PGND1 #PWR0153
U 1 1 5EA0A895
P 12900 2800
AR Path="/5EA0A895" Ref="#PWR0153"  Part="1" 
AR Path="/5E92767C/5EA0A895" Ref="#PWR0153"  Part="1" 
F 0 "#PWR0153" H 12900 2550 50  0001 C CNN
F 1 "PGND1" H 12905 2627 50  0000 C CNN
F 2 "" H 12900 2800 50  0001 C CNN
F 3 "" H 12900 2800 50  0001 C CNN
	1    12900 2800
	1    0    0    -1  
$EndComp
Wire Wire Line
	12900 2800 12900 2700
Wire Wire Line
	12900 2000 12900 1250
Wire Wire Line
	12900 2400 12900 2350
Connection ~ 12900 1250
Wire Wire Line
	12900 1250 13300 1250
Connection ~ 12900 2350
Wire Wire Line
	12900 2350 12900 2300
Text Label 13450 2350 2    50   ~ 0
VOSENSE-1
$Comp
L V_Capacitor:C0603_10nF_50V_10% C37
U 1 1 5EA1D57B
P 11100 2200
F 0 "C37" V 10848 2200 50  0000 C CNN
F 1 "10nF" V 10939 2200 50  0000 C CNN
F 2 "AllModules:C0603_1" H 11138 2050 50  0001 C CNN
F 3 "" H 11100 2200 50  0001 C CNN
F 4 "CAPACITOR CERAMIC,10NF,+/-10%,50V,0603" H 11100 2200 50  0001 C CNN "Description"
F 5 "10022508" H 11100 2200 50  0001 C CNN "Item Number"
F 6 "YAGEO_RMS1" H 11100 2200 50  0001 C CNN "Manufacturer"
F 7 "CC0603KRX7R9BB103" H 11100 2200 50  0001 C CNN "Manufacturer_No"
F 8 "YAGEO_RMS1" H 0   0   50  0001 C CNN "Manufacturer2"
F 9 "KEMET_RMS1" H 0   0   50  0001 C CNN "Manufacturer3"
F 10 "CC0603KRX7R9BB104" H 0   0   50  0001 C CNN "Manufacturer_No2"
F 11 "C0603C103K5RACTU" H 0   0   50  0001 C CNN "Manufacturer_No3"
	1    11100 2200
	0    -1   1    0   
$EndComp
$Comp
L V_Transistor:SI7884BDP T20
U 1 1 5EA1F704
P 7900 2300
F 0 "T20" H 7700 2550 50  0000 L CNN
F 1 "SI7884BDP" H 7400 2450 50  0000 L CNN
F 2 "AllModules:SO08-PPAD_SI7884_1" H 8750 2225 50  0001 C CIN
F 3 "" H 8225 2000 50  0001 L CNN
F 4 "MOSFET TRANS N CHANNEL,40V,47A,0.0095 OHM, PPAK SO8" H 8700 2225 50  0001 C CNN "Description"
F 5 "10022883" H 7900 2300 50  0001 C CNN "Item Number"
F 6 "VISHAY_RMS1" H 7900 2300 50  0001 C CNN "Manufacturer"
F 7 "SI7848BDP-T1-E3" H 7900 2300 50  0001 C CNN "Manufacturer_No"
F 8 "VISHAY_RMS1" H 0   0   50  0001 C CNN "Manufacturer2"
F 9 "SI7884BDP-T1-E3 " H 0   0   50  0001 C CNN "Manufacturer_No2"
	1    7900 2300
	-1   0    0    -1  
$EndComp
$Comp
L V_Diode:STPS340U D5
U 1 1 5EA7436E
P 7550 2300
F 0 "D5" V 7504 2222 50  0000 R CNN
F 1 "STPS340U" V 7595 2222 50  0000 R CNN
F 2 "AllModules:SMB_1" H 7550 2300 50  0001 C CNN
F 3 "" H 7550 2300 50  0001 C CNN
F 4 "DIODE SCHOTTKY, 3A, 40V" H 7550 2300 50  0001 C CNN "Description"
F 5 "10022656" H 0   0   50  0001 C CNN "Item Number"
F 6 "STMICROELECTRONICS" H 0   0   50  0001 C CNN "Manufacturer"
F 7 "STPS340U" H 0   0   50  0001 C CNN "Manufacturer_No"
	1    7550 2300
	0    1    1    0   
$EndComp
$Comp
L V_Diode:STPS340U D6
U 1 1 5EA7808F
P 6650 3200
F 0 "D6" V 6604 3279 50  0000 L CNN
F 1 "STPS340U" V 6695 3279 50  0000 L CNN
F 2 "AllModules:SMB_1" H 6650 3200 50  0001 C CNN
F 3 "" H 6650 3200 50  0001 C CNN
F 4 "DIODE SCHOTTKY, 3A, 40V" H 6650 3200 50  0001 C CNN "Description"
F 5 "10022656" H 0   0   50  0001 C CNN "Item Number"
F 6 "STMICROELECTRONICS" H 0   0   50  0001 C CNN "Manufacturer"
F 7 "STPS340U" H 0   0   50  0001 C CNN "Manufacturer_No"
	1    6650 3200
	0    1    1    0   
$EndComp
Text Label 5750 2300 0    50   ~ 0
TG2
Wire Wire Line
	5750 2300 6100 2300
Text Label 8450 2300 2    50   ~ 0
TG1
Wire Wire Line
	8450 2300 8100 2300
Wire Wire Line
	5750 2750 6400 2750
Wire Wire Line
	7800 3000 7800 2750
Connection ~ 7800 2750
Wire Wire Line
	7800 2750 8450 2750
Wire Wire Line
	6400 3000 6400 2750
Connection ~ 6400 2750
Wire Wire Line
	6400 2750 6650 2750
Wire Wire Line
	6400 2500 6400 2750
$Comp
L V_Inductor:L_Core_Iron_10022741 L3
U 1 1 5EAA58CE
P 7150 2750
F 0 "L3" V 7375 2750 50  0000 C CNN
F 1 "47uH" V 7284 2750 50  0000 C CNN
F 2 "AllModules:SF-3863-WESI_1" H 7150 2750 50  0001 C CNN
F 3 "" H 7150 2750 50  0001 C CNN
F 4 "INDUCTOR, POWER CHOKE, 47UH, 8A" V 7150 2750 50  0001 C CNN "Description"
F 5 "10022741" V 7150 2750 50  0001 C CNN "Item Number"
F 6 "WURTH ELEKTRONIK GMBH" V 7150 2750 50  0001 C CNN "Manufacturer"
F 7 "P01/00004" V 7150 2750 50  0001 C CNN "Manufacturer_No"
	1    7150 2750
	0    -1   -1   0   
$EndComp
Wire Wire Line
	7300 2750 7550 2750
Wire Wire Line
	7800 1250 7800 1850
Wire Wire Line
	7800 1250 8000 1250
Wire Wire Line
	7550 2150 7550 1850
Wire Wire Line
	7550 1850 7800 1850
Connection ~ 7800 1850
Wire Wire Line
	7800 1850 7800 2100
Wire Wire Line
	6400 2100 6400 1300
Wire Wire Line
	4700 1300 5300 1300
Wire Wire Line
	6650 3050 6650 2750
Connection ~ 6650 2750
Wire Wire Line
	6650 2750 7000 2750
Wire Wire Line
	6400 3400 6400 3700
Wire Wire Line
	6400 3700 6650 3700
Wire Wire Line
	7800 3700 7800 3400
Wire Wire Line
	6650 3350 6650 3700
Connection ~ 6650 3700
Wire Wire Line
	6650 3700 7150 3700
Wire Wire Line
	7800 2500 7800 2750
Wire Wire Line
	7550 2450 7550 2750
Connection ~ 7550 2750
Wire Wire Line
	7550 2750 7800 2750
Text Label 5750 3200 0    50   ~ 0
BG2
Wire Wire Line
	5750 3200 6100 3200
Text Label 8450 3200 2    50   ~ 0
BG1
Wire Wire Line
	8450 3200 8100 3200
Connection ~ 7150 3700
Wire Wire Line
	7150 3700 7800 3700
$Comp
L V_Resistor:R0603_1k24_1% R74
U 1 1 5EAEF3EC
P 6650 4150
F 0 "R74" V 6857 4150 50  0000 C CNN
F 1 "1.24k" V 6766 4150 50  0000 C CNN
F 2 "AllModules:R0603_1" V 6580 4150 50  0001 C CNN
F 3 "" H 6650 4150 50  0001 C CNN
F 4 "RESISTOR,1.24K OHM,0.063W.+/-1%,0603" V 6650 4150 50  0001 C CNN "Description"
F 5 "10022720" V 6650 4150 50  0001 C CNN "Item Number"
F 6 "YAGEO_RMS1" V 6650 4150 50  0001 C CNN "Manufacturer"
F 7 "RC0603FR-071K24L" V 6650 4150 50  0001 C CNN "Manufacturer_No"
F 8 "YAGEO_RMS1" H 0   0   50  0001 C CNN "Manufacturer2"
F 9 "BOURNS_RMS1" H 0   0   50  0001 C CNN "Manufacturer3"
F 10 "RC0603FR-071K24L" H 0   0   50  0001 C CNN "Manufacturer_No2"
F 11 "CR0603-FX-1241ELF" H 0   0   50  0001 C CNN "Manufacturer_No3"
	1    6650 4150
	0    1    -1   0   
$EndComp
$Comp
L V_Resistor:R0603_1k24_1% R76
U 1 1 5EAEFB5B
P 6650 4650
F 0 "R76" V 6857 4650 50  0000 C CNN
F 1 "0.015" V 6766 4650 50  0000 C CNN
F 2 "AllModules:R0603_1" V 6580 4650 50  0001 C CNN
F 3 "" H 6650 4650 50  0001 C CNN
F 4 "RESISTOR,1.24K OHM,0.063W.+/-1%,0603" V 6650 4650 50  0001 C CNN "Description"
F 5 "10022720" V 6650 4650 50  0001 C CNN "Item Number"
F 6 "YAGEO_RMS1" V 6650 4650 50  0001 C CNN "Manufacturer"
F 7 "RC0603FR-071K24L" V 6650 4650 50  0001 C CNN "Manufacturer_No"
F 8 "YAGEO_RMS1" H 0   0   50  0001 C CNN "Manufacturer2"
F 9 "BOURNS_RMS1" H 0   0   50  0001 C CNN "Manufacturer3"
F 10 "RC0603FR-071K24L" H 0   0   50  0001 C CNN "Manufacturer_No2"
F 11 "CR0603-FX-1241ELF" H 0   0   50  0001 C CNN "Manufacturer_No3"
	1    6650 4650
	0    1    -1   0   
$EndComp
Wire Wire Line
	7150 4250 7150 3700
$Comp
L V_Resistor:R2512_15m_1% R75
U 1 1 5EAE8CF2
P 7150 4400
F 0 "R75" H 7080 4354 50  0000 R CNN
F 1 "0.015" H 7080 4445 50  0000 R CNN
F 2 "AllModules:R2512_1" V 7080 4400 50  0001 C CNN
F 3 "" H 7150 4400 50  0001 C CNN
F 4 "RESISTOR,0.015 OHM,2W,+/-1%,2512" V 7150 4400 50  0001 C CNN "Description"
F 5 "10022721" V 7150 4400 50  0001 C CNN "Item Number"
F 6 "WELWYN" V 7150 4400 50  0001 C CNN "Manufacturer"
F 7 "LRF2512-R015FW" V 7150 4400 50  0001 C CNN "Manufacturer_No"
F 8 "YAGEO_RMS1" H 0   0   50  0001 C CNN "Manufacturer2"
F 9 "VISHAY_RMS1" H 0   0   50  0001 C CNN "Manufacturer3"
F 10 "PE2512FKE7W0R015L" H 0   0   50  0001 C CNN "Manufacturer_No2"
F 11 "WSL2512R0150FEA18" H 0   0   50  0001 C CNN "Manufacturer_No3"
	1    7150 4400
	-1   0    0    1   
$EndComp
Wire Wire Line
	7000 4650 7150 4550
Wire Wire Line
	7000 4150 7150 4250
Connection ~ 7150 4250
Wire Wire Line
	6800 4150 7000 4150
Wire Wire Line
	6800 4650 7000 4650
Wire Wire Line
	7150 4550 7150 5100
Connection ~ 7150 4550
$Comp
L V_Power:PGND1 #PWR0154
U 1 1 5EB49E53
P 7150 5100
AR Path="/5EB49E53" Ref="#PWR0154"  Part="1" 
AR Path="/5E92767C/5EB49E53" Ref="#PWR0154"  Part="1" 
F 0 "#PWR0154" H 7150 4850 50  0001 C CNN
F 1 "PGND1" H 7155 4927 50  0000 C CNN
F 2 "" H 7150 5100 50  0001 C CNN
F 3 "" H 7150 5100 50  0001 C CNN
	1    7150 5100
	1    0    0    -1  
$EndComp
$Comp
L V_IC:LTC3780 IC10
U 1 1 5EB630FF
P 3550 7250
F 0 "IC10" H 3900 8400 50  0000 C CNN
F 1 "LTC3780" H 4000 8300 50  0000 C CNN
F 2 "AllModules:SSOP24_1" H 3550 7250 50  0001 C CNN
F 3 "" H 3550 7250 50  0001 C CNN
F 4 "IC,SYNCHRONOUS CONTROLLER,SSOP" H 3550 7250 50  0001 C CNN "Description"
F 5 "10022894" H 3550 7250 50  0001 C CNN "Item Number"
F 6 "LINEAR TECHNOLOGY_RMS1" H 3550 7250 50  0001 C CNN "Manufacturer"
F 7 "LTC3780IG#TRPBF" H 3550 7250 50  0001 C CNN "Manufacturer_No"
F 8 "LINEAR TECHNOLOGY_RMS1" H 0   0   50  0001 C CNN "Manufacturer2"
F 9 "LTC3780IG#PBF" H 0   0   50  0001 C CNN "Manufacturer_No2"
	1    3550 7250
	1    0    0    -1  
$EndComp
$Comp
L V_Power:GND1 #PWR0155
U 1 1 5EB6C815
P 4500 8400
AR Path="/5EB6C815" Ref="#PWR0155"  Part="1" 
AR Path="/5E92767C/5EB6C815" Ref="#PWR0155"  Part="1" 
F 0 "#PWR0155" H 4500 8150 50  0001 C CNN
F 1 "GND1" H 4505 8227 50  0000 C CNN
F 2 "" H 4500 8400 50  0001 C CNN
F 3 "" H 4500 8400 50  0001 C CNN
	1    4500 8400
	1    0    0    -1  
$EndComp
Wire Wire Line
	4300 8000 4500 8000
Wire Wire Line
	4300 8200 4500 8200
Connection ~ 4500 8200
Wire Wire Line
	4500 8200 4500 8400
Text Label 4800 7600 2    50   ~ 0
VOSENSE-1
Wire Wire Line
	4800 7600 4300 7600
Text Label 4800 7400 2    50   ~ 0
BG1
Wire Wire Line
	4500 8000 4500 8200
Wire Wire Line
	4300 7800 4500 7800
Wire Wire Line
	4500 7800 4500 8000
Connection ~ 4500 8000
Wire Wire Line
	4800 7400 4300 7400
Wire Wire Line
	4800 7000 4300 7000
Wire Wire Line
	5200 7200 5200 7150
Wire Wire Line
	4300 7200 5200 7200
$Comp
L V_Capacitor:C0603_220nF_16V_20% C38
U 1 1 5EB83E66
P 5200 7000
F 0 "C38" H 5085 6954 50  0000 R CNN
F 1 "220nF" H 5085 7045 50  0000 R CNN
F 2 "AllModules:C0603_1" H 5238 6850 50  0001 C CNN
F 3 "" H 5200 7000 50  0001 C CNN
F 4 "CAPACITOR,220NF,+/-20%,16V,0603" H 5200 7000 50  0001 C CNN "Description"
F 5 "10022620" H 5200 7000 50  0001 C CNN "Item Number"
F 6 "VISHAY_RMS1" H 5200 7000 50  0001 C CNN "Manufacturer"
F 7 "VJ0603V224MXJCW1BC" H 5200 7000 50  0001 C CNN "Manufacturer_No"
F 8 "KEMET_RMS1" H 0   0   50  0001 C CNN "Manufacturer2"
F 9 "YAGEO_RMS1" H 0   0   50  0001 C CNN "Manufacturer3"
F 10 "C0603C224M3RAC" H 0   0   50  0001 C CNN "Manufacturer_No2"
F 11 "CC0603MRY5V7BB224" H 0   0   50  0001 C CNN "Manufacturer_No3"
	1    5200 7000
	-1   0    0    1   
$EndComp
Text Label 4800 7000 2    50   ~ 0
TG1
Wire Wire Line
	4300 6800 5200 6800
Wire Wire Line
	5200 6800 5200 6850
Text Label 2250 7400 0    50   ~ 0
BG2
Wire Wire Line
	2250 7400 2750 7400
Wire Wire Line
	2250 7000 2750 7000
Wire Wire Line
	1200 7200 1200 7150
Wire Wire Line
	2750 7200 1200 7200
$Comp
L V_Capacitor:C0603_220nF_16V_20% C39
U 1 1 5EBD93E8
P 1200 7000
F 0 "C39" H 1085 6954 50  0000 R CNN
F 1 "220nF" H 1085 7045 50  0000 R CNN
F 2 "AllModules:C0603_1" H 1238 6850 50  0001 C CNN
F 3 "" H 1200 7000 50  0001 C CNN
F 4 "CAPACITOR,220NF,+/-20%,16V,0603" H 1200 7000 50  0001 C CNN "Description"
F 5 "10022620" H 1200 7000 50  0001 C CNN "Item Number"
F 6 "VISHAY_RMS1" H 1200 7000 50  0001 C CNN "Manufacturer"
F 7 "VJ0603V224MXJCW1BC" H 1200 7000 50  0001 C CNN "Manufacturer_No"
F 8 "KEMET_RMS1" H 0   0   50  0001 C CNN "Manufacturer2"
F 9 "YAGEO_RMS1" H 0   0   50  0001 C CNN "Manufacturer3"
F 10 "C0603C224M3RAC" H 0   0   50  0001 C CNN "Manufacturer_No2"
F 11 "CC0603MRY5V7BB224" H 0   0   50  0001 C CNN "Manufacturer_No3"
	1    1200 7000
	-1   0    0    1   
$EndComp
Text Label 2250 7000 0    50   ~ 0
TG2
Wire Wire Line
	2750 6800 1200 6800
Wire Wire Line
	1200 6800 1200 6850
$Comp
L V_Capacitor:C0603_22pF_50V_5% C56
U 1 1 5EBE1EC0
P 3450 8900
F 0 "C56" V 3198 8900 50  0000 C CNN
F 1 "DNP" V 3289 8900 50  0000 C CNN
F 2 "AllModules:C0603_1" H 3488 8750 50  0001 C CNN
F 3 "" H 3450 8900 50  0001 C CNN
F 4 "CAPACITOR CERAMIC,22PF,+/-5%,50V,0603" H 3450 8900 50  0001 C CNN "Description"
F 5 "10022632" H 3450 8900 50  0001 C CNN "Item Number"
F 6 "SAMSUNG_RMS1" H 3450 8900 50  0001 C CNN "Manufacturer"
F 7 "YAGEO_RMS1" H 3450 8900 50  0001 C CNN "Manufacturer2"
F 8 "YAGEO_RMS1" H 3450 8900 50  0001 C CNN "Manufacturer3"
F 9 "CL10C220JB8NNNC" H 3450 8900 50  0001 C CNN "Manufacturer_No"
F 10 "CC0603JRNPO9BN220" H 3450 8900 50  0001 C CNN "Manufacturer_No2"
F 11 "CC0603JRNPO9BN220" H 3450 8900 50  0001 C CNN "Manufacturer_No3"
	1    3450 8900
	0    1    1    0   
$EndComp
Wire Wire Line
	3250 8600 3250 8900
Wire Wire Line
	3250 8900 3300 8900
Wire Wire Line
	3650 8900 3650 8600
Wire Wire Line
	3600 8900 3650 8900
Wire Wire Line
	6200 4650 6500 4650
Connection ~ 3650 8900
Wire Wire Line
	6500 4150 5950 4150
Connection ~ 3250 8900
Wire Wire Line
	3250 9450 3250 8900
Wire Wire Line
	5950 9450 3250 9450
Wire Wire Line
	5950 4150 5950 9450
Wire Wire Line
	3650 8900 3650 9700
Wire Wire Line
	6200 9700 6200 4650
Wire Wire Line
	3650 9700 6200 9700
Wire Wire Line
	7000 4800 7150 4550
Wire Wire Line
	7000 4800 6650 4800
Wire Wire Line
	6650 4800 6650 9200
Wire Wire Line
	6650 9200 3950 9200
Wire Wire Line
	3850 8600 3950 8700
Wire Wire Line
	3950 8700 3950 9200
Wire Wire Line
	3850 8600 3850 9200
Connection ~ 3850 8600
$Comp
L V_Jumper:JUMP_0U JPL1
U 1 1 5EC67946
P 2950 9200
F 0 "JPL1" H 2950 9300 50  0000 C CNN
F 1 "GROUND_LINK" H 2975 9100 50  0000 C CNN
F 2 "AllModules:GDCAFE-F_FERME_1" H 2950 9200 50  0001 C CNN
F 3 "" H 2950 9200 50  0001 C CNN
F 4 "RESISTANCE, 0 OHM,0603" H 0   0   50  0001 C CNN "Description"
F 5 "10023185" H 0   0   50  0001 C CNN "Item Number"
F 6 "YAGEO_RMS1" H 0   0   50  0001 C CNN "Manufacturer"
F 7 "YAGEO_RMS1" H 0   0   50  0001 C CNN "Manufacturer2"
F 8 "YAGEO_RMS1" H 0   0   50  0001 C CNN "Manufacturer3"
F 9 "RC0603JR-070RL" H 0   0   50  0001 C CNN "Manufacturer_No"
F 10 "RC0603JR-070RL" H 0   0   50  0001 C CNN "Manufacturer_No2"
F 11 "RC0603JR-070RL" H 0   0   50  0001 C CNN "Manufacturer_No3"
	1    2950 9200
	1    0    0    -1  
$EndComp
Wire Wire Line
	2650 8300 2750 8200
Wire Wire Line
	2650 8300 2650 9200
$Comp
L V_Capacitor:C1206_220nF_16V_10% C50
U 1 1 5EC8B005
P 2400 8000
F 0 "C50" V 2350 7850 50  0000 C CNN
F 1 "220nF" V 2350 8200 50  0000 C CNN
F 2 "AllModules:RC1206_1" H 2438 7850 50  0001 C CNN
F 3 "" H 2400 8000 50  0001 C CNN
F 4 "CAPACITOR,220NF,+/-10%,16V,X7R,1206" H 2400 8000 50  0001 C CNN "Description"
F 5 "10022634" H 2400 8000 50  0001 C CNN "Item Number"
F 6 "VISHAY_RMS1" H 2400 8000 50  0001 C CNN "Manufacturer"
F 7 "VJ1206Y224JXAAT" H 2400 8000 50  0001 C CNN "Manufacturer_No"
F 8 "KEMET_RMS1" H 0   0   50  0001 C CNN "Manufacturer2"
F 9 "AVX_RMS1" H 0   0   50  0001 C CNN "Manufacturer3"
F 10 "C1206C224J5RAC" H 0   0   50  0001 C CNN "Manufacturer_No2"
F 11 "1206YC224KAT2A" H 0   0   50  0001 C CNN "Manufacturer_No3"
	1    2400 8000
	0    1    1    0   
$EndComp
Wire Wire Line
	2750 8200 2150 8200
Wire Wire Line
	2150 8200 2150 8100
Wire Wire Line
	2150 8000 2250 8000
Wire Wire Line
	2550 8000 2750 8000
Connection ~ 2750 8200
$Comp
L V_Power:GND1 #PWR0156
U 1 1 5ECA47DB
P 2100 8100
AR Path="/5ECA47DB" Ref="#PWR0156"  Part="1" 
AR Path="/5E92767C/5ECA47DB" Ref="#PWR0156"  Part="1" 
F 0 "#PWR0156" H 2100 7850 50  0001 C CNN
F 1 "GND1" V 2105 7972 50  0000 R CNN
F 2 "" H 2100 8100 50  0001 C CNN
F 3 "" H 2100 8100 50  0001 C CNN
	1    2100 8100
	0    1    1    0   
$EndComp
Wire Wire Line
	2100 8100 2150 8100
Connection ~ 2150 8100
Wire Wire Line
	2150 8100 2150 8000
$Comp
L V_Capacitor:C0402_47pF_50V_5% C48
U 1 1 5ECC344D
P 1400 8300
F 0 "C48" H 1285 8346 50  0000 R CNN
F 1 "47pF" H 1285 8255 50  0000 R CNN
F 2 "AllModules:C0402_1" H 1438 8150 50  0001 C CNN
F 3 "" H 1400 8300 50  0001 C CNN
F 4 "CAPACITOR,47 PF,+/-5%,50V,0402" H 1400 8300 50  0001 C CNN "Description"
F 5 "10022623" H 1400 8300 50  0001 C CNN "Item Number"
F 6 "MURATA MANUFACTURING CO., LTD." H 1400 8300 50  0001 C CNN "Manufacturer"
F 7 "GRM1555C1H470JA01D" H 1400 8300 50  0001 C CNN "Manufacturer_No"
F 8 "SAMSUNG_RMS1" H 0   0   50  0001 C CNN "Manufacturer2"
F 9 "KEMET_RMS1" H 0   0   50  0001 C CNN "Manufacturer3"
F 10 "CL05C470JB5NNNC" H 0   0   50  0001 C CNN "Manufacturer_No2"
F 11 "C0402C470J5GACTU" H 0   0   50  0001 C CNN "Manufacturer_No3"
	1    1400 8300
	-1   0    0    -1  
$EndComp
$Comp
L V_Capacitor:C0603_10nF_50V_10% C52
U 1 1 5ECC463D
P 950 8500
F 0 "C52" H 1065 8546 50  0000 L CNN
F 1 "10nF" H 1065 8455 50  0000 L CNN
F 2 "AllModules:C0603_1" H 988 8350 50  0001 C CNN
F 3 "" H 950 8500 50  0001 C CNN
F 4 "CAPACITOR CERAMIC,10NF,+/-10%,50V,0603" H 950 8500 50  0001 C CNN "Description"
F 5 "10022508" H 950 8500 50  0001 C CNN "Item Number"
F 6 "YAGEO_RMS1" H 950 8500 50  0001 C CNN "Manufacturer"
F 7 "CC0603KRX7R9BB103" H 950 8500 50  0001 C CNN "Manufacturer_No"
F 8 "YAGEO_RMS1" H 0   0   50  0001 C CNN "Manufacturer2"
F 9 "KEMET_RMS1" H 0   0   50  0001 C CNN "Manufacturer3"
F 10 "CC0603KRX7R9BB104" H 0   0   50  0001 C CNN "Manufacturer_No2"
F 11 "C0603C103K5RACTU" H 0   0   50  0001 C CNN "Manufacturer_No3"
	1    950  8500
	1    0    0    -1  
$EndComp
$Comp
L V_Resistor:R0603_100k_1%_10022549 R65
U 1 1 5ECD449A
P 950 8100
F 0 "R65" H 880 8054 50  0000 R CNN
F 1 "100k" H 880 8145 50  0000 R CNN
F 2 "AllModules:R0603_1" V 880 8100 50  0001 C CNN
F 3 "" H 950 8100 50  0001 C CNN
F 4 "RESISTOR,100KOHM,0.063W,+/-1%,0603" V 950 8100 50  0001 C CNN "Description"
F 5 "10022549" V 950 8100 50  0001 C CNN "Item Number"
F 6 "YAGEO_RMS1" V 950 8100 50  0001 C CNN "Manufacturer"
F 7 "RC0603FR-07100KL" V 950 8100 50  0001 C CNN "Manufacturer_No"
F 8 "BOURNS_RMS1" H 0   0   50  0001 C CNN "Manufacturer2"
F 9 "YAGEO_RMS1" H 0   0   50  0001 C CNN "Manufacturer3"
F 10 "CR0603-FX-1003ELF" H 0   0   50  0001 C CNN "Manufacturer_No2"
F 11 "RC0603FR-07100KL" H 0   0   50  0001 C CNN "Manufacturer_No3"
	1    950  8100
	-1   0    0    1   
$EndComp
Wire Wire Line
	950  7950 950  7800
Wire Wire Line
	950  7800 1400 7800
Wire Wire Line
	1400 7800 1400 8150
Connection ~ 1400 7800
Wire Wire Line
	1400 7800 2750 7800
Wire Wire Line
	950  8250 950  8350
Wire Wire Line
	950  8800 1200 8800
Wire Wire Line
	1400 8800 1400 8450
Wire Wire Line
	950  8650 950  8800
$Comp
L V_Power:GND1 #PWR0157
U 1 1 5ED079CB
P 1200 8900
AR Path="/5ED079CB" Ref="#PWR0157"  Part="1" 
AR Path="/5E92767C/5ED079CB" Ref="#PWR0157"  Part="1" 
F 0 "#PWR0157" H 1200 8650 50  0001 C CNN
F 1 "GND1" H 1205 8727 50  0000 C CNN
F 2 "" H 1200 8900 50  0001 C CNN
F 3 "" H 1200 8900 50  0001 C CNN
	1    1200 8900
	1    0    0    -1  
$EndComp
Wire Wire Line
	1200 8900 1200 8800
Connection ~ 1200 8800
Wire Wire Line
	1200 8800 1400 8800
Text Label 650  7800 0    50   ~ 0
ITH
Wire Wire Line
	650  7800 950  7800
Connection ~ 950  7800
$Comp
L V_Capacitor:C0603_10nF_50V_10% C49
U 1 1 5ED20954
P 2400 7600
F 0 "C49" V 2350 7450 50  0000 C CNN
F 1 "10nF" V 2350 7750 50  0000 C CNN
F 2 "AllModules:C0603_1" H 2438 7450 50  0001 C CNN
F 3 "" H 2400 7600 50  0001 C CNN
F 4 "CAPACITOR CERAMIC,10NF,+/-10%,50V,0603" H 2400 7600 50  0001 C CNN "Description"
F 5 "10022508" H 2400 7600 50  0001 C CNN "Item Number"
F 6 "YAGEO_RMS1" H 2400 7600 50  0001 C CNN "Manufacturer"
F 7 "CC0603KRX7R9BB103" H 2400 7600 50  0001 C CNN "Manufacturer_No"
F 8 "YAGEO_RMS1" H 0   0   50  0001 C CNN "Manufacturer2"
F 9 "KEMET_RMS1" H 0   0   50  0001 C CNN "Manufacturer3"
F 10 "CC0603KRX7R9BB104" H 0   0   50  0001 C CNN "Manufacturer_No2"
F 11 "C0603C103K5RACTU" H 0   0   50  0001 C CNN "Manufacturer_No3"
	1    2400 7600
	0    1    1    0   
$EndComp
Wire Wire Line
	2750 7600 2550 7600
Wire Wire Line
	2250 7600 2100 7600
$Comp
L V_Power:GND1 #PWR0158
U 1 1 5ED2D773
P 2100 7600
AR Path="/5ED2D773" Ref="#PWR0158"  Part="1" 
AR Path="/5E92767C/5ED2D773" Ref="#PWR0158"  Part="1" 
F 0 "#PWR0158" H 2100 7350 50  0001 C CNN
F 1 "GND1" V 2105 7472 50  0000 R CNN
F 2 "" H 2100 7600 50  0001 C CNN
F 3 "" H 2100 7600 50  0001 C CNN
	1    2100 7600
	0    1    1    0   
$EndComp
$Comp
L V_Diode:1N5819 CR2
U 1 1 5ED2E3CA
P 1200 6600
F 0 "CR2" V 1246 6521 50  0000 R CNN
F 1 "1N5819" V 1155 6521 50  0000 R CNN
F 2 "AllModules:SOD123-AK_1" H 1200 6600 50  0001 C CNN
F 3 "" H 1200 6600 50  0001 C CNN
F 4 "DIODE SCHOTTKY, 40V, 1A SOD123" H 1200 6600 50  0001 C CNN "Description"
F 5 "10022650" H 0   0   50  0001 C CNN "Item Number"
F 6 "NEXPERIA" H 0   0   50  0001 C CNN "Manufacturer"
F 7 "DIODES INC_RMS1" H 0   0   50  0001 C CNN "Manufacturer2"
F 8 "PMEG4010CEGW" H 0   0   50  0001 C CNN "Manufacturer_No"
F 9 "1N5819HW-7-F" H 0   0   50  0001 C CNN "Manufacturer_No2"
	1    1200 6600
	0    -1   -1   0   
$EndComp
$Comp
L V_Diode:1N5819 CR1
U 1 1 5ED2EC1E
P 5200 6600
F 0 "CR1" V 5246 6521 50  0000 R CNN
F 1 "1N5819" V 5155 6521 50  0000 R CNN
F 2 "AllModules:SOD123-AK_1" H 5200 6600 50  0001 C CNN
F 3 "" H 5200 6600 50  0001 C CNN
F 4 "DIODE SCHOTTKY, 40V, 1A SOD123" H 5200 6600 50  0001 C CNN "Description"
F 5 "10022650" H 0   0   50  0001 C CNN "Item Number"
F 6 "NEXPERIA" H 0   0   50  0001 C CNN "Manufacturer"
F 7 "DIODES INC_RMS1" H 0   0   50  0001 C CNN "Manufacturer2"
F 8 "PMEG4010CEGW" H 0   0   50  0001 C CNN "Manufacturer_No"
F 9 "1N5819HW-7-F" H 0   0   50  0001 C CNN "Manufacturer_No2"
	1    5200 6600
	0    -1   -1   0   
$EndComp
$Comp
L V_Diode:BZX84C4V7 D4
U 1 1 5ED2FC67
P 2400 6600
F 0 "D4" H 2400 6384 50  0000 C CNN
F 1 "BZX84C4V7" H 2400 6475 50  0000 C CNN
F 2 "AllModules:SOT23-1DIODE_1" H 2400 6600 50  0001 C CNN
F 3 "" H 2400 6600 50  0001 C CNN
F 4 "DIODE ZENER, 0.35W,4.7V" H 2400 6600 50  0001 C CNN "Description"
F 5 "10022655" H 0   0   50  0001 C CNN "Item Number"
F 6 "NXP SEMICONDUCTORS_RMS1" H 0   0   50  0001 C CNN "Manufacturer"
F 7 "NXP SEMICONDUCTORS_RMS1" H 0   0   50  0001 C CNN "Manufacturer2"
F 8 "BZX84-C4V7" H 0   0   50  0001 C CNN "Manufacturer_No"
F 9 "BZX84-C4V7,215" H 0   0   50  0001 C CNN "Manufacturer_No2"
	1    2400 6600
	-1   0    0    1   
$EndComp
Wire Wire Line
	1200 6800 1200 6750
Wire Wire Line
	1200 6450 1200 6050
Connection ~ 1200 6800
Text Label 1200 6050 3    50   ~ 0
INTVCC-1
$Comp
L V_Power:GND1 #PWR0159
U 1 1 5ED49862
P 2100 6600
AR Path="/5ED49862" Ref="#PWR0159"  Part="1" 
AR Path="/5E92767C/5ED49862" Ref="#PWR0159"  Part="1" 
F 0 "#PWR0159" H 2100 6350 50  0001 C CNN
F 1 "GND1" V 2105 6472 50  0000 R CNN
F 2 "" H 2100 6600 50  0001 C CNN
F 3 "" H 2100 6600 50  0001 C CNN
	1    2100 6600
	0    1    1    0   
$EndComp
Wire Wire Line
	2100 6600 2250 6600
Wire Wire Line
	2550 6600 2700 6600
$Comp
L V_Resistor:R0603_100k_1%_10022549 R58
U 1 1 5ED7BB55
P 2700 6000
F 0 "R58" H 2630 5954 50  0000 R CNN
F 1 "100k" H 2630 6045 50  0000 R CNN
F 2 "AllModules:R0603_1" V 2630 6000 50  0001 C CNN
F 3 "" H 2700 6000 50  0001 C CNN
F 4 "RESISTOR,100KOHM,0.063W,+/-1%,0603" V 2700 6000 50  0001 C CNN "Description"
F 5 "10022549" V 2700 6000 50  0001 C CNN "Item Number"
F 6 "YAGEO_RMS1" V 2700 6000 50  0001 C CNN "Manufacturer"
F 7 "RC0603FR-07100KL" V 2700 6000 50  0001 C CNN "Manufacturer_No"
F 8 "BOURNS_RMS1" H 0   0   50  0001 C CNN "Manufacturer2"
F 9 "YAGEO_RMS1" H 0   0   50  0001 C CNN "Manufacturer3"
F 10 "CR0603-FX-1003ELF" H 0   0   50  0001 C CNN "Manufacturer_No2"
F 11 "RC0603FR-07100KL" H 0   0   50  0001 C CNN "Manufacturer_No3"
	1    2700 6000
	-1   0    0    1   
$EndComp
Wire Wire Line
	2700 6150 2700 6600
Connection ~ 2700 6600
Wire Wire Line
	2700 6600 2750 6600
$Comp
L V_Capacitor:C0805_100nF_50V_10% C131
U 1 1 5ED88C89
P 2200 5650
F 0 "C131" H 2085 5696 50  0000 R CNN
F 1 "100nF" H 2085 5605 50  0000 R CNN
F 2 "AllModules:C0805_1" H 2238 5500 50  0001 C CNN
F 3 "" H 2200 5650 50  0001 C CNN
F 4 "CAPACITOR CERAMIC, 100NF, +/-10%, 50V, X7R,0805" H 2200 5650 50  0001 C CNN "Description"
F 5 "10022135" H 2200 5650 50  0001 C CNN "Item Number"
F 6 "YAGEO_RMS1" H 2200 5650 50  0001 C CNN "Manufacturer"
F 7 "CC0805KRX7R9BB104" H 2200 5650 50  0001 C CNN "Manufacturer_No"
F 8 "MURATA MANUFACTURING CO., LTD." H 0   0   50  0001 C CNN "Manufacturer2"
F 9 "YAGEO_RMS1" H 0   0   50  0001 C CNN "Manufacturer3"
F 10 "GRM21BR71H104KA01L" H 0   0   50  0001 C CNN "Manufacturer_No2"
F 11 "CC0805KRX7R9BB104" H 0   0   50  0001 C CNN "Manufacturer_No3"
	1    2200 5650
	-1   0    0    -1  
$EndComp
Wire Wire Line
	2200 5500 2700 5500
Wire Wire Line
	3300 5500 3300 6150
Wire Wire Line
	2700 5850 2700 5500
Connection ~ 2700 5500
Wire Wire Line
	2700 5500 3300 5500
Text Label 3050 5150 0    50   ~ 0
VIN
Wire Wire Line
	5500 1050 5300 1050
Wire Wire Line
	5300 1050 5300 1300
Connection ~ 5300 1300
Wire Wire Line
	5300 1300 5900 1300
$Comp
L V_Capacitor:C0805_100nF_50V_10% C31
U 1 1 5EDD04B0
P 5300 1500
F 0 "C31" H 5185 1454 50  0000 R CNN
F 1 "100nF" H 5185 1545 50  0000 R CNN
F 2 "AllModules:C0805_1" H 5338 1350 50  0001 C CNN
F 3 "" H 5300 1500 50  0001 C CNN
F 4 "CAPACITOR CERAMIC, 100NF, +/-10%, 50V, X7R,0805" H 5300 1500 50  0001 C CNN "Description"
F 5 "10022135" H 5300 1500 50  0001 C CNN "Item Number"
F 6 "YAGEO_RMS1" H 5300 1500 50  0001 C CNN "Manufacturer"
F 7 "CC0805KRX7R9BB104" H 5300 1500 50  0001 C CNN "Manufacturer_No"
F 8 "MURATA MANUFACTURING CO., LTD." H 0   0   50  0001 C CNN "Manufacturer2"
F 9 "YAGEO_RMS1" H 0   0   50  0001 C CNN "Manufacturer3"
F 10 "GRM21BR71H104KA01L" H 0   0   50  0001 C CNN "Manufacturer_No2"
F 11 "CC0805KRX7R9BB104" H 0   0   50  0001 C CNN "Manufacturer_No3"
	1    5300 1500
	-1   0    0    1   
$EndComp
Wire Wire Line
	5300 1650 5300 1700
Wire Wire Line
	5300 1700 4700 1700
Wire Wire Line
	5300 1350 5300 1300
$Comp
L V_Capacitor:C0805_4u7F_16V_10% C30
U 1 1 5EDF0EA6
P 4000 5500
F 0 "C30" V 3748 5500 50  0000 C CNN
F 1 "4.7uF" V 3839 5500 50  0000 C CNN
F 2 "AllModules:C0805_1" H 4038 5350 50  0001 C CNN
F 3 "" H 4000 5500 50  0001 C CNN
F 4 "CAPACITOR,4.7UF,+/-10%,16V, X5R, 0805" H 4000 5500 50  0001 C CNN "Description"
F 5 "10022616" H 4000 5500 50  0001 C CNN "Item Number"
F 6 "AVX_RMS1" H 4000 5500 50  0001 C CNN "Manufacturer"
F 7 "0805YD475KAT2A" H 4000 5500 50  0001 C CNN "Manufacturer_No"
F 8 "KEMET_RMS1" H 0   0   50  0001 C CNN "Manufacturer2"
F 9 "KEMET_RMS1" H 0   0   50  0001 C CNN "Manufacturer3"
F 10 "C0805C475K4PAC" H 0   0   50  0001 C CNN "Manufacturer_No2"
F 11 "C0805C475K4PACTU" H 0   0   50  0001 C CNN "Manufacturer_No3"
	1    4000 5500
	0    1    1    0   
$EndComp
$Comp
L V_Capacitor:C0805_1uF_16V_10% C32
U 1 1 5EDF2B6E
P 4000 5900
F 0 "C32" V 3950 5700 50  0000 C CNN
F 1 "1uF" V 3950 6100 50  0000 C CNN
F 2 "AllModules:C0805_1" H 4038 5750 50  0001 C CNN
F 3 "" H 4000 5900 50  0001 C CNN
F 4 "CAPACITOR, 1UF, +/-10%, 16V, 0805" H 4000 5900 50  0001 C CNN "Description"
F 5 "10022546" H 4000 5900 50  0001 C CNN "Item Number"
F 6 "AVX_RMS1" H 4000 5900 50  0001 C CNN "Manufacturer"
F 7 "0805YC105KAT2A" H 4000 5900 50  0001 C CNN "Manufacturer_No"
F 8 "MURATA MANUFACTURING CO., LTD." H 0   0   50  0001 C CNN "Manufacturer2"
F 9 "GRM21BR71C105KA01L" H 0   0   50  0001 C CNN "Manufacturer_No2"
	1    4000 5900
	0    1    1    0   
$EndComp
Wire Wire Line
	4400 6000 4400 5900
Wire Wire Line
	4400 5900 4150 5900
Wire Wire Line
	4150 5500 4400 5500
Wire Wire Line
	4400 5500 4400 5900
Connection ~ 4400 5900
Wire Wire Line
	3700 6150 3700 5900
Wire Wire Line
	3700 5900 3850 5900
Wire Wire Line
	3850 5500 3500 5500
Wire Wire Line
	3500 5500 3500 6150
Wire Wire Line
	3500 5500 3500 5150
Connection ~ 3500 5500
Wire Wire Line
	3050 5150 3300 5150
Wire Wire Line
	3300 5150 3300 5500
Connection ~ 3300 5500
Text Label 3900 5150 2    50   ~ 0
INTVCC-1
Wire Wire Line
	3500 5150 3900 5150
Text Label 5200 5900 2    50   ~ 0
INTVCC-1
Wire Wire Line
	4650 5900 5200 5900
Wire Wire Line
	4650 5900 4650 6150
Wire Wire Line
	4650 6150 5200 6150
Wire Wire Line
	5200 6150 5200 6450
Wire Wire Line
	5200 6750 5200 6800
Connection ~ 4650 6150
Connection ~ 5200 6800
Wire Wire Line
	12250 3150 12250 3200
$Comp
L V_Capacitor:C1206_2u2F_16V_10% C33
U 1 1 5EF73289
P 11950 3200
F 0 "C33" V 12202 3200 50  0000 C CNN
F 1 "2.2uF" V 12111 3200 50  0000 C CNN
F 2 "AllModules:RC1206_1" H 11988 3050 50  0001 C CNN
F 3 "" H 11950 3200 50  0001 C CNN
F 4 "CAPACITOR,2.2UF,+/-10%,16V,1206" H 11950 3200 50  0001 C CNN "Description"
F 5 "10022618" H 11950 3200 50  0001 C CNN "Item Number"
F 6 "MURATA MANUFACTURING CO., LTD." H 11950 3200 50  0001 C CNN "Manufacturer"
F 7 "GCM31MR71E225KA57L" H 11950 3200 50  0001 C CNN "Manufacturer_No"
F 8 "AVX_RMS1" H 0   0   50  0001 C CNN "Manufacturer2"
F 9 "MURATA MANUFACTURING CO., LTD." H 0   0   50  0001 C CNN "Manufacturer3"
F 10 "1206YC225KAT2A" H 0   0   50  0001 C CNN "Manufacturer_No2"
F 11 "GRM31MR71C225KA35L" H 0   0   50  0001 C CNN "Manufacturer_No3"
	1    11950 3200
	0    -1   -1   0   
$EndComp
Wire Wire Line
	11700 2800 12250 2800
Wire Wire Line
	12250 2800 12250 2850
Wire Wire Line
	11700 3200 11800 3200
Wire Wire Line
	12100 3200 12250 3200
Connection ~ 12250 3200
$Comp
L V_Capacitor:C0402_100nF_16V_10% C25
U 1 1 5EFE38D9
P 11100 3850
F 0 "C25" V 10940 3850 50  0000 C CNN
F 1 "100nF" V 10849 3850 50  0000 C CNN
F 2 "AllModules:C0402_1" H 11138 3700 50  0001 C CNN
F 3 "" H 11100 3850 50  0001 C CNN
F 4 "CAPACITOR,100NF,16V,+/-10%,X7R,0402" H 11100 3850 50  0001 C CNN "Description"
F 5 "10022607" H 11100 3850 50  0001 C CNN "Item Number"
F 6 "MURATA" H 11100 3850 50  0001 C CNN "Manufacturer"
F 7 "GRM155R71C104JA88J" H 11100 3850 50  0001 C CNN "Manufacturer_No"
F 8 "YAGEO_RMS1" H 0   0   50  0001 C CNN "Manufacturer2"
F 9 "YAGEO_RMS1" H 0   0   50  0001 C CNN "Manufacturer3"
F 10 "CC0402KRX7R7BB104" H 0   0   50  0001 C CNN "Manufacturer_No2"
F 11 "CC0402KRX7R7BB104" H 0   0   50  0001 C CNN "Manufacturer_No3"
	1    11100 3850
	0    -1   -1   0   
$EndComp
Wire Wire Line
	10900 3600 10900 3850
Wire Wire Line
	10900 3850 10950 3850
$Comp
L V_Power:GND1 #PWR0162
U 1 1 5EFF4A7B
P 11550 4000
AR Path="/5EFF4A7B" Ref="#PWR0162"  Part="1" 
AR Path="/5E92767C/5EFF4A7B" Ref="#PWR0162"  Part="1" 
F 0 "#PWR0162" H 11550 3750 50  0001 C CNN
F 1 "GND1" H 11555 3827 50  0000 C CNN
F 2 "" H 11550 4000 50  0001 C CNN
F 3 "" H 11550 4000 50  0001 C CNN
	1    11550 4000
	1    0    0    -1  
$EndComp
Wire Wire Line
	11550 4000 11550 3850
Wire Wire Line
	11550 3850 11300 3850
Wire Wire Line
	11300 3600 11300 3850
Connection ~ 11300 3850
Wire Wire Line
	11300 3850 11250 3850
$Comp
L V_Resistor:R0805_270R_1% R117
U 1 1 5F0173F8
P 10500 4500
F 0 "R117" V 10293 4500 50  0000 C CNN
F 1 "270" V 10384 4500 50  0000 C CNN
F 2 "AllModules:R0805_1" V 10430 4500 50  0001 C CNN
F 3 "" H 10500 4500 50  0001 C CNN
F 4 "RESISTOR,270 OHM,0.125W,+/-1%,0805" H 10500 4500 50  0001 C CNN "Description"
F 5 "10022743" H 10500 4500 50  0001 C CNN "Item Number"
F 6 "YAGEO_RMS1" H 10500 4500 50  0001 C CNN "Manufacturer"
F 7 "RC0805FR-07270RL" H 10500 4500 50  0001 C CNN "Manufacturer_No"
F 8 "BOURNS_RMS1" H 0   0   50  0001 C CNN "Manufacturer2"
F 9 "YAGEO_RMS1" H 0   0   50  0001 C CNN "Manufacturer3"
F 10 "CR0805-FX-2700ELF " H 0   0   50  0001 C CNN "Manufacturer_No2"
F 11 "RC0805FR-07270RL" H 0   0   50  0001 C CNN "Manufacturer_No3"
	1    10500 4500
	0    1    1    0   
$EndComp
$Comp
L V_Diode:BZX84C5V1_10022657 D12
U 1 1 5F0182BA
P 10900 4800
F 0 "D12" V 10854 4879 50  0000 L CNN
F 1 "BZX84C5V1" V 10945 4879 50  0000 L CNN
F 2 "AllModules:SOT23-1DIODE_1" H 10900 4800 50  0001 C CNN
F 3 "" H 10900 4800 50  0001 C CNN
F 4 "DIODE ZENER, 0.35,5.1V, SOT23" H 10900 4800 50  0001 C CNN "Description"
F 5 "10022657" H 10900 4800 50  0001 C CNN "Item Number"
F 6 "NXP SEMICONDUCTORS_RMS1" H 0   0   50  0001 C CNN "Manufacturer"
F 7 "NXP SEMICONDUCTORS_RMS1" H 0   0   50  0001 C CNN "Manufacturer2"
F 8 "BZX84-C5V1" H 0   0   50  0001 C CNN "Manufacturer_No"
F 9 "BZX84-C5V1,215" H 0   0   50  0001 C CNN "Manufacturer_No2"
	1    10900 4800
	0    1    1    0   
$EndComp
Wire Wire Line
	10650 4500 10900 4500
Wire Wire Line
	10900 4500 10900 4650
Wire Wire Line
	10900 4500 10900 3850
Connection ~ 10900 4500
Connection ~ 10900 3850
Wire Wire Line
	10900 4500 12250 4500
$Comp
L V_Power:GND1 #PWR0163
U 1 1 5F050F00
P 10900 5050
AR Path="/5F050F00" Ref="#PWR0163"  Part="1" 
AR Path="/5E92767C/5F050F00" Ref="#PWR0163"  Part="1" 
F 0 "#PWR0163" H 10900 4800 50  0001 C CNN
F 1 "GND1" H 10905 4877 50  0000 C CNN
F 2 "" H 10900 5050 50  0001 C CNN
F 3 "" H 10900 5050 50  0001 C CNN
	1    10900 5050
	1    0    0    -1  
$EndComp
Wire Wire Line
	10900 5050 10900 4950
Text Label 9850 4500 0    50   ~ 0
INTVCC-1
Wire Wire Line
	10350 4500 9850 4500
Wire Wire Line
	10900 2400 10900 2200
Connection ~ 10900 1250
Wire Wire Line
	10900 1250 10950 1250
Wire Wire Line
	11300 2400 11300 2200
Connection ~ 11300 1250
Wire Wire Line
	11300 1250 12900 1250
Wire Wire Line
	11300 2200 11250 2200
Wire Wire Line
	10950 2200 10900 2200
Connection ~ 11300 2200
Wire Wire Line
	11300 2200 11300 1250
Connection ~ 10900 2200
Wire Wire Line
	10900 2200 10900 1250
$Comp
L V_Power:GND1 #PWR0164
U 1 1 5F0E6F75
P 12100 2050
AR Path="/5F0E6F75" Ref="#PWR0164"  Part="1" 
AR Path="/5E92767C/5F0E6F75" Ref="#PWR0164"  Part="1" 
F 0 "#PWR0164" H 12100 1800 50  0001 C CNN
F 1 "GND1" H 12105 1877 50  0000 C CNN
F 2 "" H 12100 2050 50  0001 C CNN
F 3 "" H 12100 2050 50  0001 C CNN
	1    12100 2050
	1    0    0    -1  
$EndComp
Wire Wire Line
	12100 2050 12100 2000
Wire Wire Line
	12100 2000 12250 2000
Wire Wire Line
	12250 2000 12250 2450
NoConn ~ 10550 2800
Text Label 10250 3200 0    50   ~ 0
ITH
Wire Wire Line
	10250 3200 10550 3200
Wire Wire Line
	12900 2350 13450 2350
$Comp
L V_Resistor:R0603_100k_0.1%_10022709 R64
U 1 1 5F164745
P 15650 2150
F 0 "R64" H 15580 2104 50  0000 R CNN
F 1 "100k" H 15580 2195 50  0000 R CNN
F 2 "AllModules:R0603_1" V 15580 2150 50  0001 C CNN
F 3 "" H 15650 2150 50  0001 C CNN
F 4 "RESISTOR, 100K OHM, 0.063W,+/-0.1%,0603" V 15650 2150 50  0001 C CNN "Description"
F 5 "10022709" V 15650 2150 50  0001 C CNN "Item Number"
F 6 "SUSUMU CO" V 15650 2150 50  0001 C CNN "Manufacturer"
F 7 "RG1608P-104-B-T1" V 15650 2150 50  0001 C CNN "Manufacturer_No"
F 8 "SUSUMU CO." H 0   0   50  0001 C CNN "Manufacturer2"
F 9 "YAGEO_RMS1" H 0   0   50  0001 C CNN "Manufacturer3"
F 10 "RG1608P-104-B-T5" H 0   0   50  0001 C CNN "Manufacturer_No2"
F 11 "RT0603BRD07100KL" H 0   0   50  0001 C CNN "Manufacturer_No3"
	1    15650 2150
	-1   0    0    1   
$EndComp
$Comp
L V_Resistor:R0603_10k_0.1%_10022701 R66
U 1 1 5F167A51
P 15650 2650
F 0 "R66" H 15720 2696 50  0000 L CNN
F 1 "10k" H 15720 2605 50  0000 L CNN
F 2 "AllModules:R0603_1" V 15580 2650 50  0001 C CNN
F 3 "" H 15650 2650 50  0001 C CNN
F 4 "RESISTOR, PRECISION,10K OHM, 0.063W,+/-0.1%,0603" H 15650 2650 50  0001 C CNN "Description"
F 5 "10022701" H 15650 2650 50  0001 C CNN "Item Number"
F 6 "SUSUMU CO" H 15650 2650 50  0001 C CNN "Manufacturer"
F 7 "RG1608P-103-B-T1" H 15650 2650 50  0001 C CNN "Manufacturer_No"
F 8 "YAGEO_RMS1" H 0   0   50  0001 C CNN "Manufacturer2"
F 9 "SUSUMU CO" H 0   0   50  0001 C CNN "Manufacturer3"
F 10 "RT0603BRB0710KL" H 0   0   50  0001 C CNN "Manufacturer_No2"
F 11 "RG1608P-103-B-T5" H 0   0   50  0001 C CNN "Manufacturer_No3"
	1    15650 2650
	1    0    0    -1  
$EndComp
$Comp
L V_Capacitor:C0603_10nF_50V_10% C119
U 1 1 5F167FC0
P 15250 2650
F 0 "C119" H 15135 2604 50  0000 R CNN
F 1 "10nF" H 15135 2695 50  0000 R CNN
F 2 "AllModules:C0603_1" H 15288 2500 50  0001 C CNN
F 3 "" H 15250 2650 50  0001 C CNN
F 4 "CAPACITOR CERAMIC,10NF,+/-10%,50V,0603" H 15250 2650 50  0001 C CNN "Description"
F 5 "10022508" H 15250 2650 50  0001 C CNN "Item Number"
F 6 "YAGEO_RMS1" H 15250 2650 50  0001 C CNN "Manufacturer"
F 7 "CC0603KRX7R9BB103" H 15250 2650 50  0001 C CNN "Manufacturer_No"
F 8 "YAGEO_RMS1" H 0   0   50  0001 C CNN "Manufacturer2"
F 9 "KEMET_RMS1" H 0   0   50  0001 C CNN "Manufacturer3"
F 10 "CC0603KRX7R9BB104" H 0   0   50  0001 C CNN "Manufacturer_No2"
F 11 "C0603C103K5RACTU" H 0   0   50  0001 C CNN "Manufacturer_No3"
	1    15250 2650
	-1   0    0    1   
$EndComp
$Comp
L V_Power:PGND #PWR0165
U 1 1 5F1684BE
P 15650 2950
F 0 "#PWR0165" H 15650 2700 50  0001 C CNN
F 1 "PGND" H 15655 2777 50  0000 C CNN
F 2 "" H 15650 2950 50  0001 C CNN
F 3 "" H 15650 2950 50  0001 C CNN
	1    15650 2950
	-1   0    0    -1  
$EndComp
Wire Wire Line
	15650 1250 15650 2000
Wire Wire Line
	15650 2300 15650 2400
Wire Wire Line
	15650 2800 15650 2900
Connection ~ 15650 1250
Wire Wire Line
	15250 2500 15250 2400
Wire Wire Line
	15250 2400 15650 2400
Connection ~ 15650 2400
Wire Wire Line
	15650 2400 15650 2500
Wire Wire Line
	15250 2800 15250 2900
Wire Wire Line
	15250 2900 15650 2900
Connection ~ 15650 2900
Wire Wire Line
	15650 2900 15650 2950
$Comp
L V_IC:LT1620CMS8 IC9
U 1 1 5EF12131
P 11200 2900
F 0 "IC9" H 11350 3450 50  0000 L CNN
F 1 "LT1620CMS8" H 11350 3350 50  0000 L CNN
F 2 "AllModules:uSO08_1" H 11200 2900 50  0001 C CNN
F 3 "" H 11200 2900 50  0001 C CNN
F 4 "IC,CURRENT AMPLIFIER,MSOP" H 11200 2900 50  0001 C CNN "Description"
F 5 "10022893" H 11200 2900 50  0001 C CNN "Item Number"
F 6 "LINEAR TECHNOLOGY_RMS1" H 11200 2900 50  0001 C CNN "Manufacturer"
F 7 "LT1620CMS8#TRPBF" H 11200 2900 50  0001 C CNN "Manufacturer_No"
F 8 "LINEAR TECHNOLOGY_RMS1" H 0   0   50  0001 C CNN "Manufacturer2"
F 9 "LT1620CMS8#PBF" H 0   0   50  0001 C CNN "Manufacturer_No2"
	1    11200 2900
	1    0    0    -1  
$EndComp
$Comp
L V_Resistor:R0603_39k_1% R61
U 1 1 5EF4AEDC
P 12250 2600
F 0 "R61" H 12320 2646 50  0000 L CNN
F 1 "39k" H 12320 2555 50  0000 L CNN
F 2 "AllModules:R0603_1" V 12180 2600 50  0001 C CNN
F 3 "" H 12250 2600 50  0001 C CNN
F 4 "RESISTOR,39K OHM,0.063W,+/-1%,0603" H 12250 2600 50  0001 C CNN "Description"
F 5 "10022711" H 12250 2600 50  0001 C CNN "Item Number"
F 6 "BOURNS_RMS1" H 12250 2600 50  0001 C CNN "Manufacturer"
F 7 "CR0603-FX-3902ELF " H 12250 2600 50  0001 C CNN "Manufacturer_No"
F 8 "YAGEO_RMS1" H 0   0   50  0001 C CNN "Manufacturer2"
F 9 "SAMSUNG_RMS1" H 0   0   50  0001 C CNN "Manufacturer3"
F 10 "RC0603FR-0739KL" H 0   0   50  0001 C CNN "Manufacturer_No2"
F 11 "RC1608F393CS" H 0   0   50  0001 C CNN "Manufacturer_No3"
	1    12250 2600
	1    0    0    -1  
$EndComp
$Comp
L V_Resistor:R0603_5k6_1% R59
U 1 1 5EF4AEE6
P 12250 3000
F 0 "R59" H 12320 3046 50  0000 L CNN
F 1 "5.6k" H 12320 2955 50  0000 L CNN
F 2 "AllModules:R0603_1" V 12180 3000 50  0001 C CNN
F 3 "" H 12250 3000 50  0001 C CNN
F 4 "RESISTOR,5.6K OHM,0.063W,+/-1%,0603" H 12250 3000 50  0001 C CNN "Description"
F 5 "10022714" H 12250 3000 50  0001 C CNN "Item Number"
F 6 "YAGEO_RMS1" H 12250 3000 50  0001 C CNN "Manufacturer"
F 7 "RC0603FR-075K6L" H 12250 3000 50  0001 C CNN "Manufacturer_No"
F 8 "YAGEO_RMS1" H 0   0   50  0001 C CNN "Manufacturer2"
F 9 "VISHAY_RMS1" H 0   0   50  0001 C CNN "Manufacturer3"
F 10 "RC0603FR-075K6L" H 0   0   50  0001 C CNN "Manufacturer_No2"
F 11 "CRCW06035K60FKEA" H 0   0   50  0001 C CNN "Manufacturer_No3"
	1    12250 3000
	1    0    0    -1  
$EndComp
$Comp
L V_Transistor:SI7884BDP T19
U 1 1 5E98B2EE
P 6300 2300
F 0 "T19" H 6100 2550 50  0000 L CNN
F 1 "SI7884BDP" H 5800 2450 50  0000 L CNN
F 2 "AllModules:SO08-PPAD_SI7884_1" H 7150 2225 50  0001 C CIN
F 3 "" H 6625 2000 50  0001 L CNN
F 4 "MOSFET TRANS N CHANNEL,40V,47A,0.0095 OHM, PPAK SO8" H 7100 2225 50  0001 C CNN "Description"
F 5 "10022883" H 6300 2300 50  0001 C CNN "Item Number"
F 6 "VISHAY_RMS1" H 6300 2300 50  0001 C CNN "Manufacturer"
F 7 "SI7848BDP-T1-E3" H 6300 2300 50  0001 C CNN "Manufacturer_No"
F 8 "VISHAY_RMS1" H 0   0   50  0001 C CNN "Manufacturer2"
F 9 "SI7884BDP-T1-E3 " H 0   0   50  0001 C CNN "Manufacturer_No2"
	1    6300 2300
	1    0    0    -1  
$EndComp
$Comp
L V_Transistor:SI7884BDP T22
U 1 1 5E98C0C9
P 7900 3200
F 0 "T22" H 7700 3450 50  0000 L CNN
F 1 "SI7884BDP" H 7400 3350 50  0000 L CNN
F 2 "AllModules:SO08-PPAD_SI7884_1" H 8750 3125 50  0001 C CIN
F 3 "" H 8225 2900 50  0001 L CNN
F 4 "MOSFET TRANS N CHANNEL,40V,47A,0.0095 OHM, PPAK SO8" H 8700 3125 50  0001 C CNN "Description"
F 5 "10022883" H 7900 3200 50  0001 C CNN "Item Number"
F 6 "VISHAY_RMS1" H 7900 3200 50  0001 C CNN "Manufacturer"
F 7 "SI7848BDP-T1-E3" H 7900 3200 50  0001 C CNN "Manufacturer_No"
F 8 "VISHAY_RMS1" H 0   0   50  0001 C CNN "Manufacturer2"
F 9 "SI7884BDP-T1-E3 " H 0   0   50  0001 C CNN "Manufacturer_No2"
	1    7900 3200
	-1   0    0    -1  
$EndComp
$Comp
L V_Transistor:SI7884BDP T21
U 1 1 5E98C9D5
P 6300 3200
F 0 "T21" H 6100 3450 50  0000 L CNN
F 1 "SI7884BDP" H 5800 3350 50  0000 L CNN
F 2 "AllModules:SO08-PPAD_SI7884_1" H 7150 3125 50  0001 C CIN
F 3 "" H 6625 2900 50  0001 L CNN
F 4 "MOSFET TRANS N CHANNEL,40V,47A,0.0095 OHM, PPAK SO8" H 7100 3125 50  0001 C CNN "Description"
F 5 "10022883" H 6300 3200 50  0001 C CNN "Item Number"
F 6 "VISHAY_RMS1" H 6300 3200 50  0001 C CNN "Manufacturer"
F 7 "SI7848BDP-T1-E3" H 6300 3200 50  0001 C CNN "Manufacturer_No"
F 8 "VISHAY_RMS1" H 0   0   50  0001 C CNN "Manufacturer2"
F 9 "SI7884BDP-T1-E3 " H 0   0   50  0001 C CNN "Manufacturer_No2"
	1    6300 3200
	1    0    0    -1  
$EndComp
$Comp
L V_Capacitor:C_10uF_50V_10% C27
U 1 1 5E948173
P 3500 1500
F 0 "C27" H 3500 1100 50  0000 C CNN
F 1 "10uF" H 3500 1200 50  0000 C CNN
F 2 "AllModules:C2220_1" H 3538 1350 50  0001 C CNN
F 3 "" H 3500 1500 50  0001 C CNN
F 4 "CAPACITOR CERAMIC, 10UF,+/-10%,50V 2220" H 3500 1500 50  0001 C CNN "Description"
F 5 "10039581" H 3500 1500 50  0001 C CNN "Item Number"
F 6 "AVX" H 3500 1500 50  0001 C CNN "Manufacturer"
F 7 "22205C106K4Z4A" H 3500 1500 50  0001 C CNN "Manufacturer_No"
F 8 "KEMET_RMS1" H 0   0   50  0001 C CNN "Manufacturer2"
F 9 "KEMET_RMS1" H 0   0   50  0001 C CNN "Manufacturer3"
F 10 "C2220X106K5RACAUTO" H 0   0   50  0001 C CNN "Manufacturer_No2"
F 11 "C2220X106K5RAC" H 0   0   50  0001 C CNN "Manufacturer_No3"
	1    3500 1500
	1    0    0    1   
$EndComp
$Comp
L V_Capacitor:C_10uF_50V_10% C26
U 1 1 5E945B25
P 3200 1500
F 0 "C26" H 3200 1100 50  0000 C CNN
F 1 "10uF" H 3200 1200 50  0000 C CNN
F 2 "AllModules:C2220_1" H 3238 1350 50  0001 C CNN
F 3 "" H 3200 1500 50  0001 C CNN
F 4 "CAPACITOR CERAMIC, 10UF,+/-10%,50V 2220" H 3200 1500 50  0001 C CNN "Description"
F 5 "10039581" H 3200 1500 50  0001 C CNN "Item Number"
F 6 "AVX" H 3200 1500 50  0001 C CNN "Manufacturer"
F 7 "22205C106K4Z4A" H 3200 1500 50  0001 C CNN "Manufacturer_No"
F 8 "KEMET_RMS1" H 0   0   50  0001 C CNN "Manufacturer2"
F 9 "KEMET_RMS1" H 0   0   50  0001 C CNN "Manufacturer3"
F 10 "C2220X106K5RACAUTO" H 0   0   50  0001 C CNN "Manufacturer_No2"
F 11 "C2220X106K5RAC" H 0   0   50  0001 C CNN "Manufacturer_No3"
	1    3200 1500
	1    0    0    1   
$EndComp
Wire Wire Line
	12250 2750 12250 2800
Connection ~ 12250 2800
Wire Wire Line
	12250 3200 12250 4500
Wire Wire Line
	1300 1100 1150 1100
Wire Wire Line
	1150 1100 1150 1300
Connection ~ 1150 1300
Wire Wire Line
	1150 1300 1300 1300
Wire Wire Line
	850  1650 850  1750
Wire Wire Line
	1150 1550 1150 1750
Wire Wire Line
	1300 1750 1150 1750
Connection ~ 1150 1750
Wire Wire Line
	14800 1500 14800 1700
Wire Wire Line
	14650 1700 14800 1700
Connection ~ 14800 1700
Wire Wire Line
	15000 1600 15000 1700
Wire Wire Line
	14650 1050 14800 1050
Wire Wire Line
	14800 1050 14800 1250
Connection ~ 14800 1250
Wire Wire Line
	14800 1250 14650 1250
$Comp
L V_Filter:BNX002-01 FLTR3
U 1 1 5E983555
P 14200 1350
AR Path="/5E983555" Ref="FLTR3"  Part="1" 
AR Path="/5E92767C/5E983555" Ref="FLTR3"  Part="1" 
F 0 "FLTR3" H 14175 1845 50  0000 C CNN
F 1 "BNX002-11" H 14175 1754 50  0000 C CNN
F 2 "AllModules:BNX002+SF-AIROX_1" H 14090 1370 50  0001 C CNN
F 3 "" H 14090 1370 50  0001 C CNN
F 4 "10022532" H 14090 1370 50  0001 C CNN "Item Number"
F 5 "MURATA MANUFACTURING CO., LTD." H 14090 1370 50  0001 C CNN "Manufacturer"
F 6 "BNX002-01" H 14200 1350 50  0001 C CNN "Manufacturer_No"
F 7 "FILTER CC, 1MHZ-1GHZ, 10A, 50V" H 14200 1350 50  0001 C CNN "Description"
F 8 "MURATA MANUFACTURING CO., LTD." H 0   0   50  0001 C CNN "Manufacturer2"
F 9 "MURATA MANUFACTURING CO., LTD." H 0   0   50  0001 C CNN "Manufacturer3"
F 10 "BNX00201" H 0   0   50  0001 C CNN "Manufacturer_No2"
F 11 "BNX002-11" H 0   0   50  0001 C CNN "Manufacturer_No3"
	1    14200 1350
	-1   0    0    -1  
$EndComp
$Comp
L V_Diode:PRLL5819 D19-BIS?
U 1 1 5E9EC701
P 1200 6600
AR Path="/5FEC5422/5E9EC701" Ref="D19-BIS?"  Part="1" 
AR Path="/5E92767C/5E9EC701" Ref="ZCR2"  Part="1" 
F 0 "ZCR2" V 1250 6900 50  0000 C CNN
F 1 "PRLL5819" V 1150 6900 50  0000 C CNN
F 2 "AllModules:SOD87_1" H 1150 6300 50  0001 C CNN
F 3 "" H 1200 6600 50  0001 C CNN
F 4 "DIODE SCHOTTKY, 40V, 1A SOD87" H 1150 6400 50  0001 C CNN "Description"
F 5 "10022650_A" H 1200 6600 50  0001 C CNN "Item Number"
F 6 "NXP SEMICONDUCTORS_RMS1" H 1200 6600 50  0001 C CNN "Manufacturer"
F 7 "PRLL5819" H 1200 6600 50  0001 C CNN "Manufacturer_No"
	1    1200 6600
	0    -1   -1   0   
$EndComp
Connection ~ 1200 6450
Connection ~ 1200 6750
$Comp
L V_Diode:PRLL5819 CR2-BIS?
U 1 1 5EA4E9A7
P 5200 6600
AR Path="/5FEC5422/5EA4E9A7" Ref="CR2-BIS?"  Part="1" 
AR Path="/5E92767C/5EA4E9A7" Ref="ZCR1"  Part="1" 
F 0 "ZCR1" V 5250 6850 50  0000 C CNN
F 1 "PRLL5819" V 5150 6850 50  0000 C CNN
F 2 "AllModules:SOD87_1" H 5150 6300 50  0001 C CNN
F 3 "" H 5200 6600 50  0001 C CNN
F 4 "DIODE SCHOTTKY, 40V, 1A SOD87" H 5150 6400 50  0001 C CNN "Description"
F 5 "10022650_A" H 5200 6600 50  0001 C CNN "Item Number"
F 6 "NXP SEMICONDUCTORS_RMS1" H 5200 6600 50  0001 C CNN "Manufacturer"
F 7 "PRLL5819" H 5200 6600 50  0001 C CNN "Manufacturer_No"
	1    5200 6600
	0    -1   -1   0   
$EndComp
Wire Wire Line
	4650 6600 4300 6600
Wire Wire Line
	4650 6150 4650 6250
Wire Wire Line
	4650 6550 4650 6600
$Comp
L V_Resistor:R0603_10k_1%_10022548 R60
U 1 1 5EE9A75C
P 4650 6400
F 0 "R60" H 4580 6354 50  0000 R CNN
F 1 "10k" H 4580 6445 50  0000 R CNN
F 2 "AllModules:R0603_1" V 4580 6400 50  0001 C CNN
F 3 "" H 4650 6400 50  0001 C CNN
F 4 "RESISTOR,10K OHM.0.063W,+/-1%,0603" V 4650 6400 50  0001 C CNN "Description"
F 5 "10022548" V 4650 6400 50  0001 C CNN "Item Number"
F 6 "YAGEO_RMS1" V 4650 6400 50  0001 C CNN "Manufacturer"
F 7 "RC0603FR-0710KL" V 4650 6400 50  0001 C CNN "Manufacturer_No"
F 8 "SAMSUNG_RMS1" H 0   0   50  0001 C CNN "Manufacturer2"
F 9 "BOURNS_RMS1" H 0   0   50  0001 C CNN "Manufacturer3"
F 10 "RC1608F103CS" H 0   0   50  0001 C CNN "Manufacturer_No2"
F 11 "CR0603-FX-1002ELF" H 0   0   50  0001 C CNN "Manufacturer_No3"
	1    4650 6400
	-1   0    0    1   
$EndComp
Text GLabel 15150 2400 0    50   Input ~ 0
MES-24V-UTIL
Wire Wire Line
	15150 2400 15250 2400
Connection ~ 15250 2400
Text Label 5500 1050 2    50   ~ 0
VIN
Text Label 4800 7200 2    50   ~ 0
SW1
Text Label 2250 7200 0    50   ~ 0
SW2
Text Label 8450 2750 2    50   ~ 0
SW1
Text Label 5750 2750 0    50   ~ 0
SW2
Text Label 8200 1050 2    50   ~ 0
OS+
Wire Wire Line
	8200 1050 8000 1050
Wire Wire Line
	8000 1050 8000 1250
Connection ~ 8000 1250
Wire Wire Line
	8000 1250 8900 1250
$Comp
L V_Power:PWR_FLAG #FLG0107
U 1 1 5ED2132B
P 2400 9000
F 0 "#FLG0107" H 2400 9075 50  0001 C CNN
F 1 "PWR_FLAG" H 2400 9150 50  0000 C CNN
F 2 "" H 2400 9000 50  0001 C CNN
F 3 "" H 2400 9000 50  0001 C CNN
	1    2400 9000
	1    0    0    -1  
$EndComp
Wire Wire Line
	2400 9000 2400 9200
Wire Wire Line
	2400 9200 2650 9200
Connection ~ 2650 9200
$Comp
L V_Power:PWR_FLAG #FLG0108
U 1 1 5ED37A93
P 5900 1600
F 0 "#FLG0108" H 5900 1675 50  0001 C CNN
F 1 "PWR_FLAG" H 5900 1750 50  0000 C CNN
F 2 "" H 5900 1600 50  0001 C CNN
F 3 "" H 5900 1600 50  0001 C CNN
	1    5900 1600
	1    0    0    -1  
$EndComp
Wire Wire Line
	5300 1700 5900 1700
Wire Wire Line
	5900 1700 5900 1600
Connection ~ 5300 1700
$Comp
L V_Power:PWR_FLAG #FLG0109
U 1 1 5ED6C771
P 5900 1000
F 0 "#FLG0109" H 5900 1075 50  0001 C CNN
F 1 "PWR_FLAG" H 5900 1150 50  0000 C CNN
F 2 "" H 5900 1000 50  0001 C CNN
F 3 "" H 5900 1000 50  0001 C CNN
	1    5900 1000
	1    0    0    -1  
$EndComp
Wire Wire Line
	5900 1000 5900 1300
Connection ~ 5900 1300
Wire Wire Line
	5900 1300 6400 1300
$Comp
L V_Power:PWR_FLAG #FLG0118
U 1 1 5EF9BB30
P 12500 4300
F 0 "#FLG0118" H 12500 4375 50  0001 C CNN
F 1 "PWR_FLAG" H 12500 4450 50  0000 C CNN
F 2 "" H 12500 4300 50  0001 C CNN
F 3 "" H 12500 4300 50  0001 C CNN
	1    12500 4300
	1    0    0    -1  
$EndComp
Wire Wire Line
	12500 4300 12500 4500
Wire Wire Line
	12500 4500 12250 4500
Connection ~ 12250 4500
Connection ~ 5200 6450
Connection ~ 5200 6750
Wire Wire Line
	3150 9200 3850 9200
Wire Wire Line
	2650 9200 2750 9200
$Comp
L V_Power:PGND1 #PWR?
U 1 1 5EB725F2
P 2200 5800
AR Path="/5EB725F2" Ref="#PWR?"  Part="1" 
AR Path="/5E92767C/5EB725F2" Ref="#PWR0160"  Part="1" 
F 0 "#PWR0160" H 2200 5550 50  0001 C CNN
F 1 "PGND1" H 2205 5627 50  0000 C CNN
F 2 "" H 2200 5800 50  0001 C CNN
F 3 "" H 2200 5800 50  0001 C CNN
	1    2200 5800
	1    0    0    -1  
$EndComp
$Comp
L V_Power:PGND1 #PWR?
U 1 1 5EB7544D
P 4400 6000
AR Path="/5EB7544D" Ref="#PWR?"  Part="1" 
AR Path="/5E92767C/5EB7544D" Ref="#PWR0161"  Part="1" 
F 0 "#PWR0161" H 4400 5750 50  0001 C CNN
F 1 "PGND1" H 4405 5827 50  0000 C CNN
F 2 "" H 4400 6000 50  0001 C CNN
F 3 "" H 4400 6000 50  0001 C CNN
	1    4400 6000
	1    0    0    -1  
$EndComp
$EndSCHEMATC
