(module BNX002_1 (layer F.Cu) (tedit 5E97977D)
  (attr smd)
  (fp_text reference FLTR2 (at -4.0259 -6.5024 unlocked) (layer F.SilkS)
    (effects (font (size 1.033069 1.086612) (thickness 0.1778)))
  )
  (fp_text value FL-10-BNX002-01 (at 5.9055 -0.7874 unlocked) (layer F.SilkS) hide
    (effects (font (size 1.033069 1.086612) (thickness 0.1778)))
  )
  (fp_line (start -2.4892 2.4892) (end 2.4892 2.4892) (layer F.Fab) (width 0.0762))
  (fp_line (start 2.4892 2.4892) (end 2.4892 -2.4892) (layer F.Fab) (width 0.0762))
  (fp_line (start -2.4892 -2.4892) (end 2.4892 -2.4892) (layer F.Fab) (width 0.0762))
  (fp_line (start -6.2484 5.7404) (end 6.2484 5.7404) (layer F.Fab) (width 0.0762))
  (fp_line (start 6.2484 5.7404) (end 6.2484 -5.7404) (layer F.Fab) (width 0.0762))
  (fp_line (start -6.2484 -5.7404) (end 6.2484 -5.7404) (layer F.Fab) (width 0.0762))
  (fp_line (start -6.2484 5.7404) (end -6.2484 -5.7404) (layer F.Fab) (width 0.0762))
  (fp_line (start -1.524 5.7404) (end 0.889 5.7404) (layer F.SilkS) (width 0.1778))
  (fp_line (start 6.2484 5.7404) (end 6.2484 0.5334) (layer F.SilkS) (width 0.1778))
  (fp_line (start 4.8006 5.7404) (end 6.2484 5.7404) (layer F.SilkS) (width 0.1778))
  (fp_line (start -6.2484 5.7404) (end -2.2606 5.7404) (layer F.SilkS) (width 0.1778))
  (fp_line (start -6.2484 -5.7404) (end 2.8702 -5.7404) (layer F.SilkS) (width 0.1778))
  (fp_line (start 6.2484 -0.5334) (end 6.2484 -5.0292) (layer F.SilkS) (width 0.1778))
  (fp_line (start 4.2164 -5.7404) (end 5.3848 -5.7404) (layer F.SilkS) (width 0.1778))
  (fp_line (start -6.2484 5.7404) (end -6.2484 -5.7404) (layer F.SilkS) (width 0.1778))
  (fp_line (start 1.6256 5.7404) (end 4.064 5.7404) (layer F.SilkS) (width 0.1778))
  (pad B thru_hole circle (at 2.4892 -2.4892) (size 2.2352 2.2352) (drill 1.2192) (layers *.Cu *.Mask))
  (pad CB thru_hole circle (at 2.4892 2.4892) (size 2.2352 2.2352) (drill 1.2192) (layers *.Cu *.Mask))
  (pad CG1 thru_hole circle (at -2.4892 2.4892) (size 2.2352 2.2352) (drill 1.2192) (layers *.Cu *.Mask))
  (pad CG2 thru_hole circle (at 0 0) (size 2.2352 2.2352) (drill 1.2192) (layers *.Cu *.Mask))
  (pad CG3 thru_hole circle (at 4.9784 0) (size 2.2352 2.2352) (drill 1.2192) (layers *.Cu *.Mask))
  (pad PSG thru_hole circle (at -2.4892 -2.4892) (size 2.2352 2.2352) (drill 1.2192) (layers *.Cu *.Mask))
  (model "${KIPRJMOD}/3D Models/BNX002.step"
    (at (xyz 0 0 0))
    (scale (xyz 1 1 1))
    (rotate (xyz 0 0 180))
  )
)
