(module C0612-4_1 (layer F.Cu) (tedit 5E97C13E)
  (attr smd)
  (fp_text reference C100 (at -0.4754 -0.9314 270 unlocked) (layer F.SilkS)
    (effects (font (size 1.0496 1.104) (thickness 0.18)))
  )
  (fp_text value CC-BC-C0612 (at -0.8 -4.4 270 unlocked) (layer F.SilkS) hide
    (effects (font (size 1.0496 1.104) (thickness 0.18)))
  )
  (fp_line (start -1 0.6) (end -1 0.8) (layer B.Fab) (width 0.1))
  (fp_line (start -1.6 -0.6) (end -1.6 0.6) (layer B.Fab) (width 0.1))
  (fp_line (start -1 0.8) (end -1.4 0.8) (layer B.Fab) (width 0.1))
  (fp_line (start -1.4 0.6) (end -1.6 0.6) (layer B.Fab) (width 0.1))
  (fp_line (start -1.4 0.6) (end -1.4 0.8) (layer B.Fab) (width 0.1))
  (fp_line (start 1.4 0.6) (end 1.4 0.8) (layer B.Fab) (width 0.1))
  (fp_line (start -0.6 -0.8) (end -0.6 -0.6) (layer B.Fab) (width 0.1))
  (fp_line (start 1 0.6) (end 0.6 0.6) (layer B.Fab) (width 0.1))
  (fp_line (start 1.6 0.6) (end 1.4 0.6) (layer B.Fab) (width 0.1))
  (fp_line (start 0.2 -0.8) (end 0.2 -0.6) (layer B.Fab) (width 0.1))
  (fp_line (start 0.6 0.6) (end 0.6 0.8) (layer B.Fab) (width 0.1))
  (fp_line (start -0.2 -0.8) (end -0.6 -0.8) (layer B.Fab) (width 0.1))
  (fp_line (start -0.6 -0.6) (end -1 -0.6) (layer B.Fab) (width 0.1))
  (fp_line (start -1 -0.8) (end -1 -0.6) (layer B.Fab) (width 0.1))
  (fp_line (start 0.6 -0.8) (end 0.2 -0.8) (layer B.Fab) (width 0.1))
  (fp_line (start 1.6 -0.6) (end 1.6 0.6) (layer B.Fab) (width 0.1))
  (fp_line (start -1 -0.8) (end -1.4 -0.8) (layer B.Fab) (width 0.1))
  (fp_line (start 0.6 -0.8) (end 0.6 -0.6) (layer B.Fab) (width 0.1))
  (fp_line (start 0.6 0.8) (end 0.2 0.8) (layer B.Fab) (width 0.1))
  (fp_line (start 1 -0.6) (end 0.6 -0.6) (layer B.Fab) (width 0.1))
  (fp_line (start 0.2 0.6) (end 0.2 0.8) (layer B.Fab) (width 0.1))
  (fp_line (start -1.4 -0.8) (end -1.4 -0.6) (layer B.Fab) (width 0.1))
  (fp_line (start 0.2 0.6) (end -0.2 0.6) (layer B.Fab) (width 0.1))
  (fp_line (start -0.2 -0.8) (end -0.2 -0.6) (layer B.Fab) (width 0.1))
  (fp_line (start 1.4 0.8) (end 1 0.8) (layer B.Fab) (width 0.1))
  (fp_line (start 0.2 -0.6) (end -0.2 -0.6) (layer B.Fab) (width 0.1))
  (fp_line (start -1.4 -0.6) (end -1.6 -0.6) (layer B.Fab) (width 0.1))
  (fp_line (start 1 0.6) (end 1 0.8) (layer B.Fab) (width 0.1))
  (fp_line (start 1 -0.8) (end 1 -0.6) (layer B.Fab) (width 0.1))
  (fp_line (start -0.2 0.6) (end -0.2 0.8) (layer B.Fab) (width 0.1))
  (fp_line (start 1.4 -0.8) (end 1 -0.8) (layer B.Fab) (width 0.1))
  (fp_line (start 1.6 -0.6) (end 1.4 -0.6) (layer B.Fab) (width 0.1))
  (fp_line (start 1.4 -0.8) (end 1.4 -0.6) (layer B.Fab) (width 0.1))
  (fp_line (start -0.2 0.8) (end -0.6 0.8) (layer B.Fab) (width 0.1))
  (fp_line (start -0.6 0.6) (end -0.6 0.8) (layer B.Fab) (width 0.1))
  (fp_line (start -0.6 0.6) (end -1 0.6) (layer B.Fab) (width 0.1))
  (fp_line (start -1.905 -1.5875) (end -1.905 1.5875) (layer F.SilkS) (width 0.18))
  (fp_line (start 1.905 1.5875) (end -1.905 1.5875) (layer F.SilkS) (width 0.18))
  (fp_line (start -0.51164 -1.5875) (end -1.905 -1.5875) (layer F.SilkS) (width 0.18))
  (fp_line (start 1.905 -1.5875) (end 1.905 1.5875) (layer F.SilkS) (width 0.18))
  (fp_line (start 1.905 -1.5875) (end 0.37664 -1.5875) (layer F.SilkS) (width 0.18))
  (pad 1 smd rect (at 1.2 -0.8 180) (size 0.5588 0.9144) (layers F.Cu F.Paste F.Mask))
  (pad 2 smd rect (at 0.4 -0.8 180) (size 0.5588 0.9144) (layers F.Cu F.Paste F.Mask))
  (pad 3 smd rect (at -0.4 -0.8 180) (size 0.5588 0.9144) (layers F.Cu F.Paste F.Mask))
  (pad 4 smd rect (at -1.2 -0.8 180) (size 0.5588 0.9144) (layers F.Cu F.Paste F.Mask))
  (pad 5 smd rect (at -1.2 0.8 180) (size 0.5588 0.9144) (layers F.Cu F.Paste F.Mask))
  (pad 6 smd rect (at -0.4 0.8 180) (size 0.5588 0.9144) (layers F.Cu F.Paste F.Mask))
  (pad 7 smd rect (at 0.4 0.8 180) (size 0.5588 0.9144) (layers F.Cu F.Paste F.Mask))
  (pad 8 smd rect (at 1.2 0.8 180) (size 0.5588 0.9144) (layers F.Cu F.Paste F.Mask))
  (model "${KIPRJMOD}/3D Models/CAPCAF80P160X320X90-8N.stp"
    (at (xyz 0 0 0))
    (scale (xyz 1 1 1))
    (rotate (xyz 0 0 90))
  )
)
