(module K164_1 (layer F.Cu) (tedit 5E979B42)
  (attr smd)
  (fp_text reference CT1 (at 0.311 -3.34 unlocked) (layer F.SilkS)
    (effects (font (size 1.0496 1.104) (thickness 0.18)))
  )
  (fp_text value TH-BT-B57164 (at 4.8 -0.8 unlocked) (layer F.SilkS) hide
    (effects (font (size 1.0496 1.104) (thickness 0.18)))
  )
  (fp_line (start 2 2.5) (end 2.00001 2.5) (layer F.Fab) (width 0.1))
  (fp_line (start -3 1.50001) (end -3 1.5) (layer F.Fab) (width 0.1))
  (fp_line (start -2.00001 2.5) (end -2 2.5) (layer F.Fab) (width 0.1))
  (fp_line (start 3 1.5) (end 3 -1.5) (layer F.Fab) (width 0.1))
  (fp_line (start -2 -2.5) (end 2 -2.5) (layer F.Fab) (width 0.1))
  (fp_line (start 3 -1.5) (end 3 -1.50001) (layer F.Fab) (width 0.1))
  (fp_line (start 2 -2.5) (end 2.00001 -2.5) (layer F.Fab) (width 0.1))
  (fp_line (start -2 2.5) (end 2 2.5) (layer F.Fab) (width 0.1))
  (fp_line (start -2.00001 -2.5) (end -2 -2.5) (layer F.Fab) (width 0.1))
  (fp_line (start -3 -1.5) (end -3 -1.50001) (layer F.Fab) (width 0.1))
  (fp_line (start -3 1.5) (end -3 -1.5) (layer F.Fab) (width 0.1))
  (fp_line (start 3 1.50001) (end 3 1.5) (layer F.Fab) (width 0.1))
  (fp_line (start -3 1.50001) (end -3 -0.5) (layer F.SilkS) (width 0.18))
  (fp_line (start -2 2.5) (end 2 2.5) (layer F.SilkS) (width 0.18))
  (fp_line (start -2.00001 2.5) (end -2 2.5) (layer F.SilkS) (width 0.18))
  (fp_line (start -2 -2.5) (end 2 -2.5) (layer F.SilkS) (width 0.18))
  (fp_line (start 3 0.5) (end 3 -1.5) (layer F.SilkS) (width 0.18))
  (fp_line (start 3 -1.5) (end 3 -1.50001) (layer F.SilkS) (width 0.18))
  (fp_line (start 2 -2.5) (end 2.00001 -2.5) (layer F.SilkS) (width 0.18))
  (fp_circle (center 4 1.5) (end 5 1.5) (layer F.Fab) (width 0.1))
  (fp_circle (center 2 -3.5) (end 3 -3.5) (layer F.Fab) (width 0.1))
  (fp_circle (center 4 -1.5) (end 5 -1.5) (layer F.Fab) (width 0.1))
  (fp_arc (start -2.00001 -1.50001) (end -2.00001 -2.5) (angle -90) (layer F.Fab) (width 0.1))
  (fp_circle (center -2 -1.5) (end -1 -1.5) (layer F.Fab) (width 0.1))
  (fp_arc (start -2.00001 1.50001) (end -3 1.50001) (angle -90) (layer F.Fab) (width 0.1))
  (fp_circle (center -2 -3.5) (end -1 -3.5) (layer F.Fab) (width 0.1))
  (fp_circle (center -2 1.5) (end -1 1.5) (layer F.Fab) (width 0.1))
  (fp_arc (start 2.00001 1.50001) (end 2.00001 2.5) (angle -90) (layer F.Fab) (width 0.1))
  (fp_arc (start 2.00001 -1.50001) (end 3 -1.50001) (angle -90) (layer F.Fab) (width 0.1))
  (fp_arc (start 2.00001 -1.50001) (end 3 -1.50001) (angle -90) (layer F.SilkS) (width 0.18))
  (fp_circle (center 2 -3.5) (end 3 -3.5) (layer F.SilkS) (width 0.18))
  (fp_circle (center 4 -1.5) (end 5 -1.5) (layer F.SilkS) (width 0.18))
  (fp_arc (start -2.00001 1.50001) (end -3 1.50001) (angle -90) (layer F.SilkS) (width 0.18))
  (fp_circle (center -2 1.5) (end -1 1.5) (layer F.SilkS) (width 0.18))
  (pad 1 thru_hole circle (at -2.5 -1.5) (size 1.4732 1.4732) (drill 0.8128) (layers *.Cu *.Mask))
  (pad 2 thru_hole circle (at 2.5 1.5) (size 1.4732 1.4732) (drill 0.8128) (layers *.Cu *.Mask))
  (model "${KIPRJMOD}/3D Models/THERM_TDK_B57236S0.stp"
    (offset (xyz -0.1 0 0))
    (scale (xyz 1.15 1 1))
    (rotate (xyz 0 0 30))
  )
)
