BOM,,,,,,,,,,,,,,,,,,,,,,,,,,,,,,,,,,,,,,,,,,
Level,Attachments (Image),Manufacturer (Image),Pending Changes (Image),Has Been Redlined (Image),Has Quality(Image),Bubble Number,Item Number,Item Description,Item Rev,Qty,UOM,Item Lifecycle Phase,BOM Notes,Ref Des,Component Effective From,Component Discontinue Date,Alternate Part(s),Alternate FG Part(s),Alternate Document(s),Subclass,Sites,Planned?,Scrap Factor,OP #,Thumbnail,Attachments(Image),Manufacture Part Has Redline,Mfr. Name,Mfr. Part Number,Legacy Part #,Mfr. Part Description,Mfr. Part Lifecycle Phase,Preferred Status,Sites,Reference Notes,RoHS Compliant?,RoHS Compliance Statement,comments,page number on schematic,part added to library?,Link to part,Link to datasheet
1,true,true,false,false,false,0,10000836,"RESISTOR 66,5K OHM, 0,063W, +/-0,1%, 0603",A        ECO-R252636,1,Each,Production,,R28,,,,,,Part,CBRM,,1,,,true,false,WELWYN,PCF0603R-66K5BT1,,,Active,Preferred,,,Yes,Legacy Inventory Status: Cleared,,,,https://www.mouser.ca/ProductDetail/IRC-TT-Electronics/PCF0603R-66K5BT1?utm_term=PCF0603R-66K5BT1&qs=gM4izSCqNMnhB%2F%252bx%252bhevbw==&utm_campaign=PCF0603R-66K5BT1&utm_medium=aggregator&utm_source=findchips&utm_content=TT-Electronics,
1,true,true,false,false,false,0,10000838,"RESISTOR 0,015 OHM, 2W, +/-1%, 2512",A        ECO-R252636,1,Each,Production,,R24,,,,,,Part,CBRM,,1,,,true,false,WELWYN,LRF2512-R015FW,,,Active,Preferred,,EXEMPTION LIST- 7(C)-I,Yes,Legacy Inventory Status: Cleared,,,,https://canada.newark.com/tt-electronics-welwyn/lrf2512-r015fw/surface-mount-chip-resistor-thick/dp/97K3837?CMP=AFC-SF-FC,
1,true,true,false,false,false,0,10001204,RES 100K OHM 1/10W 1% 0603 SMD,A        MC002255,4,Each,Production,,"R3,R11,R16,R27",,,,,,Part,CBRM,,1,,,true,false,YAGEO_RMS1,RC0603FR-07100KL,,"RESISTOR, METAL GLAZE/THICK FILM, 0.1 W, 1 %, 100 PPM, 100000 OHM, SURFACE MOUNT, 0603",Active,Preferred,,,Yes - by exemption,RoHS compliant with 7(c)-I exemption and the exemption will be expired in 21 July 2021 for medical devices,,,,https://canada.newark.com/yageo/rc0603fr-07100kl/surface-mount-thick-film-resistor/dp/75X0140?CMP=AFC-SF-FC,
,,,,,,,,,,,,,,,,,,,,,,,,,,true,false,PANASONIC_RMS1,ERJ-3EKF1003V,,RES 100K OHM 1/10W 1% 0603 SMD,Active,Preferred,,,Yes - by exemption,Rohs compliant with 7(c)-1 exemption and the exemption will be expired on 21/July/2021 for medical device,,,,https://canada.newark.com/panasonic/erj-3ekf1003v/res-thick-film-100k-1-0-1w-0603/dp/90W3101?CMP=AFC-SF-FC,
1,false,true,false,false,false,0,10002095,MOSFET N-CH 60V 115MA SOT23-3,C        EC014944,5,Each,Production,,"T1,T6,T7,T10,T15",,,,,,Part,CBRM,,1,,,true,false,ON SEMICONDUCTOR,2N7002LT1G,,TRANS MOSFET N SOT23,Active,Preferred,,,Yes,"Per manufacturer RoHS and material declaration, part has a ""G"" prefix and does not contain any lead die. Thus, it is RoHS compliant with no exemptions.",,,,https://www.mouser.ca/ProductDetail/ON-Semiconductor/2N7002LT1G?utm_term=2N7002LT1G&qs=vLkC5FC1VN8mXZ6s%252bPUd9g==&utm_campaign=2N7002LT1G&utm_medium=aggregator&utm_source=findchips&utm_content=ON-Semiconductor,https://www.onsemi.com/pub/Collateral/2N7002L-D.PDF
,,,,,,,,,,,,,,,,,,,,,,,,,,true,false,DIODES INC,2N7002-7-F,,MOSFET N-CH 60V 115MA SOT23-3,Active,Preferred,,,Yes,Legacy Inventory Status: Cleared,,,,https://canada.newark.com/diodes-inc/2n7002-7-f/mosfet-n-channel-60-v-800ma-sot/dp/25R5679?CMP=AFC-SF-FC,https://datasheet.datasheetarchive.com/originals/dk/DKDS-29/577713.pdf
,,,,,,,,,,,,,,,,,,,,,,,,,,true,false,DIODES INC_RMS1,2N7002TA,,MOSFET N-CH 60V 115MA SOT23-3,Active,Preferred,,,Yes,Legacy Inventory Status: Cleared,,,,https://uk.farnell.com/diodes-inc/2n7002ta/mosfet-n-sot-23/dp/1471177?CMP=GRHB-SF-FC,https://datasheet.datasheetarchive.com/originals/dk/DKDS-29/575761.pdf
1,true,true,false,false,false,0,10021053,RELAY 24V 2POLES 8A RT2,B        ECO-R252636,1,Each,Production,,RL1,,,,,,Part,CBRM,,1,,,true,false,FINDER,41.52.9.024.0010,,,Active,Preferred,,,Yes,Legacy Inventory Status: Cleared,,,,https://uk.farnell.com/finder/41-52-9-024-0010/relay-dpdt-250vac-8a/dp/1169313?CMP=GRHB-SF-FC,
1,true,true,false,false,false,0,10021070,RESISTOR 40.2KOHM  0.1% 0.063W 0603,A        ECO-R252636,1,Each,Production,,R29,,,,,,Part,CBRM,,1,,,true,false,WELWYN,PCF0603R-40K2BT1,,,Active,Preferred,,,Yes,Legacy Inventory Status: Cleared,,,,https://canada.newark.com/tt-electronics-welwyn/pcf0603r-40k2bt1/surface-mount-metal-film-resistor/dp/50M4549?CMP=AFC-SF-FC,
1,true,true,false,false,false,0,10021350,"CONNECTOR 2 CONTACTS, 3.5A, HT 6.5MM",A        ECO-R252636,6,Each,Production,,"J1,J2,J3,J5,J6,J7",,,,,,Part,CBRM,,1,,,true,false,ANTELEC,ACPD25410265,,,Active,Alternate,,,Yes,Legacy Inventory Status: Cleared,Small french manufacturer. TODO: contact Antelec for a quote,,,,http://www.antelec.fr/page.php?lang=en&id=454&t=0
,,,,,,,,,,,,,,,,,,,,,,,,,,true,false,PRECI-DIP                       (015220),811-S1-002-10-015101,,,Active,Preferred,,EXEMPTION LIST-EXCEPTION 6,Yes - by exemption,Legacy Inventory Status: Cleared,,,,https://www.digikey.ca/product-detail/en/preci-dip/811-S1-002-10-015101/811-S1-002-10-015101-ND/4130757?utm_campaign=buynow&utm_medium=aggregator&WT.z_cid=ref_findchips_standard&utm_source=findchips,
1,true,true,false,false,false,0,10021365,DIODE NETWORK ESD PROTECT 30 KV SOT457,A        ECO-R252636,4,Each,Production,,"D10,D11,D12,D13",,,,,,Part,CBRM,,1,,,true,false,NXP SEMICONDUCTORS_RMS1,"PESD5V0S4UD,115",,TVS DIODE 5V 13V 6TSOP,Active,Preferred,,,RoHS3 Compliant,Legacy Inventory Status: Cleared,,,,https://www.arrow.com/en/products/pesd5v0s4ud115/nexperia?utm_term=instock&utm_campaign=arrow_findchips_2019&utm_currency=&utm_medium=aggregator&utm_source=findchips&utm_content=inv_listing,
1,true,true,false,false,false,0,10021369,CAPACITOR CERAMIC 1UF 10V 10% X5R 0402,A        ECO-R252636,1,Each,Production,,C6,,,,,,Part,CBRM,,1,,,true,false,KEMET_RMS1,C0402C105K8PACTU,,,Active,Preferred,,,Yes,Legacy Inventory Status: Cleared,,,,https://canada.newark.com/kemet/c0402c105k8pactu/multilayer-ceramic-capacitor-c/dp/36X2570?CMP=AFC-SF-FC,https://assets.nexperia.com/documents/data-sheet/PESDXS4UD_SER.pdf
1,true,true,false,false,false,0,10021370,CAPACITOR CERAMIC 10UF 6.3V 20% X5R 0603,B        ECO-R252636,2,Each,Production,,"C2,C22",,,,,,Part,CBRM,,1,,,true,false,KEMET_RMS1,C0603C106M9PACTM,,,Active,Preferred,,,Yes,Legacy Inventory Status: Cleared,,,,https://www.arrow.com/en/products/c0603c106m9pactm/kemet-corporation?utm_term=backorder&utm_campaign=arrow_findchips_2019&utm_currency=&utm_medium=aggregator&utm_source=findchips&utm_content=inv_listing,
,,,,,,,,,,,,,,,,,,,,,,,,,,true,false,YAGEO_RMS1,CC0603MRX5R5BB106,,,Active,Preferred,,,Yes,Legacy Inventory Status: Cleared,,,,https://www.futureelectronics.com/p/6917876?utm_campaign=FindChips_NA_Inventory&utm_medium=buynow&utm_source=findchips&utm_content,https://datasheet.datasheetarchive.com/originals/dk/DKDS-24/461326.pdf
,,,,,,,,,,,,,,,,,,,,,,,,,,true,false,MURATA_RMS1,GRM188R60J106ME47D,,"CAPACITOR, 0603, 10UF, 6.3V",Active,Preferred,,,RoHS3 Compliant,Cleared,,,,https://canada.newark.com/murata/grm188r60j106me47d/cap-10-f-6-3v-20-x5r-0603-reel/dp/03AC2652?CMP=AFC-SF-FC,
1,true,true,false,false,false,0,10021386,CAPACITOR CERAMIC 100NF 50V 10% X7R 0603,A        ECO-R252636,10,Each,Production,,"C1,C4,C5,C7,C11,C14,C23,C24,C25,C30",,,,,,Part,CBRM,,1,,,true,false,KEMET_RMS1,C0603C104K5RACTU,,"CAP,CER,SMT,0603,X7R,10%,50V,0.1UF",Active,Preferred,,,Yes,Legacy Inventory Status: Cleared,,,,https://canada.newark.com/kemet/c0603c104k5ractu/cap-0-1uf-50vdc-x7r-10-smd-0603/dp/33AH0986?CMP=AFC-SF-FC,
1,true,true,true,false,false,0,10022508,"CAPACITOR CERAMIC,10NF,+/-10%,50V,0603",C        ECO-R252633,2,Each,Production,,"C10,C12",,,,,,Part,CBRM,,1,,,true,false,YAGEO_RMS1,CC0603KRX7R9BB103,223858615637,"CAPACITOR, CERAMIC, MULTILAYER, 50 V, X7R, 0.01 UF, SURFACE MOUNT, 0603",Active,Preferred,,BRAND: PHYCOMP,Yes,Legacy Inventory Status: Cleared,,,,https://canada.newark.com/yageo/cc0603krx7r9bb103/ceramic-capacitor-0-01uf-50v-x7r/dp/65R8250?CMP=AFC-SF-FC,
,,,,,,,,,,,,,,,,,,,,,,,,,,true,false,YAGEO_RMS1,CC0603JRX7R9BB103,223858615536,"CAPACITOR, CERAMIC, MULTILAYER, 50 V, X7R, 0.01 UF, SURFACE MOUNT, 0603",Active,Preferred,,BRAND: PHYCOMP,Yes,Legacy Inventory Status: Cleared,,,,https://canada.newark.com/yageo/cc0603jrx7r9bb103/ceramic-capacitor-0-01uf-50v-x7r/dp/65R8119?CMP=AFC-SF-FC,
,,,,,,,,,,,,,,,,,,,,,,,,,,true,false,KEMET_RMS1,C0603C103K5RACTU,,CERAMIC CHIP CAPACITOR,Active,Preferred,,,Yes,Legacy Inventory Status: Cleared,,,,https://canada.newark.com/kemet/c0603c103k5ractu/multilayer-ceramic-capacitor-c/dp/36X2611?CMP=AFC-SF-FC,
,,,,,,,,,,,,,,,,,,,,,,,,,,true,false,YAGEO_RMS1,CC0603KRX7R9BB103,,"CAPACITOR, CERAMIC, MULTILAYER, 50 V, X7R, 0.01 UF, SURFACE MOUNT, 0603",Active,Preferred,,,Yes,Legacy Inventory Status: Cleared,,,,https://canada.newark.com/yageo/cc0603krx7r9bb103/ceramic-capacitor-0-01uf-50v-x7r/dp/65R8250?CMP=AFC-SF-FC,
1,true,true,true,false,false,0,10022515,"DIODE SCHOTTKY, 500MA,40V,SOD323",C        ECO-R252633,3,Each,Production,,"D3,D4,D6",,,,,,Part,CBRM,,1,,,true,false,NXP SEMICONDUCTORS_RMS1,"PMEG4005AEA,115",,,Active,Preferred,,,Yes,Legacy Inventory Status: Cleared,,,,https://canada.newark.com/nexperia/pmeg4005aea-115/schottky-diode-500ma-40v-sod-323/dp/75R0881?CMP=AFC-SF-FC,
,,,,,,,,,,,,,,,,,,,,,,,,,,true,false,NXP SEMICONDUCTORS_RMS1,PMEG4005AEA,,VERY LOW VF MEGA SCHOTTKY BARRIER RECTIFIERS,Active,Preferred,,,Yes,Legacy Inventory Status: Cleared,,,,https://canada.newark.com/nexperia/pmeg4005aea/schottky-rectifier-500ma-40v-sod323/dp/38K6885?CMP=AFC-SF-FC,
1,true,true,false,false,false,0,10022532,"FILTER CC, 1MHZ-1GHZ, 10A, 50V",B        EC130338,1,Each,Production,,FL1,,,,,,Part,CBRM,,1,,,true,false,"MURATA MANUFACTURING CO., LTD.",BNX002-01,,FILTER,Active,Preferred,,ROHS EXEMPTION: 7(C)-1,Yes - by exemption,Legacy Inventory Status: Cleared,,,,https://www.ttiinc.com/content/ttiinc/en/apps/part-detail.html?mfgShortname=MUR&partsNumber=BNX002-01&utm=704,
,,,,,,,,,,,,,,,,,,,,,,,,,,true,false,"MURATA MANUFACTURING CO., LTD.",BNX00201,,NOISE/EMI SUPPRESSION FILTER,Active,Preferred,,ROHS EXEMPTION: 7(C)-1,Yes - by exemption,Legacy Inventory Status: Cleared,,,,https://www.ttiinc.com/content/ttiinc/en/apps/part-detail.html?mfgShortname=MUR&partsNumber=BNX002-01&utm=704,
,,,,,,,,,,,,,,,,,,,,,,,,,,true,false,"MURATA MANUFACTURING CO., LTD.",BNX002-11,,NOISE/EMI SUPPRESSION FILTER,Active,Preferred,,,Yes,CLEARED,,,,https://www.mouser.ca/ProductDetail/Murata-Electronics/BNX002-11?utm_term=BNX002-11&qs=l7cgNqFNU1g5DKqI66B3sg==&utm_campaign=BNX002-11&utm_medium=aggregator&utm_source=findchips&utm_content=Murata,
1,true,true,false,false,false,0,10022548,"RESISTOR,10K OHM.0.063W,+/-1%,0603",C        ECO-R252636,12,Each,Production,,"R1,R6,R7,R9,R10,R17,R19,R21,R30,R49,R53,R56",,,,,,Part,CBRM,,1,,,true,false,YAGEO_RMS1,RC0603FR-0710KL,,RES 10.0K OHM 1/10W 1% 0603 SMD,Active,Preferred,,"EXEMPTION LIST-7(C)-I,CONTAINS LEAD IN GLASS OR CERAMIC OTHER THAN DIELECTRIC CERAMIC CAPACITOR",Yes - by exemption,Rohs Compliant with exemption 7(c)-I for lead in glass. Exemption expires on 21 July 2021 for Medical devices,,,,https://canada.newark.com/yageo/rc0603fr-0710kl/res-thick-film-10k-1-0-1w-0603/dp/66R1987?CMP=AFC-SF-FC,
,,,,,,,,,,,,,,,,,,,,,,,,,,true,false,SAMSUNG_RMS1,RC1608F103CS,,GENERAL PURPOSE CHIP RESISTOR,Active,Preferred,,"EXEMPTION LIST-7(C)-I,CONTAINS LEAD IN GLASS OR CERAMIC OTHER THAN DIELECTRIC CERAMIC CAPACITOR",Yes - by exemption,Legacy Inventory Status: Cleared,,,,https://www.arrow.com/en/products/rc1608f103cs/samsung-electro-mechanics?utm_term=instock&utm_campaign=arrow_findchips_2019&utm_currency=&utm_medium=aggregator&utm_source=findchips&utm_content=inv_listing,
,,,,,,,,,,,,,,,,,,,,,,,,,,true,false,BOURNS_RMS1,CR0603-FX-1002ELF,,CHIP RESISTOR,Active,Preferred,,"EXEMPTION LIST-7(C)-I,CONTAINS LEAD IN GLASS OR CERAMIC OTHER THAN DIELECTRIC CERAMIC CAPACITOR",Yes - by exemption,Legacy Inventory Status: Cleared,,,,https://canada.newark.com/bourns/cr0603-fx-1002elf/res-thick-film-10k-1-0-1w-0603/dp/84W7233?CMP=AFC-SF-FC,
,,,,,,,,,,,,,,,,,,,,,,,,,,true,false,YAGEO_RMS1,RC0603FR-0710KL,232270461003L,"RESISTOR, METAL GLAZE/THICK FILM, 0.1 W, 1 %, 100 PPM, 10000 OHM, SURFACE MOUNT, 0603",Active,Preferred,,"BRAND: PHYCOMP; EXEMPTION LIST-7(C)-I,CONTAINS LEAD IN GLASS OR CERAMIC OTHER THAN DIELECTRIC CERAMIC CAPACITOR",Yes - by exemption,Legacy Inventory Status: Cleared,,,,https://canada.newark.com/yageo/rc0603fr-0710kl/res-thick-film-10k-1-0-1w-0603/dp/66R1987?CMP=AFC-SF-FC,
1,true,true,false,false,false,0,10022551,"RESISTOR,4.7KOHM,0.063W,+/-1%",C        ECO-R252636,1,Each,Production,,R41,,,,,,Part,CBRM,,1,,,true,false,YAGEO_RMS1,RC0603FR-074K7L,,"RESISTOR, METAL GLAZE/THICK FILM, 0.1 W, 1 %, 100 PPM, 4700 OHM, SURFACE MOUNT, 0603",Active,Alternate,,"EXEMPTION LIST-7(C)-I,CONTAINS LEAD IN GLASS OR CERAMIC OTHER THAN DIELECTRIC CERAMIC CAPACITOR",Yes - by exemption,2011/65/EU compliant with 7(c)-I exemption and the exemption will expired in 21 July 2021 for medical devices.,,,,https://www.futureelectronics.com/p/9385378?utm_campaign=FindChips_NA_Inventory&utm_medium=buynow&utm_source=findchips&utm_content,
,,,,,,,,,,,,,,,,,,,,,,,,,,true,false,SAMSUNG_RMS1,RC1608F472CS,,LOW TOLERANCE CHIP RESISTOR,Active,Preferred,,"EXEMPTION LIST-7(C)-I,CONTAINS LEAD IN GLASS OR CERAMIC OTHER THAN DIELECTRIC CERAMIC CAPACITOR",Yes - by exemption,Legacy Inventory Status: Cleared,,,,https://www.arrow.com/en/products/rc1608f472cs/samsung-electro-mechanics?utm_term=instock&utm_campaign=arrow_findchips_2019&utm_currency=&utm_medium=aggregator&utm_source=findchips&utm_content=inv_listing,
,,,,,,,,,,,,,,,,,,,,,,,,,,true,false,SAMSUNG_RMS1,RC1608F4701CS,,LOW TOLERANCE CHIP RESISTOR,Active,Preferred,,"EXEMPTION LIST-7(C)-I,CONTAINS LEAD IN GLASS OR CERAMIC OTHER THAN DIELECTRIC CERAMIC CAPACITOR",Yes - by exemption,Legacy Inventory Status: Cleared,,,,,
,,,,,,,,,,,,,,,,,,,,,,,,,,true,false,YAGEO_RMS1,RC0603FR-074K7L,232270464702L,"RESISTOR, METAL GLAZE/THICK FILM, 0.1 W, 1 %, 100 PPM, 4700 OHM, SURFACE MOUNT, 0603",Active,Preferred,,"BRAND: PHYCOMP; EXEMPTION LIST-7(C)-I,CONTAINS LEAD IN GLASS OR CERAMIC OTHER THAN DIELECTRIC CERAMIC CAPACITOR",Yes - by exemption,Legacy Inventory Status: Cleared,,,,https://www.futureelectronics.com/p/9385378?utm_campaign=FindChips_NA_Inventory&utm_medium=buynow&utm_source=findchips&utm_content,
1,true,true,false,false,false,0,10022554,"RESISTOR, 1K OHM, 0.063W,+/-1%, 0603",C        ECO-R252636,13,Each,Production,,"R33,R34,R35,R36,R37,R38,R39,R40,R42,R43,R45,R46,R47",,,,,,Part,CBRM,,1,,,true,false,BOURNS_RMS1,CR0603-FX-1001ELF,,CHIP RESISTOR,Active,Preferred,,"EXEMPTION LIST-7(C)-I,CONTAINS LEAD IN GLASS OR CERAMIC OTHER THAN DIELECTRIC CERAMIC CAPACITOR",Yes - by exemption,Legacy Inventory Status: Cleared,,,,https://canada.newark.com/bourns/cr0603-fx-1001elf/res-thick-film-1k-1-0-1w-0603/dp/84W7232?CMP=AFC-SF-FC,
,,,,,,,,,,,,,,,,,,,,,,,,,,true,false,VISHAY_RMS1,CRCW06031K00FKEA,,,Active,Alternate,,"EXEMPTION LIST-7(C)-I,CONTAINS LEAD IN GLASS OR CERAMIC OTHER THAN DIELECTRIC CERAMIC CAPACITOR",Yes - by exemption,Legacy Inventory Status: Cleared,,,,https://www.newark.com/vishay/crcw06031k00fkea/resistor-case-style-0603-1608/dp/25AC7272,
,,,,,,,,,,,,,,,,,,,,,,,,,,true,false,YAGEO_RMS1,RC0603FR-071KL,,"RESISTOR, METAL GLAZE/THICK FILM, 0.1 W, 1 %, 100 PPM, 1000 OHM, SURFACE MOUNT, 0603",Active,Preferred,,"EXEMPTION LIST-7(C)-I,CONTAINS LEAD IN GLASS OR CERAMIC OTHER THAN DIELECTRIC CERAMIC CAPACITOR",Yes,Legacy Inventory Status: Cleared,,,,https://canada.newark.com/yageo/rc0603fr-071kl/res-thick-film-1k-1-0-1w-0603/dp/66R1908?CMP=AFC-SF-FC,
1,true,true,false,false,false,0,10022734,"RESISTOR,47K OHM,0.063W,+/-1%,0603",B        ECO-R252636,1,Each,Production,,R55,,,,,,Part,CBRM,,1,,,true,false,YAGEO_RMS1,RC0603FR-0747KL,,"RESISTOR, METAL GLAZE/THICK FILM, 0.1 W, 1 %, 100 PPM, 47000 OHM, SURFACE MOUNT, 0603",Active,Preferred,,ROHS EXEMPT: 7(C)-1,Yes - by exemption,Legacy Inventory Status: Cleared,,,,https://canada.newark.com/yageo/rc0603fr-0747kl/surface-mount-chip-resistor-thick/dp/48Y4539?CMP=AFC-SF-FC,
,,,,,,,,,,,,,,,,,,,,,,,,,,true,false,YAGEO_RMS1,RC0603FR-0747KL,232270464703L,"RESISTOR, METAL GLAZE/THICK FILM, 0.1 W, 1 %, 100 PPM, 47000 OHM, SURFACE MOUNT, 0603",Active,Preferred,,BRAND: PHYCOMP. ROHS EXEMPT: 7(C)-1,Yes - by exemption,Legacy Inventory Status: Cleared,,,,https://canada.newark.com/yageo/rc0603fr-0747kl/surface-mount-chip-resistor-thick/dp/48Y4539?CMP=AFC-SF-FC,
,,,,,,,,,,,,,,,,,,,,,,,,,,true,false,VISHAY_RMS1,CRCW060347K0FKEA,,Res Thick Film 0603 47K Ohm 1% 0.1W 100ppm,Active,Preferred,,ROHS EXEMPT: 7(C)-1,Yes - by exemption,Legacy Inventory Status: Cleared,,,,https://www.arrow.com/en/products/crcw060347k0fkea/vishay,
1,true,true,false,false,false,0,10022891,"IC,CURRENT SHUNT MONITOR,MSOP",A        ECO-R252636,1,Each,Production,,U3,,,,,,Part,CBRM,,1,,,true,false,TEXAS INSTRUMENTS_RMS1,INA170EA,,CURRENT SHUNT MONITOR,Active,Preferred,,ROHS EMEMPTION: 15,Yes,Legacy Inventory Status: Cleared,,,,https://uk.farnell.com/texas-instruments/ina170ea/current-shunt-monitor-msop8-170/dp/1212420?CMP=GRHB-SF-FC,
,,,,,,,,,,,,,,,,,,,,,,,,,,true,false,TEXAS INSTRUMENTS_RMS1,INA170EA/2K5,,CURRENT SHUNT MONITOR,Active,Preferred,,"TAPE & REEL, 2500, ROHS EMEMPTION: 15",Yes,Legacy Inventory Status: Cleared,,,,https://canada.newark.com/texas-instruments/ina170ea-2k5/current-shunt-monitor-400khz-msop8/dp/74C9832?CMP=AFC-SF-FC,
,,,,,,,,,,,,,,,,,,,,,,,,,,true,false,TEXAS INSTRUMENTS_RMS1,INA170EA/250,,CURRENT SHUNT MONITOR,Active,Preferred,,"TAPE & REEL, 250, ROHS EMEMPTION: 15",Yes,Legacy Inventory Status: Cleared,,,,https://www.arrow.com/en/products/ina170ea250/texas-instruments?utm_term=instock&utm_campaign=arrow_findchips_2019&utm_currency=&utm_medium=aggregator&utm_source=findchips&utm_content=inv_listing,
1,true,true,false,false,false,0,10022896,"IC,VOLTAGE REFERENCE,5MA,3V +/-2%,SOT23",B        ECO-R252636,1,Each,Production,,U2,,,,,,Part,CBRM,,1,,,true,false,NATIONAL SEMICONDUCTOR_RMS1,LM4120AIM5-3.0/NOPB,,LOW POWER VOLTAGE REFERENCE,Active,Preferred,,,Yes,Legacy Inventory Status: Cleared,,,,https://www.chip1stop.com/USA/en/product/detail?utm_term=LM4120AIM5-3.0/NOPB&partId=TI01-0276833&utm_campaign=c1s_findchips_2019&utm_medium=aggregator&cid=TI01-0276833&utm_source=findchips&utm_content=inv_listing,
1,true,true,false,false,false,0,10023238,"RESISTOR, 15K OHM, 0603, +/-1%",D        ECO-R252636,5,Each,Production,,"R2,R12,R18,R22,R54",,,,,,Part,CBRM,,1,,,true,false,PANASONIC_RMS1,ERJ3EKF1502V,,,Active,Preferred,,ROHS EXEMPT : 7(C)1,Yes - by exemption,Legacy Inventory Status: Cleared,,,,https://www.arrow.com/en/products/erj3ekf1502v/panasonic,
,,,,,,,,,,,,,,,,,,,,,,,,,,true,false,VISHAY_RMS1,CRCW060315K0FKEA,,THICK FILM RECTANGULAR CHIP RESISTOR,Active,Preferred,,ROHS EXEMPT : 7(C)1,Yes,Legacy Inventory Status: Cleared,,,,https://canada.newark.com/vishay/crcw060315k0fkea/res-thick-film-15k-1-0-1w-0603/dp/42K3721?CMP=AFC-SF-FC,
,,,,,,,,,,,,,,,,,,,,,,,,,,true,false,YAGEO_RMS1,RC0603FR-0715KL,232270461503L,"RESISTOR, METAL GLAZE/THICK FILM, 0.1 W, 1 %, 100 PPM, 15000 OHM, SURFACE MOUNT, 0603",Active,Preferred,,BRAND: PHYCOMP. ROHS EXEMPT : 7(C)1,Yes - by exemption,Legacy Inventory Status: Cleared,,,,https://canada.newark.com/yageo/rc0603fr-0715kl/res-thick-film-15k-1-0-1w-0603/dp/66R2060?CMP=AFC-SF-FC,
,,,,,,,,,,,,,,,,,,,,,,,,,,true,false,YAGEO_RMS1,RC0603FR-0715KL,,"RESISTOR, METAL GLAZE/THICK FILM, 0.1 W, 1 %, 100 PPM, 15000 OHM, SURFACE MOUNT, 0603",Active,Preferred,,ROHS EXEMPT : 7(C)1,Yes - by exemption,Legacy Inventory Status: Cleared,,,,https://canada.newark.com/yageo/rc0603fr-0715kl/res-thick-film-15k-1-0-1w-0603/dp/66R2060?CMP=AFC-SF-FC,
,,,,,,,,,,,,,,,,,,,,,,,,,,true,false,YAGEO_RMS1,RC0603FR-0715KL,232270461503,"RESISTOR, METAL GLAZE/THICK FILM, 0.1 W, 1 %, 100 PPM, 15000 OHM, SURFACE MOUNT, 0603",Active,Preferred,,BRAND: PHYCOMP. ROHS EXEMPT : 7(C)1,Yes - by exemption,Legacy Inventory Status: Cleared,,,,https://canada.newark.com/yageo/rc0603fr-0715kl/res-thick-film-15k-1-0-1w-0603/dp/66R2060?CMP=AFC-SF-FC,
1,true,true,false,false,false,0,10023419,"CONNECTOR, 1 CONTACTS, TEST PROBE",A        ECO-R252636,2,Each,Production,,"J4,J8",,,,,,Part,CBRM,,1,,,true,false,INGUN,GKS 913 305 230 A 15 02 S,,TEST PROBE,Active,Preferred,,,Yes,Legacy Inventory Status: Cleared,Contact Ingun US for quote,,,,
,,,,,,,,,,,,,,,,,,,,,,,,,,,,INGUN,GKS-913-0024,,,,,,,,,Same part alternate part numbering,,,,
1,true,true,false,false,false,0,10049136,RESISTOR 4.7K OHM 1/4W 5% 1206,B        ECO-R252636,1,Each,Production,,R44,,,,,,Part,CBRM,,1,,,true,false,VISHAY_RMS1,CRCW12064K70JNEA,,"RES,4.7K, 5%, 1/4W, 1206, SMT",Active,Preferred,,"EXEMPTION LIST-7(C)-I,CONTAINS LEAD IN GLASS OR CERAMIC OTHER THAN DIELECTRIC CERAMIC CAPACITOR",Yes - by exemption,2011/65/EU compliant with 7(c)-I exemption and the exemption will expired in 21 July 2021 for medical devices.,,,,https://www.avnet.com/shop/us/products/vishay/crcw12064k70jnea-3074457345623878275?CMP=EMA_FindChips_inventoryfeed_VSE,
,,,,,,,,,,,,,,,,,,,,,,,,,,true,false,BOURNS_RMS1,CR1206-JW-472ELF ,,"RES,4.7K, 5%, 1/4W, 1206, SMT",Active,Preferred,,"EXEMPTION LIST-7(C)-I,CONTAINS LEAD IN GLASS OR CERAMIC OTHER THAN DIELECTRIC CERAMIC CAPACITOR",Yes - by exemption,Legacy Inventory Status: Cleared,,,,https://www.arrow.com/en/products/cr1206-jw-472elf/bourns,
,,,,,,,,,,,,,,,,,,,,,,,,,,true,false,YAGEO_RMS1,RC1206JR-074K7L,,"RES,4.7K, 5%, 1/4W, 1206, SMT",Active,Preferred,,"EXEMPTION LIST-7(C)-I,CONTAINS LEAD IN GLASS OR CERAMIC OTHER THAN DIELECTRIC CERAMIC CAPACITOR",Yes - by exemption,2011/65/EU compliant with 7(c)-I exemption and the exemption will expired in 21 July 2021 for medical devices.,,,,https://canada.newark.com/yageo/rc1206jr-074k7l/res-thick-film-4k7-5-0-25w-1206/dp/66R4590?CMP=AFC-SF-FC,
1,true,true,false,false,false,0,10060347,"DIODE TRANSIL 33V, SMA",A        ECO-R252636,4,Each,Production,,"D1,D7,D9,D14",,,,,,Part,CBRM,,1,,,true,false,ST MICROELECTRONICS_RMS1,SMA6J28A-TR,,HIGH JUNCTION TEMPERATURE TRANSIL,Active,Preferred,,EXEMPTION LIST-7A. LEAD IN HIGH MELTING TEMPERATURE TYPE SOLDERS (I.E. LEAD BASED SOLDER ALLOYS CONTAINING 85% BY WEIGHT OR MORE LEAD).,Yes - by exemption,Legacy Inventory Status: Cleared,,,,https://www.arrow.com/en/products/sma6j28a-tr/stmicroelectronics?utm_term=instock&utm_campaign=arrow_findchips_2019&utm_currency=&utm_medium=aggregator&utm_source=findchips&utm_content=inv_listing,
1,true,true,false,false,false,0,10060350,"CONNECTOR, ZH, 5 CIRCUITS, 1.5 MM",A        ECO-R252636,1,Each,Production,,J13,,,,,,Part,CBRM,,1,,,true,false,J.S.T. CORPORATION,S5B-ZR-SM4A-TF,,ZH CONNECTOR,Active,Preferred,,,Yes,Legacy Inventory Status: Cleared,,,,https://canada.newark.com/jst-japan-solderless-terminals/s5b-zr-sm4a-tf-lf-sn/wire-to-board-connector-zh-series/dp/53X3602?CMP=AFC-SF-FC,
1,true,true,false,false,false,0,10060356,"TRANSISTOR MOS P CHANNEL, 60V, 1.6A, SOT23",A        ECO-R252636,1,Each,Production,,T3,,,,,,Part,CBRM,,1,,,true,false,VISHAY_RMS1,SI2309CDS-T1-GE3,,P-CHANNEL 60-V (D-S) MOSFET,Active,Preferred,,,Yes,Legacy Inventory Status: Cleared,,,,https://www.arrow.com/en/products/si2309cds-t1-ge3/vishay?utm_term=instock&utm_campaign=arrow_findchips_2019&utm_currency=&utm_medium=aggregator&utm_source=findchips&utm_content=inv_listing,
1,true,true,true,false,false,0,10095972,"TRANSISTOR MOSFET, 60V, 50A, P CHANNEL",A        ECO-R255176,5,Each,Production,,"T2,T4,T8,T9,T14",,,,,,Part,CBRM,,1,,,true,false,VISHAY_RMS1,SUD50P06-15L-E3,,,Active,Preferred,,ROHS,Yes - by exemption,RoHS exemption 7a,,,,https://canada.newark.com/vishay/sud50p06-15l-e3/p-channel-mosfet/dp/06J8479?CMP=AFC-SF-FC,
1,true,false,false,false,false,0,10105965,"SCHEMATIC DIAGRAM, POWERPACK2 BOARD, PB500",B        ECO-R256396,1,,Production,,,,,,,,Document,CBRM,,1,,,,,,,,,,,,,,,,,,,
1,true,true,false,false,false,0,10106054,"FAB, PCB, POWERPACK2 BARE BOARD",A        MC002637,1,Each,Production,,,,,,,,Part,CBRM,,1,,,true,false,TTM,10106054,,,Active,Preferred,,,Yes,Legacy Inventory Status: Cleared,,,,,
1,true,true,false,false,false,0,10107885,CAP CER 1UF 50V X5R 10% 1210,A        ECO-R252636,1,Each,Production,,C3,,,,,,Part,CBRM,,1,,,true,false,KEMET_RMS1,C1210C105K5PAC,,,Active,Preferred,,,Yes,Legacy Inventory Status: Cleared,,,,https://www.arrow.com/en/products/c1210c105k5pac/kemet-corporation?utm_term=backorder&utm_campaign=arrow_findchips_2019&utm_currency=&utm_medium=aggregator&utm_source=findchips&utm_content=inv_listing,
1,true,true,false,false,false,0,10107886,CAP EL 100UF 20% 50V LOW ESR,A        ECO-R252636,2,Each,Production,,"C8,C9",,,,,,Part,CBRM,,1,,,true,false,KEMET_RMS1,ESW107M050AG3AA,,,Active,Preferred,,,Yes,Legacy Inventory Status: Cleared,,,,https://www.arrow.com/en/products/esw107m050ag3aa/kemet-corporation?utm_term=instock&utm_campaign=arrow_findchips_2019&utm_currency=&utm_medium=aggregator&utm_source=findchips&utm_content=inv_listing,
1,true,true,false,false,false,0,10107888,DIODE SCHOTTKY DUAL 70V 100MA SOT-23,A        ECO-R252636,1,Each,Production,,D5,,,,,,Part,CBRM,,1,,,true,false,VISHAY_RMS1,BAS70-05-E3-08,,,Active,Preferred,,,Yes,Legacy Inventory Status: Cleared,,,,https://www.arrow.com/en/products/bas70-05-e3-08/vishay?utm_term=instock&utm_campaign=arrow_findchips_2019&utm_currency=&utm_medium=aggregator&utm_source=findchips&utm_content=inv_listing,
1,true,true,false,false,false,0,10107889,PTC RESETTABLE 33V 1.1A 2016 SMD,A        ECO-R252636,1,Each,Production,,F1,,,,,,Part,CBRM,,1,,,true,false,"LITTELFUSE, INC.",2016L100/33,,,Active,Preferred,,,Yes,Legacy Inventory Status: Cleared,,,,,
1,true,true,false,false,false,0,10107890,HEADER 2 PIN FRICTION LOCK MOLEX KK 156 SERIES,A        ECO-R252636,1,Each,Production,,J9,,,,,,Part,CBRM,,1,,,true,false,MOLEX_RMS1,26-61-4020,,,Active,Preferred,,,Yes,Legacy Inventory Status: Cleared,,,,https://uk.farnell.com/molex/26-61-4020/connector-header-2pos-1row-3-96mm/dp/1462942?CMP=GRHB-SF-FC,
1,true,true,false,false,false,0,10107891,"CONNECTOR, ZH, 2 CIRCUITS, 1.5 MM",A        ECO-R252636,1,Each,Production,,J10,,,,,,Part,CBRM,,1,,,true,false,JST_RMS1,S2B-ZR-SM4A-TF(LF)(SN),,,Active,Preferred,,,Yes,Legacy Inventory Status: Cleared,,,,https://www.futureelectronics.com/p/6883524?utm_campaign=FindChips_NA_Inventory&utm_medium=buynow&utm_source=findchips&utm_content,
1,true,true,false,false,false,0,10107892,HEADER TH MOLEX MICRO-FIT 2 CIRCUITS 3MM 5A 250V,A        ECO-R252636,1,Each,Production,,J11,,,,,,Part,CBRM,,1,,,true,false,MOLEX_RMS1,43650-0229,,,Active,Preferred,,,Yes,Legacy Inventory Status: Cleared,,,,https://uk.farnell.com/molex/43650-0229/wtb-connector-header-2pos-1row/dp/3051590?CMP=GRHB-SF-FC,
1,true,true,false,false,false,0,10107894,"CONNECTOR ZIF, 19 CONTACTS, 1 MM",A        ECO-R252636,1,Each,Production,,J12,,,,,,Part,CBRM,,1,,,true,false,MOLEX_RMS1,52207-1960,,,Active,Alternate,,,Yes,Legacy Inventory Status: Cleared,,,,https://www.mouser.ca/ProductDetail/Molex/52207-1960?utm_term=52207-1960&qs=LVhiz6WniCkOGhEXWutSYA==&utm_campaign=52207-1960&utm_medium=aggregator&utm_source=findchips&utm_content=Molex,
,,,,,,,,,,,,,,,,,,,,,,,,,,true,false,MOLEX_RMS1,52207-1985,,,Active,Preferred,,,Yes,Legacy Inventory Status: Cleared,,,,https://uk.farnell.com/molex/52207-1985/connector-fpc-1-0mm-19way/dp/1757082?CMP=GRHB-SF-FC,
1,true,true,false,false,false,0,10107895,RESISTOR 470 OHM 1/8W 5% 1206,A        ECO-R252636,1,Each,Production,,R32,,,,,,Part,CBRM,,1,,,true,false,YAGEO_RMS1,RC1206JR-07470RL,,,Active,Preferred,,ROHS EXEMPTION - 7( C )-1 ELECTRICAL AND ELECTRONIC COMPONENTS CONTAINING LEAD IN A GLASS.,Yes,Legacy Inventory Status: Cleared,,,,https://canada.newark.com/yageo/rc1206jr-07470rl/res-thick-film-470r-5-0-25w-1206/dp/66R4601?CMP=AFC-SF-FC,
,,,,,,,,,,,,,,,,,,,,,,,,,,true,false,VISHAY_RMS1,CRCW1206470RFKEA,,,Active,Preferred,,ROHS EXEMPTION - 7( C )-1 ELECTRICAL AND ELECTRONIC COMPONENTS CONTAINING LEAD IN A GLASS.,Yes,Legacy Inventory Status: Cleared,,,,https://www.arrow.com/en/products/crcw1206470rfkea/vishay,
1,true,true,false,false,false,0,10107900,IC LINEAR ACTIVE THERMISTOR MCP9700 TO-92,A        ECO-R252636,1,Each,Production,,U6,,,,,,Part,CBRM,,1,,,true,false,MICROCHIP,MCP9700A-E/TO,,,Active,Alternate,,,Yes,Legacy Inventory Status: Cleared,,,,https://www.futureelectronics.com/fr/p/analog--sensors--temperature/mcp9700a-e-to-microchip-2134070,
,,,,,,,,,,,,,,,,,,,,,,,,,,true,false,MICROCHIP,MCP9700A-E/TO,,,Active,Preferred,,,Yes,Legacy Inventory Status: Cleared,,,,https://www.arrow.com/en/products/mcp9700a-eto/microchip-technology?utm_term=instock&utm_campaign=arrow_findchips_2019&utm_currency=&utm_medium=aggregator&utm_source=findchips&utm_content=inv_listing,
1,true,true,false,false,false,0,10113299,RESISTOR 18 KOHM 0.063W +/-1% 0603,A        ECO-R252636,2,Each,Production,,"R5,R15",,,,,,Part,CBRM,,1,,,true,false,YAGEO_RMS1,RC0603FR-0718KL,,,Active,Preferred,,ROHS EXEMPTION - 7( C )-1 ELECTRICAL AND ELECTRONIC COMPONENTS CONTAINING LEAD IN A GLASS.,Yes - by exemption,Legacy Inventory Status: Cleared,,,,https://www.arrow.com/en/products/rc0603fr-0718kl/yageo?utm_term=instock&utm_campaign=arrow_findchips_2019&utm_currency=&utm_medium=aggregator&utm_source=findchips&utm_content=inv_listing,
1,true,true,false,false,false,0,10113300,RESISTOR 22 KOHM 0.063W +/-1% 0603,A        ECO-R252636,6,Each,Production,,"R8,R13,R20,R23,R31,R52",,,,,,Part,CBRM,,1,,,true,false,YAGEO_RMS1,RC0603JR-0722KL,,,Active,Preferred,,ROHS EXEMPTION - 7( C )-1 ELECTRICAL AND ELECTRONIC COMPONENTS CONTAINING LEAD IN A GLASS.,Yes - by exemption,Legacy Inventory Status: Cleared,,,,https://www.futureelectronics.com/p/4579884?utm_campaign=FindChips_NA_Inventory&utm_medium=buynow&utm_source=findchips&utm_content,
1,true,true,false,false,false,0,10113301,RESISTOR 62 KOHM 0.063W +/-1% 0603,A        ECO-R252636,1,Each,Production,,R48,,,,,,Part,CBRM,,1,,,true,false,YAGEO_RMS1,RC0603FR-0762KL,,,Active,Preferred,,ROHS EXEMPTION - 7( C )-1 ELECTRICAL AND ELECTRONIC COMPONENTS CONTAINING LEAD IN A GLASS.,Yes - by exemption,Legacy Inventory Status: Cleared,,,,https://www.futureelectronics.com/p/3619475?utm_campaign=FindChips_NA_Inventory&utm_medium=buynow&utm_source=findchips&utm_content,
1,true,true,false,false,false,0,10113304,IC REG LINEAR 5V/3.3V 350MA D2PAK-7,A        ECO-R252636,1,Each,Production,,U1,,,,,,Part,CBRM,,1,,,true,false,ON SEMICONDUCTOR_RMS1,NCV87725D7S50R4G,,,Active,Preferred,,,Yes,Legacy Inventory Status: Cleared,,,,https://www.mouser.ca/ProductDetail/ON-Semiconductor/NCV87725D7S50R4G?utm_term=NCV87725D7S50R4G&qs=EusSljnoWfj1XrWw%252b9khYA==&utm_campaign=NCV87725D7S50R4G&utm_medium=aggregator&utm_source=findchips&utm_content=ON-Semiconductor,
1,true,true,false,false,false,0,10126894,MICROCONTROLLER PROGRAMMED - POWERPACK2,A        ECO-R252636,1,Each,Production,,U4,,,,,,Part,CBRM,,1,,,true,false,MICROCHIP,10126894,,,Active,Preferred,,,Yes,Legacy Inventory Status: Cleared,,,,,
1,true,true,false,false,false,0,10126895,RESISTOR 68 OHM 1/4W 5% 1206,A        ECO-R252636,1,Each,Production,,R26,,,,,,Part,CBRM,,1,,,true,false,VISHAY_RMS1,CRCW120668R0FKEA,,,Active,Preferred,,ROHS EXEMPTION - 7( C )-1 ELECTRICAL AND ELECTRONIC COMPONENTS CONTAINING LEAD IN A GLASS.,Yes - by exemption,Legacy Inventory Status: Cleared,,,,https://www.arrow.com/en/products/crcw120668r0fkea/vishay,
,,,,,,,,,,,,,,,,,,,,,,,,,,true,false,YAGEO_RMS1,RC1206JR-0768RL,,,Active,Preferred,,ROHS EXEMPTION - 7( C )-1 ELECTRICAL AND ELECTRONIC COMPONENTS CONTAINING LEAD IN A GLASS.,Yes - by exemption,Legacy Inventory Status: Cleared,,,,https://www.futureelectronics.com/p/6942833?utm_campaign=FindChips_NA_Inventory&utm_medium=buynow&utm_source=findchips&utm_content,
1,true,true,false,false,false,0,312937,"RES,0OHM 1/8W 5% 1206",C        ECO-R252636,1,Each,Production,,R25,,,,,,Part,CBRM,,1,,,true,false,PANASONIC                       (017670),ERJ8GEY0R00V,,,Active,Preferred,,,RoHS3 Compliant with exemptions,RoHS3 Compliant with exemptions,,,,https://canada.newark.com/panasonic/erj8gey0r00v/res-0r0-0-25w-1206/dp/12AC1244?CMP=AFC-SF-FC,
1,true,true,true,false,false,0,3838600,PC BOARD TRACABILITY LABEL,C        ECO-R252633,1,Each,Production,,,,,,,,Part,CBRM,,1,,,true,false,BRADY_RMS1,3838600-H,,"B-727 LABEL, POLYIMIDE, GLOSSY WHITE THERMAL TRANSFER PRINTABLE LABEL STOCK",Active,Preferred,,CUSTOM LABEL PER COVIDIEN DRAWING 3838600,Yes,Legacy Inventory Status: Cleared,,,,,
1,true,true,false,false,false,0,GR101899,TVS AVAL DIODE ARRAY 2CH SC70-3,A        ECO-R253300,2,Each,Production,,"D2,D8",,,,,,Part,CBRM,,1,,,true,false,LITTLEFUSE,SP0502BAJTG,,,Active,Preferred,,,Yes,Legacy Inventory Status: Cleared,,,,https://www.arrow.com/en/products/sp0502bajtg/littelfuse?utm_term=instock&utm_campaign=arrow_findchips_2019&utm_currency=&utm_medium=aggregator&utm_source=findchips&utm_content=inv_listing,
1,true,true,false,false,false,0,GR102887,MOSFET N-CH 30V SOT-23,A        MC007004,2,Each,Production,,"T5,T11",,,,,,Part,CBRM,,1,,,true,false,VISHAY_RMS1,SI2300DS-T1-GE3,,MOSFET N-CH 30V SOT-23,Active,Preferred,,,RoHS3 Compliant,Cleared,,,,https://www.mouser.ca/ProductDetail/Vishay-Semiconductors/SI2300DS-T1-GE3?utm_term=SI2300DS-T1-GE3&qs=WX95TUc1y56RfPTl4pBtCQ==&utm_campaign=SI2300DS-T1-GE3&utm_medium=aggregator&utm_source=findchips&utm_content=Vishay,