(module AMP177983-40_1 (layer F.Cu) (tedit 5E9CAD7C)
  (attr smd)
  (fp_text reference J17 (at -123.84613 101.347 unlocked) (layer F.SilkS) hide
    (effects (font (size 1.332992 1.40208) (thickness 0.254)))
  )
  (fp_text value F-COCMS-AMP177983-40 (at -4.68213 -0.2502 unlocked) (layer F.SilkS) hide
    (effects (font (size 1.332992 1.40208) (thickness 0.254)))
  )
  (fp_circle (center 10.1 0) (end 11.2 0) (layer Dwgs.User) (width 0.0254))
  (fp_circle (center -10.1 0) (end -9.2 0) (layer Dwgs.User) (width 0.0254))
  (fp_circle (center 10.1 0) (end 11.2 0) (layer Dwgs.User) (width 0.0254))
  (fp_circle (center -10.1 0) (end -9.2 0) (layer Dwgs.User) (width 0.0254))
  (fp_circle (center 10.1 0) (end 11.2 0) (layer Dwgs.User) (width 0.0254))
  (fp_circle (center -10.1 0) (end -9.2 0) (layer Dwgs.User) (width 0.0254))
  (fp_line (start 8.4 -3) (end 11 -3) (layer F.SilkS) (width 0.18))
  (fp_line (start 11 3) (end 11 -3) (layer F.SilkS) (width 0.18))
  (fp_line (start 8.4 -1.9) (end 8.4 -3) (layer F.SilkS) (width 0.18))
  (fp_line (start -11 3) (end -8.4 3) (layer F.SilkS) (width 0.18))
  (fp_line (start -8.4 3) (end -8.4 1.9) (layer F.SilkS) (width 0.18))
  (fp_line (start -8.4 -1.9) (end 8.4 -1.9) (layer F.SilkS) (width 0.18))
  (fp_line (start 8.4 3) (end 11 3) (layer F.SilkS) (width 0.18))
  (fp_line (start -11 3) (end -11 -3) (layer F.SilkS) (width 0.18))
  (fp_line (start 8.4 3) (end 8.4 1.9) (layer F.SilkS) (width 0.18))
  (fp_line (start -8.4 1.9) (end 8.4 1.9) (layer F.SilkS) (width 0.18))
  (fp_line (start -11 -3) (end -8.4 -3) (layer F.SilkS) (width 0.18))
  (fp_line (start -8.4 -1.9) (end -8.4 -3) (layer F.SilkS) (width 0.18))
  (fp_line (start -1.2 -1.9) (end -1.2 -2.8) (layer F.Fab) (width 0.1))
  (fp_line (start 3.6 2.8) (end 3.6 1.9) (layer F.Fab) (width 0.1))
  (fp_line (start 8.4 -3) (end 11 -3) (layer F.Fab) (width 0.1))
  (fp_line (start 11 3) (end 11 -3) (layer F.Fab) (width 0.1))
  (fp_line (start 0.4 2.8) (end 0.4 1.9) (layer F.Fab) (width 0.1))
  (fp_line (start 9.74 -2.67) (end 10.54 -2.67) (layer F.Fab) (width 0.00003))
  (fp_line (start 10.14 -2.07) (end 10.54 -2.67) (layer F.Fab) (width 0.00003))
  (fp_line (start -4.4 -1.9) (end -4.4 -2.8) (layer F.Fab) (width 0.1))
  (fp_line (start 9.74 -2.67) (end 10.14 -2.07) (layer F.Fab) (width 0.00003))
  (fp_line (start 8.4 -1.9) (end 8.4 -3) (layer F.Fab) (width 0.1))
  (fp_line (start 9.6 -0.2) (end 9.6 -1.9) (layer F.Fab) (width 0.1))
  (fp_line (start -11 3) (end -8.4 3) (layer F.Fab) (width 0.1))
  (fp_line (start -2 -1.9) (end -2 -2.8) (layer F.Fab) (width 0.1))
  (fp_line (start 9.6 -0.2) (end 10.4 -0.2) (layer F.Fab) (width 0.1))
  (fp_line (start 7.6 -1.9) (end 7.6 -2.8) (layer F.Fab) (width 0.1))
  (fp_line (start 10.4 1.9) (end 10.4 -0.2) (layer F.Fab) (width 0.1))
  (fp_line (start 2.8 2.8) (end 2.8 1.9) (layer F.Fab) (width 0.1))
  (fp_line (start -8.4 3) (end -8.4 1.9) (layer F.Fab) (width 0.1))
  (fp_line (start -10.4 1.9) (end -10.4 -0.2) (layer F.Fab) (width 0.1))
  (fp_line (start -9.6 -1.9) (end 9.6 -1.9) (layer F.Fab) (width 0.1))
  (fp_line (start 6.8 -1.9) (end 6.8 -2.8) (layer F.Fab) (width 0.1))
  (fp_line (start 8.4 1) (end 8.4 -1) (layer F.Fab) (width 0.1))
  (fp_line (start -7.6 2.8) (end -7.6 1.9) (layer F.Fab) (width 0.1))
  (fp_line (start -10.4 -0.2) (end -9.6 -0.2) (layer F.Fab) (width 0.1))
  (fp_line (start 6 -1.9) (end 6 -2.8) (layer F.Fab) (width 0.1))
  (fp_line (start -8.4 -1.9) (end 8.4 -1.9) (layer F.Fab) (width 0.1))
  (fp_line (start -6.8 2.8) (end -6.8 1.9) (layer F.Fab) (width 0.1))
  (fp_line (start -11 3) (end -11 -3) (layer F.Fab) (width 0.1))
  (fp_line (start 5.2 -1.9) (end 5.2 -2.8) (layer F.Fab) (width 0.1))
  (fp_line (start -8.4 -1) (end 8.4 -1) (layer F.Fab) (width 0.1))
  (fp_line (start 8.4 3) (end 11 3) (layer F.Fab) (width 0.1))
  (fp_line (start -6 2.8) (end -6 1.9) (layer F.Fab) (width 0.1))
  (fp_line (start -9.6 -0.2) (end -9.6 -1.9) (layer F.Fab) (width 0.1))
  (fp_line (start 4.4 -1.9) (end 4.4 -2.8) (layer F.Fab) (width 0.1))
  (fp_line (start -8.4 1) (end -8.4 -1) (layer F.Fab) (width 0.1))
  (fp_line (start -5.2 2.8) (end -5.2 1.9) (layer F.Fab) (width 0.1))
  (fp_line (start 3.6 -1.9) (end 3.6 -2.8) (layer F.Fab) (width 0.1))
  (fp_line (start -10.4 1.9) (end 10.4 1.9) (layer F.Fab) (width 0.1))
  (fp_line (start 8.4 3) (end 8.4 1.9) (layer F.Fab) (width 0.1))
  (fp_line (start -4.4 2.8) (end -4.4 1.9) (layer F.Fab) (width 0.1))
  (fp_line (start -8.4 1) (end 8.4 1) (layer F.Fab) (width 0.1))
  (fp_line (start 2.8 -1.9) (end 2.8 -2.8) (layer F.Fab) (width 0.1))
  (fp_line (start 7.6 2.8) (end 7.6 1.9) (layer F.Fab) (width 0.1))
  (fp_line (start 1.2 2.8) (end 1.2 1.9) (layer F.Fab) (width 0.1))
  (fp_line (start -3.6 2.8) (end -3.6 1.9) (layer F.Fab) (width 0.1))
  (fp_line (start -11 -3) (end -8.4 -3) (layer F.Fab) (width 0.1))
  (fp_line (start -8.4 -1.9) (end -8.4 -3) (layer F.Fab) (width 0.1))
  (fp_line (start 2 -1.9) (end 2 -2.8) (layer F.Fab) (width 0.1))
  (fp_line (start -8.4 1.9) (end 8.4 1.9) (layer F.Fab) (width 0.1))
  (fp_line (start 6.8 2.8) (end 6.8 1.9) (layer F.Fab) (width 0.1))
  (fp_line (start -3.6 -1.9) (end -3.6 -2.8) (layer F.Fab) (width 0.1))
  (fp_line (start -2.8 2.8) (end -2.8 1.9) (layer F.Fab) (width 0.1))
  (fp_line (start -7.6 -1.9) (end -7.6 -2.8) (layer F.Fab) (width 0.1))
  (fp_line (start 1.2 -1.9) (end 1.2 -2.8) (layer F.Fab) (width 0.1))
  (fp_line (start 6 2.8) (end 6 1.9) (layer F.Fab) (width 0.1))
  (fp_line (start -2 2.8) (end -2 1.9) (layer F.Fab) (width 0.1))
  (fp_line (start -6.8 -1.9) (end -6.8 -2.8) (layer F.Fab) (width 0.1))
  (fp_line (start 0.4 -1.9) (end 0.4 -2.8) (layer F.Fab) (width 0.1))
  (fp_line (start 5.2 2.8) (end 5.2 1.9) (layer F.Fab) (width 0.1))
  (fp_line (start -2.8 -1.9) (end -2.8 -2.8) (layer F.Fab) (width 0.1))
  (fp_line (start -1.2 2.8) (end -1.2 1.9) (layer F.Fab) (width 0.1))
  (fp_line (start -6 -1.9) (end -6 -2.8) (layer F.Fab) (width 0.1))
  (fp_line (start -0.4 -1.9) (end -0.4 -2.8) (layer F.Fab) (width 0.1))
  (fp_line (start 4.4 2.8) (end 4.4 1.9) (layer F.Fab) (width 0.1))
  (fp_line (start 2 2.8) (end 2 1.9) (layer F.Fab) (width 0.1))
  (fp_line (start -0.4 2.8) (end -0.4 1.9) (layer F.Fab) (width 0.1))
  (fp_line (start -5.2 -1.9) (end -5.2 -2.8) (layer F.Fab) (width 0.1))
  (pad MEL12 thru_hole circle (at 10.1 0) (size 0.9652 0.9652) (drill 1.2) (layers *.Cu *.Mask))
  (pad MEL08 thru_hole circle (at -10.1 0) (size 0.7112 0.7112) (drill 0.8) (layers *.Cu *.Mask))
  (pad 40 smd rect (at -7.6 2.2) (size 0.508 2.286) (layers F.Cu F.Paste F.Mask))
  (pad 39 smd rect (at -6.8 2.2) (size 0.508 2.286) (layers F.Cu F.Paste F.Mask))
  (pad 38 smd rect (at -6 2.2) (size 0.508 2.286) (layers F.Cu F.Paste F.Mask))
  (pad 37 smd rect (at -5.2 2.2) (size 0.508 2.286) (layers F.Cu F.Paste F.Mask))
  (pad 36 smd rect (at -4.4 2.2) (size 0.508 2.286) (layers F.Cu F.Paste F.Mask))
  (pad 35 smd rect (at -3.6 2.2) (size 0.508 2.286) (layers F.Cu F.Paste F.Mask))
  (pad 34 smd rect (at -2.8 2.2) (size 0.508 2.286) (layers F.Cu F.Paste F.Mask))
  (pad 33 smd rect (at -2 2.2) (size 0.508 2.286) (layers F.Cu F.Paste F.Mask))
  (pad 32 smd rect (at -1.2 2.2) (size 0.508 2.286) (layers F.Cu F.Paste F.Mask))
  (pad 31 smd rect (at -0.4 2.2) (size 0.508 2.286) (layers F.Cu F.Paste F.Mask))
  (pad 30 smd rect (at 0.4 2.2) (size 0.508 2.286) (layers F.Cu F.Paste F.Mask))
  (pad 29 smd rect (at 1.2 2.2) (size 0.508 2.286) (layers F.Cu F.Paste F.Mask))
  (pad 28 smd rect (at 2 2.2) (size 0.508 2.286) (layers F.Cu F.Paste F.Mask))
  (pad 27 smd rect (at 2.8 2.2) (size 0.508 2.286) (layers F.Cu F.Paste F.Mask))
  (pad 26 smd rect (at 3.6 2.2) (size 0.508 2.286) (layers F.Cu F.Paste F.Mask))
  (pad 25 smd rect (at 4.4 2.2) (size 0.508 2.286) (layers F.Cu F.Paste F.Mask))
  (pad 24 smd rect (at 5.2 2.2) (size 0.508 2.286) (layers F.Cu F.Paste F.Mask))
  (pad 23 smd rect (at 6 2.2) (size 0.508 2.286) (layers F.Cu F.Paste F.Mask))
  (pad 22 smd rect (at 6.8 2.2) (size 0.508 2.286) (layers F.Cu F.Paste F.Mask))
  (pad 21 smd rect (at 7.6 2.2) (size 0.508 2.286) (layers F.Cu F.Paste F.Mask))
  (pad 20 smd rect (at -7.6 -2.2) (size 0.508 2.286) (layers F.Cu F.Paste F.Mask))
  (pad 19 smd rect (at -6.8 -2.2) (size 0.508 2.286) (layers F.Cu F.Paste F.Mask))
  (pad 18 smd rect (at -6 -2.2) (size 0.508 2.286) (layers F.Cu F.Paste F.Mask))
  (pad 17 smd rect (at -5.2 -2.2) (size 0.508 2.286) (layers F.Cu F.Paste F.Mask))
  (pad 16 smd rect (at -4.4 -2.2) (size 0.508 2.286) (layers F.Cu F.Paste F.Mask))
  (pad 15 smd rect (at -3.6 -2.2) (size 0.508 2.286) (layers F.Cu F.Paste F.Mask))
  (pad 14 smd rect (at -2.8 -2.2) (size 0.508 2.286) (layers F.Cu F.Paste F.Mask))
  (pad 13 smd rect (at -2 -2.2) (size 0.508 2.286) (layers F.Cu F.Paste F.Mask))
  (pad 12 smd rect (at -1.2 -2.2) (size 0.508 2.286) (layers F.Cu F.Paste F.Mask))
  (pad 11 smd rect (at -0.4 -2.2) (size 0.508 2.286) (layers F.Cu F.Paste F.Mask))
  (pad 10 smd rect (at 0.4 -2.2) (size 0.508 2.286) (layers F.Cu F.Paste F.Mask))
  (pad 9 smd rect (at 1.2 -2.2) (size 0.508 2.286) (layers F.Cu F.Paste F.Mask))
  (pad 8 smd rect (at 2 -2.2) (size 0.508 2.286) (layers F.Cu F.Paste F.Mask))
  (pad 7 smd rect (at 2.8 -2.2) (size 0.508 2.286) (layers F.Cu F.Paste F.Mask))
  (pad 6 smd rect (at 3.6 -2.2) (size 0.508 2.286) (layers F.Cu F.Paste F.Mask))
  (pad 5 smd rect (at 4.4 -2.2) (size 0.508 2.286) (layers F.Cu F.Paste F.Mask))
  (pad 4 smd rect (at 5.2 -2.2) (size 0.508 2.286) (layers F.Cu F.Paste F.Mask))
  (pad 3 smd rect (at 6 -2.2) (size 0.508 2.286) (layers F.Cu F.Paste F.Mask))
  (pad 2 smd rect (at 6.8 -2.2) (size 0.508 2.286) (layers F.Cu F.Paste F.Mask))
  (pad 1 smd rect (at 7.6 -2.2) (size 0.508 2.286) (layers F.Cu F.Paste F.Mask))
  (model ${KIPRJMOD}/../Library/Footprints.3dshapes/c-5177983-1-a-3d.stp
    (offset (xyz 0 0 3.75))
    (scale (xyz 1 1 1))
    (rotate (xyz 0 0 0))
  )
)
