(module ARF7151A_1 (layer F.Cu) (tedit 5E9CA098)
  (attr smd)
  (fp_text reference IC37 (at 28.98 1.00963 -90 unlocked) (layer F.SilkS)
    (effects (font (size 1.0496 1.104) (thickness 0.1)))
  )
  (fp_text value ER-ARF7151A (at 0.0796 -3.47673 -90 unlocked) (layer F.SilkS) hide
    (effects (font (size 1.0496 1.104) (thickness 0.1)))
  )
  (fp_arc (start 13.325 0) (end 13.325 0.675) (angle -90) (layer Dwgs.User) (width 0.0254))
  (fp_arc (start 13.325 0) (end 14 0) (angle -90) (layer Dwgs.User) (width 0.0254))
  (fp_arc (start -13.325 0) (end -13.325 -0.675) (angle -90) (layer Dwgs.User) (width 0.0254))
  (fp_arc (start -13.325 0) (end -14 0) (angle -90) (layer Dwgs.User) (width 0.0254))
  (fp_arc (start 13.325 0) (end 13.325 0.675) (angle -90) (layer Dwgs.User) (width 0.0254))
  (fp_arc (start 13.325 0) (end 14 0) (angle -90) (layer Dwgs.User) (width 0.0254))
  (fp_arc (start -13.325 0) (end -13.325 -0.675) (angle -90) (layer Dwgs.User) (width 0.0254))
  (fp_arc (start -13.325 0) (end -14 0) (angle -90) (layer Dwgs.User) (width 0.0254))
  (fp_arc (start 13.325 0) (end 13.325 0.675) (angle -90) (layer Dwgs.User) (width 0.0254))
  (fp_arc (start 13.325 0) (end 14 0) (angle -90) (layer Dwgs.User) (width 0.0254))
  (fp_arc (start -13.325 0) (end -13.325 -0.675) (angle -90) (layer Dwgs.User) (width 0.0254))
  (fp_arc (start -13.325 0) (end -14 0) (angle -90) (layer Dwgs.User) (width 0.0254))
  (fp_arc (start 13.325 0) (end 13.325 0.675) (angle -90) (layer Dwgs.User) (width 0.0254))
  (fp_arc (start 13.325 0) (end 14 0) (angle -90) (layer Dwgs.User) (width 0.0254))
  (fp_arc (start -13.325 0) (end -13.325 -0.675) (angle -90) (layer Dwgs.User) (width 0.0254))
  (fp_arc (start -13.325 0) (end -14 0) (angle -90) (layer Dwgs.User) (width 0.0254))
  (fp_arc (start 13.325 0) (end 13.325 0.675) (angle -90) (layer Dwgs.User) (width 0.0254))
  (fp_arc (start 13.325 0) (end 14 0) (angle -90) (layer Dwgs.User) (width 0.0254))
  (fp_arc (start -13.325 0) (end -13.325 -0.675) (angle -90) (layer Dwgs.User) (width 0.0254))
  (fp_arc (start -13.325 0) (end -14 0) (angle -90) (layer Dwgs.User) (width 0.0254))
  (fp_line (start -13.325 -0.675) (end 13.325 -0.675) (layer Dwgs.User) (width 0.0254))
  (fp_line (start -13.325 0.675) (end 13.325 0.675) (layer Dwgs.User) (width 0.0254))
  (fp_line (start -13.325 -0.675) (end 13.325 -0.675) (layer Dwgs.User) (width 0.0254))
  (fp_line (start -13.325 0.675) (end 13.325 0.675) (layer Dwgs.User) (width 0.0254))
  (fp_line (start -13.325 -0.675) (end 13.325 -0.675) (layer Dwgs.User) (width 0.0254))
  (fp_line (start -13.325 0.675) (end 13.325 0.675) (layer Dwgs.User) (width 0.0254))
  (fp_line (start -13.325 -0.675) (end 13.325 -0.675) (layer Dwgs.User) (width 0.0254))
  (fp_line (start -13.325 0.675) (end 13.325 0.675) (layer Dwgs.User) (width 0.0254))
  (fp_line (start -13.325 -0.675) (end 13.325 -0.675) (layer Dwgs.User) (width 0.0254))
  (fp_line (start -13.325 0.675) (end 13.325 0.675) (layer Dwgs.User) (width 0.0254))
  (fp_line (start -12.7 -0.6) (end 12.7 -0.6) (layer B.Fab) (width 0.1))
  (fp_line (start -12.7 0.6) (end 12.7 0.6) (layer B.Fab) (width 0.1))
  (fp_line (start 27.6 0.6) (end 27.6 -0.6) (layer B.Fab) (width 0.1))
  (fp_line (start -27.5 0.6) (end -27.5 -0.6) (layer B.Fab) (width 0.1))
  (pad 24 smd rect (at 11.4 -1.6) (size 1.5 1.8) (layers B.Cu B.Paste B.Mask))
  (pad 23 smd rect (at 11.4 1.6) (size 1.5 1.8) (layers B.Cu B.Paste B.Mask))
  (pad 22 smd rect (at 9.5 -1.6) (size 1.5 1.8) (layers B.Cu B.Paste B.Mask))
  (pad 21 smd rect (at 9.5 1.6) (size 1.5 1.8) (layers B.Cu B.Paste B.Mask))
  (pad 20 smd rect (at 7.6 -1.6) (size 1.5 1.8) (layers B.Cu B.Paste B.Mask))
  (pad 19 smd rect (at 7.6 1.6) (size 1.5 1.8) (layers B.Cu B.Paste B.Mask))
  (pad 18 smd rect (at 3.8 -1.6) (size 1.5 1.8) (layers B.Cu B.Paste B.Mask))
  (pad 17 smd rect (at 3.8 1.6) (size 1.5 1.8) (layers B.Cu B.Paste B.Mask))
  (pad 16 smd rect (at 1.9 -1.6) (size 1.5 1.8) (layers B.Cu B.Paste B.Mask))
  (pad 15 smd rect (at 1.9 1.6) (size 1.5 1.8) (layers B.Cu B.Paste B.Mask))
  (pad 14 smd rect (at 0 -1.6) (size 1.5 1.8) (layers B.Cu B.Paste B.Mask))
  (pad 13 smd rect (at 0 1.6) (size 1.5 1.8) (layers B.Cu B.Paste B.Mask))
  (pad 12 smd rect (at -1.9 -1.6) (size 1.5 1.8) (layers B.Cu B.Paste B.Mask))
  (pad 11 smd rect (at -1.9 1.6) (size 1.5 1.8) (layers B.Cu B.Paste B.Mask))
  (pad 10 smd rect (at -3.8 -1.6) (size 1.5 1.8) (layers B.Cu B.Paste B.Mask))
  (pad 9 smd rect (at -3.8 1.6) (size 1.5 1.8) (layers B.Cu B.Paste B.Mask))
  (pad 8 smd rect (at -5.7 -1.6) (size 1.5 1.8) (layers B.Cu B.Paste B.Mask))
  (pad 7 smd rect (at -5.7 1.6) (size 1.5 1.8) (layers B.Cu B.Paste B.Mask))
  (pad 6 smd rect (at -7.6 -1.6) (size 1.5 1.8) (layers B.Cu B.Paste B.Mask))
  (pad 5 smd rect (at -7.6 1.6) (size 1.5 1.8) (layers B.Cu B.Paste B.Mask))
  (pad 4 smd rect (at -9.5 -1.6) (size 1.5 1.8) (layers B.Cu B.Paste B.Mask))
  (pad 3 smd rect (at -9.5 1.6) (size 1.5 1.8) (layers B.Cu B.Paste B.Mask))
  (pad 2 smd rect (at -11.4 -1.6) (size 1.5 1.8) (layers B.Cu B.Paste B.Mask))
  (pad 1 smd rect (at -11.4 1.6) (size 1.5 1.8) (layers B.Cu B.Paste B.Mask))
  (model ${KIPRJMOD}/../Library/Footprints.3dshapes/ferrite-ard.stp
    (offset (xyz 13.5 -5 -4.7))
    (scale (xyz 1 1 1))
    (rotate (xyz 180 0 90))
  )
)
