(module B7BZR-SM3TF_1 (layer F.Cu) (tedit 5E9C3AAB)
  (attr smd)
  (fp_text reference J18 (at -0.73143 5.30361 -180 unlocked) (layer F.SilkS)
    (effects (font (size 1.0496 1.104) (thickness 0.1)))
  )
  (fp_text value F-COCMS-B7BZR-SM4TF (at 6.63193 0.965 -180 unlocked) (layer F.SilkS) hide
    (effects (font (size 1.0496 1.104) (thickness 0.1)))
  )
  (fp_line (start -4.31 -1.59) (end -4.05 -1.85) (layer F.SilkS) (width 0.18))
  (fp_line (start -6.75 -1.85) (end -0.77144 -1.85) (layer F.SilkS) (width 0.18))
  (fp_line (start 6.75 -1.55) (end 6.75 -1.85) (layer F.SilkS) (width 0.18))
  (fp_line (start 3.8123 -1.85) (end 6.75 -1.85) (layer F.SilkS) (width 0.18))
  (fp_line (start -6.75 1.85) (end -6.75 1.35) (layer F.SilkS) (width 0.18))
  (fp_line (start -6.75 1.85) (end -5.15 1.85) (layer F.SilkS) (width 0.18))
  (fp_line (start 6.75 1.85) (end 6.75 1.35) (layer F.SilkS) (width 0.18))
  (fp_line (start 5.15 1.85) (end 6.75 1.85) (layer F.SilkS) (width 0.18))
  (fp_line (start 1.48647 -1.85) (end 2.68855 -1.85) (layer F.SilkS) (width 0.18))
  (fp_line (start -6.75 -1.55) (end -6.75 -1.85) (layer F.SilkS) (width 0.18))
  (fp_line (start 0.35231 -1.85) (end 0.38879 -1.85) (layer F.SilkS) (width 0.18))
  (fp_line (start -4.95 -1.85) (end -4.69 -1.59) (layer F.SilkS) (width 0.18))
  (fp_line (start 0 3.35) (end 0 1.85) (layer F.Fab) (width 0.1))
  (fp_line (start 3 3.35) (end 3 1.85) (layer F.Fab) (width 0.1))
  (fp_line (start 6.75 1.85) (end 6.75 -1.85) (layer F.Fab) (width 0.1))
  (fp_line (start -6.75 -1.85) (end 6.75 -1.85) (layer F.Fab) (width 0.1))
  (fp_line (start -4.5 3.35) (end -4.5 1.85) (layer F.Fab) (width 0.1))
  (fp_line (start -6.75 0) (end 6.75 0) (layer F.Fab) (width 0.1))
  (fp_line (start -6.75 1.85) (end -6.75 -1.85) (layer F.Fab) (width 0.1))
  (fp_line (start -3 3.35) (end -3 1.85) (layer F.Fab) (width 0.1))
  (fp_line (start -6.75 1.85) (end 6.75 1.85) (layer F.Fab) (width 0.1))
  (fp_line (start -6.75 -0.8) (end -5.7 -1.85) (layer F.Fab) (width 0.1))
  (fp_line (start -1.5 3.35) (end -1.5 1.85) (layer F.Fab) (width 0.1))
  (fp_line (start 4.5 3.35) (end 4.5 1.85) (layer F.Fab) (width 0.1))
  (fp_line (start 1.5 3.35) (end 1.5 1.85) (layer F.Fab) (width 0.1))
  (pad 9 smd rect (at -6.55 -0.1) (size 1.7 2.2) (layers F.Cu F.Paste F.Mask))
  (pad 8 smd rect (at 6.55 -0.1) (size 1.7 2.2) (layers F.Cu F.Paste F.Mask))
  (pad 7 smd rect (at 4.5 1.15) (size 0.7 5.1) (layers F.Cu F.Paste F.Mask))
  (pad 6 smd rect (at 3 1.15) (size 0.7 5.1) (layers F.Cu F.Paste F.Mask))
  (pad 5 smd rect (at 1.5 1.15) (size 0.7 5.1) (layers F.Cu F.Paste F.Mask))
  (pad 4 smd rect (at 0 1.15) (size 0.7 5.1) (layers F.Cu F.Paste F.Mask))
  (pad 3 smd rect (at -1.5 1.15) (size 0.7 5.1) (layers F.Cu F.Paste F.Mask))
  (pad 2 smd rect (at -3 1.15) (size 0.7 5.1) (layers F.Cu F.Paste F.Mask))
  (pad 1 smd rect (at -4.5 1.15) (size 0.7 5.1) (layers F.Cu F.Paste F.Mask))
  (model "${KIPRJMOD}/../Library/Footprints.3dshapes/JST B7B-ZR-SM4-TF.step"
    (at (xyz 0 0 0))
    (scale (xyz 1 1 1))
    (rotate (xyz 0 0 0))
  )
)
