(module BLIN-AWM (layer F.Cu) (tedit 5EADDA20)
  (fp_text reference REF** (at -5.91312 5.8801) (layer F.SilkS)
    (effects (font (size 1 1) (thickness 0.15)))
  )
  (fp_text value BLIN-AWM (at 6.01218 6.49986) (layer F.Fab)
    (effects (font (size 1 1) (thickness 0.15)))
  )
  (fp_line (start 1.364131 -11.347221) (end 15.239744 -11.347161) (layer F.SilkS) (width 0.254))
  (fp_line (start 15.239744 -11.347161) (end 15.239744 -9.68263) (layer F.SilkS) (width 0.254))
  (fp_line (start 15.239769 -8.557785) (end 15.239769 -4.976507) (layer F.SilkS) (width 0.254))
  (fp_line (start -15.242733 -2.238757) (end -15.242733 -0.999378) (layer F.SilkS) (width 0.254))
  (fp_line (start -15.242733 -0.999378) (end -16.865098 -0.999378) (layer F.SilkS) (width 0.254))
  (fp_line (start -17.535194 -0.999333) (end -20.57384 -0.999333) (layer F.SilkS) (width 0.254))
  (fp_line (start -21.822811 -0.999378) (end -26.036449 -0.999378) (layer F.SilkS) (width 0.254))
  (fp_line (start -27.095974 -0.999333) (end -27.16744 -0.999333) (layer F.SilkS) (width 0.254))
  (fp_line (start -27.16744 -0.999333) (end -27.16744 2.490738) (layer F.SilkS) (width 0.254))
  (fp_line (start -27.185913 3.44781) (end -27.185913 4.137925) (layer F.SilkS) (width 0.254))
  (fp_line (start -27.185913 4.137925) (end -26.284663 4.137925) (layer F.SilkS) (width 0.254))
  (fp_line (start -24.996782 4.137925) (end -21.656204 4.137925) (layer F.SilkS) (width 0.254))
  (fp_line (start -19.331781 4.137863) (end -19.171239 4.137863) (layer F.SilkS) (width 0.254))
  (fp_line (start -17.982581 4.137925) (end -1.370409 4.137925) (layer F.SilkS) (width 0.254))
  (fp_line (start 1.367346 4.137925) (end 27.182854 4.137925) (layer F.SilkS) (width 0.254))
  (fp_line (start 27.182854 4.137925) (end 27.182854 3.497037) (layer F.SilkS) (width 0.254))
  (fp_line (start 27.182854 2.595638) (end 27.182854 -0.999333) (layer F.SilkS) (width 0.254))
  (fp_line (start 27.182854 -0.999333) (end 15.23977 -0.999333) (layer F.SilkS) (width 0.254))
  (fp_line (start 15.23977 -0.999333) (end 15.23977 -2.238757) (layer F.SilkS) (width 0.254))
  (fp_line (start -15.242707 -4.886655) (end -15.242707 -11.347221) (layer F.SilkS) (width 0.254))
  (fp_line (start -15.242707 -11.347221) (end -1.367076 -11.347221) (layer F.SilkS) (width 0.254))
  (fp_line (start 15.239744 -11.347161) (end 15.239744 -9.68263) (layer F.SilkS) (width 0.254))
  (pad 1 thru_hole circle (at -15.990513 -3.607262) (size 2.54 2.54) (drill 1.8034) (layers *.Cu *.Mask))
  (pad 3 thru_hole circle (at 15.990627 -3.607262) (size 2.54 2.54) (drill 1.8034) (layers *.Cu *.Mask))
  (pad 4 thru_hole circle (at -0.001633 -12.103062) (size 2.54 2.54) (drill 1.8034) (layers *.Cu *.Mask))
  (pad 2 thru_hole circle (at -0.001633 4.887058) (size 2.54 2.54) (drill 1.8034) (layers *.Cu *.Mask))
)
