(module C-SC10_1 (layer F.Cu) (tedit 0)
  (attr smd)
  (fp_text reference REF** (at 1.016 2.032 -90 unlocked) (layer F.SilkS) hide
    (effects (font (size 1.332992 1.40208) (thickness 0.254)))
  )
  (fp_text value C-BCP-WX10 (at 1.016 5.08 -90 unlocked) (layer F.SilkS) hide
    (effects (font (size 1.332992 1.40208) (thickness 0.254)))
  )
  (fp_circle (center 0 0) (end 4.9784 0) (layer F.Fab) (width 0.0762))
  (fp_line (start 3.2766 -5.1816) (end 5.1816 -3.2766) (layer F.SilkS) (width 0.1778))
  (fp_line (start 1.27 -5.1816) (end 3.2766 -5.1816) (layer F.SilkS) (width 0.1778))
  (fp_line (start 5.1816 5.1816) (end 5.1816 -3.2766) (layer F.SilkS) (width 0.1778))
  (fp_line (start -5.1816 5.1816) (end -1.27 5.1816) (layer F.SilkS) (width 0.1778))
  (fp_line (start -3.2766 -5.1816) (end -1.27 -5.1816) (layer F.SilkS) (width 0.1778))
  (fp_line (start 1.27 5.1816) (end 5.1816 5.1816) (layer F.SilkS) (width 0.1778))
  (fp_line (start -5.1816 5.1816) (end -5.1816 -3.2766) (layer F.SilkS) (width 0.1778))
  (fp_line (start -5.1816 -3.2766) (end -3.2766 -5.1816) (layer F.SilkS) (width 0.1778))
  (fp_line (start 3.2766 -5.1816) (end 5.1816 -3.2766) (layer Dwgs.User) (width 0.1778))
  (fp_line (start 1.27 -5.1816) (end 3.2766 -5.1816) (layer Dwgs.User) (width 0.1778))
  (fp_line (start 5.1816 5.1816) (end 5.1816 -3.2766) (layer Dwgs.User) (width 0.1778))
  (fp_line (start -5.1816 5.1816) (end -1.27 5.1816) (layer Dwgs.User) (width 0.1778))
  (fp_line (start -3.2766 -5.1816) (end -1.27 -5.1816) (layer Dwgs.User) (width 0.1778))
  (fp_line (start 1.27 5.1816) (end 5.1816 5.1816) (layer Dwgs.User) (width 0.1778))
  (fp_line (start -5.1816 5.1816) (end -5.1816 -3.2766) (layer Dwgs.User) (width 0.1778))
  (fp_line (start -5.1816 -3.2766) (end -3.2766 -5.1816) (layer Dwgs.User) (width 0.1778))
  (fp_line (start -5.1816 5.1816) (end -5.1816 -3.2766) (layer F.Fab) (width 0.3048))
  (fp_line (start -5.1816 5.1816) (end 5.1816 5.1816) (layer F.Fab) (width 0.3048))
  (fp_line (start -2.6924 4.2164) (end 2.7178 4.2164) (layer F.Fab) (width 0.0762))
  (fp_line (start 3.2766 -5.1816) (end 5.1816 -3.2766) (layer F.Fab) (width 0.3048))
  (fp_line (start -3.2766 -5.1816) (end 3.2766 -5.1816) (layer F.Fab) (width 0.3048))
  (fp_line (start 5.1816 5.1816) (end 5.1816 -3.2766) (layer F.Fab) (width 0.3048))
  (fp_line (start 0.4826 -5.1816) (end 0.4826 -5.4864) (layer F.Fab) (width 0.0762))
  (fp_line (start -0.4826 -5.4864) (end 0.4826 -5.4864) (layer F.Fab) (width 0.0762))
  (fp_line (start -0.4826 -5.1816) (end 0.4826 -5.1816) (layer F.Fab) (width 0.0762))
  (fp_line (start -0.4826 5.4864) (end -0.4826 5.1816) (layer F.Fab) (width 0.0762))
  (fp_line (start -0.4826 -5.1816) (end -0.4826 -5.4864) (layer F.Fab) (width 0.0762))
  (fp_line (start -0.4826 5.4864) (end 0.4826 5.4864) (layer F.Fab) (width 0.0762))
  (fp_line (start -0.4826 5.1816) (end 0.4826 5.1816) (layer F.Fab) (width 0.0762))
  (fp_line (start 0.4826 5.4864) (end 0.4826 5.1816) (layer F.Fab) (width 0.0762))
  (fp_line (start -1.27 4.8006) (end 1.27 4.8006) (layer F.Fab) (width 0.0762))
  (fp_line (start -5.1816 -3.2766) (end -3.2766 -5.1816) (layer F.Fab) (width 0.3048))
  (fp_line (start -2.1082 4.5212) (end 2.159 4.5212) (layer F.Fab) (width 0.0762))
  (pad - smd rect (at 0 4.191) (size 1.905 4.4196) (layers F.Cu F.Paste F.Mask))
  (pad + smd rect (at 0 -4.191) (size 1.905 4.4196) (layers F.Cu F.Paste F.Mask))
  (model ${KISYS3DMOD}/Capacitor_SMD.3dshapes/CP_Elec_10x10.5.wrl
    (at (xyz 0 0 0))
    (scale (xyz 1 1 1))
    (rotate (xyz 0 0 90))
  )
)
