(module COIN_EXTERNE placed (layer F.Cu) (tedit 5EB7DA4C)
  (fp_text reference cam6 (at 0 0) (layer F.SilkS) hide
    (effects (font (size 1 1) (thickness 0.15)))
  )
  (fp_text value COIN_EXTERNE (at 0 2) (layer F.Fab) hide
    (effects (font (size 1 1) (thickness 0.15)))
  )
  (fp_poly (pts (xy -3.81 0) (xy -3.81 -1.27) (xy -1.27 -1.27) (xy -1.27 -3.81)
    (xy 0 -3.81) (xy 0 0) (xy -3.81 0)) (layer B.Adhes) (width 0.02))
  (fp_poly (pts (xy -3.81 0) (xy -3.81 -1.27) (xy -1.27 -1.27) (xy -1.27 -3.81)
    (xy 0 -3.81) (xy 0 0) (xy -3.81 0)) (layer B.Paste) (width 0.02))
  (fp_poly (pts (xy -3.81 0) (xy -3.81 -1.27) (xy -1.27 -1.27) (xy -1.27 -3.81)
    (xy 0 -3.81) (xy 0 0) (xy -3.81 0)) (layer B.Mask) (width 0.02))
  (fp_poly (pts (xy -3.81 0) (xy -3.81 -1.27) (xy -1.27 -1.27) (xy -1.27 -3.81)
    (xy 0 -3.81) (xy 0 0) (xy -3.81 0)) (layer B.SilkS) (width 0.02))
  (fp_poly (pts (xy -3.81 0) (xy -3.81 -1.27) (xy -1.27 -1.27) (xy -1.27 -3.81)
    (xy 0 -3.81) (xy 0 0) (xy -3.81 0)) (layer B.Cu) (width 0.02))
  (fp_poly (pts (xy -3.81 0) (xy -3.81 -1.27) (xy -1.27 -1.27) (xy -1.27 -3.81)
    (xy 0 -3.81) (xy 0 0) (xy -3.81 0)) (layer B.Cu) (width 0.02))
  (fp_poly (pts (xy -3.81 0) (xy -3.81 -1.27) (xy -1.27 -1.27) (xy -1.27 -3.81)
    (xy 0 -3.81) (xy 0 0) (xy -3.81 0)) (layer In2.Cu) (width 0.02))
  (fp_poly (pts (xy -3.81 0) (xy -3.81 -1.27) (xy -1.27 -1.27) (xy -1.27 -3.81)
    (xy 0 -3.81) (xy 0 0) (xy -3.81 0)) (layer In1.Cu) (width 0.02))
  (fp_poly (pts (xy -3.81 0) (xy -3.81 -1.27) (xy -1.27 -1.27) (xy -1.27 -3.81)
    (xy 0 -3.81) (xy 0 0) (xy -3.81 0)) (layer F.Adhes) (width 0.02))
  (fp_poly (pts (xy -3.81 0) (xy -3.81 -1.27) (xy -1.27 -1.27) (xy -1.27 -3.81)
    (xy 0 -3.81) (xy 0 0) (xy -3.81 0)) (layer F.Paste) (width 0.02))
  (fp_poly (pts (xy -3.81 0) (xy -3.81 -1.27) (xy -1.27 -1.27) (xy -1.27 -3.81)
    (xy 0 -3.81) (xy 0 0) (xy -3.81 0)) (layer F.Mask) (width 0.02))
  (fp_poly (pts (xy -3.81 0) (xy -3.81 -1.27) (xy -1.27 -1.27) (xy -1.27 -3.81)
    (xy 0 -3.81) (xy 0 0) (xy -3.81 0)) (layer F.SilkS) (width 0.02))
  (fp_poly (pts (xy -3.81 0) (xy -3.81 -1.27) (xy -1.27 -1.27) (xy -1.27 -3.81)
    (xy 0 -3.81) (xy 0 0) (xy -3.81 0)) (layer F.Cu) (width 0.02))
  (fp_poly (pts (xy -3.81 0) (xy -3.81 -1.27) (xy -1.27 -1.27) (xy -1.27 -3.81)
    (xy 0 -3.81) (xy 0 0) (xy -3.81 0)) (layer F.Cu) (width 0.02))
  (fp_line (start 0 0) (end -3.81 0) (layer Dwgs.User) (width 0.05))
  (fp_line (start 0 -3.81) (end 0 0) (layer Dwgs.User) (width 0.05))
  (fp_line (start -3.81 -3.81) (end 0 -3.81) (layer Dwgs.User) (width 0.05))
  (fp_line (start -3.81 0) (end -3.81 -3.81) (layer Dwgs.User) (width 0.05))
)
