(module CON-52207-1960 (layer F.Cu) (tedit 5E8B8DF8)
  (attr smd)
  (fp_text reference REF** (at 10.9347 1.41605 270 unlocked) (layer F.SilkS)
    (effects (font (size 0.316586 0.332994) (thickness 0.0254)))
  )
  (fp_text value CON-52207-1960 (at -0.5461 -3.1877 unlocked) (layer F.SilkS) hide
    (effects (font (size 0.316586 0.332994) (thickness 0.0254)))
  )
  (fp_line (start 11.8364 -7.0358) (end -11.8364 -7.0358) (layer F.SilkS) (width 0.1778))
  (fp_line (start -10.0838 -7.0358) (end -10.0838 -5.7404) (layer F.SilkS) (width 0.1778))
  (fp_line (start -11.8364 -8.3312) (end -11.8364 -7.0358) (layer F.SilkS) (width 0.1778))
  (fp_line (start -10.0838 -5.7404) (end -11.8364 -5.7404) (layer F.SilkS) (width 0.1778))
  (fp_line (start 10.8458 -1.4478) (end -10.8458 -1.4478) (layer F.SilkS) (width 0.1778))
  (fp_line (start -11.8364 -5.7404) (end -11.8364 -3.9878) (layer F.SilkS) (width 0.1778))
  (fp_line (start 10.0838 -7.0358) (end -10.0838 -7.0358) (layer F.SilkS) (width 0.1778))
  (fp_line (start 11.8364 -8.3312) (end -11.8364 -8.3312) (layer F.SilkS) (width 0.1778))
  (fp_line (start 10.0838 -7.0358) (end 10.0838 -5.7404) (layer F.SilkS) (width 0.1778))
  (fp_line (start 11.8364 -5.7404) (end 11.8364 -3.9878) (layer F.SilkS) (width 0.1778))
  (fp_line (start 11.8364 -5.7404) (end 10.0838 -5.7404) (layer F.SilkS) (width 0.1778))
  (fp_line (start 11.8364 -8.3312) (end 11.8364 -7.0358) (layer F.SilkS) (width 0.1778))
  (pad 1 smd rect (at 8.9916 0 90) (size 1.8796 0.5842) (layers F.Cu F.Paste F.Mask))
  (pad 2 smd rect (at 7.9756 0 90) (size 1.8796 0.5842) (layers F.Cu F.Paste F.Mask))
  (pad 3 smd rect (at 6.985 0 90) (size 1.8796 0.5842) (layers F.Cu F.Paste F.Mask))
  (pad 4 smd rect (at 5.9944 0 90) (size 1.8796 0.5842) (layers F.Cu F.Paste F.Mask))
  (pad 5 smd rect (at 4.9784 0 90) (size 1.8796 0.5842) (layers F.Cu F.Paste F.Mask))
  (pad 6 smd rect (at 3.9878 0 90) (size 1.8796 0.5842) (layers F.Cu F.Paste F.Mask))
  (pad 7 smd rect (at 2.9972 0 90) (size 1.8796 0.5842) (layers F.Cu F.Paste F.Mask))
  (pad 8 smd rect (at 1.9812 0 90) (size 1.8796 0.5842) (layers F.Cu F.Paste F.Mask))
  (pad 9 smd rect (at 0.9906 0 90) (size 1.8796 0.5842) (layers F.Cu F.Paste F.Mask))
  (pad 10 smd rect (at 0 0 90) (size 1.8796 0.5842) (layers F.Cu F.Paste F.Mask))
  (pad 11 smd rect (at -0.9906 0 90) (size 1.8796 0.5842) (layers F.Cu F.Paste F.Mask))
  (pad 12 smd rect (at -1.9812 0 90) (size 1.8796 0.5842) (layers F.Cu F.Paste F.Mask))
  (pad 13 smd rect (at -2.9972 0 90) (size 1.8796 0.5842) (layers F.Cu F.Paste F.Mask))
  (pad 14 smd rect (at -3.9878 0 90) (size 1.8796 0.5842) (layers F.Cu F.Paste F.Mask))
  (pad 15 smd rect (at -4.9784 0 90) (size 1.8796 0.5842) (layers F.Cu F.Paste F.Mask))
  (pad 16 smd rect (at -5.9944 0 90) (size 1.8796 0.5842) (layers F.Cu F.Paste F.Mask))
  (pad 17 smd rect (at -6.985 0 90) (size 1.8796 0.5842) (layers F.Cu F.Paste F.Mask))
  (pad 18 smd rect (at -7.9756 0 90) (size 1.8796 0.5842) (layers F.Cu F.Paste F.Mask))
  (pad 19 smd rect (at -8.9916 0 90) (size 1.8796 0.5842) (layers F.Cu F.Paste F.Mask))
  (pad 20 smd rect (at 12.1412 -2.3368 90) (size 2.794 2.0828) (layers F.Cu F.Paste F.Mask))
  (pad 21 smd rect (at -12.1412 -2.3368 90) (size 2.794 2.0828) (layers F.Cu F.Paste F.Mask))
  (model "${KIPRJMOD}/../Library/Footprints.3dshapes/522071960.stp"
    (offset (xyz 0 4 1.35))
    (scale (xyz 1 1 1))
    (rotate (xyz 90 180 0))
  )
)
