(module DPAK-GDS_1 (layer F.Cu) (tedit 5EA06A46)
  (attr smd)
  (fp_text reference T2 (at -0.0762 -0.5842 180 unlocked) (layer F.SilkS)
    (effects (font (size 1.033069 1.086612) (thickness 0.0762)))
  )
  (fp_text value Q-BC-DPAK-GDS (at 5.1181 -0.7874 180 unlocked) (layer F.SilkS) hide
    (effects (font (size 1.033069 1.086612) (thickness 0.0762)))
  )
  (fp_line (start 3.81 -2.3368) (end -3.81 -2.3368) (layer F.SilkS) (width 0.1778))
  (fp_line (start 3.81 -2.3368) (end 3.81 5.2324) (layer F.SilkS) (width 0.1778))
  (fp_line (start -3.3274 5.715) (end -3.81 5.2324) (layer F.SilkS) (width 0.1778))
  (fp_line (start 3.3274 5.715) (end -3.3274 5.715) (layer F.SilkS) (width 0.1778))
  (fp_line (start -3.81 -2.3368) (end -3.81 5.2324) (layer F.SilkS) (width 0.1778))
  (fp_line (start 3.81 5.2324) (end 3.3274 5.715) (layer F.SilkS) (width 0.1778))
  (fp_line (start 2.8448 3.683) (end 2.8448 4.318) (layer B.Fab) (width 0.0762))
  (fp_line (start -0.4826 -3.6068) (end -0.4826 -2.3368) (layer B.Fab) (width 0.0762))
  (fp_line (start 0.4826 -2.3368) (end -0.4826 -2.3368) (layer B.Fab) (width 0.0762))
  (fp_line (start 3.3274 -2.3368) (end 3.3274 3.683) (layer B.Fab) (width 0.0762))
  (fp_line (start -2.2098 4.953) (end -2.2098 5.2578) (layer B.Fab) (width 0.0762))
  (fp_line (start -2.2098 4.953) (end -2.8448 4.318) (layer B.Fab) (width 0.0762))
  (fp_line (start -2.8448 3.683) (end -2.8448 4.318) (layer B.Fab) (width 0.0762))
  (fp_line (start 2.2098 5.2578) (end -2.2098 5.2578) (layer B.Fab) (width 0.0762))
  (fp_line (start 2.794 -5.334) (end 1.778 -5.334) (layer B.Fab) (width 0.0762))
  (fp_line (start 3.3274 3.683) (end -3.3274 3.683) (layer B.Fab) (width 0.0762))
  (fp_line (start -3.3274 -2.3368) (end -3.3274 3.683) (layer B.Fab) (width 0.0762))
  (fp_line (start -1.778 -5.207) (end -1.778 -2.3368) (layer B.Fab) (width 0.0762))
  (fp_line (start -1.778 -2.3368) (end -2.794 -2.3368) (layer B.Fab) (width 0.0762))
  (fp_line (start 3.3274 -2.3368) (end -3.3274 -2.3368) (layer B.Fab) (width 0.0762))
  (fp_line (start 2.794 -5.334) (end 2.794 -2.3368) (layer B.Fab) (width 0.0762))
  (fp_line (start 1.778 -5.334) (end 1.778 -2.3368) (layer B.Fab) (width 0.0762))
  (fp_line (start 2.794 -2.3368) (end 1.778 -2.3368) (layer B.Fab) (width 0.0762))
  (fp_line (start 2.2098 4.953) (end 2.2098 5.2578) (layer B.Fab) (width 0.0762))
  (fp_line (start -2.794 -5.207) (end -2.794 -2.3368) (layer B.Fab) (width 0.0762))
  (fp_line (start 2.8448 4.318) (end 2.2098 4.953) (layer B.Fab) (width 0.0762))
  (fp_line (start 0.4826 -3.6068) (end -0.4826 -3.6068) (layer B.Fab) (width 0.0762))
  (fp_line (start 0.4826 -3.6068) (end 0.4826 -2.3368) (layer B.Fab) (width 0.0762))
  (fp_line (start -1.778 -5.207) (end -2.794 -5.207) (layer B.Fab) (width 0.0762))
  (pad S smd rect (at -2.286 -4.8768) (size 1.5748 3.175) (layers F.Cu F.Paste F.Mask))
  (pad G smd rect (at 2.286 -4.8768) (size 1.5748 3.175) (layers F.Cu F.Paste F.Mask))
  (pad D smd rect (at 0 1.778) (size 6.7056 6.7056) (layers F.Cu F.Paste F.Mask)
    (zone_connect 2))
  (model ${KIPRJMOD}/../Library/Footprints.3dshapes/TO228P991X239-3N-R552X520.stp
    (at (xyz 0 0 0))
    (scale (xyz 1 1 1))
    (rotate (xyz 0 0 90))
  )
)
