(module DPAK placed (layer F.Cu) (tedit 5EB57CE0)
  (fp_text reference IC6 (at -1.27 0.9525 180) (layer F.SilkS)
    (effects (font (size 1 1) (thickness 0.05)) (justify left bottom))
  )
  (fp_text value LinearRegulator (at 0 2) (layer F.Fab) hide
    (effects (font (size 1 1) (thickness 0.15)))
  )
  (fp_poly (pts (xy -3.2 6.6) (xy -3.2 2.4) (xy -3.8 2.4) (xy -3.8 -5.2)
    (xy -3.3 -5.7) (xy 3.3 -5.7) (xy 3.8 -5.2) (xy 3.8 2.4)
    (xy 3.2 2.4) (xy 3.2 6.6) (xy 1.4 6.6) (xy 1.4 4)
    (xy -1.4 4) (xy -1.4 6.6)) (layer F.Fab) (width 0.02))
  (fp_line (start 3.0874 6.477) (end 1.5126 6.477) (layer F.SilkS) (width 0.1))
  (fp_line (start 3.0874 3.302) (end 3.0874 6.477) (layer F.SilkS) (width 0.1))
  (fp_line (start 1.5126 3.302) (end 3.0874 3.302) (layer F.SilkS) (width 0.1))
  (fp_line (start 1.5126 6.477) (end 1.5126 3.302) (layer F.SilkS) (width 0.1))
  (fp_line (start 3.3528 -5.1308) (end -3.3528 -5.1308) (layer F.SilkS) (width 0.1))
  (fp_line (start 3.3528 1.5748) (end 3.3528 -5.1308) (layer F.SilkS) (width 0.1))
  (fp_line (start -3.3528 1.5748) (end 3.3528 1.5748) (layer F.SilkS) (width 0.1))
  (fp_line (start -3.3528 -5.1308) (end -3.3528 1.5748) (layer F.SilkS) (width 0.1))
  (fp_line (start -1.5126 6.477) (end -3.0874 6.477) (layer F.SilkS) (width 0.1))
  (fp_line (start -1.5126 3.302) (end -1.5126 6.477) (layer F.SilkS) (width 0.1))
  (fp_line (start -3.0874 3.302) (end -1.5126 3.302) (layer F.SilkS) (width 0.1))
  (fp_line (start -3.0874 6.477) (end -3.0874 3.302) (layer F.SilkS) (width 0.1))
  (fp_line (start 3.35 2.3495) (end 3.35 -3.683) (layer F.SilkS) (width 0.1))
  (fp_line (start -3.35 2.3495) (end 3.35 2.3495) (layer F.SilkS) (width 0.1))
  (fp_line (start -3.35 -3.683) (end -3.35 2.3495) (layer F.SilkS) (width 0.1))
  (fp_line (start 3.35 -3.683) (end -3.35 -3.683) (layer F.SilkS) (width 0.1))
  (fp_line (start -1.8 5.334) (end -1.8 2.3495) (layer F.SilkS) (width 0.1))
  (fp_line (start -2.8 5.334) (end -1.8 5.334) (layer F.SilkS) (width 0.1))
  (fp_line (start -2.8 2.3495) (end -2.8 5.334) (layer F.SilkS) (width 0.1))
  (fp_line (start -1.8 2.3495) (end -2.8 2.3495) (layer F.SilkS) (width 0.1))
  (fp_line (start 2.8 5.207) (end 2.8 2.3495) (layer F.SilkS) (width 0.1))
  (fp_line (start 1.8 5.207) (end 2.8 5.207) (layer F.SilkS) (width 0.1))
  (fp_line (start 1.8 2.3495) (end 1.8 5.207) (layer F.SilkS) (width 0.1))
  (fp_line (start 2.8 2.3495) (end 1.8 2.3495) (layer F.SilkS) (width 0.1))
  (fp_line (start 2.8575 -4.318) (end 2.8575 -3.683) (layer F.SilkS) (width 0.1))
  (fp_line (start 2.2225 -4.953) (end 2.8575 -4.318) (layer F.SilkS) (width 0.1))
  (fp_line (start 2.2225 -5.2705) (end 2.2225 -4.953) (layer F.SilkS) (width 0.1))
  (fp_line (start -2.2225 -5.2705) (end 2.2225 -5.2705) (layer F.SilkS) (width 0.1))
  (fp_line (start -2.2225 -4.953) (end -2.2225 -5.2705) (layer F.SilkS) (width 0.1))
  (fp_line (start -2.8575 -4.318) (end -2.2225 -4.953) (layer F.SilkS) (width 0.1))
  (fp_line (start -2.8575 -3.683) (end -2.8575 -4.318) (layer F.SilkS) (width 0.1))
  (fp_line (start 0.5 3.6195) (end 0.5 2.3495) (layer F.SilkS) (width 0.1))
  (fp_line (start -0.5 3.6195) (end 0.5 3.6195) (layer F.SilkS) (width 0.1))
  (fp_line (start -0.5 2.3495) (end -0.5 3.6195) (layer F.SilkS) (width 0.1))
  (fp_line (start 0.5 2.3495) (end -0.5 2.3495) (layer F.SilkS) (width 0.1))
  (fp_line (start 3.81 2.3495) (end 3.81 -5.23875) (layer F.Fab) (width 0.18))
  (fp_line (start -3.81 2.3495) (end 3.81 2.3495) (layer F.Fab) (width 0.18))
  (fp_line (start -3.81 -5.23875) (end -3.81 2.3495) (layer F.Fab) (width 0.18))
  (fp_line (start -3.33375 -5.715) (end -3.81 -5.23875) (layer F.Fab) (width 0.18))
  (fp_line (start 3.33375 -5.715) (end -3.33375 -5.715) (layer F.Fab) (width 0.18))
  (fp_line (start 3.81 -5.23875) (end 3.33375 -5.715) (layer F.Fab) (width 0.18))
  (fp_line (start 3.9 6.6) (end -3.9 6.6) (layer Dwgs.User) (width 0.05))
  (fp_line (start 3.9 -5.805) (end 3.9 6.6) (layer Dwgs.User) (width 0.05))
  (fp_line (start -3.9 -5.805) (end 3.9 -5.805) (layer Dwgs.User) (width 0.05))
  (fp_line (start -3.9 6.6) (end -3.9 -5.805) (layer Dwgs.User) (width 0.05))
  (pad 3 smd rect (at 2.3 4.8895) (size 1.5748 3.175) (layers F.Cu F.Paste F.Mask)
    (zone_connect 2))
  (pad 2 smd rect (at 0 -1.778) (size 6.7056 6.7056) (layers F.Cu F.Paste F.Mask)
    (solder_mask_margin 0.1016) (zone_connect 2))
  (pad 1 smd rect (at -2.3 4.8895) (size 1.5748 3.175) (layers F.Cu F.Paste F.Mask)
    (zone_connect 2))
  (model ${KIPRJMOD}/../Library/Footprints.3dshapes/TO228P972X240-3N-R540X510.stp
    (at (xyz 0 0 0))
    (scale (xyz 1 1 1))
    (rotate (xyz 0 0 -90))
  )
)
