(module FILM18_HORIZONTAL placed (layer F.Cu) (tedit 5EB5A52B)
  (fp_text reference cam1 (at 0 0) (layer F.SilkS) hide
    (effects (font (size 1 1) (thickness 0.15)))
  )
  (fp_text value FILM18_HORIZONTAL (at 0 2) (layer F.Fab) hide
    (effects (font (size 1 1) (thickness 0.15)))
  )
  (fp_text user Detourage (at -18 78.99594) (layer Dwgs.User)
    (effects (font (size 1 1) (thickness 0.05)) (justify left))
  )
  (fp_text user "Ind :" (at -51 78.99594) (layer B.Cu)
    (effects (font (size 1 1) (thickness 0.05)) (justify left mirror))
  )
  (fp_text user "Ech : 1/1" (at -34 78.99594) (layer B.Cu)
    (effects (font (size 1 1) (thickness 0.05)) (justify left mirror))
  )
  (fp_text user "Dossier N`:" (at -34 83.99594) (layer B.Cu)
    (effects (font (size 1 1) (thickness 0.05)) (justify left mirror))
  )
  (fp_text user "Date :" (at -8 83.99594) (layer B.Cu)
    (effects (font (size 1 1) (thickness 0.05)) (justify left mirror))
  )
  (fp_text user "Carte :" (at 62.5 78.99594) (layer B.Cu)
    (effects (font (size 1 1) (thickness 0.05)) (justify left mirror))
  )
  (fp_text user "Fait par : FEE" (at 18 83.99594) (layer B.Cu)
    (effects (font (size 1 1) (thickness 0.05)) (justify left mirror))
  )
  (fp_text user "Client :" (at 62.5 83.99594) (layer B.Cu)
    (effects (font (size 1 1) (thickness 0.05)) (justify left mirror))
  )
  (fp_text user "France Etudes Electroniques " (at -100.965 82.22992) (layer B.Cu)
    (effects (font (size 1 1) (thickness 0.05)) (justify mirror))
  )
  (fp_text user "Ind :" (at 51 78.99594) (layer F.Cu)
    (effects (font (size 1 1) (thickness 0.05)) (justify left))
  )
  (fp_text user "Ech : 1/1" (at 34 78.99594) (layer F.Cu)
    (effects (font (size 1 1) (thickness 0.05)) (justify left))
  )
  (fp_text user "Dossier N`:" (at 34 83.99594) (layer F.Cu)
    (effects (font (size 1 1) (thickness 0.05)) (justify left))
  )
  (fp_text user "Date :" (at 8 83.99594) (layer F.Cu)
    (effects (font (size 1 1) (thickness 0.05)) (justify left))
  )
  (fp_text user "Carte :" (at -62.5 78.99594) (layer F.Cu)
    (effects (font (size 1 1) (thickness 0.05)) (justify left))
  )
  (fp_text user "Fait par : FEE" (at -18 83.99594) (layer F.Cu)
    (effects (font (size 1 1) (thickness 0.05)) (justify left))
  )
  (fp_text user "Client :" (at -62.5 83.99594) (layer F.Cu)
    (effects (font (size 1 1) (thickness 0.05)) (justify left))
  )
  (fp_text user "France Etudes Electroniques " (at -99.695 82.22992) (layer F.Cu)
    (effects (font (size 1 1) (thickness 0.05)))
  )
  (fp_text user "Vernis epargne face soudures" (at 18 78.99594) (layer B.Mask)
    (effects (font (size 1 1) (thickness 0.05)) (justify left mirror))
  )
  (fp_text user "Pate a braser face composants" (at -18 78.99594) (layer F.Paste)
    (effects (font (size 1 1) (thickness 0.05)) (justify left))
  )
  (fp_text user "Vernis epargne face composants" (at -18 78.99594) (layer F.Mask)
    (effects (font (size 1 1) (thickness 0.05)) (justify left))
  )
  (fp_text user "Serigraphie face composants" (at -18 78.99594) (layer F.Fab)
    (effects (font (size 1 1) (thickness 0.05)) (justify left))
  )
  (fp_text user "Face soudures" (at 18 78.99594) (layer B.Cu)
    (effects (font (size 1 1) (thickness 0.05)) (justify left mirror))
  )
  (fp_text user "Face composants" (at -18 78.99594) (layer F.Cu)
    (effects (font (size 1 1) (thickness 0.05)) (justify left))
  )
  (fp_poly (pts (xy 106.68 77.8) (xy 106.68 76.2) (xy 108.28 76.2) (xy 108.273585 76.303658)
    (xy 108.260665 76.406707) (xy 108.241291 76.50874) (xy 108.215539 76.609352) (xy 108.183512 76.708147)
    (xy 108.145336 76.804731) (xy 108.101162 76.898725) (xy 108.051166 76.989755) (xy 107.995544 77.07746)
    (xy 107.934518 77.161495) (xy 107.868328 77.241526) (xy 107.797237 77.317237) (xy 107.721526 77.388328)
    (xy 107.641495 77.454518) (xy 107.55746 77.515544) (xy 107.469755 77.571166) (xy 107.378725 77.621162)
    (xy 107.284731 77.665336) (xy 107.188147 77.703512) (xy 107.089352 77.735539) (xy 106.98874 77.761291)
    (xy 106.886707 77.780665) (xy 106.783658 77.793585) (xy 106.68 77.8)) (layer B.Cu) (width 0))
  (fp_poly (pts (xy 106.68 74.6) (xy 106.68 76.2) (xy 105.08 76.2) (xy 105.086415 76.096342)
    (xy 105.099335 75.993293) (xy 105.118709 75.89126) (xy 105.144461 75.790648) (xy 105.176488 75.691853)
    (xy 105.214664 75.595269) (xy 105.258838 75.501275) (xy 105.308834 75.410245) (xy 105.364456 75.32254)
    (xy 105.425482 75.238505) (xy 105.491672 75.158474) (xy 105.562763 75.082763) (xy 105.638474 75.011672)
    (xy 105.718505 74.945482) (xy 105.80254 74.884456) (xy 105.890245 74.828834) (xy 105.981275 74.778838)
    (xy 106.075269 74.734664) (xy 106.171853 74.696488) (xy 106.270648 74.664461) (xy 106.37126 74.638709)
    (xy 106.473293 74.619335) (xy 106.576342 74.606415) (xy 106.68 74.6)) (layer B.Cu) (width 0))
  (fp_poly (pts (xy 106.68 -74.6) (xy 106.68 -76.2) (xy 108.28 -76.2) (xy 108.273585 -76.096342)
    (xy 108.260665 -75.993293) (xy 108.241291 -75.89126) (xy 108.215539 -75.790648) (xy 108.183512 -75.691853)
    (xy 108.145336 -75.595269) (xy 108.101162 -75.501275) (xy 108.051166 -75.410245) (xy 107.995544 -75.32254)
    (xy 107.934518 -75.238505) (xy 107.868328 -75.158474) (xy 107.797237 -75.082763) (xy 107.721526 -75.011672)
    (xy 107.641495 -74.945482) (xy 107.55746 -74.884456) (xy 107.469755 -74.828834) (xy 107.378725 -74.778838)
    (xy 107.284731 -74.734664) (xy 107.188147 -74.696488) (xy 107.089352 -74.664461) (xy 106.98874 -74.638709)
    (xy 106.886707 -74.619335) (xy 106.783658 -74.606415) (xy 106.68 -74.6)) (layer B.Cu) (width 0))
  (fp_poly (pts (xy 106.68 -77.8) (xy 106.68 -76.2) (xy 105.08 -76.2) (xy 105.086415 -76.303658)
    (xy 105.099335 -76.406707) (xy 105.118709 -76.50874) (xy 105.144461 -76.609352) (xy 105.176488 -76.708147)
    (xy 105.214664 -76.804731) (xy 105.258838 -76.898725) (xy 105.308834 -76.989755) (xy 105.364456 -77.07746)
    (xy 105.425482 -77.161495) (xy 105.491672 -77.241526) (xy 105.562763 -77.317237) (xy 105.638474 -77.388328)
    (xy 105.718505 -77.454518) (xy 105.80254 -77.515544) (xy 105.890245 -77.571166) (xy 105.981275 -77.621162)
    (xy 106.075269 -77.665336) (xy 106.171853 -77.703512) (xy 106.270648 -77.735539) (xy 106.37126 -77.761291)
    (xy 106.473293 -77.780665) (xy 106.576342 -77.793585) (xy 106.68 -77.8)) (layer B.Cu) (width 0))
  (fp_poly (pts (xy -106.68 -74.6) (xy -106.68 -76.2) (xy -105.08 -76.2) (xy -105.086414 -76.096342)
    (xy -105.099334 -75.993293) (xy -105.118708 -75.89126) (xy -105.144459 -75.790647) (xy -105.176486 -75.691852)
    (xy -105.214662 -75.595267) (xy -105.258835 -75.501273) (xy -105.308832 -75.410244) (xy -105.364453 -75.322537)
    (xy -105.425479 -75.238502) (xy -105.491669 -75.158471) (xy -105.56276 -75.08276) (xy -105.638471 -75.011669)
    (xy -105.718502 -74.945479) (xy -105.802537 -74.884453) (xy -105.890244 -74.828832) (xy -105.981273 -74.778835)
    (xy -106.075267 -74.734662) (xy -106.171852 -74.696486) (xy -106.270647 -74.664459) (xy -106.37126 -74.638708)
    (xy -106.473293 -74.619334) (xy -106.576342 -74.606414) (xy -106.68 -74.6)) (layer B.Cu) (width 0))
  (fp_poly (pts (xy -106.68 -77.8) (xy -106.68 -76.2) (xy -108.28 -76.2) (xy -108.273585 -76.303657)
    (xy -108.260664 -76.406706) (xy -108.241289 -76.508739) (xy -108.215537 -76.609351) (xy -108.183509 -76.708145)
    (xy -108.145333 -76.80473) (xy -108.101159 -76.898723) (xy -108.051163 -76.989753) (xy -107.995541 -77.077458)
    (xy -107.934515 -77.161493) (xy -107.868326 -77.241524) (xy -107.797235 -77.317235) (xy -107.721524 -77.388326)
    (xy -107.641493 -77.454515) (xy -107.557458 -77.515541) (xy -107.469753 -77.571163) (xy -107.378723 -77.621159)
    (xy -107.28473 -77.665333) (xy -107.188145 -77.703509) (xy -107.089351 -77.735537) (xy -106.988739 -77.761289)
    (xy -106.886706 -77.780664) (xy -106.783657 -77.793585) (xy -106.68 -77.8)) (layer B.Cu) (width 0))
  (fp_poly (pts (xy -101.41625 75.90953) (xy -101.517388 75.887385) (xy -101.614362 75.851114) (xy -101.705207 75.801451)
    (xy -101.788087 75.739401) (xy -101.861325 75.666219) (xy -101.923438 75.583385) (xy -101.97317 75.492577)
    (xy -102.009513 75.395631) (xy -102.031734 75.294509) (xy -102.039383 75.191258) (xy -102.032304 75.087966)
    (xy -102.01064 74.986723) (xy -101.974831 74.889578) (xy -101.925601 74.798497) (xy -101.863946 74.715323)
    (xy -101.791113 74.641738) (xy -101.708576 74.579232) (xy -101.618005 74.529069) (xy -101.521233 74.492264)
    (xy -101.420219 74.469562) (xy -101.317005 74.461422) (xy -101.21368 74.46801) (xy -100.6552 74.5465)
    (xy -100.636499 74.652969) (xy -100.604228 74.756138) (xy -100.558927 74.854286) (xy -100.501351 74.945776)
    (xy -100.432462 75.02908) (xy -100.353408 75.102808) (xy -100.26551 75.16573) (xy -100.366582 75.175202)
    (xy -100.46553 75.197886) (xy -100.560635 75.233387) (xy -100.650244 75.281089) (xy -100.7328 75.340163)
    (xy -100.806869 75.409583) (xy -100.871164 75.488141) (xy -100.924568 75.574474) (xy -100.966151 75.667081)
    (xy -100.995193 75.764353) (xy -101.011189 75.8646) (xy -101.01386 75.96608) (xy -101.41625 75.90953)) (layer B.Cu) (width 0))
  (fp_poly (pts (xy -91.22296 73.982) (xy -89.88444 74.17011) (xy -90.21723 76.53832) (xy -90.239456 76.637128)
    (xy -90.264305 76.735308) (xy -90.291759 76.832793) (xy -90.321798 76.929512) (xy -90.354402 77.025397)
    (xy -90.389546 77.12038) (xy -90.427207 77.214394) (xy -90.467357 77.307372) (xy -90.509969 77.399248)
    (xy -90.555011 77.489957) (xy -90.602452 77.579434) (xy -90.652259 77.667617) (xy -90.704395 77.754443)
    (xy -90.758825 77.83985) (xy -90.815509 77.923778) (xy -90.874407 78.006167) (xy -90.935477 78.086959)
    (xy -90.998677 78.166096) (xy -91.063961 78.243523) (xy -91.131284 78.319184) (xy -91.200597 78.393026)
    (xy -91.271851 78.464997) (xy -91.344996 78.535045) (xy -91.419979 78.603121) (xy -91.496749 78.669177)
    (xy -91.57525 78.733166) (xy -91.655426 78.795042) (xy -91.737222 78.854762) (xy -91.820578 78.912282)
    (xy -91.905436 78.967564) (xy -91.991736 79.020567) (xy -92.079416 79.071253) (xy -92.168415 79.119587)
    (xy -92.258668 79.165535) (xy -92.350113 79.209064) (xy -92.442685 79.250142) (xy -92.536317 79.288742)
    (xy -92.630944 79.324836) (xy -92.726498 79.358397) (xy -92.822911 79.389403) (xy -92.920116 79.417831)
    (xy -93.018043 79.443661) (xy -93.116623 79.466875) (xy -93.215787 79.487456) (xy -93.315463 79.50539)
    (xy -93.415581 79.520664) (xy -93.51607 79.533267) (xy -93.616859 79.54319) (xy -93.717877 79.550427)
    (xy -93.819051 79.554972) (xy -93.920311 79.556822) (xy -94.021584 79.555975) (xy -94.122798 79.552433)
    (xy -94.223883 79.546197) (xy -94.324765 79.537272) (xy -94.425375 79.525665) (xy -94.525639 79.511384)
    (xy -94.625488 79.494438) (xy -94.72485 79.47484) (xy -94.639069 79.415288) (xy -94.559972 79.347109)
    (xy -94.488423 79.271047) (xy -94.425203 79.187932) (xy -94.371003 79.098673) (xy -94.326415 79.004245)
    (xy -94.291926 78.905679) (xy -94.267913 78.804052) (xy -94.254638 78.700473) (xy -94.252245 78.596075)
    (xy -94.260762 78.491997) (xy -94.280095 78.389376) (xy -94.310033 78.289333) (xy -94.350249 78.192962)
    (xy -94.400303 78.101314) (xy -94.459649 78.015391) (xy -94.527639 77.936131) (xy -94.60353 77.8644)
    (xy -94.515987 77.810097) (xy -94.43353 77.748343) (xy -94.356792 77.679612) (xy -94.286361 77.604431)
    (xy -94.222777 77.523377) (xy -94.166528 77.437071) (xy -94.118046 77.346176) (xy -94.077701 77.251387)
    (xy -94.045803 77.153432) (xy -94.022597 77.053062) (xy -94.008261 76.951046) (xy -94.002905 76.848168)
    (xy -94.00657 76.745215) (xy -94.019227 76.642978) (xy -94.040781 76.54224) (xy -94.071064 76.443774)
    (xy -94.109846 76.348335) (xy -94.156828 76.256655) (xy -94.211651 76.169436) (xy -94.273894 76.087348)
    (xy -94.34308 76.01102) (xy -94.26252 75.948588) (xy -94.187568 75.879523) (xy -94.118768 75.804328)
    (xy -94.056619 75.723549) (xy -94.001574 75.637772) (xy -93.954031 75.547619) (xy -93.914336 75.453747)
    (xy -93.882778 75.356836) (xy -93.859585 75.25759) (xy -93.844925 75.156729) (xy -93.838906 75.054987)
    (xy -93.841571 74.953101) (xy -93.8529 74.851813) (xy -93.872811 74.751857) (xy -93.90116 74.653958)
    (xy -93.937742 74.558829) (xy -93.982289 74.46716) (xy -94.034479 74.379616) (xy -94.093933 74.296833)
    (xy -94.160219 74.219413) (xy -94.232855 74.147917) (xy -94.311315 74.082865) (xy -94.395028 74.024729)
    (xy -94.483387 73.973931) (xy -94.57575 73.93084) (xy -102.09225 72.87456) (xy -102.191039 72.855631)
    (xy -102.286275 72.823265) (xy -102.376141 72.778081) (xy -102.458921 72.720941) (xy -102.533035 72.652935)
    (xy -102.597067 72.575363) (xy -102.649795 72.489706) (xy -102.690213 72.397597) (xy -102.717548 72.300797)
    (xy -102.73128 72.201153) (xy -102.731146 72.100567) (xy -102.717148 72.00096) (xy -102.689553 71.904233)
    (xy -102.648889 71.812233) (xy -102.595932 71.726717) (xy -102.531693 71.649316) (xy -102.457398 71.58151)
    (xy -102.374466 71.524591) (xy -102.284479 71.479647) (xy -102.189157 71.447536) (xy -102.090318 71.428871)
    (xy -101.98985 71.424008) (xy -101.88967 71.43304) (xy -94.82377 72.42599) (xy -94.828889 72.312141)
    (xy -94.856556 72.201587) (xy -94.905664 72.098747) (xy -94.974251 72.007732) (xy -95.059574 71.932183)
    (xy -95.158221 71.875118) (xy -95.26625 71.83882) (xy -97.6987 71.49699) (xy -97.799956 71.47806)
    (xy -97.899314 71.450876) (xy -97.996104 71.415621) (xy -98.08967 71.372534) (xy -98.17938 71.321906)
    (xy -98.264628 71.26408) (xy -98.344837 71.199445) (xy -98.419465 71.12844) (xy -98.488008 71.051545)
    (xy -98.550002 70.969278) (xy -98.605028 70.882196) (xy -98.652714 70.790888) (xy -98.692738 70.695972)
    (xy -98.72483 70.598088) (xy -98.748771 70.497899) (xy -98.764401 70.396081) (xy -98.771614 70.293324)
    (xy -98.770361 70.190321) (xy -98.76065 70.08777) (xy -98.717972 69.984216) (xy -98.657631 69.889857)
    (xy -98.581533 69.807676) (xy -98.492083 69.74027) (xy -98.392111 69.68977) (xy -98.284775 69.657773)
    (xy -98.17347 69.64529) (xy -94.05483 70.22408) (xy -93.955523 70.239563) (xy -93.85673 70.258039)
    (xy -93.758539 70.27949) (xy -93.661041 70.303898) (xy -93.564325 70.331239) (xy -93.468479 70.361489)
    (xy -93.37359 70.39462) (xy -93.279745 70.430602) (xy -93.18703 70.469402) (xy -93.095529 70.510986)
    (xy -93.005326 70.555314) (xy -92.916503 70.602346) (xy -92.829141 70.65204) (xy -92.743321 70.704349)
    (xy -92.659119 70.759228) (xy -92.576613 70.816624) (xy -92.495878 70.876486) (xy -92.416989 70.93876)
    (xy -92.340016 71.003388) (xy -92.265031 71.070312) (xy -92.192102 71.13947) (xy -92.121294 71.210799)
    (xy -92.052673 71.284234) (xy -91.986302 71.359709) (xy -91.922241 71.437154) (xy -91.860548 71.516498)
    (xy -91.80128 71.59767) (xy -91.744491 71.680595) (xy -91.690232 71.765197) (xy -91.638554 71.8514)
    (xy -91.589503 71.939124) (xy -91.543124 72.02829) (xy -91.499459 72.118816) (xy -91.458549 72.21062)
    (xy -91.42043 72.303617) (xy -91.385138 72.397723) (xy -91.352704 72.492853) (xy -91.323159 72.588918)
    (xy -91.296528 72.685833) (xy -91.272837 72.783507) (xy -91.252107 72.881853) (xy -91.234357 72.980779)
    (xy -91.219604 73.080197) (xy -91.20786 73.180015) (xy -91.199136 73.280142) (xy -91.193441 73.380487)
    (xy -91.190779 73.480958) (xy -91.191153 73.581464) (xy -91.194562 73.681913) (xy -91.201004 73.782213)
    (xy -91.210473 73.882272) (xy -91.22296 73.982)) (layer B.Cu) (width 0))
  (fp_poly (pts (xy -97.09041 79.4049) (xy -97.099511 79.510053) (xy -97.120307 79.61353) (xy -97.152539 79.714035)
    (xy -97.195802 79.810307) (xy -97.249555 79.90114) (xy -97.313123 79.985397) (xy -97.38571 80.06202)
    (xy -97.466406 80.13005) (xy -97.5542 80.188635) (xy -97.647993 80.23704) (xy -97.746607 80.274658)
    (xy -97.848809 80.301019) (xy -97.953316 80.315791) (xy -98.05882 80.31879) (xy -101.66261 79.81235)
    (xy -101.759512 79.777624) (xy -101.851614 79.731657) (xy -101.937619 79.675097) (xy -102.016313 79.608742)
    (xy -102.086588 79.533527) (xy -102.147452 79.450513) (xy -102.198048 79.36087) (xy -102.237661 79.265861)
    (xy -102.265734 79.166827) (xy -102.28187 79.065164) (xy -102.285843 78.962305) (xy -102.277595 78.859699)
    (xy -102.257244 78.758795) (xy -102.225077 78.661014) (xy -102.181546 78.567736) (xy -102.127266 78.480275)
    (xy -102.063002 78.399864) (xy -101.989659 78.327637) (xy -101.908273 78.264612) (xy -101.81999 78.211678)
    (xy -101.726056 78.169582) (xy -101.627794 78.138917) (xy -101.526589 78.120114) (xy -101.42387 78.11344)
    (xy -100.70312 78.21472) (xy -100.690259 78.319466) (xy -100.664405 78.421782) (xy -100.625963 78.520063)
    (xy -100.575537 78.612768) (xy -100.513916 78.698441) (xy -100.442069 78.77574) (xy -100.361122 78.84345)
    (xy -100.272346 78.900509) (xy -100.177133 78.946023) (xy -100.076977 78.979277) (xy -99.97345 78.99975)
    (xy -97.09041 79.4049)) (layer B.Cu) (width 0))
  (fp_poly (pts (xy -100.65971 77.90583) (xy -101.74084 77.75391) (xy -101.84141 77.733834) (xy -101.938475 77.700735)
    (xy -102.030359 77.655186) (xy -102.115471 77.597973) (xy -102.192339 77.530087) (xy -102.259635 77.452702)
    (xy -102.316195 77.367155) (xy -102.361041 77.274926) (xy -102.393396 77.17761) (xy -102.412702 77.076889)
    (xy -102.418625 76.974507) (xy -102.411062 76.872232) (xy -102.390144 76.771834) (xy -102.356233 76.675049)
    (xy -102.309916 76.583551) (xy -102.251992 76.498921) (xy -102.183465 76.422624) (xy -102.105518 76.355978)
    (xy -102.0195 76.300137) (xy -101.926899 76.256066) (xy -101.829315 76.224527) (xy -101.728436 76.206065)
    (xy -101.626008 76.201001) (xy -101.5238 76.20942) (xy -101.05727 76.27498) (xy -101.040045 76.373927)
    (xy -101.014048 76.47094) (xy -100.979488 76.565242) (xy -100.936639 76.656078) (xy -100.885846 76.742723)
    (xy -100.827514 76.824483) (xy -100.762111 76.900704) (xy -100.690159 76.970776) (xy -100.612233 77.034139)
    (xy -100.528958 77.090286) (xy -100.440999 77.138768) (xy -100.34906 77.179198) (xy -100.253877 77.21125)
    (xy -100.15621 77.23467) (xy -100.25576 77.282149) (xy -100.347847 77.342849) (xy -100.430726 77.415619)
    (xy -100.502828 77.499081) (xy -100.562786 77.591653) (xy -100.609463 77.691581) (xy -100.641977 77.796972)
    (xy -100.65971 77.90583)) (layer B.Cu) (width 0))
  (fp_poly (pts (xy 106.68 77.8) (xy 106.68 76.2) (xy 108.28 76.2) (xy 108.273585 76.303658)
    (xy 108.260665 76.406707) (xy 108.241291 76.50874) (xy 108.215539 76.609352) (xy 108.183512 76.708147)
    (xy 108.145336 76.804731) (xy 108.101162 76.898725) (xy 108.051166 76.989755) (xy 107.995544 77.07746)
    (xy 107.934518 77.161495) (xy 107.868328 77.241526) (xy 107.797237 77.317237) (xy 107.721526 77.388328)
    (xy 107.641495 77.454518) (xy 107.55746 77.515544) (xy 107.469755 77.571166) (xy 107.378725 77.621162)
    (xy 107.284731 77.665336) (xy 107.188147 77.703512) (xy 107.089352 77.735539) (xy 106.98874 77.761291)
    (xy 106.886707 77.780665) (xy 106.783658 77.793585) (xy 106.68 77.8)) (layer F.Cu) (width 0))
  (fp_poly (pts (xy 106.68 74.6) (xy 106.68 76.2) (xy 105.08 76.2) (xy 105.086415 76.096342)
    (xy 105.099335 75.993293) (xy 105.118709 75.89126) (xy 105.144461 75.790648) (xy 105.176488 75.691853)
    (xy 105.214664 75.595269) (xy 105.258838 75.501275) (xy 105.308834 75.410245) (xy 105.364456 75.32254)
    (xy 105.425482 75.238505) (xy 105.491672 75.158474) (xy 105.562763 75.082763) (xy 105.638474 75.011672)
    (xy 105.718505 74.945482) (xy 105.80254 74.884456) (xy 105.890245 74.828834) (xy 105.981275 74.778838)
    (xy 106.075269 74.734664) (xy 106.171853 74.696488) (xy 106.270648 74.664461) (xy 106.37126 74.638709)
    (xy 106.473293 74.619335) (xy 106.576342 74.606415) (xy 106.68 74.6)) (layer F.Cu) (width 0))
  (fp_poly (pts (xy 106.68 -74.6) (xy 106.68 -76.2) (xy 108.28 -76.2) (xy 108.273585 -76.096342)
    (xy 108.260665 -75.993293) (xy 108.241291 -75.89126) (xy 108.215539 -75.790648) (xy 108.183512 -75.691853)
    (xy 108.145336 -75.595269) (xy 108.101162 -75.501275) (xy 108.051166 -75.410245) (xy 107.995544 -75.32254)
    (xy 107.934518 -75.238505) (xy 107.868328 -75.158474) (xy 107.797237 -75.082763) (xy 107.721526 -75.011672)
    (xy 107.641495 -74.945482) (xy 107.55746 -74.884456) (xy 107.469755 -74.828834) (xy 107.378725 -74.778838)
    (xy 107.284731 -74.734664) (xy 107.188147 -74.696488) (xy 107.089352 -74.664461) (xy 106.98874 -74.638709)
    (xy 106.886707 -74.619335) (xy 106.783658 -74.606415) (xy 106.68 -74.6)) (layer F.Cu) (width 0))
  (fp_poly (pts (xy 106.68 -77.8) (xy 106.68 -76.2) (xy 105.08 -76.2) (xy 105.086415 -76.303658)
    (xy 105.099335 -76.406707) (xy 105.118709 -76.50874) (xy 105.144461 -76.609352) (xy 105.176488 -76.708147)
    (xy 105.214664 -76.804731) (xy 105.258838 -76.898725) (xy 105.308834 -76.989755) (xy 105.364456 -77.07746)
    (xy 105.425482 -77.161495) (xy 105.491672 -77.241526) (xy 105.562763 -77.317237) (xy 105.638474 -77.388328)
    (xy 105.718505 -77.454518) (xy 105.80254 -77.515544) (xy 105.890245 -77.571166) (xy 105.981275 -77.621162)
    (xy 106.075269 -77.665336) (xy 106.171853 -77.703512) (xy 106.270648 -77.735539) (xy 106.37126 -77.761291)
    (xy 106.473293 -77.780665) (xy 106.576342 -77.793585) (xy 106.68 -77.8)) (layer F.Cu) (width 0))
  (fp_poly (pts (xy -106.68 -74.6) (xy -106.68 -76.2) (xy -105.08 -76.2) (xy -105.086414 -76.096342)
    (xy -105.099334 -75.993293) (xy -105.118708 -75.89126) (xy -105.144459 -75.790647) (xy -105.176486 -75.691852)
    (xy -105.214662 -75.595267) (xy -105.258835 -75.501273) (xy -105.308832 -75.410244) (xy -105.364453 -75.322537)
    (xy -105.425479 -75.238502) (xy -105.491669 -75.158471) (xy -105.56276 -75.08276) (xy -105.638471 -75.011669)
    (xy -105.718502 -74.945479) (xy -105.802537 -74.884453) (xy -105.890244 -74.828832) (xy -105.981273 -74.778835)
    (xy -106.075267 -74.734662) (xy -106.171852 -74.696486) (xy -106.270647 -74.664459) (xy -106.37126 -74.638708)
    (xy -106.473293 -74.619334) (xy -106.576342 -74.606414) (xy -106.68 -74.6)) (layer F.Cu) (width 0))
  (fp_poly (pts (xy -106.68 -77.8) (xy -106.68 -76.2) (xy -108.28 -76.2) (xy -108.273585 -76.303657)
    (xy -108.260664 -76.406706) (xy -108.241289 -76.508739) (xy -108.215537 -76.609351) (xy -108.183509 -76.708145)
    (xy -108.145333 -76.80473) (xy -108.101159 -76.898723) (xy -108.051163 -76.989753) (xy -107.995541 -77.077458)
    (xy -107.934515 -77.161493) (xy -107.868326 -77.241524) (xy -107.797235 -77.317235) (xy -107.721524 -77.388326)
    (xy -107.641493 -77.454515) (xy -107.557458 -77.515541) (xy -107.469753 -77.571163) (xy -107.378723 -77.621159)
    (xy -107.28473 -77.665333) (xy -107.188145 -77.703509) (xy -107.089351 -77.735537) (xy -106.988739 -77.761289)
    (xy -106.886706 -77.780664) (xy -106.783657 -77.793585) (xy -106.68 -77.8)) (layer F.Cu) (width 0))
  (fp_poly (pts (xy -100.00029 77.90583) (xy -100.018022 77.796972) (xy -100.050534 77.69158) (xy -100.097212 77.591651)
    (xy -100.157169 77.499079) (xy -100.229271 77.415617) (xy -100.312151 77.342847) (xy -100.404239 77.282148)
    (xy -100.50379 77.23467) (xy -100.406123 77.21125) (xy -100.31094 77.179198) (xy -100.219001 77.138768)
    (xy -100.131042 77.090286) (xy -100.047767 77.034139) (xy -99.969841 76.970776) (xy -99.897889 76.900704)
    (xy -99.832486 76.824483) (xy -99.774154 76.742723) (xy -99.723361 76.656078) (xy -99.680512 76.565242)
    (xy -99.645952 76.47094) (xy -99.619955 76.373927) (xy -99.60273 76.27498) (xy -99.1362 76.20942)
    (xy -99.033992 76.201001) (xy -98.931564 76.206065) (xy -98.830685 76.224527) (xy -98.733101 76.256066)
    (xy -98.6405 76.300137) (xy -98.554482 76.355978) (xy -98.476535 76.422624) (xy -98.408008 76.498921)
    (xy -98.350084 76.583551) (xy -98.303767 76.675049) (xy -98.269856 76.771834) (xy -98.248938 76.872232)
    (xy -98.241375 76.974507) (xy -98.247298 77.076889) (xy -98.266604 77.17761) (xy -98.298959 77.274926)
    (xy -98.343805 77.367155) (xy -98.400365 77.452702) (xy -98.467661 77.530087) (xy -98.544529 77.597973)
    (xy -98.629641 77.655186) (xy -98.721525 77.700735) (xy -98.81859 77.733834) (xy -98.91916 77.75391)
    (xy -100.00029 77.90583)) (layer F.Cu) (width 0))
  (fp_poly (pts (xy -103.56959 79.4049) (xy -100.68655 78.99975) (xy -100.583022 78.979279) (xy -100.482865 78.946026)
    (xy -100.387651 78.900513) (xy -100.298874 78.843454) (xy -100.217927 78.775744) (xy -100.146079 78.698445)
    (xy -100.084459 78.612771) (xy -100.034033 78.520066) (xy -99.995591 78.421783) (xy -99.969739 78.319466)
    (xy -99.95688 78.21472) (xy -99.23613 78.11344) (xy -99.13341 78.120112) (xy -99.032204 78.138912)
    (xy -98.933941 78.169576) (xy -98.840005 78.211671) (xy -98.75172 78.264603) (xy -98.670332 78.327627)
    (xy -98.596988 78.399853) (xy -98.532722 78.480264) (xy -98.47844 78.567725) (xy -98.434908 78.661004)
    (xy -98.402739 78.758785) (xy -98.382386 78.85969) (xy -98.374138 78.962295) (xy -98.378109 79.065156)
    (xy -98.394245 79.16682) (xy -98.422317 79.265855) (xy -98.46193 79.360864) (xy -98.512525 79.450509)
    (xy -98.57339 79.533524) (xy -98.643664 79.60874) (xy -98.722359 79.675096) (xy -98.808365 79.731656)
    (xy -98.900468 79.777624) (xy -98.99737 79.81235) (xy -102.60116 80.31879) (xy -102.706664 80.31579)
    (xy -102.811172 80.301017) (xy -102.913374 80.274656) (xy -103.011989 80.237037) (xy -103.105782 80.188633)
    (xy -103.193577 80.130048) (xy -103.274275 80.062018) (xy -103.346863 79.985395) (xy -103.410433 79.901139)
    (xy -103.464187 79.810307) (xy -103.507452 79.714035) (xy -103.539687 79.613531) (xy -103.560486 79.510054)
    (xy -103.56959 79.4049)) (layer F.Cu) (width 0))
  (fp_poly (pts (xy -109.43704 73.982) (xy -109.449527 73.882272) (xy -109.458996 73.782213) (xy -109.465438 73.681913)
    (xy -109.468847 73.581464) (xy -109.469221 73.480958) (xy -109.466559 73.380487) (xy -109.460864 73.280142)
    (xy -109.45214 73.180015) (xy -109.440396 73.080197) (xy -109.425643 72.980779) (xy -109.407893 72.881853)
    (xy -109.387163 72.783507) (xy -109.363472 72.685833) (xy -109.336841 72.588918) (xy -109.307296 72.492853)
    (xy -109.274862 72.397723) (xy -109.23957 72.303617) (xy -109.201451 72.21062) (xy -109.160541 72.118816)
    (xy -109.116876 72.02829) (xy -109.070497 71.939124) (xy -109.021446 71.8514) (xy -108.969768 71.765197)
    (xy -108.915509 71.680595) (xy -108.85872 71.59767) (xy -108.799452 71.516498) (xy -108.737759 71.437154)
    (xy -108.673698 71.359709) (xy -108.607327 71.284234) (xy -108.538706 71.210799) (xy -108.467898 71.13947)
    (xy -108.394969 71.070312) (xy -108.319984 71.003388) (xy -108.243011 70.93876) (xy -108.164122 70.876486)
    (xy -108.083387 70.816624) (xy -108.000881 70.759228) (xy -107.916679 70.704349) (xy -107.830859 70.65204)
    (xy -107.743497 70.602346) (xy -107.654674 70.555314) (xy -107.564471 70.510986) (xy -107.47297 70.469402)
    (xy -107.380255 70.430602) (xy -107.28641 70.39462) (xy -107.191521 70.361489) (xy -107.095675 70.331239)
    (xy -106.998959 70.303898) (xy -106.901461 70.27949) (xy -106.80327 70.258039) (xy -106.704477 70.239563)
    (xy -106.60517 70.22408) (xy -102.48653 69.64529) (xy -102.375223 69.65777) (xy -102.267887 69.689765)
    (xy -102.167913 69.740264) (xy -102.078463 69.807671) (xy -102.002365 69.889854) (xy -101.942025 69.984214)
    (xy -101.89935 70.08777) (xy -101.889639 70.190321) (xy -101.888386 70.293324) (xy -101.895599 70.396081)
    (xy -101.911229 70.497899) (xy -101.93517 70.598088) (xy -101.967262 70.695972) (xy -102.007286 70.790888)
    (xy -102.054972 70.882196) (xy -102.109998 70.969278) (xy -102.171992 71.051545) (xy -102.240535 71.12844)
    (xy -102.315163 71.199445) (xy -102.395372 71.26408) (xy -102.48062 71.321906) (xy -102.57033 71.372534)
    (xy -102.663896 71.415621) (xy -102.760686 71.450876) (xy -102.860044 71.47806) (xy -102.9613 71.49699)
    (xy -105.39375 71.83882) (xy -105.501777 71.875121) (xy -105.600423 71.932186) (xy -105.685744 72.007736)
    (xy -105.754331 72.09875) (xy -105.80344 72.201589) (xy -105.831108 72.312142) (xy -105.83623 72.42599)
    (xy -98.77033 71.43304) (xy -98.670191 71.424081) (xy -98.569773 71.429005) (xy -98.47099 71.447717)
    (xy -98.375728 71.47986) (xy -98.285803 71.524823) (xy -98.202931 71.581746) (xy -98.128692 71.649545)
    (xy -98.064502 71.726925) (xy -98.011585 71.812412) (xy -97.970952 71.904374) (xy -97.943376 72.001057)
    (xy -97.929385 72.100618) (xy -97.929244 72.201157) (xy -97.942957 72.300757) (xy -97.970262 72.397517)
    (xy -98.010638 72.489592) (xy -98.063315 72.575227) (xy -98.127288 72.652786) (xy -98.201337 72.720792)
    (xy -98.28405 72.777947) (xy -98.373849 72.823161) (xy -98.46902 72.855572) (xy -98.56775 72.87456)
    (xy -106.08425 73.93084) (xy -106.176611 73.973933) (xy -106.264967 74.024733) (xy -106.348678 74.08287)
    (xy -106.427135 74.147923) (xy -106.49977 74.21942) (xy -106.566054 74.29684) (xy -106.625505 74.379623)
    (xy -106.677694 74.467167) (xy -106.72224 74.558835) (xy -106.75882 74.653963) (xy -106.787168 74.751861)
    (xy -106.807079 74.851816) (xy -106.818408 74.953103) (xy -106.821073 75.054987) (xy -106.815054 75.156729)
    (xy -106.800396 75.257588) (xy -106.777204 75.356833) (xy -106.745647 75.453744) (xy -106.705954 75.547616)
    (xy -106.658413 75.637768) (xy -106.60337 75.723545) (xy -106.541224 75.804325) (xy -106.472427 75.87952)
    (xy -106.397477 75.948586) (xy -106.31692 76.01102) (xy -106.386106 76.087348) (xy -106.448349 76.169436)
    (xy -106.503172 76.256655) (xy -106.550154 76.348335) (xy -106.588936 76.443774) (xy -106.619219 76.54224)
    (xy -106.640773 76.642978) (xy -106.65343 76.745215) (xy -106.657095 76.848168) (xy -106.651739 76.951046)
    (xy -106.637403 77.053062) (xy -106.614197 77.153432) (xy -106.582299 77.251387) (xy -106.541954 77.346176)
    (xy -106.493472 77.437071) (xy -106.437223 77.523377) (xy -106.373639 77.604431) (xy -106.303208 77.679612)
    (xy -106.22647 77.748343) (xy -106.144013 77.810097) (xy -106.05647 77.8644) (xy -106.132361 77.936131)
    (xy -106.200351 78.015391) (xy -106.259697 78.101314) (xy -106.309751 78.192962) (xy -106.349967 78.289333)
    (xy -106.379905 78.389376) (xy -106.399238 78.491997) (xy -106.407755 78.596075) (xy -106.405362 78.700473)
    (xy -106.392087 78.804052) (xy -106.368074 78.905679) (xy -106.333585 79.004245) (xy -106.288997 79.098673)
    (xy -106.234797 79.187932) (xy -106.171577 79.271047) (xy -106.100028 79.347109) (xy -106.020931 79.415288)
    (xy -105.93515 79.47484) (xy -106.034512 79.494438) (xy -106.134361 79.511383) (xy -106.234626 79.525664)
    (xy -106.335236 79.537271) (xy -106.436118 79.546196) (xy -106.537203 79.552432) (xy -106.638418 79.555974)
    (xy -106.739691 79.55682) (xy -106.84095 79.55497) (xy -106.942125 79.550425) (xy -107.043143 79.543188)
    (xy -107.143932 79.533265) (xy -107.244422 79.520662) (xy -107.34454 79.505387) (xy -107.444216 79.487453)
    (xy -107.54338 79.466872) (xy -107.64196 79.443658) (xy -107.739887 79.417828) (xy -107.837092 79.3894)
    (xy -107.933506 79.358395) (xy -108.02906 79.324833) (xy -108.123687 79.28874) (xy -108.21732 79.25014)
    (xy -108.309891 79.209061) (xy -108.401336 79.165533) (xy -108.49159 79.119585) (xy -108.580589 79.071251)
    (xy -108.66827 79.020564) (xy -108.75457 78.967562) (xy -108.839428 78.91228) (xy -108.922784 78.85476)
    (xy -109.00458 78.79504) (xy -109.084757 78.733164) (xy -109.163258 78.669175) (xy -109.240028 78.60312)
    (xy -109.315012 78.535044) (xy -109.388157 78.464995) (xy -109.459412 78.393025) (xy -109.528725 78.319183)
    (xy -109.596048 78.243522) (xy -109.661333 78.166095) (xy -109.724533 78.086958) (xy -109.785604 78.006166)
    (xy -109.844503 77.923777) (xy -109.901187 77.83985) (xy -109.955617 77.754443) (xy -110.007754 77.667617)
    (xy -110.057561 77.579434) (xy -110.105003 77.489956) (xy -110.150045 77.399247) (xy -110.192657 77.307371)
    (xy -110.232808 77.214394) (xy -110.27047 77.12038) (xy -110.305615 77.025397) (xy -110.338219 76.929512)
    (xy -110.368259 76.832793) (xy -110.395714 76.735308) (xy -110.420563 76.637128) (xy -110.44279 76.53832)
    (xy -110.77558 74.17011) (xy -109.43704 73.982)) (layer F.Cu) (width 0))
  (fp_poly (pts (xy -99.24375 75.90953) (xy -99.64614 75.96608) (xy -99.64881 75.8646) (xy -99.664804 75.764352)
    (xy -99.693846 75.66708) (xy -99.735429 75.574472) (xy -99.788833 75.488139) (xy -99.853127 75.40958)
    (xy -99.927197 75.34016) (xy -100.009754 75.281086) (xy -100.099363 75.233384) (xy -100.194469 75.197884)
    (xy -100.293417 75.175201) (xy -100.39449 75.16573) (xy -100.306592 75.102808) (xy -100.227538 75.02908)
    (xy -100.158649 74.945776) (xy -100.101073 74.854286) (xy -100.055772 74.756138) (xy -100.023501 74.652969)
    (xy -100.0048 74.5465) (xy -99.44632 74.46801) (xy -99.342433 74.460439) (xy -99.238529 74.467774)
    (xy -99.136736 74.489865) (xy -99.039139 74.526261) (xy -98.947737 74.576215) (xy -98.864401 74.638705)
    (xy -98.790839 74.71245) (xy -98.728556 74.795941) (xy -98.678829 74.887467) (xy -98.642676 74.985155)
    (xy -98.620837 75.087002) (xy -98.61376 75.190924) (xy -98.62159 75.294792) (xy -98.644166 75.396478)
    (xy -98.681025 75.493901) (xy -98.731414 75.585065) (xy -98.794299 75.668102) (xy -98.868394 75.741313)
    (xy -98.95218 75.803197) (xy -99.043942 75.852488) (xy -99.1418 75.888176) (xy -99.24375 75.90953)) (layer F.Cu) (width 0))
  (fp_line (start -49 75) (end -49 80) (layer B.Cu) (width 0.2))
  (fp_line (start -32 75) (end -32 85) (layer B.Cu) (width 0.2))
  (fp_line (start -5.5 80) (end -5.5 85) (layer B.Cu) (width 0.2))
  (fp_line (start 20 85) (end 19.5 85) (layer B.Cu) (width 0.2))
  (fp_line (start 20 75) (end 20 85) (layer B.Cu) (width 0.2))
  (fp_line (start 64 80) (end -64 80) (layer B.Cu) (width 0.2))
  (fp_line (start -64 75) (end 64 75) (layer B.Cu) (width 0.2))
  (fp_line (start -64 85) (end -64 75) (layer B.Cu) (width 0.2))
  (fp_line (start 64 85) (end -64 85) (layer B.Cu) (width 0.2))
  (fp_line (start 64 75) (end 64 85) (layer B.Cu) (width 0.2))
  (fp_line (start -115 -85) (end -115 85) (layer B.Cu) (width 0.254))
  (fp_line (start 115 -85) (end -115 -85) (layer B.Cu) (width 0.254))
  (fp_line (start 115 85) (end 115 -85) (layer B.Cu) (width 0.254))
  (fp_line (start -115 85) (end 115 85) (layer B.Cu) (width 0.254))
  (fp_line (start -96.94701 75.4876) (end -99.83004 75.08245) (layer B.Cu) (width 0.2032))
  (fp_line (start -99.87345 75.39135) (end -96.99041 75.79649) (layer B.Cu) (width 0.2032))
  (fp_line (start -97.20746 77.34098) (end -100.09049 76.93583) (layer B.Cu) (width 0.2032))
  (fp_line (start -99.56759 77.32431) (end -97.25086 77.64987) (layer B.Cu) (width 0.2032))
  (fp_line (start -95.65153 79.34462) (end -99.77016 78.76583) (layer B.Cu) (width 0.2032))
  (fp_line (start -99.62746 73.64093) (end -94.94252 74.29929) (layer B.Cu) (width 0.2032))
  (fp_line (start -94.361 82.296) (end -100.076 82.296) (layer B.Cu) (width 0.254))
  (fp_line (start 49 75) (end 49 80) (layer F.Cu) (width 0.2))
  (fp_line (start 32 75) (end 32 85) (layer F.Cu) (width 0.2))
  (fp_line (start 5.5 80) (end 5.5 85) (layer F.Cu) (width 0.2))
  (fp_line (start -20 85) (end -19.5 85) (layer F.Cu) (width 0.2))
  (fp_line (start -20 75) (end -20 85) (layer F.Cu) (width 0.2))
  (fp_line (start -64 80) (end 64 80) (layer F.Cu) (width 0.2))
  (fp_line (start 64 75) (end -64 75) (layer F.Cu) (width 0.2))
  (fp_line (start 64 85) (end 64 75) (layer F.Cu) (width 0.2))
  (fp_line (start -64 85) (end 64 85) (layer F.Cu) (width 0.2))
  (fp_line (start -64 75) (end -64 85) (layer F.Cu) (width 0.2))
  (fp_line (start -115 -85) (end -115 85) (layer F.Cu) (width 0.254))
  (fp_line (start 115 -85) (end -115 -85) (layer F.Cu) (width 0.254))
  (fp_line (start 115 85) (end 115 -85) (layer F.Cu) (width 0.254))
  (fp_line (start -115 85) (end 115 85) (layer F.Cu) (width 0.254))
  (fp_line (start -103.71299 75.4876) (end -100.82996 75.08245) (layer F.Cu) (width 0.2032))
  (fp_line (start -100.78655 75.39135) (end -103.66959 75.79649) (layer F.Cu) (width 0.2032))
  (fp_line (start -103.45254 77.34098) (end -100.56951 76.93583) (layer F.Cu) (width 0.2032))
  (fp_line (start -101.09241 77.32431) (end -103.40914 77.64987) (layer F.Cu) (width 0.2032))
  (fp_line (start -105.00847 79.34462) (end -100.88984 78.76583) (layer F.Cu) (width 0.2032))
  (fp_line (start -101.03254 73.64093) (end -105.71748 74.29929) (layer F.Cu) (width 0.2032))
  (fp_line (start -106.299 82.296) (end -100.711 82.296) (layer F.Cu) (width 0.254))
  (fp_line (start 115.127 85.127) (end -115.127 85.127) (layer Dwgs.User) (width 0.05))
  (fp_line (start 115.127 -85.127) (end 115.127 85.127) (layer Dwgs.User) (width 0.05))
  (fp_line (start -115.127 -85.127) (end 115.127 -85.127) (layer Dwgs.User) (width 0.05))
  (fp_line (start -115.127 85.127) (end -115.127 -85.127) (layer Dwgs.User) (width 0.05))
  (fp_arc (start 106.68 76.2) (end 108.28 76.2) (angle 360) (layer B.Cu) (width 0.1016))
  (fp_arc (start 106.68 -76.2) (end 108.28 -76.2) (angle 360) (layer B.Cu) (width 0.1016))
  (fp_arc (start -106.67999 -76.2) (end -105.08 -76.2) (angle 360) (layer B.Cu) (width 0.1016))
  (fp_arc (start -96.967146 75.642265) (end -96.99041 75.79649) (angle -181.16003) (layer B.Cu) (width 0.2032))
  (fp_arc (start -99.993191 76.162013) (end -100.09049 76.93583) (angle 181.664969) (layer B.Cu) (width 0.2032))
  (fp_arc (start -97.227596 77.495645) (end -97.25086 77.64987) (angle -181.16003) (layer B.Cu) (width 0.2032))
  (fp_arc (start -99.682923 78.043096) (end -99.77016 78.76583) (angle 182.233214) (layer B.Cu) (width 0.2032))
  (fp_arc (start -95.503743 78.63039) (end -95.44896 77.90309) (angle 187.382994) (layer B.Cu) (width 0.2032))
  (fp_arc (start -95.427255 77.748645) (end -95.40555 77.5942) (angle -180) (layer B.Cu) (width 0.2032))
  (fp_arc (start -95.267974 76.826043) (end -95.1885 76.04972) (angle 184.30886) (layer B.Cu) (width 0.2032))
  (fp_arc (start -95.165836 75.895405) (end -95.1451 75.74082) (angle -179.284499) (layer B.Cu) (width 0.2032))
  (fp_arc (start -94.993619 75.027108) (end -94.94252 74.29929) (angle 187.966831) (layer B.Cu) (width 0.2032))
  (fp_arc (start -99.683586 74.368037) (end -99.83004 75.08245) (angle 172.828847) (layer B.Cu) (width 0.2032))
  (fp_arc (start 106.68 76.2) (end 108.28 76.2) (angle 360) (layer F.Cu) (width 0.1016))
  (fp_arc (start 106.68 -76.2) (end 108.28 -76.2) (angle 360) (layer F.Cu) (width 0.1016))
  (fp_arc (start -106.67999 -76.2) (end -105.08 -76.2) (angle 360) (layer F.Cu) (width 0.1016))
  (fp_arc (start -103.689726 75.641825) (end -103.66959 75.79649) (angle 178.83997) (layer F.Cu) (width 0.2032))
  (fp_arc (start -100.666809 76.162013) (end -100.56951 76.93583) (angle -181.664969) (layer F.Cu) (width 0.2032))
  (fp_arc (start -103.429276 77.495205) (end -103.40914 77.64987) (angle 178.83997) (layer F.Cu) (width 0.2032))
  (fp_arc (start -100.977594 78.043169) (end -100.88984 78.76583) (angle -182.150937) (layer F.Cu) (width 0.2032))
  (fp_arc (start -105.156257 78.63039) (end -105.21104 77.90309) (angle -187.382994) (layer F.Cu) (width 0.2032))
  (fp_arc (start -105.232745 77.748645) (end -105.25445 77.5942) (angle 180) (layer F.Cu) (width 0.2032))
  (fp_arc (start -105.392026 76.826043) (end -105.4715 76.04972) (angle -184.30886) (layer F.Cu) (width 0.2032))
  (fp_arc (start -105.492236 75.895135) (end -105.5149 75.74082) (angle 180.715501) (layer F.Cu) (width 0.2032))
  (fp_arc (start -105.666381 75.027108) (end -105.71748 74.29929) (angle -187.966831) (layer F.Cu) (width 0.2032))
  (fp_arc (start -100.976256 74.368015) (end -100.82996 75.08245) (angle -172.853968) (layer F.Cu) (width 0.2032))
)
