(module JUMPER2_NoCopper locked placed (layer F.Cu) (tedit 5E9CD958)
  (attr virtual)
  (fp_text reference J4 (at -1.9304 0.3048 unlocked) (layer F.SilkS) hide
    (effects (font (size 1.033069 1.086612) (thickness 0.127)))
  )
  (fp_text value JumperBypass (at 7.62 -1.016 unlocked) (layer F.SilkS) hide
    (effects (font (size 1.332992 1.40208) (thickness 0.254)))
  )
  (fp_arc (start 0 2.54) (end -0.635 2.54) (angle -180) (layer Dwgs.User) (width 0.1))
  (fp_arc (start 0 -2.54) (end 0.635 -2.54) (angle -180) (layer Dwgs.User) (width 0.1))
  (fp_line (start 0.635 2.54) (end 0.635 -2.54) (layer Dwgs.User) (width 0.1))
  (fp_line (start -0.635 2.54) (end -0.635 -2.54) (layer Dwgs.User) (width 0.1))
  (fp_line (start 0 -0.9525) (end 0 0.9525) (layer F.SilkS) (width 0.1778))
  (pad 1 smd circle (at 0 -2.4892) (size 2.2352 2.2352) (layers F.Mask))
  (pad 2 smd circle (at 0 2.4892) (size 2.2352 2.2352) (layers F.Mask))
)
