(module MOL7395-2_1 (layer F.Cu) (tedit 0)
  (attr smd)
  (fp_text reference REF** (at 1.8034 -5.8674 -90 unlocked) (layer F.SilkS)
    (effects (font (size 1.033069 1.086612) (thickness 0.127)))
  )
  (fp_text value F-CO-MOL7395M02 (at 6.44713 -6.3308 -180 unlocked) (layer F.SilkS) hide
    (effects (font (size 1.0496 1.104) (thickness 0.1)))
  )
  (fp_line (start 2.54 -5.08) (end 2.54 -12.77625) (layer F.SilkS) (width 0.18))
  (fp_line (start 0 -5.08) (end 0 -12.77625) (layer F.SilkS) (width 0.18))
  (fp_line (start 2.54 -5.08) (end 3.81 -5.08) (layer F.SilkS) (width 0.18))
  (fp_line (start 3.81 -2.54) (end 3.81 -5.08) (layer F.SilkS) (width 0.18))
  (fp_line (start -1.27 -2.54) (end 3.81 -2.54) (layer F.SilkS) (width 0.18))
  (fp_line (start -1.27 -5.08) (end 0 -5.08) (layer F.SilkS) (width 0.18))
  (fp_line (start 2.54 -1.27) (end 2.54 -2.54) (layer F.SilkS) (width 0.18))
  (fp_line (start -1.27 -2.54) (end -1.27 -5.08) (layer F.SilkS) (width 0.18))
  (fp_line (start -1.27 -3.82) (end 0 -2.55) (layer F.SilkS) (width 0.18))
  (fp_line (start 0 -1.27) (end 0 -2.54) (layer F.SilkS) (width 0.18))
  (fp_line (start 2.2098 -13.97) (end 2.54 -13.6398) (layer Dwgs.User) (width 0.1778))
  (fp_line (start 0.3048 -13.97) (end 2.2098 -13.97) (layer Dwgs.User) (width 0.1778))
  (fp_line (start 2.54 -5.08) (end 2.54 -13.6398) (layer Dwgs.User) (width 0.1778))
  (fp_line (start 0 -13.6398) (end 0.3048 -13.97) (layer Dwgs.User) (width 0.1778))
  (fp_line (start 0 -5.08) (end 0 -13.6398) (layer Dwgs.User) (width 0.1778))
  (fp_line (start 2.54 -5.08) (end 3.81 -5.08) (layer Dwgs.User) (width 0.1778))
  (fp_line (start 3.81 -2.54) (end 3.81 -5.08) (layer Dwgs.User) (width 0.1778))
  (fp_line (start -1.27 -2.54) (end 3.81 -2.54) (layer Dwgs.User) (width 0.1778))
  (fp_line (start -1.27 -5.08) (end 0 -5.08) (layer Dwgs.User) (width 0.1778))
  (fp_line (start 2.54 -1.27) (end 2.54 -2.54) (layer Dwgs.User) (width 0.1778))
  (fp_line (start -1.27 -2.54) (end -1.27 -5.08) (layer Dwgs.User) (width 0.1778))
  (fp_line (start -1.27 -3.81) (end 0 -2.54) (layer Dwgs.User) (width 0.1778))
  (fp_line (start 0 -1.27) (end 0 -2.54) (layer Dwgs.User) (width 0.1778))
  (fp_line (start 2.2225 -13.97) (end 2.54 -13.6525) (layer F.Fab) (width 0.1))
  (fp_line (start 0.3175 -13.97) (end 2.2225 -13.97) (layer F.Fab) (width 0.1))
  (fp_line (start 2.54 -5.08) (end 2.54 -13.6525) (layer F.Fab) (width 0.1))
  (fp_line (start 0 -13.6525) (end 0.3175 -13.97) (layer F.Fab) (width 0.1))
  (fp_line (start 0 -5.08) (end 0 -13.6525) (layer F.Fab) (width 0.1))
  (fp_line (start 2.54 -5.08) (end 3.81 -5.08) (layer F.Fab) (width 0.1))
  (fp_line (start 3.81 -2.54) (end 3.81 -5.08) (layer F.Fab) (width 0.1))
  (fp_line (start -1.27 -2.54) (end 3.81 -2.54) (layer F.Fab) (width 0.1))
  (fp_line (start -1.27 -5.08) (end 0 -5.08) (layer F.Fab) (width 0.1))
  (fp_line (start 2.54 0) (end 2.54 -2.54) (layer F.Fab) (width 0.1))
  (fp_line (start -1.27 -2.54) (end -1.27 -5.08) (layer F.Fab) (width 0.1))
  (fp_line (start -1.27 -3.82) (end 0 -2.55) (layer F.Fab) (width 0.1))
  (fp_line (start 0 0) (end 0 -2.54) (layer F.Fab) (width 0.1))
  (pad 2 thru_hole circle (at 2.54 0) (size 1.905 1.905) (drill 1.2192) (layers *.Cu *.Mask))
  (pad 1 thru_hole rect (at 0 0) (size 1.905 1.905) (drill 1.2192) (layers *.Cu *.Mask))
  (model "${KIPRJMOD}/../Library/Footprints.3dshapes/22-05-7028-recenter.stp"
    (at (xyz 0 0 0))
    (scale (xyz 1 1 1))
    (rotate (xyz 0 0 0))
  )
)
