(module MX.A24_COMPOSANT_1 (layer F.Cu) (tedit 0)
  (attr smd)
  (fp_text reference IC1 (at 0.2032 0.3175 -90 unlocked) (layer F.SilkS)
    (effects (font (size 1.033069 1.086612) (thickness 0.127)))
  )
  (fp_text value L-BC-SO24 (at 0.7874 3.5433 -90 unlocked) (layer F.SilkS) hide
    (effects (font (size 1.033069 1.086612) (thickness 0.127)))
  )
  (fp_line (start 7.9248 3.6322) (end 7.9248 -3.6322) (layer F.SilkS) (width 0.1778))
  (fp_line (start -7.9248 -3.6322) (end 7.9248 -3.6322) (layer F.SilkS) (width 0.1778))
  (fp_line (start -7.9248 3.6322) (end -7.9248 -3.6322) (layer F.SilkS) (width 0.1778))
  (fp_line (start -7.9248 3.6322) (end 7.9248 3.6322) (layer F.SilkS) (width 0.1778))
  (fp_line (start 7.9248 3.6322) (end 7.9248 -3.6322) (layer Dwgs.User) (width 0.1778))
  (fp_line (start -7.9248 -3.6322) (end 7.9248 -3.6322) (layer Dwgs.User) (width 0.1778))
  (fp_line (start -7.9248 3.6322) (end -7.9248 -3.6322) (layer Dwgs.User) (width 0.1778))
  (fp_line (start -7.9248 3.6322) (end 7.9248 3.6322) (layer Dwgs.User) (width 0.1778))
  (fp_line (start 5.715 4.9022) (end 5.715 3.9624) (layer F.Fab) (width 0.0762))
  (fp_line (start -6.985 -3.9624) (end -6.985 -4.9022) (layer F.Fab) (width 0.0762))
  (fp_line (start 6.985 -3.9624) (end 6.985 -4.9022) (layer F.Fab) (width 0.0762))
  (fp_line (start 7.9248 3.9624) (end 7.9248 -3.9624) (layer F.Fab) (width 0.0762))
  (fp_line (start 5.715 -3.9624) (end 5.715 -4.9022) (layer F.Fab) (width 0.0762))
  (fp_line (start -6.985 4.9022) (end -6.985 3.9624) (layer F.Fab) (width 0.0762))
  (fp_line (start -7.9248 -3.9624) (end 7.9248 -3.9624) (layer F.Fab) (width 0.0762))
  (fp_line (start 4.445 -3.9624) (end 4.445 -4.9022) (layer F.Fab) (width 0.0762))
  (fp_line (start -5.715 4.9022) (end -5.715 3.9624) (layer F.Fab) (width 0.0762))
  (fp_line (start 3.175 -3.9624) (end 3.175 -4.9022) (layer F.Fab) (width 0.0762))
  (fp_line (start -4.445 -3.9624) (end -4.445 -4.9022) (layer F.Fab) (width 0.0762))
  (fp_line (start -4.445 4.9022) (end -4.445 3.9624) (layer F.Fab) (width 0.0762))
  (fp_line (start -7.9248 0.635) (end -6.985 0.635) (layer F.Fab) (width 0.0762))
  (fp_line (start 1.905 -3.9624) (end 1.905 -4.9022) (layer F.Fab) (width 0.0762))
  (fp_line (start 3.175 4.9022) (end 3.175 3.9624) (layer F.Fab) (width 0.0762))
  (fp_line (start -3.175 4.9022) (end -3.175 3.9624) (layer F.Fab) (width 0.0762))
  (fp_line (start -7.9248 -0.635) (end -6.985 -0.635) (layer F.Fab) (width 0.0762))
  (fp_line (start 0.635 -3.9624) (end 0.635 -4.9022) (layer F.Fab) (width 0.0762))
  (fp_line (start -1.905 4.9022) (end -1.905 3.9624) (layer F.Fab) (width 0.0762))
  (fp_line (start 4.445 4.9022) (end 4.445 3.9624) (layer F.Fab) (width 0.0762))
  (fp_line (start -0.635 -3.9624) (end -0.635 -4.9022) (layer F.Fab) (width 0.0762))
  (fp_line (start -7.9248 3.9624) (end -7.9248 -3.9624) (layer F.Fab) (width 0.0762))
  (fp_line (start -0.635 4.9022) (end -0.635 3.9624) (layer F.Fab) (width 0.0762))
  (fp_line (start -5.715 -3.9624) (end -5.715 -4.9022) (layer F.Fab) (width 0.0762))
  (fp_line (start -1.905 -3.9624) (end -1.905 -4.9022) (layer F.Fab) (width 0.0762))
  (fp_line (start 0.635 4.9022) (end 0.635 3.9624) (layer F.Fab) (width 0.0762))
  (fp_line (start 6.985 4.9022) (end 6.985 3.9624) (layer F.Fab) (width 0.0762))
  (fp_line (start -7.9248 3.9624) (end 7.9248 3.9624) (layer F.Fab) (width 0.0762))
  (fp_line (start -3.175 -3.9624) (end -3.175 -4.9022) (layer F.Fab) (width 0.0762))
  (fp_line (start 1.905 4.9022) (end 1.905 3.9624) (layer F.Fab) (width 0.0762))
  (pad 24 smd rect (at -7.112 -4.953) (size 0.8636 1.778) (layers F.Cu F.Paste F.Mask))
  (pad 23 smd rect (at -5.715 -4.953) (size 0.6096 1.778) (layers F.Cu F.Paste F.Mask))
  (pad 22 smd rect (at -4.445 -4.953) (size 0.6096 1.778) (layers F.Cu F.Paste F.Mask))
  (pad 21 smd rect (at -3.175 -4.953) (size 0.6096 1.778) (layers F.Cu F.Paste F.Mask))
  (pad 20 smd rect (at -1.905 -4.953) (size 0.6096 1.778) (layers F.Cu F.Paste F.Mask))
  (pad 19 smd rect (at -0.635 -4.953) (size 0.6096 1.778) (layers F.Cu F.Paste F.Mask))
  (pad 18 smd rect (at 0.635 -4.953) (size 0.6096 1.778) (layers F.Cu F.Paste F.Mask))
  (pad 17 smd rect (at 1.905 -4.953) (size 0.6096 1.778) (layers F.Cu F.Paste F.Mask))
  (pad 16 smd rect (at 3.175 -4.953) (size 0.6096 1.778) (layers F.Cu F.Paste F.Mask))
  (pad 15 smd rect (at 4.445 -4.953) (size 0.6096 1.778) (layers F.Cu F.Paste F.Mask))
  (pad 14 smd rect (at 5.715 -4.953) (size 0.6096 1.778) (layers F.Cu F.Paste F.Mask))
  (pad 13 smd rect (at 7.112 -4.953) (size 0.8636 1.778) (layers F.Cu F.Paste F.Mask))
  (pad 12 smd rect (at 7.112 4.953) (size 0.8636 1.778) (layers F.Cu F.Paste F.Mask))
  (pad 11 smd rect (at 5.715 4.953) (size 0.6096 1.778) (layers F.Cu F.Paste F.Mask))
  (pad 10 smd rect (at 4.445 4.953) (size 0.6096 1.778) (layers F.Cu F.Paste F.Mask))
  (pad 9 smd rect (at 3.175 4.953) (size 0.6096 1.778) (layers F.Cu F.Paste F.Mask))
  (pad 8 smd rect (at 1.905 4.953) (size 0.6096 1.778) (layers F.Cu F.Paste F.Mask))
  (pad 7 smd rect (at 0.635 4.953) (size 0.6096 1.778) (layers F.Cu F.Paste F.Mask))
  (pad 6 smd rect (at -0.635 4.953) (size 0.6096 1.778) (layers F.Cu F.Paste F.Mask))
  (pad 5 smd rect (at -1.905 4.953) (size 0.6096 1.778) (layers F.Cu F.Paste F.Mask))
  (pad 4 smd rect (at -3.175 4.953) (size 0.6096 1.778) (layers F.Cu F.Paste F.Mask))
  (pad 3 smd rect (at -4.445 4.953) (size 0.6096 1.778) (layers F.Cu F.Paste F.Mask))
  (pad 2 smd rect (at -5.715 4.953) (size 0.6096 1.778) (layers F.Cu F.Paste F.Mask))
  (pad 1 smd rect (at -7.112 4.953) (size 0.8636 1.778) (layers F.Cu F.Paste F.Mask))
  (model ${KISYS3DMOD}/Package_SO.3dshapes/SOIC-24W_7.5x15.4mm_P1.27mm.wrl
    (at (xyz 0 0 0))
    (scale (xyz 1 1 1))
    (rotate (xyz 0 0 -90))
  )
)
