(module R0805_1 (layer F.Cu) (tedit 5E9B8FF7)
  (attr smd)
  (fp_text reference R13 (at 3.4828 0.72323 -90 unlocked) (layer F.SilkS)
    (effects (font (size 1.0496 1.104) (thickness 0.1)))
  )
  (fp_text value R-BC-R0805 (at 0.0332 -3.35673 -90 unlocked) (layer F.SilkS) hide
    (effects (font (size 1.0496 1.104) (thickness 0.1)))
  )
  (fp_line (start -2.06375 1.11125) (end 2.06375 1.11125) (layer F.SilkS) (width 0.18))
  (fp_line (start -2.06375 1.11125) (end -2.06375 -1.11125) (layer F.SilkS) (width 0.18))
  (fp_line (start 2.06375 1.11125) (end 2.06375 -1.11125) (layer F.SilkS) (width 0.18))
  (fp_line (start -2.06375 -1.11125) (end 2.06375 -1.11125) (layer F.SilkS) (width 0.18))
  (fp_line (start -1 0.625) (end -1 -0.625) (layer F.Fab) (width 0.1))
  (fp_line (start 1 0.625) (end 1 -0.625) (layer F.Fab) (width 0.1))
  (fp_line (start -1 -0.625) (end 1 -0.625) (layer F.Fab) (width 0.1))
  (fp_line (start -1 0.625) (end 1 0.625) (layer F.Fab) (width 0.1))
  (pad 2 smd rect (at 1.05 0) (size 1.27 1.4224) (layers F.Cu F.Paste F.Mask))
  (pad 1 smd rect (at -1.05 0) (size 1.27 1.4224) (layers F.Cu F.Paste F.Mask))
  (model ${KISYS3DMOD}/Resistor_SMD.3dshapes/R_0805_2012Metric.wrl
    (at (xyz 0 0 0))
    (scale (xyz 1 1 1))
    (rotate (xyz 0 0 0))
  )
)
