(module TQFP64_1 (layer F.Cu) (tedit 5EB4BBF3)
  (attr smd)
  (fp_text reference IC1 (at -116.207 -147.50115 -90 unlocked) (layer F.SilkS) hide
    (effects (font (size 1.332992 1.40208) (thickness 0.254)))
  )
  (fp_text value L-BC-TQFP64 (at 0.2492 -2.53073 -90 unlocked) (layer F.SilkS) hide
    (effects (font (size 1.332992 1.40208) (thickness 0.254)))
  )
  (fp_circle (center -3.99999 -4) (end -3.6 -4) (layer F.Fab) (width 0.00003))
  (fp_line (start -5 -4.5) (end -4.5 -5) (layer F.SilkS) (width 0.18))
  (fp_line (start 4.5 -5) (end 5 -4.5) (layer F.SilkS) (width 0.18))
  (fp_line (start -4.5 5) (end 4.5 5) (layer F.SilkS) (width 0.18))
  (fp_line (start -5 4.5) (end -5 -4.5) (layer F.SilkS) (width 0.18))
  (fp_line (start -4.5 -5) (end 4.5 -5) (layer F.SilkS) (width 0.18))
  (fp_line (start 5 4.5) (end 5 -4.5) (layer F.SilkS) (width 0.18))
  (fp_line (start -5 4.5) (end -4.5 5) (layer F.SilkS) (width 0.18))
  (fp_line (start 4.5 5) (end 5 4.5) (layer F.SilkS) (width 0.18))
  (fp_line (start -6 -2.75) (end -5 -2.75) (layer F.Fab) (width 0.1))
  (fp_line (start 3.25 6) (end 3.25 5) (layer F.Fab) (width 0.1))
  (fp_line (start -6 -3.25) (end -5 -3.25) (layer F.Fab) (width 0.1))
  (fp_line (start -4.5 5) (end 4.5 5) (layer F.Fab) (width 0.1))
  (fp_line (start -5 4.5) (end -5 -4.5) (layer F.Fab) (width 0.1))
  (fp_line (start 3.75 6) (end 3.75 5) (layer F.Fab) (width 0.1))
  (fp_line (start 3.75 -5) (end 3.75 -6) (layer F.Fab) (width 0.1))
  (fp_line (start 5 -3.75) (end 6 -3.75) (layer F.Fab) (width 0.1))
  (fp_line (start 4.5 -5) (end 5 -4.5) (layer F.Fab) (width 0.1))
  (fp_line (start 3.25 -5) (end 3.25 -6) (layer F.Fab) (width 0.1))
  (fp_line (start 5 -3.25) (end 6 -3.25) (layer F.Fab) (width 0.1))
  (fp_line (start -5 4.5) (end -4.5 5) (layer F.Fab) (width 0.1))
  (fp_line (start 2.75 -5) (end 2.75 -6) (layer F.Fab) (width 0.1))
  (fp_line (start -4.5 -5) (end 4.5 -5) (layer F.Fab) (width 0.1))
  (fp_line (start 5 -2.75) (end 6 -2.75) (layer F.Fab) (width 0.1))
  (fp_line (start -6 -3.75) (end -5 -3.75) (layer F.Fab) (width 0.1))
  (fp_line (start 5 4.5) (end 5 -4.5) (layer F.Fab) (width 0.1))
  (fp_line (start -3.75 6) (end -3.75 5) (layer F.Fab) (width 0.1))
  (fp_line (start -5 -4.5) (end -4.5 -5) (layer F.Fab) (width 0.1))
  (fp_line (start 2.25 -5) (end 2.25 -6) (layer F.Fab) (width 0.1))
  (fp_line (start -6 3.75) (end -5 3.75) (layer F.Fab) (width 0.1))
  (fp_line (start 5 -2.25) (end 6 -2.25) (layer F.Fab) (width 0.1))
  (fp_line (start -3.25 6) (end -3.25 5) (layer F.Fab) (width 0.1))
  (fp_line (start 1.75 -5) (end 1.75 -6) (layer F.Fab) (width 0.1))
  (fp_line (start -6 3.25) (end -5 3.25) (layer F.Fab) (width 0.1))
  (fp_line (start 5 -1.75) (end 6 -1.75) (layer F.Fab) (width 0.1))
  (fp_line (start -2.75 6) (end -2.75 5) (layer F.Fab) (width 0.1))
  (fp_line (start 1.25 -5) (end 1.25 -6) (layer F.Fab) (width 0.1))
  (fp_line (start -6 2.75) (end -5 2.75) (layer F.Fab) (width 0.1))
  (fp_line (start 5 -1.25) (end 6 -1.25) (layer F.Fab) (width 0.1))
  (fp_line (start -2.25 6) (end -2.25 5) (layer F.Fab) (width 0.1))
  (fp_line (start 0.75 -5) (end 0.75 -6) (layer F.Fab) (width 0.1))
  (fp_line (start -6 2.25) (end -5 2.25) (layer F.Fab) (width 0.1))
  (fp_line (start 5 -0.75) (end 6 -0.75) (layer F.Fab) (width 0.1))
  (fp_line (start -1.75 6) (end -1.75 5) (layer F.Fab) (width 0.1))
  (fp_line (start 0.25 -5) (end 0.25 -6) (layer F.Fab) (width 0.1))
  (fp_line (start -6 1.75) (end -5 1.75) (layer F.Fab) (width 0.1))
  (fp_line (start 5 -0.25) (end 6 -0.25) (layer F.Fab) (width 0.1))
  (fp_line (start -1.25 6) (end -1.25 5) (layer F.Fab) (width 0.1))
  (fp_line (start -0.25 -5) (end -0.25 -6) (layer F.Fab) (width 0.1))
  (fp_line (start -6 1.25) (end -5 1.25) (layer F.Fab) (width 0.1))
  (fp_line (start 5 0.25) (end 6 0.25) (layer F.Fab) (width 0.1))
  (fp_line (start 4.5 5) (end 5 4.5) (layer F.Fab) (width 0.1))
  (fp_line (start -0.75 6) (end -0.75 5) (layer F.Fab) (width 0.1))
  (fp_line (start -0.75 -5) (end -0.75 -6) (layer F.Fab) (width 0.1))
  (fp_line (start -6 0.75) (end -5 0.75) (layer F.Fab) (width 0.1))
  (fp_line (start 5 0.75) (end 6 0.75) (layer F.Fab) (width 0.1))
  (fp_line (start -0.25 6) (end -0.25 5) (layer F.Fab) (width 0.1))
  (fp_line (start -1.25 -5) (end -1.25 -6) (layer F.Fab) (width 0.1))
  (fp_line (start -6 0.25) (end -5 0.25) (layer F.Fab) (width 0.1))
  (fp_line (start 5 1.25) (end 6 1.25) (layer F.Fab) (width 0.1))
  (fp_line (start 0.25 6) (end 0.25 5) (layer F.Fab) (width 0.1))
  (fp_line (start -1.75 -5) (end -1.75 -6) (layer F.Fab) (width 0.1))
  (fp_line (start -6 -0.25) (end -5 -0.25) (layer F.Fab) (width 0.1))
  (fp_line (start 5 1.75) (end 6 1.75) (layer F.Fab) (width 0.1))
  (fp_line (start 0.75 6) (end 0.75 5) (layer F.Fab) (width 0.1))
  (fp_line (start -2.25 -5) (end -2.25 -6) (layer F.Fab) (width 0.1))
  (fp_line (start -6 -0.75) (end -5 -0.75) (layer F.Fab) (width 0.1))
  (fp_line (start 5 2.25) (end 6 2.25) (layer F.Fab) (width 0.1))
  (fp_line (start 1.25 6) (end 1.25 5) (layer F.Fab) (width 0.1))
  (fp_line (start -2.75 -5) (end -2.75 -6) (layer F.Fab) (width 0.1))
  (fp_line (start -6 -1.25) (end -5 -1.25) (layer F.Fab) (width 0.1))
  (fp_line (start 5 2.75) (end 6 2.75) (layer F.Fab) (width 0.1))
  (fp_line (start 1.75 6) (end 1.75 5) (layer F.Fab) (width 0.1))
  (fp_line (start -3.25 -5) (end -3.25 -6) (layer F.Fab) (width 0.1))
  (fp_line (start -6 -1.75) (end -5 -1.75) (layer F.Fab) (width 0.1))
  (fp_line (start 5 3.25) (end 6 3.25) (layer F.Fab) (width 0.1))
  (fp_line (start 2.25 6) (end 2.25 5) (layer F.Fab) (width 0.1))
  (fp_line (start -3.75 -5) (end -3.75 -6) (layer F.Fab) (width 0.1))
  (fp_line (start -6 -2.25) (end -5 -2.25) (layer F.Fab) (width 0.1))
  (fp_line (start 5 3.75) (end 6 3.75) (layer F.Fab) (width 0.1))
  (fp_line (start 2.75 6) (end 2.75 5) (layer F.Fab) (width 0.1))
  (pad 64 smd rect (at -3.75 -5.75) (size 0.29 1.5) (layers F.Cu F.Paste F.Mask))
  (pad 63 smd rect (at -3.25 -5.75) (size 0.29 1.5) (layers F.Cu F.Paste F.Mask))
  (pad 62 smd rect (at -2.75 -5.75) (size 0.29 1.5) (layers F.Cu F.Paste F.Mask))
  (pad 61 smd rect (at -2.25 -5.75) (size 0.29 1.5) (layers F.Cu F.Paste F.Mask))
  (pad 60 smd rect (at -1.75 -5.75) (size 0.29 1.5) (layers F.Cu F.Paste F.Mask))
  (pad 59 smd rect (at -1.25 -5.75) (size 0.29 1.5) (layers F.Cu F.Paste F.Mask))
  (pad 58 smd rect (at -0.75 -5.75) (size 0.29 1.5) (layers F.Cu F.Paste F.Mask))
  (pad 57 smd rect (at -0.25 -5.75) (size 0.29 1.5) (layers F.Cu F.Paste F.Mask))
  (pad 56 smd rect (at 0.25 -5.75) (size 0.29 1.5) (layers F.Cu F.Paste F.Mask))
  (pad 55 smd rect (at 0.75 -5.75) (size 0.29 1.5) (layers F.Cu F.Paste F.Mask))
  (pad 54 smd rect (at 1.25 -5.75) (size 0.29 1.5) (layers F.Cu F.Paste F.Mask))
  (pad 53 smd rect (at 1.75 -5.75) (size 0.29 1.5) (layers F.Cu F.Paste F.Mask))
  (pad 52 smd rect (at 2.25 -5.75) (size 0.29 1.5) (layers F.Cu F.Paste F.Mask))
  (pad 51 smd rect (at 2.75 -5.75) (size 0.29 1.5) (layers F.Cu F.Paste F.Mask))
  (pad 50 smd rect (at 3.25 -5.75) (size 0.29 1.5) (layers F.Cu F.Paste F.Mask))
  (pad 49 smd rect (at 3.75 -5.75) (size 0.29 1.5) (layers F.Cu F.Paste F.Mask))
  (pad 48 smd rect (at 5.75 -3.75 90) (size 0.29 1.5) (layers F.Cu F.Paste F.Mask))
  (pad 47 smd rect (at 5.75 -3.25 90) (size 0.29 1.5) (layers F.Cu F.Paste F.Mask))
  (pad 46 smd rect (at 5.75 -2.75 90) (size 0.29 1.5) (layers F.Cu F.Paste F.Mask))
  (pad 45 smd rect (at 5.75 -2.25 90) (size 0.29 1.5) (layers F.Cu F.Paste F.Mask))
  (pad 44 smd rect (at 5.75 -1.75 90) (size 0.29 1.5) (layers F.Cu F.Paste F.Mask))
  (pad 43 smd rect (at 5.75 -1.25 90) (size 0.29 1.5) (layers F.Cu F.Paste F.Mask))
  (pad 42 smd rect (at 5.75 -0.75 90) (size 0.29 1.5) (layers F.Cu F.Paste F.Mask))
  (pad 41 smd rect (at 5.75 -0.25 90) (size 0.29 1.5) (layers F.Cu F.Paste F.Mask))
  (pad 40 smd rect (at 5.75 0.25 90) (size 0.29 1.5) (layers F.Cu F.Paste F.Mask))
  (pad 39 smd rect (at 5.75 0.75 90) (size 0.29 1.5) (layers F.Cu F.Paste F.Mask))
  (pad 38 smd rect (at 5.75 1.25 90) (size 0.29 1.5) (layers F.Cu F.Paste F.Mask))
  (pad 37 smd rect (at 5.75 1.75 90) (size 0.29 1.5) (layers F.Cu F.Paste F.Mask))
  (pad 36 smd rect (at 5.75 2.25 90) (size 0.29 1.5) (layers F.Cu F.Paste F.Mask))
  (pad 35 smd rect (at 5.75 2.75 90) (size 0.29 1.5) (layers F.Cu F.Paste F.Mask))
  (pad 34 smd rect (at 5.75 3.25 90) (size 0.29 1.5) (layers F.Cu F.Paste F.Mask))
  (pad 33 smd rect (at 5.75 3.75 90) (size 0.29 1.5) (layers F.Cu F.Paste F.Mask))
  (pad 32 smd rect (at 3.75 5.75) (size 0.29 1.5) (layers F.Cu F.Paste F.Mask))
  (pad 31 smd rect (at 3.25 5.75) (size 0.29 1.5) (layers F.Cu F.Paste F.Mask))
  (pad 30 smd rect (at 2.75 5.75) (size 0.29 1.5) (layers F.Cu F.Paste F.Mask))
  (pad 29 smd rect (at 2.25 5.75) (size 0.29 1.5) (layers F.Cu F.Paste F.Mask))
  (pad 28 smd rect (at 1.75 5.75) (size 0.29 1.5) (layers F.Cu F.Paste F.Mask))
  (pad 27 smd rect (at 1.25 5.75) (size 0.29 1.5) (layers F.Cu F.Paste F.Mask))
  (pad 26 smd rect (at 0.75 5.75) (size 0.29 1.5) (layers F.Cu F.Paste F.Mask))
  (pad 25 smd rect (at 0.25 5.75) (size 0.29 1.5) (layers F.Cu F.Paste F.Mask))
  (pad 24 smd rect (at -0.25 5.75) (size 0.29 1.5) (layers F.Cu F.Paste F.Mask))
  (pad 23 smd rect (at -0.75 5.75) (size 0.29 1.5) (layers F.Cu F.Paste F.Mask))
  (pad 22 smd rect (at -1.25 5.75) (size 0.29 1.5) (layers F.Cu F.Paste F.Mask))
  (pad 21 smd rect (at -1.75 5.75) (size 0.29 1.5) (layers F.Cu F.Paste F.Mask))
  (pad 20 smd rect (at -2.25 5.75) (size 0.29 1.5) (layers F.Cu F.Paste F.Mask))
  (pad 19 smd rect (at -2.75 5.75) (size 0.29 1.5) (layers F.Cu F.Paste F.Mask))
  (pad 18 smd rect (at -3.25 5.75) (size 0.29 1.5) (layers F.Cu F.Paste F.Mask))
  (pad 17 smd rect (at -3.75 5.75) (size 0.29 1.5) (layers F.Cu F.Paste F.Mask))
  (pad 16 smd rect (at -5.75 3.75 90) (size 0.29 1.5) (layers F.Cu F.Paste F.Mask))
  (pad 15 smd rect (at -5.75 3.25 90) (size 0.29 1.5) (layers F.Cu F.Paste F.Mask))
  (pad 14 smd rect (at -5.75 2.75 90) (size 0.29 1.5) (layers F.Cu F.Paste F.Mask))
  (pad 13 smd rect (at -5.75 2.25 90) (size 0.29 1.5) (layers F.Cu F.Paste F.Mask))
  (pad 12 smd rect (at -5.75 1.75 90) (size 0.29 1.5) (layers F.Cu F.Paste F.Mask))
  (pad 11 smd rect (at -5.75 1.25 90) (size 0.29 1.5) (layers F.Cu F.Paste F.Mask))
  (pad 10 smd rect (at -5.75 0.75 90) (size 0.29 1.5) (layers F.Cu F.Paste F.Mask))
  (pad 9 smd rect (at -5.75 0.25 90) (size 0.29 1.5) (layers F.Cu F.Paste F.Mask))
  (pad 8 smd rect (at -5.75 -0.25 90) (size 0.29 1.5) (layers F.Cu F.Paste F.Mask))
  (pad 7 smd rect (at -5.75 -0.75 90) (size 0.29 1.5) (layers F.Cu F.Paste F.Mask))
  (pad 6 smd rect (at -5.75 -1.25 90) (size 0.29 1.5) (layers F.Cu F.Paste F.Mask))
  (pad 5 smd rect (at -5.75 -1.75 90) (size 0.29 1.5) (layers F.Cu F.Paste F.Mask))
  (pad 4 smd rect (at -5.75 -2.25 90) (size 0.29 1.5) (layers F.Cu F.Paste F.Mask))
  (pad 3 smd rect (at -5.75 -2.75 90) (size 0.29 1.5) (layers F.Cu F.Paste F.Mask))
  (pad 2 smd rect (at -5.75 -3.25 90) (size 0.29 1.5) (layers F.Cu F.Paste F.Mask))
  (pad 1 smd rect (at -5.75 -3.75 90) (size 0.29 1.5) (layers F.Cu F.Paste F.Mask))
  (pad "" smd circle (at 5.715 -5.715) (size 1.27 1.27) (layers F.Cu F.Paste F.Mask)
    (solder_mask_margin 0.254))
  (pad "" smd circle (at -5.715 5.715) (size 1.27 1.27) (layers F.Cu F.Paste F.Mask)
    (solder_mask_margin 0.254))
  (model ${KISYS3DMOD}/Package_QFP.3dshapes/HTQFP-64-1EP_10x10mm_P0.5mm_EP8x8mm.wrl
    (at (xyz 0 0 0))
    (scale (xyz 1 1 1))
    (rotate (xyz 0 0 0))
  )
)
