(module TQFP100_1 (layer F.Cu) (tedit 5EB4B889)
  (attr smd)
  (fp_text reference IC15 (at -3.0226 -9.6012 unlocked) (layer F.SilkS)
    (effects (font (size 1.033069 1.086612) (thickness 0.1778)))
  )
  (fp_text value L-BC-TQFP100 (at 4.7244 -0.7874 unlocked) (layer F.SilkS) hide
    (effects (font (size 1.033069 1.086612) (thickness 0.1778)))
  )
  (fp_line (start 4.9784 7.747) (end 4.9784 6.985) (layer F.Fab) (width 0.0762))
  (fp_line (start -7.747 -4.4958) (end -6.985 -4.4958) (layer F.Fab) (width 0.0762))
  (fp_line (start -5.9944 -6.985) (end -5.9944 -7.747) (layer F.Fab) (width 0.0762))
  (fp_line (start 6.985 5.4864) (end 7.747 5.4864) (layer F.Fab) (width 0.0762))
  (fp_line (start 4.4958 7.747) (end 4.4958 6.985) (layer F.Fab) (width 0.0762))
  (fp_line (start -7.747 -3.9878) (end -6.985 -3.9878) (layer F.Fab) (width 0.0762))
  (fp_line (start -5.4864 -6.985) (end -5.4864 -7.747) (layer F.Fab) (width 0.0762))
  (fp_line (start 6.985 4.9784) (end 7.747 4.9784) (layer F.Fab) (width 0.0762))
  (fp_line (start 3.9878 7.747) (end 3.9878 6.985) (layer F.Fab) (width 0.0762))
  (fp_line (start -7.747 -3.4798) (end -6.985 -3.4798) (layer F.Fab) (width 0.0762))
  (fp_line (start -4.9784 -6.985) (end -4.9784 -7.747) (layer F.Fab) (width 0.0762))
  (fp_line (start 6.985 4.4958) (end 7.747 4.4958) (layer F.Fab) (width 0.0762))
  (fp_line (start 3.4798 7.747) (end 3.4798 6.985) (layer F.Fab) (width 0.0762))
  (fp_line (start -7.747 -2.9972) (end -6.985 -2.9972) (layer F.Fab) (width 0.0762))
  (fp_line (start -4.4958 -6.985) (end -4.4958 -7.747) (layer F.Fab) (width 0.0762))
  (fp_line (start 6.985 3.9878) (end 7.747 3.9878) (layer F.Fab) (width 0.0762))
  (fp_line (start 2.9972 7.747) (end 2.9972 6.985) (layer F.Fab) (width 0.0762))
  (fp_line (start -7.747 -2.4892) (end -6.985 -2.4892) (layer F.Fab) (width 0.0762))
  (fp_line (start -3.9878 -6.985) (end -3.9878 -7.747) (layer F.Fab) (width 0.0762))
  (fp_line (start 6.985 3.4798) (end 7.747 3.4798) (layer F.Fab) (width 0.0762))
  (fp_line (start 2.4892 7.747) (end 2.4892 6.985) (layer F.Fab) (width 0.0762))
  (fp_line (start -7.747 -1.9812) (end -6.985 -1.9812) (layer F.Fab) (width 0.0762))
  (fp_line (start -3.4798 -6.985) (end -3.4798 -7.747) (layer F.Fab) (width 0.0762))
  (fp_line (start 6.985 2.9972) (end 7.747 2.9972) (layer F.Fab) (width 0.0762))
  (fp_line (start 1.9812 7.747) (end 1.9812 6.985) (layer F.Fab) (width 0.0762))
  (fp_line (start -7.747 -1.4986) (end -6.985 -1.4986) (layer F.Fab) (width 0.0762))
  (fp_line (start -2.9972 -6.985) (end -2.9972 -7.747) (layer F.Fab) (width 0.0762))
  (fp_line (start 6.985 2.4892) (end 7.747 2.4892) (layer F.Fab) (width 0.0762))
  (fp_line (start 1.4986 7.747) (end 1.4986 6.985) (layer F.Fab) (width 0.0762))
  (fp_line (start -7.747 -5.9944) (end -6.985 -5.9944) (layer F.Fab) (width 0.0762))
  (fp_line (start -7.747 -0.9906) (end -6.985 -0.9906) (layer F.Fab) (width 0.0762))
  (fp_line (start -2.4892 -6.985) (end -2.4892 -7.747) (layer F.Fab) (width 0.0762))
  (fp_line (start 6.985 1.9812) (end 7.747 1.9812) (layer F.Fab) (width 0.0762))
  (fp_line (start 0.9906 7.747) (end 0.9906 6.985) (layer F.Fab) (width 0.0762))
  (fp_line (start -1.9812 -6.985) (end -1.9812 -7.747) (layer F.Fab) (width 0.0762))
  (fp_line (start -7.747 -0.4826) (end -6.985 -0.4826) (layer F.Fab) (width 0.0762))
  (fp_line (start 6.985 1.4986) (end 7.747 1.4986) (layer F.Fab) (width 0.0762))
  (fp_line (start 0.4826 7.747) (end 0.4826 6.985) (layer F.Fab) (width 0.0762))
  (fp_line (start -1.4986 -6.985) (end -1.4986 -7.747) (layer F.Fab) (width 0.0762))
  (fp_line (start -7.747 0) (end -6.985 0) (layer F.Fab) (width 0.0762))
  (fp_line (start 6.985 0.9906) (end 7.747 0.9906) (layer F.Fab) (width 0.0762))
  (fp_line (start 0 7.747) (end 0 6.985) (layer F.Fab) (width 0.0762))
  (fp_line (start -0.9906 -6.985) (end -0.9906 -7.747) (layer F.Fab) (width 0.0762))
  (fp_line (start -7.747 0.4826) (end -6.985 0.4826) (layer F.Fab) (width 0.0762))
  (fp_line (start -0.4826 7.747) (end -0.4826 6.985) (layer F.Fab) (width 0.0762))
  (fp_line (start 6.985 0.4826) (end 7.747 0.4826) (layer F.Fab) (width 0.0762))
  (fp_line (start -0.4826 -6.985) (end -0.4826 -7.747) (layer F.Fab) (width 0.0762))
  (fp_line (start -7.747 0.9906) (end -6.985 0.9906) (layer F.Fab) (width 0.0762))
  (fp_line (start -0.9906 7.747) (end -0.9906 6.985) (layer F.Fab) (width 0.0762))
  (fp_line (start 6.985 0) (end 7.747 0) (layer F.Fab) (width 0.0762))
  (fp_line (start 0 -6.985) (end 0 -7.747) (layer F.Fab) (width 0.0762))
  (fp_line (start -7.747 1.4986) (end -6.985 1.4986) (layer F.Fab) (width 0.0762))
  (fp_line (start -1.4986 7.747) (end -1.4986 6.985) (layer F.Fab) (width 0.0762))
  (fp_line (start 6.985 -0.4826) (end 7.747 -0.4826) (layer F.Fab) (width 0.0762))
  (fp_line (start 0.4826 -6.985) (end 0.4826 -7.747) (layer F.Fab) (width 0.0762))
  (fp_line (start -7.747 1.9812) (end -6.985 1.9812) (layer F.Fab) (width 0.0762))
  (fp_line (start -1.9812 7.747) (end -1.9812 6.985) (layer F.Fab) (width 0.0762))
  (fp_line (start 6.985 -0.9906) (end 7.747 -0.9906) (layer F.Fab) (width 0.0762))
  (fp_line (start 0.9906 -6.985) (end 0.9906 -7.747) (layer F.Fab) (width 0.0762))
  (fp_line (start -6.985 -6.477) (end -6.477 -6.985) (layer F.Fab) (width 0.0762))
  (fp_line (start -7.747 2.4892) (end -6.985 2.4892) (layer F.Fab) (width 0.0762))
  (fp_line (start -2.4892 7.747) (end -2.4892 6.985) (layer F.Fab) (width 0.0762))
  (fp_line (start 6.985 -1.4986) (end 7.747 -1.4986) (layer F.Fab) (width 0.0762))
  (fp_line (start 1.4986 -6.985) (end 1.4986 -7.747) (layer F.Fab) (width 0.0762))
  (fp_line (start 5.9944 7.747) (end 5.9944 6.985) (layer F.Fab) (width 0.0762))
  (fp_line (start -7.747 2.9972) (end -6.985 2.9972) (layer F.Fab) (width 0.0762))
  (fp_line (start -2.9972 7.747) (end -2.9972 6.985) (layer F.Fab) (width 0.0762))
  (fp_line (start 6.985 -1.9812) (end 7.747 -1.9812) (layer F.Fab) (width 0.0762))
  (fp_line (start 1.9812 -6.985) (end 1.9812 -7.747) (layer F.Fab) (width 0.0762))
  (fp_line (start -7.747 3.4798) (end -6.985 3.4798) (layer F.Fab) (width 0.0762))
  (fp_line (start -3.4798 7.747) (end -3.4798 6.985) (layer F.Fab) (width 0.0762))
  (fp_line (start 6.985 -2.4892) (end 7.747 -2.4892) (layer F.Fab) (width 0.0762))
  (fp_line (start 2.4892 -6.985) (end 2.4892 -7.747) (layer F.Fab) (width 0.0762))
  (fp_line (start -7.747 -5.4864) (end -6.985 -5.4864) (layer F.Fab) (width 0.0762))
  (fp_line (start -7.747 3.9878) (end -6.985 3.9878) (layer F.Fab) (width 0.0762))
  (fp_line (start -3.9878 7.747) (end -3.9878 6.985) (layer F.Fab) (width 0.0762))
  (fp_line (start 6.985 -2.9972) (end 7.747 -2.9972) (layer F.Fab) (width 0.0762))
  (fp_line (start 2.9972 -6.985) (end 2.9972 -7.747) (layer F.Fab) (width 0.0762))
  (fp_line (start -7.747 4.4958) (end -6.985 4.4958) (layer F.Fab) (width 0.0762))
  (fp_line (start -4.4958 7.747) (end -4.4958 6.985) (layer F.Fab) (width 0.0762))
  (fp_line (start 6.985 -3.4798) (end 7.747 -3.4798) (layer F.Fab) (width 0.0762))
  (fp_line (start 3.4798 -6.985) (end 3.4798 -7.747) (layer F.Fab) (width 0.0762))
  (fp_line (start -7.747 4.9784) (end -6.985 4.9784) (layer F.Fab) (width 0.0762))
  (fp_line (start -4.9784 7.747) (end -4.9784 6.985) (layer F.Fab) (width 0.0762))
  (fp_line (start 6.985 -3.9878) (end 7.747 -3.9878) (layer F.Fab) (width 0.0762))
  (fp_line (start 3.9878 -6.985) (end 3.9878 -7.747) (layer F.Fab) (width 0.0762))
  (fp_line (start -7.747 5.4864) (end -6.985 5.4864) (layer F.Fab) (width 0.0762))
  (fp_line (start -5.4864 7.747) (end -5.4864 6.985) (layer F.Fab) (width 0.0762))
  (fp_line (start 6.985 -4.4958) (end 7.747 -4.4958) (layer F.Fab) (width 0.0762))
  (fp_line (start 6.985 6.985) (end 6.985 -6.985) (layer F.Fab) (width 0.0762))
  (fp_line (start 4.4958 -6.985) (end 4.4958 -7.747) (layer F.Fab) (width 0.0762))
  (fp_line (start -6.985 6.985) (end 6.985 6.985) (layer F.Fab) (width 0.0762))
  (fp_line (start -7.747 5.9944) (end -6.985 5.9944) (layer F.Fab) (width 0.0762))
  (fp_line (start -5.9944 7.747) (end -5.9944 6.985) (layer F.Fab) (width 0.0762))
  (fp_line (start 6.985 -4.9784) (end 7.747 -4.9784) (layer F.Fab) (width 0.0762))
  (fp_line (start -6.477 -6.985) (end 6.985 -6.985) (layer F.Fab) (width 0.0762))
  (fp_line (start 4.9784 -6.985) (end 4.9784 -7.747) (layer F.Fab) (width 0.0762))
  (fp_line (start 6.985 -5.4864) (end 7.747 -5.4864) (layer F.Fab) (width 0.0762))
  (fp_line (start 5.4864 -6.985) (end 5.4864 -7.747) (layer F.Fab) (width 0.0762))
  (fp_line (start 6.985 -5.9944) (end 7.747 -5.9944) (layer F.Fab) (width 0.0762))
  (fp_line (start 5.9944 -6.985) (end 5.9944 -7.747) (layer F.Fab) (width 0.0762))
  (fp_line (start 5.4864 7.747) (end 5.4864 6.985) (layer F.Fab) (width 0.0762))
  (fp_line (start -7.747 -4.9784) (end -6.985 -4.9784) (layer F.Fab) (width 0.0762))
  (fp_line (start -6.985 6.985) (end -6.985 -6.477) (layer F.Fab) (width 0.0762))
  (fp_line (start 6.985 5.9944) (end 7.747 5.9944) (layer F.Fab) (width 0.0762))
  (fp_line (start -6.985 -6.4262) (end -6.985 -6.477) (layer F.SilkS) (width 0.1778))
  (fp_line (start 6.4262 6.985) (end 6.985 6.985) (layer F.SilkS) (width 0.1778))
  (fp_line (start 6.985 6.985) (end 6.985 6.4262) (layer F.SilkS) (width 0.1778))
  (fp_line (start -6.985 -6.477) (end -6.477 -6.985) (layer F.SilkS) (width 0.1778))
  (fp_line (start -6.985 6.7818) (end -6.985 6.4262) (layer F.SilkS) (width 0.1778))
  (fp_line (start -6.7818 6.985) (end -6.4262 6.985) (layer F.SilkS) (width 0.1778))
  (fp_line (start -6.477 -6.985) (end -6.4262 -6.985) (layer F.SilkS) (width 0.1778))
  (fp_line (start 6.985 -6.4262) (end 6.985 -6.7818) (layer F.SilkS) (width 0.1778))
  (fp_line (start 6.4262 -6.985) (end 6.7818 -6.985) (layer F.SilkS) (width 0.1778))
  (pad 1 smd rect (at -7.6962 -5.9944) (size 1.524 0.2794) (layers F.Cu F.Paste F.Mask))
  (pad 2 smd rect (at -7.6962 -5.4864) (size 1.524 0.2794) (layers F.Cu F.Paste F.Mask))
  (pad 3 smd rect (at -7.6962 -4.9784) (size 1.524 0.2794) (layers F.Cu F.Paste F.Mask))
  (pad 4 smd rect (at -7.6962 -4.4958) (size 1.524 0.2794) (layers F.Cu F.Paste F.Mask))
  (pad 5 smd rect (at -7.6962 -3.9878) (size 1.524 0.2794) (layers F.Cu F.Paste F.Mask))
  (pad 6 smd rect (at -7.6962 -3.4798) (size 1.524 0.2794) (layers F.Cu F.Paste F.Mask))
  (pad 7 smd rect (at -7.6962 -2.9972) (size 1.524 0.2794) (layers F.Cu F.Paste F.Mask))
  (pad 8 smd rect (at -7.6962 -2.4892) (size 1.524 0.2794) (layers F.Cu F.Paste F.Mask))
  (pad 9 smd rect (at -7.6962 -1.9812) (size 1.524 0.2794) (layers F.Cu F.Paste F.Mask))
  (pad 10 smd rect (at -7.6962 -1.4986) (size 1.524 0.2794) (layers F.Cu F.Paste F.Mask))
  (pad 11 smd rect (at -7.6962 -0.9906) (size 1.524 0.2794) (layers F.Cu F.Paste F.Mask))
  (pad 12 smd rect (at -7.6962 -0.4826) (size 1.524 0.2794) (layers F.Cu F.Paste F.Mask))
  (pad 13 smd rect (at -7.6962 0) (size 1.524 0.2794) (layers F.Cu F.Paste F.Mask))
  (pad 14 smd rect (at -7.6962 0.4826) (size 1.524 0.2794) (layers F.Cu F.Paste F.Mask))
  (pad 15 smd rect (at -7.6962 0.9906) (size 1.524 0.2794) (layers F.Cu F.Paste F.Mask))
  (pad 16 smd rect (at -7.6962 1.4986) (size 1.524 0.2794) (layers F.Cu F.Paste F.Mask))
  (pad 17 smd rect (at -7.6962 1.9812) (size 1.524 0.2794) (layers F.Cu F.Paste F.Mask))
  (pad 18 smd rect (at -7.6962 2.4892) (size 1.524 0.2794) (layers F.Cu F.Paste F.Mask))
  (pad 19 smd rect (at -7.6962 2.9972) (size 1.524 0.2794) (layers F.Cu F.Paste F.Mask))
  (pad 20 smd rect (at -7.6962 3.4798) (size 1.524 0.2794) (layers F.Cu F.Paste F.Mask))
  (pad 21 smd rect (at -7.6962 3.9878) (size 1.524 0.2794) (layers F.Cu F.Paste F.Mask))
  (pad 22 smd rect (at -7.6962 4.4958) (size 1.524 0.2794) (layers F.Cu F.Paste F.Mask))
  (pad 23 smd rect (at -7.6962 4.9784) (size 1.524 0.2794) (layers F.Cu F.Paste F.Mask))
  (pad 24 smd rect (at -7.6962 5.4864) (size 1.524 0.2794) (layers F.Cu F.Paste F.Mask))
  (pad 25 smd rect (at -7.6962 5.9944) (size 1.524 0.2794) (layers F.Cu F.Paste F.Mask))
  (pad 26 smd rect (at -5.9944 7.6962 90) (size 1.524 0.2794) (layers F.Cu F.Paste F.Mask))
  (pad 27 smd rect (at -5.4864 7.6962 90) (size 1.524 0.2794) (layers F.Cu F.Paste F.Mask))
  (pad 28 smd rect (at -4.9784 7.6962 90) (size 1.524 0.2794) (layers F.Cu F.Paste F.Mask))
  (pad 29 smd rect (at -4.4958 7.6962 90) (size 1.524 0.2794) (layers F.Cu F.Paste F.Mask))
  (pad 30 smd rect (at -3.9878 7.6962 90) (size 1.524 0.2794) (layers F.Cu F.Paste F.Mask))
  (pad 31 smd rect (at -3.4798 7.6962 90) (size 1.524 0.2794) (layers F.Cu F.Paste F.Mask))
  (pad 32 smd rect (at -2.9972 7.6962 90) (size 1.524 0.2794) (layers F.Cu F.Paste F.Mask))
  (pad 33 smd rect (at -2.4892 7.6962 90) (size 1.524 0.2794) (layers F.Cu F.Paste F.Mask))
  (pad 34 smd rect (at -1.9812 7.6962 90) (size 1.524 0.2794) (layers F.Cu F.Paste F.Mask))
  (pad 35 smd rect (at -1.4986 7.6962 90) (size 1.524 0.2794) (layers F.Cu F.Paste F.Mask))
  (pad 36 smd rect (at -0.9906 7.6962 90) (size 1.524 0.2794) (layers F.Cu F.Paste F.Mask))
  (pad 37 smd rect (at -0.4826 7.6962 90) (size 1.524 0.2794) (layers F.Cu F.Paste F.Mask))
  (pad 38 smd rect (at 0 7.6962 90) (size 1.524 0.2794) (layers F.Cu F.Paste F.Mask))
  (pad 39 smd rect (at 0.4826 7.6962 90) (size 1.524 0.2794) (layers F.Cu F.Paste F.Mask))
  (pad 40 smd rect (at 0.9906 7.6962 90) (size 1.524 0.2794) (layers F.Cu F.Paste F.Mask))
  (pad 41 smd rect (at 1.4986 7.6962 90) (size 1.524 0.2794) (layers F.Cu F.Paste F.Mask))
  (pad 42 smd rect (at 1.9812 7.6962 90) (size 1.524 0.2794) (layers F.Cu F.Paste F.Mask))
  (pad 43 smd rect (at 2.4892 7.6962 90) (size 1.524 0.2794) (layers F.Cu F.Paste F.Mask))
  (pad 44 smd rect (at 2.9972 7.6962 90) (size 1.524 0.2794) (layers F.Cu F.Paste F.Mask))
  (pad 45 smd rect (at 3.4798 7.6962 90) (size 1.524 0.2794) (layers F.Cu F.Paste F.Mask))
  (pad 46 smd rect (at 3.9878 7.6962 90) (size 1.524 0.2794) (layers F.Cu F.Paste F.Mask))
  (pad 47 smd rect (at 4.4958 7.6962 90) (size 1.524 0.2794) (layers F.Cu F.Paste F.Mask))
  (pad 48 smd rect (at 4.9784 7.6962 90) (size 1.524 0.2794) (layers F.Cu F.Paste F.Mask))
  (pad 49 smd rect (at 5.4864 7.6962 90) (size 1.524 0.2794) (layers F.Cu F.Paste F.Mask))
  (pad 50 smd rect (at 5.9944 7.6962 90) (size 1.524 0.2794) (layers F.Cu F.Paste F.Mask))
  (pad 51 smd rect (at 7.6962 5.9944) (size 1.524 0.2794) (layers F.Cu F.Paste F.Mask))
  (pad 52 smd rect (at 7.6962 5.4864) (size 1.524 0.2794) (layers F.Cu F.Paste F.Mask))
  (pad 53 smd rect (at 7.6962 4.9784) (size 1.524 0.2794) (layers F.Cu F.Paste F.Mask))
  (pad 54 smd rect (at 7.6962 4.4958) (size 1.524 0.2794) (layers F.Cu F.Paste F.Mask))
  (pad 55 smd rect (at 7.6962 3.9878) (size 1.524 0.2794) (layers F.Cu F.Paste F.Mask))
  (pad 56 smd rect (at 7.6962 3.4798) (size 1.524 0.2794) (layers F.Cu F.Paste F.Mask))
  (pad 57 smd rect (at 7.6962 2.9972) (size 1.524 0.2794) (layers F.Cu F.Paste F.Mask))
  (pad 58 smd rect (at 7.6962 2.4892) (size 1.524 0.2794) (layers F.Cu F.Paste F.Mask))
  (pad 59 smd rect (at 7.6962 1.9812) (size 1.524 0.2794) (layers F.Cu F.Paste F.Mask))
  (pad 60 smd rect (at 7.6962 1.4986) (size 1.524 0.2794) (layers F.Cu F.Paste F.Mask))
  (pad 61 smd rect (at 7.6962 0.9906) (size 1.524 0.2794) (layers F.Cu F.Paste F.Mask))
  (pad 62 smd rect (at 7.6962 0.4826) (size 1.524 0.2794) (layers F.Cu F.Paste F.Mask))
  (pad 63 smd rect (at 7.6962 0) (size 1.524 0.2794) (layers F.Cu F.Paste F.Mask))
  (pad 64 smd rect (at 7.6962 -0.4826) (size 1.524 0.2794) (layers F.Cu F.Paste F.Mask))
  (pad 65 smd rect (at 7.6962 -0.9906) (size 1.524 0.2794) (layers F.Cu F.Paste F.Mask))
  (pad 66 smd rect (at 7.6962 -1.4986) (size 1.524 0.2794) (layers F.Cu F.Paste F.Mask))
  (pad 67 smd rect (at 7.6962 -1.9812) (size 1.524 0.2794) (layers F.Cu F.Paste F.Mask))
  (pad 68 smd rect (at 7.6962 -2.4892) (size 1.524 0.2794) (layers F.Cu F.Paste F.Mask))
  (pad 69 smd rect (at 7.6962 -2.9972) (size 1.524 0.2794) (layers F.Cu F.Paste F.Mask))
  (pad 70 smd rect (at 7.6962 -3.4798) (size 1.524 0.2794) (layers F.Cu F.Paste F.Mask))
  (pad 71 smd rect (at 7.6962 -3.9878) (size 1.524 0.2794) (layers F.Cu F.Paste F.Mask))
  (pad 72 smd rect (at 7.6962 -4.4958) (size 1.524 0.2794) (layers F.Cu F.Paste F.Mask))
  (pad 73 smd rect (at 7.6962 -4.9784) (size 1.524 0.2794) (layers F.Cu F.Paste F.Mask))
  (pad 74 smd rect (at 7.6962 -5.4864) (size 1.524 0.2794) (layers F.Cu F.Paste F.Mask))
  (pad 75 smd rect (at 7.6962 -5.9944) (size 1.524 0.2794) (layers F.Cu F.Paste F.Mask))
  (pad 76 smd rect (at 5.9944 -7.6962 90) (size 1.524 0.2794) (layers F.Cu F.Paste F.Mask))
  (pad 77 smd rect (at 5.4864 -7.6962 90) (size 1.524 0.2794) (layers F.Cu F.Paste F.Mask))
  (pad 78 smd rect (at 4.9784 -7.6962 90) (size 1.524 0.2794) (layers F.Cu F.Paste F.Mask))
  (pad 79 smd rect (at 4.4958 -7.6962 90) (size 1.524 0.2794) (layers F.Cu F.Paste F.Mask))
  (pad 80 smd rect (at 3.9878 -7.6962 90) (size 1.524 0.2794) (layers F.Cu F.Paste F.Mask))
  (pad 81 smd rect (at 3.4798 -7.6962 90) (size 1.524 0.2794) (layers F.Cu F.Paste F.Mask))
  (pad 82 smd rect (at 2.9972 -7.6962 90) (size 1.524 0.2794) (layers F.Cu F.Paste F.Mask))
  (pad 83 smd rect (at 2.4892 -7.6962 90) (size 1.524 0.2794) (layers F.Cu F.Paste F.Mask))
  (pad 84 smd rect (at 1.9812 -7.6962 90) (size 1.524 0.2794) (layers F.Cu F.Paste F.Mask))
  (pad 85 smd rect (at 1.4986 -7.6962 90) (size 1.524 0.2794) (layers F.Cu F.Paste F.Mask))
  (pad 86 smd rect (at 0.9906 -7.6962 90) (size 1.524 0.2794) (layers F.Cu F.Paste F.Mask))
  (pad 87 smd rect (at 0.4826 -7.6962 90) (size 1.524 0.2794) (layers F.Cu F.Paste F.Mask))
  (pad 88 smd rect (at 0 -7.6962 90) (size 1.524 0.2794) (layers F.Cu F.Paste F.Mask))
  (pad 89 smd rect (at -0.4826 -7.6962 90) (size 1.524 0.2794) (layers F.Cu F.Paste F.Mask))
  (pad 90 smd rect (at -0.9906 -7.6962 90) (size 1.524 0.2794) (layers F.Cu F.Paste F.Mask))
  (pad 91 smd rect (at -1.4986 -7.6962 90) (size 1.524 0.2794) (layers F.Cu F.Paste F.Mask))
  (pad 92 smd rect (at -1.9812 -7.6962 90) (size 1.524 0.2794) (layers F.Cu F.Paste F.Mask))
  (pad 93 smd rect (at -2.4892 -7.6962 90) (size 1.524 0.2794) (layers F.Cu F.Paste F.Mask))
  (pad 94 smd rect (at -2.9972 -7.6962 90) (size 1.524 0.2794) (layers F.Cu F.Paste F.Mask))
  (pad 95 smd rect (at -3.4798 -7.6962 90) (size 1.524 0.2794) (layers F.Cu F.Paste F.Mask))
  (pad 96 smd rect (at -3.9878 -7.6962 90) (size 1.524 0.2794) (layers F.Cu F.Paste F.Mask))
  (pad 97 smd rect (at -4.4958 -7.6962 90) (size 1.524 0.2794) (layers F.Cu F.Paste F.Mask))
  (pad 98 smd rect (at -4.9784 -7.6962 90) (size 1.524 0.2794) (layers F.Cu F.Paste F.Mask))
  (pad 99 smd rect (at -5.4864 -7.6962 90) (size 1.524 0.2794) (layers F.Cu F.Paste F.Mask))
  (pad 100 smd rect (at -5.9944 -7.6962 90) (size 1.524 0.2794) (layers F.Cu F.Paste F.Mask))
  (pad 101 smd circle (at -7.6962 7.6962) (size 1.27 1.27) (layers F.Cu F.Mask)
    (solder_mask_margin 0.254))
  (pad 102 smd circle (at 7.6962 -7.6962) (size 1.27 1.27) (layers F.Cu F.Mask)
    (solder_mask_margin 0.254))
  (model ${KISYS3DMOD}/Package_QFP.3dshapes/TQFP-100_14x14mm_P0.5mm.wrl
    (at (xyz 0 0 0))
    (scale (xyz 1 1 1))
    (rotate (xyz 0 0 0))
  )
)
