(module CP_Elec_8x10_SMD (layer F.Cu) (tedit 5E94E238)
  (attr smd)
  (fp_text reference REF** (at 1.016 1.524 -90 unlocked) (layer F.SilkS) hide
    (effects (font (size 1.332992 1.40208) (thickness 0.254)))
  )
  (fp_text value CP_Elec_8x10_SMD (at 1.016 4.572 -90 unlocked) (layer F.SilkS) hide
    (effects (font (size 1.332992 1.40208) (thickness 0.254)))
  )
  (fp_circle (center 0 0) (end 3.9878 0) (layer F.Fab) (width 0.0762))
  (fp_line (start -4.191 -2.9972) (end -2.9972 -4.191) (layer F.SilkS) (width 0.1778))
  (fp_line (start -4.191 4.191) (end -4.191 -2.9972) (layer F.SilkS) (width 0.1778))
  (fp_line (start 2.9972 -4.191) (end 4.191 -2.9972) (layer F.SilkS) (width 0.1778))
  (fp_line (start 1.27 -4.191) (end 2.9972 -4.191) (layer F.SilkS) (width 0.1778))
  (fp_line (start 4.191 2.7686) (end 4.191 -2.9972) (layer F.SilkS) (width 0.1778))
  (fp_line (start -4.191 4.191) (end -1.27 4.191) (layer F.SilkS) (width 0.1778))
  (fp_line (start -2.9972 -4.191) (end -1.27 -4.191) (layer F.SilkS) (width 0.1778))
  (fp_line (start 1.27 4.191) (end 4.0132 4.191) (layer F.SilkS) (width 0.1778))
  (fp_line (start 1.27 4.191) (end 4.191 4.191) (layer Dwgs.User) (width 0.1778))
  (fp_line (start -4.191 -2.9972) (end -2.9972 -4.191) (layer Dwgs.User) (width 0.1778))
  (fp_line (start -4.191 4.191) (end -4.191 -2.9972) (layer Dwgs.User) (width 0.1778))
  (fp_line (start 2.9972 -4.191) (end 4.191 -2.9972) (layer Dwgs.User) (width 0.1778))
  (fp_line (start 1.27 -4.191) (end 2.9972 -4.191) (layer Dwgs.User) (width 0.1778))
  (fp_line (start 4.191 4.191) (end 4.191 -2.9972) (layer Dwgs.User) (width 0.1778))
  (fp_line (start -4.191 4.191) (end -1.27 4.191) (layer Dwgs.User) (width 0.1778))
  (fp_line (start -2.9972 -4.191) (end -1.27 -4.191) (layer Dwgs.User) (width 0.1778))
  (fp_line (start -1.778 3.4798) (end 1.778 3.4798) (layer F.Fab) (width 0.0762))
  (fp_line (start -4.191 4.191) (end -4.191 -2.9972) (layer F.Fab) (width 0.0762))
  (fp_line (start -4.191 -2.9972) (end -2.9972 -4.191) (layer F.Fab) (width 0.0762))
  (fp_line (start -2.286 3.2766) (end 2.1844 3.2766) (layer F.Fab) (width 0.0762))
  (fp_line (start 2.9972 -4.191) (end 4.191 -2.9972) (layer F.Fab) (width 0.0762))
  (fp_line (start -2.9972 -4.191) (end 2.9972 -4.191) (layer F.Fab) (width 0.0762))
  (fp_line (start 4.191 4.191) (end 4.191 -2.9972) (layer F.Fab) (width 0.0762))
  (fp_line (start -4.191 4.191) (end 4.191 4.191) (layer F.Fab) (width 0.0762))
  (fp_line (start 0.4826 -4.191) (end 0.4826 -4.4958) (layer F.Fab) (width 0.0762))
  (fp_line (start -0.4826 -4.4958) (end 0.4826 -4.4958) (layer F.Fab) (width 0.0762))
  (fp_line (start -0.4826 -4.191) (end 0.4826 -4.191) (layer F.Fab) (width 0.0762))
  (fp_line (start -0.4826 4.4958) (end -0.4826 4.191) (layer F.Fab) (width 0.0762))
  (fp_line (start -0.4826 -4.191) (end -0.4826 -4.4958) (layer F.Fab) (width 0.0762))
  (fp_line (start -0.4826 4.4958) (end 0.4826 4.4958) (layer F.Fab) (width 0.0762))
  (fp_line (start -0.4826 4.191) (end 0.4826 4.191) (layer F.Fab) (width 0.0762))
  (fp_line (start 0.4826 4.4958) (end 0.4826 4.191) (layer F.Fab) (width 0.0762))
  (fp_line (start -1.4986 3.683) (end 1.4986 3.683) (layer F.Fab) (width 0.0762))
  (pad - smd rect (at 0 3.175) (size 1.905 3.81) (layers F.Cu F.Paste F.Mask))
  (pad + smd rect (at 0 -3.175) (size 1.905 3.81) (layers F.Cu F.Paste F.Mask))
  (model ${KISYS3DMOD}/Capacitor_SMD.3dshapes/CP_Elec_8x10.5.wrl
    (at (xyz 0 0 0))
    (scale (xyz 1 1 1))
    (rotate (xyz 0 0 90))
  )
)
