(module MIRECMS-SAFT_1 (layer F.Cu) (tedit 0)
  (attr smd)
  (fp_text reference J2 (at 1.016 -1.016 unlocked) (layer F.SilkS) hide
    (effects (font (size 1.332992 1.40208) (thickness 0.254)))
  )
  (fp_text value MIRECMS (at 3.556 -1.016 unlocked) (layer F.SilkS) hide
    (effects (font (size 1.332992 1.40208) (thickness 0.254)))
  )
  (fp_circle (center 0 0) (end 1.5 0) (layer Dwgs.User) (width 0.1))
  (pad 1 smd circle (at 0 0) (size 1 1) (layers F.Cu F.Paste F.Mask))
)
