(module 811S1-02_1 (layer F.Cu) (tedit 5E9E3B3E)
  (attr smd)
  (fp_text reference J5 (at -3.495 -0.331 unlocked) (layer F.SilkS)
    (effects (font (size 1.312 1.38) (thickness 0.15)))
  )
  (fp_text value BAR-CMS254-811S1-02 (at 9.5 -1 unlocked) (layer F.SilkS) hide
    (effects (font (size 1.312 1.38) (thickness 0.15)))
  )
  (fp_line (start -1.27 -1.27) (end -0.31132 -1.27) (layer F.SilkS) (width 0.18))
  (fp_line (start -1.27 0.635) (end -0.635 1.27) (layer F.SilkS) (width 0.18))
  (fp_line (start 0.31132 1.27) (end 2.22868 1.27) (layer F.SilkS) (width 0.18))
  (fp_line (start -0.635 1.27) (end -0.31132 1.27) (layer F.SilkS) (width 0.18))
  (fp_line (start -1.27 0.635) (end -1.27 0.31132) (layer F.SilkS) (width 0.18))
  (fp_line (start -1.27 0) (end 0 1.27) (layer F.SilkS) (width 0.1))
  (fp_line (start 2.85132 -1.27) (end 3.81 -1.27) (layer F.SilkS) (width 0.18))
  (fp_line (start 3.81 -0.31132) (end 3.81 -1.27) (layer F.SilkS) (width 0.18))
  (fp_line (start 3.81 1.27) (end 3.81 -1.27) (layer F.SilkS) (width 0.1))
  (fp_line (start -1.27 -0.31132) (end -1.27 -1.27) (layer F.SilkS) (width 0.18))
  (fp_line (start -1.27 -1.27) (end 3.81 -1.27) (layer F.SilkS) (width 0.1))
  (fp_line (start 3.81 1.27) (end 3.81 0.31132) (layer F.SilkS) (width 0.18))
  (fp_line (start 0.31132 -1.27) (end 2.22868 -1.27) (layer F.SilkS) (width 0.18))
  (fp_line (start -1.27 1.27) (end -1.27 -1.27) (layer F.SilkS) (width 0.1))
  (fp_line (start 2.85132 1.27) (end 3.81 1.27) (layer F.SilkS) (width 0.18))
  (fp_line (start 1.27 1.27) (end 1.27 -1.27) (layer F.SilkS) (width 0.1))
  (fp_line (start -1.27 1.27) (end 3.81 1.27) (layer F.SilkS) (width 0.1))
  (pad 2 smd circle (at 2.54 0) (size 2.032 2.032) (layers F.Cu F.Paste F.Mask))
  (pad 1 smd circle (at 0 0) (size 2.032 2.032) (layers F.Cu F.Paste F.Mask))
  (model ${KIPRJMOD}/Footprints.3dshapes/811-S1-NNN.step
    (offset (xyz 1.25 0 0))
    (scale (xyz 1 1 1))
    (rotate (xyz 0 0 0))
  )
)
