(module BP2X5C_1 (layer F.Cu) (tedit 5E9E3B7C)
  (attr smd)
  (fp_text reference J1 (at -0.70899 0.7106 unlocked) (layer F.SilkS)
    (effects (font (size 1.312 1.38) (thickness 0.15)))
  )
  (fp_text value F-CO-HE10-2010C (at -7.5 1 unlocked) (layer F.SilkS) hide
    (effects (font (size 1.312 1.38) (thickness 0.15)))
  )
  (fp_line (start -3.81 11.43) (end -3.81 13.97) (layer F.SilkS) (width 0.1))
  (fp_line (start 5.08 -0.635) (end 1.27 -0.635) (layer F.SilkS) (width 0.18))
  (fp_line (start -0.635 13.865) (end -0.635 13.97) (layer F.SilkS) (width 0.18))
  (fp_line (start -0.635 13.0556) (end -0.635 13.97) (layer F.SilkS) (width 0.1))
  (fp_line (start -11.43 -0.635) (end -15.38 -0.635) (layer F.SilkS) (width 0.18))
  (fp_line (start 0.635 13.865) (end 0.635 13.97) (layer F.SilkS) (width 0.18))
  (fp_line (start -0.1524 11.938) (end -0.635 13.0556) (layer F.SilkS) (width 0.1))
  (fp_line (start 0.635 13.0556) (end 0.635 13.97) (layer F.SilkS) (width 0.1))
  (fp_line (start -0.1524 11.938) (end -0.27201 12.215) (layer F.SilkS) (width 0.18))
  (fp_line (start 0.1778 11.938) (end -0.1524 11.938) (layer F.SilkS) (width 0.18))
  (fp_line (start 0.1778 11.938) (end -0.1524 11.938) (layer F.SilkS) (width 0.1))
  (fp_line (start 5.08 -0.889) (end -15.38 -0.889) (layer F.SilkS) (width 0.1))
  (fp_line (start 0.29112 12.215) (end 0.1778 11.938) (layer F.SilkS) (width 0.18))
  (fp_line (start 0.635 13.0556) (end 0.1778 11.938) (layer F.SilkS) (width 0.1))
  (fp_line (start 5.08 13.865) (end 5.08 13.97) (layer F.SilkS) (width 0.18))
  (fp_line (start 5.08 -0.889) (end 5.08 13.97) (layer F.SilkS) (width 0.1))
  (fp_line (start 5.08 -0.635) (end 5.08 12.215) (layer F.SilkS) (width 0.18))
  (fp_line (start -15.38 13.865) (end -15.38 13.97) (layer F.SilkS) (width 0.18))
  (fp_line (start 5.08 13.97) (end -15.38 13.97) (layer F.SilkS) (width 0.18))
  (fp_line (start -15.38 -0.889) (end -15.38 13.97) (layer F.SilkS) (width 0.1))
  (fp_line (start 5.08 13.97) (end -15.38 13.97) (layer F.SilkS) (width 0.1))
  (fp_line (start -15.38 -0.635) (end -15.38 12.215) (layer F.SilkS) (width 0.18))
  (fp_line (start -6.35 11.43) (end -6.35 13.97) (layer F.SilkS) (width 0.1))
  (pad 10 thru_hole circle (at -10.16 2.54 180) (size 1.5748 1.5748) (drill 0.9144) (layers *.Cu *.Mask))
  (pad 9 thru_hole circle (at -10.16 0 180) (size 1.5748 1.5748) (drill 0.9144) (layers *.Cu *.Mask))
  (pad 8 thru_hole circle (at -7.62 2.54 180) (size 1.5748 1.5748) (drill 0.9144) (layers *.Cu *.Mask))
  (pad 7 thru_hole circle (at -7.62 0 180) (size 1.5748 1.5748) (drill 0.9144) (layers *.Cu *.Mask))
  (pad 6 thru_hole circle (at -5.08 2.54 180) (size 1.5748 1.5748) (drill 0.9144) (layers *.Cu *.Mask))
  (pad 5 thru_hole circle (at -5.08 0 180) (size 1.5748 1.5748) (drill 0.9144) (layers *.Cu *.Mask))
  (pad 4 thru_hole circle (at -2.54 2.54 180) (size 1.5748 1.5748) (drill 0.9144) (layers *.Cu *.Mask))
  (pad 3 thru_hole circle (at -2.54 0 180) (size 1.5748 1.5748) (drill 0.9144) (layers *.Cu *.Mask))
  (pad 2 thru_hole circle (at 0 2.54 180) (size 1.5748 1.5748) (drill 0.9144) (layers *.Cu *.Mask))
  (pad 1 thru_hole rect (at 0 0 180) (size 1.5748 1.5748) (drill 0.9144) (layers *.Cu *.Mask))
  (model ${KIPRJMOD}/Footprints.3dshapes/39-26-7108-recenter.stp
    (at (xyz 0 0 0))
    (scale (xyz 1 1 1))
    (rotate (xyz 0 0 180))
  )
)
