(module FABRICATION-FEE_1 (layer F.Cu) (tedit 0)
  (attr smd)
  (fp_text reference CAM12 (at 2.54 -1.016 unlocked) (layer F.SilkS) hide
    (effects (font (size 1.332992 1.40208) (thickness 0.254)))
  )
  (fp_text value FABRICATION-FEE (at 7.62 -1.016 unlocked) (layer F.SilkS) hide
    (effects (font (size 1.332992 1.40208) (thickness 0.254)))
  )
  (fp_line (start 0.635 39.37) (end 46.355 39.37) (layer Dwgs.User) (width 0.2))
  (fp_line (start 0.635 26.67) (end 50.165 26.67) (layer Dwgs.User) (width 0.2))
  (fp_line (start 0.635 106.045) (end 0.635 99.695) (layer Dwgs.User) (width 0.2))
  (fp_line (start 32.385 20.32) (end 32.385 13.97) (layer Dwgs.User) (width 0.2))
  (fp_line (start 0.635 58.42) (end 46.355 58.42) (layer Dwgs.User) (width 0.2))
  (fp_line (start 0.635 71.12) (end 0.635 64.77) (layer Dwgs.User) (width 0.2))
  (fp_line (start 50.165 71.12) (end 50.165 64.77) (layer Dwgs.User) (width 0.2))
  (fp_line (start 50.165 39.37) (end 50.165 33.02) (layer Dwgs.User) (width 0.2))
  (fp_line (start 0.635 26.67) (end 46.355 26.67) (layer Dwgs.User) (width 0.2))
  (fp_line (start 0.635 58.42) (end 50.165 58.42) (layer Dwgs.User) (width 0.2))
  (fp_line (start 0 113.03) (end 0 0) (layer Dwgs.User) (width 0.2))
  (fp_line (start 0.635 112.395) (end 50.165 112.395) (layer Dwgs.User) (width 0.2))
  (fp_line (start 0.635 20.32) (end 0.635 13.97) (layer Dwgs.User) (width 0.2))
  (fp_line (start 0 113.03) (end 50.8 113.03) (layer Dwgs.User) (width 0.2))
  (fp_line (start 0.635 86.995) (end 0.635 80.645) (layer Dwgs.User) (width 0.2))
  (fp_line (start 0.635 45.72) (end 50.165 45.72) (layer Dwgs.User) (width 0.2))
  (fp_line (start 0.635 33.02) (end 50.165 33.02) (layer Dwgs.User) (width 0.2))
  (fp_line (start 0.635 99.695) (end 0.635 93.345) (layer Dwgs.User) (width 0.2))
  (fp_line (start 29.21 45.72) (end 29.21 39.37) (layer Dwgs.User) (width 0.2))
  (fp_line (start 0.635 52.07) (end 46.355 52.07) (layer Dwgs.User) (width 0.2))
  (fp_line (start 0.635 80.645) (end 0.635 71.12) (layer Dwgs.User) (width 0.2))
  (fp_line (start 50.165 64.77) (end 50.165 58.42) (layer Dwgs.User) (width 0.2))
  (fp_line (start 50.165 45.72) (end 50.165 39.37) (layer Dwgs.User) (width 0.2))
  (fp_line (start 0.635 33.02) (end 46.355 33.02) (layer Dwgs.User) (width 0.2))
  (fp_line (start 0.635 52.07) (end 50.165 52.07) (layer Dwgs.User) (width 0.2))
  (fp_line (start 40.005 45.72) (end 40.005 39.37) (layer Dwgs.User) (width 0.2))
  (fp_line (start 0.635 13.97) (end 0.635 7.62) (layer Dwgs.User) (width 0.2))
  (fp_line (start 0.635 39.37) (end 50.165 39.37) (layer Dwgs.User) (width 0.2))
  (fp_line (start 0.635 93.345) (end 0.635 86.995) (layer Dwgs.User) (width 0.2))
  (fp_line (start 29.21 42.545) (end 50.165 42.545) (layer Dwgs.User) (width 0.2))
  (fp_line (start 0.635 45.72) (end 46.355 45.72) (layer Dwgs.User) (width 0.2))
  (fp_line (start 50.165 13.97) (end 50.165 7.62) (layer Dwgs.User) (width 0.2))
  (fp_line (start 0.635 80.645) (end 46.355 80.645) (layer Dwgs.User) (width 0.2))
  (fp_line (start 30.1625 80.645) (end 30.1625 71.12) (layer Dwgs.User) (width 0.2))
  (fp_line (start 0.635 86.995) (end 50.165 86.995) (layer Dwgs.User) (width 0.2))
  (fp_line (start 0.635 45.72) (end 0.635 39.37) (layer Dwgs.User) (width 0.2))
  (fp_line (start 50.165 93.345) (end 50.165 86.995) (layer Dwgs.User) (width 0.2))
  (fp_line (start 38.735 86.995) (end 38.735 80.645) (layer Dwgs.User) (width 0.2))
  (fp_line (start 0.635 0.635) (end 50.165 0.635) (layer Dwgs.User) (width 0.2))
  (fp_line (start 0.635 6.985) (end 50.165 6.985) (layer Dwgs.User) (width 0.2))
  (fp_line (start 0.635 7.62) (end 50.165 7.62) (layer Dwgs.User) (width 0.2))
  (fp_line (start 50.165 99.695) (end 50.165 93.345) (layer Dwgs.User) (width 0.2))
  (fp_line (start 0 0) (end 50.8 0) (layer Dwgs.User) (width 0.2))
  (fp_line (start 0.635 52.07) (end 0.635 45.72) (layer Dwgs.User) (width 0.2))
  (fp_line (start 0.635 80.645) (end 50.165 80.645) (layer Dwgs.User) (width 0.2))
  (fp_line (start 30.1625 71.12) (end 30.1625 64.77) (layer Dwgs.User) (width 0.2))
  (fp_line (start 50.165 58.42) (end 50.165 52.07) (layer Dwgs.User) (width 0.2))
  (fp_line (start 0.635 86.995) (end 46.355 86.995) (layer Dwgs.User) (width 0.2))
  (fp_line (start 50.8 113.03) (end 50.8 0) (layer Dwgs.User) (width 0.2))
  (fp_line (start 50.165 20.32) (end 50.165 13.97) (layer Dwgs.User) (width 0.2))
  (fp_line (start 50.165 7.62) (end 50.165 0.635) (layer Dwgs.User) (width 0.2))
  (fp_line (start 40.005 80.645) (end 40.005 71.12) (layer Dwgs.User) (width 0.2))
  (fp_line (start 0.635 93.345) (end 50.165 93.345) (layer Dwgs.User) (width 0.2))
  (fp_line (start 0.635 39.37) (end 0.635 33.02) (layer Dwgs.User) (width 0.2))
  (fp_line (start 50.165 86.995) (end 50.165 80.645) (layer Dwgs.User) (width 0.2))
  (fp_line (start 31.115 86.995) (end 31.115 80.645) (layer Dwgs.User) (width 0.2))
  (fp_line (start 23.495 77.47) (end 50.165 77.47) (layer Dwgs.User) (width 0.2))
  (fp_line (start 0.635 13.97) (end 50.165 13.97) (layer Dwgs.User) (width 0.2))
  (fp_line (start 50.165 106.045) (end 50.165 99.695) (layer Dwgs.User) (width 0.2))
  (fp_line (start 36.83 93.345) (end 36.83 86.995) (layer Dwgs.User) (width 0.2))
  (fp_line (start 0.635 71.12) (end 46.355 71.12) (layer Dwgs.User) (width 0.2))
  (fp_line (start 0.635 58.42) (end 0.635 52.07) (layer Dwgs.User) (width 0.2))
  (fp_line (start 30.1625 64.77) (end 30.1625 58.42) (layer Dwgs.User) (width 0.2))
  (fp_line (start 0.635 93.345) (end 46.355 93.345) (layer Dwgs.User) (width 0.2))
  (fp_line (start 36.83 71.12) (end 36.83 64.77) (layer Dwgs.User) (width 0.2))
  (fp_line (start 50.165 26.67) (end 50.165 20.32) (layer Dwgs.User) (width 0.2))
  (fp_line (start 36.83 13.97) (end 36.83 7.62) (layer Dwgs.User) (width 0.2))
  (fp_line (start 50.165 52.07) (end 50.165 45.72) (layer Dwgs.User) (width 0.2))
  (fp_line (start 23.495 74.295) (end 50.165 74.295) (layer Dwgs.User) (width 0.2))
  (fp_line (start 0.635 13.97) (end 46.355 13.97) (layer Dwgs.User) (width 0.2))
  (fp_line (start 0.635 71.12) (end 50.165 71.12) (layer Dwgs.User) (width 0.2))
  (fp_line (start 0.635 99.695) (end 50.165 99.695) (layer Dwgs.User) (width 0.2))
  (fp_line (start 0.635 33.02) (end 0.635 26.67) (layer Dwgs.User) (width 0.2))
  (fp_line (start 0.635 7.62) (end 0.635 0.635) (layer Dwgs.User) (width 0.2))
  (fp_line (start 41.275 20.32) (end 41.275 13.97) (layer Dwgs.User) (width 0.2))
  (fp_line (start 23.495 112.395) (end 23.495 7.62) (layer Dwgs.User) (width 0.2))
  (fp_line (start 0.635 20.32) (end 50.165 20.32) (layer Dwgs.User) (width 0.2))
  (fp_line (start 0.635 112.395) (end 0.635 106.045) (layer Dwgs.User) (width 0.2))
  (fp_line (start 50.165 112.395) (end 50.165 106.045) (layer Dwgs.User) (width 0.2))
  (fp_line (start 36.83 99.695) (end 36.83 93.345) (layer Dwgs.User) (width 0.2))
  (fp_line (start 0.635 64.77) (end 46.355 64.77) (layer Dwgs.User) (width 0.2))
  (fp_line (start 0.635 64.77) (end 0.635 58.42) (layer Dwgs.User) (width 0.2))
  (fp_line (start 50.165 80.645) (end 50.165 71.12) (layer Dwgs.User) (width 0.2))
  (fp_line (start 0.635 99.695) (end 46.355 99.695) (layer Dwgs.User) (width 0.2))
  (fp_line (start 36.83 64.77) (end 36.83 58.42) (layer Dwgs.User) (width 0.2))
  (fp_line (start 50.165 33.02) (end 50.165 26.67) (layer Dwgs.User) (width 0.2))
  (fp_line (start 0.635 20.32) (end 46.355 20.32) (layer Dwgs.User) (width 0.2))
  (fp_line (start 0.635 64.77) (end 50.165 64.77) (layer Dwgs.User) (width 0.2))
  (fp_line (start 0.635 106.045) (end 50.165 106.045) (layer Dwgs.User) (width 0.2))
  (fp_line (start 0.635 26.67) (end 0.635 20.32) (layer Dwgs.User) (width 0.2))
)
