ISO-10303-21;
HEADER;
/* Generated by software containing ST-Developer
 * from STEP Tools, Inc. (www.steptools.com) 
 */

FILE_DESCRIPTION(
/* description */ (''),
/* implementation_level */ '2;1');

FILE_NAME(
/* name */ 
'C:\\Users\\huesof\\Downloads\\medtronic-pb560-ventilator-system-file-
set-2\\Electronic PCBAs\\GR106769_CPU_PCBA\\3D_Model\\GR106769B00\\ent
retoise hexa  m3x8.stp',
/* time_stamp */ '2020-04-19T11:14:11-04:00',
/* author */ ('huesof'),
/* organization */ (''),
/* preprocessor_version */ 'ST-DEVELOPER v18',
/* originating_system */ 'Autodesk Inventor 2020',
/* authorisation */ '');

FILE_SCHEMA (('AUTOMOTIVE_DESIGN { 1 0 10303 214 3 1 1 }'));
ENDSEC;

DATA;
#10=MECHANICAL_DESIGN_GEOMETRIC_PRESENTATION_REPRESENTATION('',(#13),#314);
#11=SHAPE_REPRESENTATION_RELATIONSHIP('SRR','None',#321,#12);
#12=ADVANCED_BREP_SHAPE_REPRESENTATION('',(#14),#313);
#13=STYLED_ITEM('',(#330),#14);
#14=MANIFOLD_SOLID_BREP('Solid1',#182);
#15=CYLINDRICAL_SURFACE('',#214,1.5);
#16=FACE_BOUND('',#38,.T.);
#17=FACE_BOUND('',#40,.T.);
#18=CIRCLE('',#209,1.5);
#19=CIRCLE('',#210,1.5);
#20=CIRCLE('',#212,1.5);
#21=CIRCLE('',#213,1.5);
#22=FACE_OUTER_BOUND('',#31,.T.);
#23=FACE_OUTER_BOUND('',#32,.T.);
#24=FACE_OUTER_BOUND('',#33,.T.);
#25=FACE_OUTER_BOUND('',#34,.T.);
#26=FACE_OUTER_BOUND('',#35,.T.);
#27=FACE_OUTER_BOUND('',#36,.T.);
#28=FACE_OUTER_BOUND('',#37,.T.);
#29=FACE_OUTER_BOUND('',#39,.T.);
#30=FACE_OUTER_BOUND('',#41,.T.);
#31=EDGE_LOOP('',(#119,#120,#121,#122));
#32=EDGE_LOOP('',(#123,#124,#125,#126));
#33=EDGE_LOOP('',(#127,#128,#129,#130));
#34=EDGE_LOOP('',(#131,#132,#133,#134));
#35=EDGE_LOOP('',(#135,#136,#137,#138));
#36=EDGE_LOOP('',(#139,#140,#141,#142));
#37=EDGE_LOOP('',(#143,#144,#145,#146,#147,#148));
#38=EDGE_LOOP('',(#149,#150));
#39=EDGE_LOOP('',(#151,#152,#153,#154,#155,#156));
#40=EDGE_LOOP('',(#157,#158));
#41=EDGE_LOOP('',(#159,#160,#161,#162,#163,#164));
#42=LINE('',#266,#61);
#43=LINE('',#268,#62);
#44=LINE('',#270,#63);
#45=LINE('',#271,#64);
#46=LINE('',#274,#65);
#47=LINE('',#276,#66);
#48=LINE('',#277,#67);
#49=LINE('',#280,#68);
#50=LINE('',#282,#69);
#51=LINE('',#283,#70);
#52=LINE('',#286,#71);
#53=LINE('',#288,#72);
#54=LINE('',#289,#73);
#55=LINE('',#292,#74);
#56=LINE('',#294,#75);
#57=LINE('',#295,#76);
#58=LINE('',#297,#77);
#59=LINE('',#298,#78);
#60=LINE('',#310,#79);
#61=VECTOR('',#219,3.17542648054288);
#62=VECTOR('',#220,7.99999999999996);
#63=VECTOR('',#221,3.17542648054296);
#64=VECTOR('',#222,7.99999999999995);
#65=VECTOR('',#225,3.17542648054287);
#66=VECTOR('',#226,7.99999999999997);
#67=VECTOR('',#227,3.17542648054284);
#68=VECTOR('',#230,3.1754264805429);
#69=VECTOR('',#231,7.99999999999993);
#70=VECTOR('',#232,3.17542648054286);
#71=VECTOR('',#235,3.17542648054289);
#72=VECTOR('',#236,7.99999999999993);
#73=VECTOR('',#237,3.17542648054301);
#74=VECTOR('',#240,3.17542648054305);
#75=VECTOR('',#241,7.99999999999995);
#76=VECTOR('',#242,3.175426480543);
#77=VECTOR('',#245,3.17542648054294);
#78=VECTOR('',#246,3.175426480543);
#79=VECTOR('',#261,1.5);
#80=VERTEX_POINT('',#264);
#81=VERTEX_POINT('',#265);
#82=VERTEX_POINT('',#267);
#83=VERTEX_POINT('',#269);
#84=VERTEX_POINT('',#273);
#85=VERTEX_POINT('',#275);
#86=VERTEX_POINT('',#279);
#87=VERTEX_POINT('',#281);
#88=VERTEX_POINT('',#285);
#89=VERTEX_POINT('',#287);
#90=VERTEX_POINT('',#291);
#91=VERTEX_POINT('',#293);
#92=VERTEX_POINT('',#300);
#93=VERTEX_POINT('',#301);
#94=VERTEX_POINT('',#305);
#95=VERTEX_POINT('',#306);
#96=EDGE_CURVE('',#80,#81,#42,.T.);
#97=EDGE_CURVE('',#82,#81,#43,.T.);
#98=EDGE_CURVE('',#83,#82,#44,.T.);
#99=EDGE_CURVE('',#83,#80,#45,.T.);
#100=EDGE_CURVE('',#81,#84,#46,.T.);
#101=EDGE_CURVE('',#85,#84,#47,.T.);
#102=EDGE_CURVE('',#82,#85,#48,.T.);
#103=EDGE_CURVE('',#84,#86,#49,.T.);
#104=EDGE_CURVE('',#87,#86,#50,.T.);
#105=EDGE_CURVE('',#85,#87,#51,.T.);
#106=EDGE_CURVE('',#86,#88,#52,.T.);
#107=EDGE_CURVE('',#89,#88,#53,.T.);
#108=EDGE_CURVE('',#87,#89,#54,.T.);
#109=EDGE_CURVE('',#88,#90,#55,.T.);
#110=EDGE_CURVE('',#91,#90,#56,.T.);
#111=EDGE_CURVE('',#89,#91,#57,.T.);
#112=EDGE_CURVE('',#90,#80,#58,.T.);
#113=EDGE_CURVE('',#91,#83,#59,.T.);
#114=EDGE_CURVE('',#92,#93,#18,.T.);
#115=EDGE_CURVE('',#93,#92,#19,.T.);
#116=EDGE_CURVE('',#94,#95,#20,.T.);
#117=EDGE_CURVE('',#95,#94,#21,.T.);
#118=EDGE_CURVE('',#93,#95,#60,.T.);
#119=ORIENTED_EDGE('',*,*,#96,.T.);
#120=ORIENTED_EDGE('',*,*,#97,.F.);
#121=ORIENTED_EDGE('',*,*,#98,.F.);
#122=ORIENTED_EDGE('',*,*,#99,.T.);
#123=ORIENTED_EDGE('',*,*,#100,.T.);
#124=ORIENTED_EDGE('',*,*,#101,.F.);
#125=ORIENTED_EDGE('',*,*,#102,.F.);
#126=ORIENTED_EDGE('',*,*,#97,.T.);
#127=ORIENTED_EDGE('',*,*,#103,.T.);
#128=ORIENTED_EDGE('',*,*,#104,.F.);
#129=ORIENTED_EDGE('',*,*,#105,.F.);
#130=ORIENTED_EDGE('',*,*,#101,.T.);
#131=ORIENTED_EDGE('',*,*,#106,.T.);
#132=ORIENTED_EDGE('',*,*,#107,.F.);
#133=ORIENTED_EDGE('',*,*,#108,.F.);
#134=ORIENTED_EDGE('',*,*,#104,.T.);
#135=ORIENTED_EDGE('',*,*,#109,.T.);
#136=ORIENTED_EDGE('',*,*,#110,.F.);
#137=ORIENTED_EDGE('',*,*,#111,.F.);
#138=ORIENTED_EDGE('',*,*,#107,.T.);
#139=ORIENTED_EDGE('',*,*,#112,.T.);
#140=ORIENTED_EDGE('',*,*,#99,.F.);
#141=ORIENTED_EDGE('',*,*,#113,.F.);
#142=ORIENTED_EDGE('',*,*,#110,.T.);
#143=ORIENTED_EDGE('',*,*,#98,.T.);
#144=ORIENTED_EDGE('',*,*,#102,.T.);
#145=ORIENTED_EDGE('',*,*,#105,.T.);
#146=ORIENTED_EDGE('',*,*,#108,.T.);
#147=ORIENTED_EDGE('',*,*,#111,.T.);
#148=ORIENTED_EDGE('',*,*,#113,.T.);
#149=ORIENTED_EDGE('',*,*,#114,.T.);
#150=ORIENTED_EDGE('',*,*,#115,.T.);
#151=ORIENTED_EDGE('',*,*,#96,.F.);
#152=ORIENTED_EDGE('',*,*,#112,.F.);
#153=ORIENTED_EDGE('',*,*,#109,.F.);
#154=ORIENTED_EDGE('',*,*,#106,.F.);
#155=ORIENTED_EDGE('',*,*,#103,.F.);
#156=ORIENTED_EDGE('',*,*,#100,.F.);
#157=ORIENTED_EDGE('',*,*,#116,.F.);
#158=ORIENTED_EDGE('',*,*,#117,.F.);
#159=ORIENTED_EDGE('',*,*,#114,.F.);
#160=ORIENTED_EDGE('',*,*,#115,.F.);
#161=ORIENTED_EDGE('',*,*,#118,.T.);
#162=ORIENTED_EDGE('',*,*,#117,.T.);
#163=ORIENTED_EDGE('',*,*,#116,.T.);
#164=ORIENTED_EDGE('',*,*,#118,.F.);
#165=PLANE('',#202);
#166=PLANE('',#203);
#167=PLANE('',#204);
#168=PLANE('',#205);
#169=PLANE('',#206);
#170=PLANE('',#207);
#171=PLANE('',#208);
#172=PLANE('',#211);
#173=ADVANCED_FACE('',(#22),#165,.F.);
#174=ADVANCED_FACE('',(#23),#166,.F.);
#175=ADVANCED_FACE('',(#24),#167,.F.);
#176=ADVANCED_FACE('',(#25),#168,.F.);
#177=ADVANCED_FACE('',(#26),#169,.F.);
#178=ADVANCED_FACE('',(#27),#170,.F.);
#179=ADVANCED_FACE('',(#28,#16),#171,.F.);
#180=ADVANCED_FACE('',(#29,#17),#172,.T.);
#181=ADVANCED_FACE('',(#30),#15,.F.);
#182=CLOSED_SHELL('',(#173,#174,#175,#176,#177,#178,#179,#180,#181));
#183=DERIVED_UNIT_ELEMENT(#185,1.);
#184=DERIVED_UNIT_ELEMENT(#316,3.);
#185=(
MASS_UNIT()
NAMED_UNIT(*)
SI_UNIT($,.GRAM.)
);
#186=DERIVED_UNIT((#183,#184));
#187=MEASURE_REPRESENTATION_ITEM('density measure',
POSITIVE_RATIO_MEASURE(1.),#186);
#188=PROPERTY_DEFINITION_REPRESENTATION(#193,#190);
#189=PROPERTY_DEFINITION_REPRESENTATION(#194,#191);
#190=REPRESENTATION('material name',(#192),#313);
#191=REPRESENTATION('density',(#187),#313);
#192=DESCRIPTIVE_REPRESENTATION_ITEM('Generic','Generic');
#193=PROPERTY_DEFINITION('material property','material name',#323);
#194=PROPERTY_DEFINITION('material property','density of part',#323);
#195=DATE_TIME_ROLE('creation_date');
#196=APPLIED_DATE_AND_TIME_ASSIGNMENT(#197,#195,(#323));
#197=DATE_AND_TIME(#198,#199);
#198=CALENDAR_DATE(2002,19,12);
#199=LOCAL_TIME(15,5,13.,#200);
#200=COORDINATED_UNIVERSAL_TIME_OFFSET(0,0,.BEHIND.);
#201=AXIS2_PLACEMENT_3D('placement',#262,#215,#216);
#202=AXIS2_PLACEMENT_3D('',#263,#217,#218);
#203=AXIS2_PLACEMENT_3D('',#272,#223,#224);
#204=AXIS2_PLACEMENT_3D('',#278,#228,#229);
#205=AXIS2_PLACEMENT_3D('',#284,#233,#234);
#206=AXIS2_PLACEMENT_3D('',#290,#238,#239);
#207=AXIS2_PLACEMENT_3D('',#296,#243,#244);
#208=AXIS2_PLACEMENT_3D('',#299,#247,#248);
#209=AXIS2_PLACEMENT_3D('',#302,#249,#250);
#210=AXIS2_PLACEMENT_3D('',#303,#251,#252);
#211=AXIS2_PLACEMENT_3D('',#304,#253,#254);
#212=AXIS2_PLACEMENT_3D('',#307,#255,#256);
#213=AXIS2_PLACEMENT_3D('',#308,#257,#258);
#214=AXIS2_PLACEMENT_3D('',#309,#259,#260);
#215=DIRECTION('axis',(0.,0.,1.));
#216=DIRECTION('refdir',(1.,0.,0.));
#217=DIRECTION('center_axis',(-0.866025403784437,-0.500000000000002,3.37663881512744E-16));
#218=DIRECTION('ref_axis',(3.89900665773994E-16,0.,1.));
#219=DIRECTION('',(-0.499999999999999,0.866025403784439,1.42800862535207E-15));
#220=DIRECTION('',(1.00613961606655E-15,-1.11022302462516E-15,-1.));
#221=DIRECTION('',(-0.499999999999999,0.866025403784439,1.74814789671232E-15));
#222=DIRECTION('',(1.04083408558609E-15,-1.06785980562181E-15,-1.));
#223=DIRECTION('center_axis',(-1.72084568816899E-15,-1.,-1.06785980562181E-15));
#224=DIRECTION('ref_axis',(0.,1.06785980562181E-15,-1.));
#225=DIRECTION('',(-1.,-1.57333310704113E-15,1.00642981200654E-15));
#226=DIRECTION('',(1.00613961606655E-15,-1.11022302462516E-15,-1.));
#227=DIRECTION('',(-1.,-1.57333310704115E-15,1.04888873802743E-15));
#228=DIRECTION('center_axis',(0.866025403784439,-0.5,-1.40552368713456E-15));
#229=DIRECTION('ref_axis',(-1.62295895823907E-15,0.,-1.));
#230=DIRECTION('',(-0.5,-0.866025403784438,-4.21578813345532E-16));
#231=DIRECTION('',(1.04083408558609E-15,-1.06785980562181E-15,-1.));
#232=DIRECTION('',(-0.5,-0.866025403784438,-3.49629579342475E-16));
#233=DIRECTION('center_axis',(0.866025403784438,0.500000000000002,-3.37663881512745E-16));
#234=DIRECTION('ref_axis',(-3.89900665773995E-16,0.,-1.));
#235=DIRECTION('',(0.499999999999999,-0.866025403784439,-1.42800862535207E-15));
#236=DIRECTION('',(1.00613961606656E-15,-1.11022302462517E-15,-1.));
#237=DIRECTION('',(0.499999999999999,-0.866025403784439,-1.74814789671229E-15));
#238=DIRECTION('center_axis',(1.72084568816899E-15,1.,1.06785980562181E-15));
#239=DIRECTION('ref_axis',(0.,-1.06785980562181E-15,1.));
#240=DIRECTION('',(1.,1.57333310704104E-15,-1.00642981200654E-15));
#241=DIRECTION('',(1.00613961606655E-15,-1.11022302462516E-15,-1.));
#242=DIRECTION('',(1.,1.57333310704107E-15,-1.04888873802738E-15));
#243=DIRECTION('center_axis',(-0.866025403784439,0.5,1.40552368713456E-15));
#244=DIRECTION('ref_axis',(1.62295895823907E-15,0.,1.));
#245=DIRECTION('',(0.500000000000001,0.866025403784438,4.21578813345532E-16));
#246=DIRECTION('',(0.500000000000001,0.866025403784438,6.99259158684919E-16));
#247=DIRECTION('center_axis',(1.00642981200653E-15,-1.06785980562181E-15,
-1.));
#248=DIRECTION('ref_axis',(-1.,0.,-1.00642981200653E-15));
#249=DIRECTION('center_axis',(1.00642981200653E-15,-1.06785980562181E-15,
-1.));
#250=DIRECTION('ref_axis',(-1.,-1.66533453693774E-15,1.00642981200654E-15));
#251=DIRECTION('center_axis',(1.00642981200653E-15,-1.06785980562181E-15,
-1.));
#252=DIRECTION('ref_axis',(-1.,-1.66533453693774E-15,1.00642981200654E-15));
#253=DIRECTION('center_axis',(1.00642981200653E-15,-1.06785980562181E-15,
-1.));
#254=DIRECTION('ref_axis',(-1.,0.,-1.00642981200653E-15));
#255=DIRECTION('center_axis',(1.00642981200653E-15,-1.06785980562181E-15,
-1.));
#256=DIRECTION('ref_axis',(-1.,-1.66533453693774E-15,1.00642981200654E-15));
#257=DIRECTION('center_axis',(1.00642981200653E-15,-1.06785980562181E-15,
-1.));
#258=DIRECTION('ref_axis',(-1.,-1.66533453693774E-15,1.00642981200654E-15));
#259=DIRECTION('center_axis',(1.00642981200653E-15,-1.06785980562181E-15,
-1.));
#260=DIRECTION('ref_axis',(-1.,-1.66533453693774E-15,1.00642981200654E-15));
#261=DIRECTION('',(1.00642981200653E-15,-1.06785980562181E-15,-1.));
#262=CARTESIAN_POINT('',(0.,0.,0.));
#263=CARTESIAN_POINT('Origin',(3.17542648054304,5.55111512312578E-14,7.99999999999998));
#264=CARTESIAN_POINT('',(3.17542648054298,4.16333634234434E-14,-1.73472347597681E-15));
#265=CARTESIAN_POINT('',(1.58771324027158,2.75000000000004,6.93889390390723E-15));
#266=CARTESIAN_POINT('',(3.17542648054298,4.16333634234434E-14,-1.73472347597681E-15));
#267=CARTESIAN_POINT('',(1.58771324027147,2.75000000000004,7.99999999999999));
#268=CARTESIAN_POINT('',(1.58771324027147,2.75000000000004,7.99999999999999));
#269=CARTESIAN_POINT('',(3.17542648054304,5.55111512312578E-14,7.99999999999998));
#270=CARTESIAN_POINT('',(3.17542648054304,5.55111512312578E-14,7.99999999999998));
#271=CARTESIAN_POINT('',(3.17542648054304,5.55111512312578E-14,7.99999999999998));
#272=CARTESIAN_POINT('Origin',(1.58771324027147,2.75000000000004,7.99999999999999));
#273=CARTESIAN_POINT('',(-1.58771324027131,2.74999999999999,6.93889390390723E-15));
#274=CARTESIAN_POINT('',(1.58771324027158,2.75000000000004,6.93889390390723E-15));
#275=CARTESIAN_POINT('',(-1.58771324027139,2.75000000000006,8.00000000000001));
#276=CARTESIAN_POINT('',(-1.58771324027139,2.75000000000006,8.00000000000001));
#277=CARTESIAN_POINT('',(1.58771324027147,2.75000000000004,7.99999999999999));
#278=CARTESIAN_POINT('Origin',(-1.58771324027139,2.75000000000006,8.00000000000001));
#279=CARTESIAN_POINT('',(-3.17542648054278,4.16333634234434E-14,4.85722573273506E-14));
#280=CARTESIAN_POINT('',(-1.58771324027131,2.74999999999999,6.93889390390723E-15));
#281=CARTESIAN_POINT('',(-3.17542648054285,1.38777878078145E-13,8.00000000000001));
#282=CARTESIAN_POINT('',(-3.17542648054285,1.38777878078145E-13,8.00000000000001));
#283=CARTESIAN_POINT('',(-1.58771324027139,2.75000000000006,8.00000000000001));
#284=CARTESIAN_POINT('Origin',(-3.17542648054285,1.38777878078145E-13,8.00000000000001));
#285=CARTESIAN_POINT('',(-1.58771324027146,-2.75000000000002,2.77555756156289E-14));
#286=CARTESIAN_POINT('',(-3.17542648054278,4.16333634234434E-14,4.85722573273506E-14));
#287=CARTESIAN_POINT('',(-1.58771324027146,-2.75000000000002,7.99999999999999));
#288=CARTESIAN_POINT('',(-1.58771324027146,-2.75000000000002,7.99999999999999));
#289=CARTESIAN_POINT('',(-3.17542648054285,1.38777878078145E-13,8.00000000000001));
#290=CARTESIAN_POINT('Origin',(-1.58771324027146,-2.75000000000002,7.99999999999999));
#291=CARTESIAN_POINT('',(1.58771324027161,-2.75000000000002,1.21430643318376E-14));
#292=CARTESIAN_POINT('',(-1.58771324027146,-2.75000000000002,2.77555756156289E-14));
#293=CARTESIAN_POINT('',(1.58771324027156,-2.75,7.99999999999999));
#294=CARTESIAN_POINT('',(1.58771324027156,-2.75,7.99999999999999));
#295=CARTESIAN_POINT('',(-1.58771324027146,-2.75000000000002,7.99999999999999));
#296=CARTESIAN_POINT('Origin',(1.58771324027156,-2.75,7.99999999999999));
#297=CARTESIAN_POINT('',(1.58771324027161,-2.75000000000002,1.21430643318376E-14));
#298=CARTESIAN_POINT('',(1.58771324027156,-2.75,7.99999999999999));
#299=CARTESIAN_POINT('Origin',(3.17542648054304,5.55111512312578E-14,7.99999999999998));
#300=CARTESIAN_POINT('',(-1.49999999999994,1.13797860024079E-14,7.99999999999999));
#301=CARTESIAN_POINT('',(1.50000000000005,1.6192092593349E-14,7.99999999999999));
#302=CARTESIAN_POINT('Origin',(5.55111512312578E-14,1.38777878078145E-14,
7.99999999999999));
#303=CARTESIAN_POINT('Origin',(5.55111512312578E-14,1.38777878078145E-14,
7.99999999999999));
#304=CARTESIAN_POINT('Origin',(3.17542648054298,4.16333634234434E-14,-1.73472347597681E-15));
#305=CARTESIAN_POINT('',(-1.5,-2.4980018054066E-15,1.5096447180098E-15));
#306=CARTESIAN_POINT('',(1.50000000000006,7.64921414837449E-15,-3.33066907387547E-15));
#307=CARTESIAN_POINT('Origin',(0.,0.,0.));
#308=CARTESIAN_POINT('Origin',(0.,0.,0.));
#309=CARTESIAN_POINT('Origin',(5.55111512312578E-14,1.38777878078145E-14,
7.99999999999999));
#310=CARTESIAN_POINT('',(1.50000000000005,1.6192092593349E-14,7.99999999999998));
#311=UNCERTAINTY_MEASURE_WITH_UNIT(LENGTH_MEASURE(0.01),#315,
'DISTANCE_ACCURACY_VALUE',
'Maximum model space distance between geometric entities at asserted c
onnectivities');
#312=UNCERTAINTY_MEASURE_WITH_UNIT(LENGTH_MEASURE(0.01),#315,
'DISTANCE_ACCURACY_VALUE',
'Maximum model space distance between geometric entities at asserted c
onnectivities');
#313=(
GEOMETRIC_REPRESENTATION_CONTEXT(3)
GLOBAL_UNCERTAINTY_ASSIGNED_CONTEXT((#311))
GLOBAL_UNIT_ASSIGNED_CONTEXT((#315,#317,#318))
REPRESENTATION_CONTEXT('','3D')
);
#314=(
GEOMETRIC_REPRESENTATION_CONTEXT(3)
GLOBAL_UNCERTAINTY_ASSIGNED_CONTEXT((#312))
GLOBAL_UNIT_ASSIGNED_CONTEXT((#315,#317,#318))
REPRESENTATION_CONTEXT('','3D')
);
#315=(
LENGTH_UNIT()
NAMED_UNIT(*)
SI_UNIT(.MILLI.,.METRE.)
);
#316=(
LENGTH_UNIT()
NAMED_UNIT(*)
SI_UNIT(.CENTI.,.METRE.)
);
#317=(
NAMED_UNIT(*)
PLANE_ANGLE_UNIT()
SI_UNIT($,.RADIAN.)
);
#318=(
NAMED_UNIT(*)
SI_UNIT($,.STERADIAN.)
SOLID_ANGLE_UNIT()
);
#319=SHAPE_DEFINITION_REPRESENTATION(#320,#321);
#320=PRODUCT_DEFINITION_SHAPE('',$,#323);
#321=SHAPE_REPRESENTATION('',(#201),#313);
#322=PRODUCT_DEFINITION_CONTEXT('part definition',#327,'design');
#323=PRODUCT_DEFINITION('entretoise hexa  m3x8','entretoise hexa  m3x8',
#324,#322);
#324=PRODUCT_DEFINITION_FORMATION('',$,#329);
#325=PRODUCT_RELATED_PRODUCT_CATEGORY('entretoise hexa  m3x8',
'entretoise hexa  m3x8',(#329));
#326=APPLICATION_PROTOCOL_DEFINITION('international standard',
'automotive_design',2009,#327);
#327=APPLICATION_CONTEXT(
'Core Data for Automotive Mechanical Design Process');
#328=PRODUCT_CONTEXT('part definition',#327,'mechanical');
#329=PRODUCT('entretoise hexa  m3x8','entretoise hexa  m3x8',$,(#328));
#330=PRESENTATION_STYLE_ASSIGNMENT((#331));
#331=SURFACE_STYLE_USAGE(.BOTH.,#334);
#332=SURFACE_STYLE_RENDERING_WITH_PROPERTIES($,#338,(#333));
#333=SURFACE_STYLE_TRANSPARENT(0.);
#334=SURFACE_SIDE_STYLE('',(#335,#332));
#335=SURFACE_STYLE_FILL_AREA(#336);
#336=FILL_AREA_STYLE('',(#337));
#337=FILL_AREA_STYLE_COLOUR('',#338);
#338=COLOUR_RGB('',0.96078431372549,0.482352941176471,0.482352941176471);
ENDSEC;
END-ISO-10303-21;
