EESchema Schematic File Version 4
EELAYER 30 0
EELAYER END
$Descr User 17335 11946
encoding utf-8
Sheet 5 8
Title "RB0505 CPU Board"
Date "2020-04-15"
Rev ""
Comp ""
Comment1 ""
Comment2 ""
Comment3 ""
Comment4 ""
$EndDescr
Wire Wire Line
	7800 7900 7800 8000
Wire Wire Line
	7800 8000 7800 8100
Wire Wire Line
	7800 8100 7800 8200
Wire Wire Line
	7800 8200 7800 8300
Wire Wire Line
	7800 8300 7800 8400
Wire Wire Line
	7800 8400 7800 8500
Wire Wire Line
	7800 8500 7800 8600
Wire Wire Line
	7800 8600 7800 8700
Wire Wire Line
	7800 8700 7800 8800
Wire Wire Line
	7800 8800 7800 8900
Wire Wire Line
	7800 8900 7800 9000
Wire Wire Line
	7800 9000 7800 9100
Wire Wire Line
	7800 9100 7800 9200
Wire Wire Line
	7800 9200 7800 9300
Wire Wire Line
	7800 9300 7800 9400
Wire Wire Line
	7800 9400 7800 9500
Wire Wire Line
	7800 9500 7800 9600
Wire Wire Line
	7800 9600 7800 9700
Wire Wire Line
	7800 9700 7800 9800
Wire Wire Line
	7800 9800 7800 9900
Wire Wire Line
	7800 9900 7800 10000
Wire Wire Line
	7800 10000 7800 10100
Wire Wire Line
	7800 10100 7800 10200
Wire Wire Line
	7700 10100 7800 10100
Wire Wire Line
	7700 10000 7800 10000
Wire Wire Line
	7700 9900 7800 9900
Wire Wire Line
	7800 9800 7700 9800
Wire Wire Line
	7700 9700 7800 9700
Wire Wire Line
	7800 9600 7700 9600
Wire Wire Line
	7700 9500 7800 9500
Wire Wire Line
	7800 9400 7700 9400
Wire Wire Line
	7700 9300 7800 9300
Wire Wire Line
	7800 9200 7700 9200
Wire Wire Line
	7700 9100 7800 9100
Wire Wire Line
	7800 9000 7700 9000
Wire Wire Line
	7700 8900 7800 8900
Wire Wire Line
	7700 8800 7800 8800
Wire Wire Line
	7700 8700 7800 8700
Wire Wire Line
	7700 8600 7800 8600
Wire Wire Line
	7700 8500 7800 8500
Wire Wire Line
	7700 8400 7800 8400
Wire Wire Line
	7700 8300 7800 8300
Wire Wire Line
	7800 8200 7700 8200
Wire Wire Line
	7700 8100 7800 8100
Wire Wire Line
	7800 8000 7700 8000
Wire Wire Line
	7700 7900 7800 7900
Connection ~ 7800 10100
Connection ~ 7800 10000
Connection ~ 7800 9900
Connection ~ 7800 9800
Connection ~ 7800 9700
Connection ~ 7800 9600
Connection ~ 7800 9500
Connection ~ 7800 9400
Connection ~ 7800 9300
Connection ~ 7800 9200
Connection ~ 7800 9100
Connection ~ 7800 9000
Connection ~ 7800 8900
Connection ~ 7800 8800
Connection ~ 7800 8700
Connection ~ 7800 8600
Connection ~ 7800 8500
Connection ~ 7800 8400
Connection ~ 7800 8300
Connection ~ 7800 8200
Connection ~ 7800 8100
Connection ~ 7800 8000
Wire Wire Line
	6600 6600 6600 6800
Wire Wire Line
	6600 6800 6600 7100
Wire Wire Line
	6700 7100 6700 6800
Wire Wire Line
	6700 6800 6600 6800
Wire Wire Line
	6700 6800 6750 6800
Connection ~ 6600 6800
Connection ~ 6700 6800
Wire Wire Line
	7200 6800 7200 7100
Wire Wire Line
	7300 6600 7300 6800
Wire Wire Line
	7300 6800 7300 7100
Wire Wire Line
	7200 6800 7300 6800
Connection ~ 7200 6800
Connection ~ 7300 6800
$Comp
L V_Capacitor:C0402_100nF_16V_10% C33
U 1 1 C9502F30
P 4250 1700
F 0 "C33" V 4500 1600 64  0000 L BNN
F 1 "100nF" V 4400 1600 42  0000 L BNN
F 2 "AllModules:C0402_1" H 4250 1700 50  0001 C CNN
F 3 "" H 4250 1700 50  0001 C CNN
F 4 "CAPACITOR,100NF,16V,+/-10%,X7R,0402" H 4250 1700 50  0001 C CNN "Description"
F 5 "10022607" H 4250 1700 50  0001 C CNN "Item Number"
F 6 "MURATA" H 4250 1700 50  0001 C CNN "Manufacturer"
F 7 "GRM155R71C104JA88J" H 4250 1700 50  0001 C CNN "Manufacturer_No"
F 8 "YAGEO_RMS1" H 4250 1700 50  0001 C CNN "Manufacturer2"
F 9 "CC0402KRX7R7BB104" H 4250 1700 50  0001 C CNN "Manufacturer_No2"
F 10 "YAGEO_RMS1" H 4250 1700 50  0001 C CNN "Manufacturer3"
F 11 "CC0402KRX7R7BB104" H 4250 1700 50  0001 C CNN "Manufacturer_No3"
	1    4250 1700
	0    1    -1   0   
$EndComp
$Comp
L V_Capacitor:C0402_100nF_16V_10% C37
U 1 1 235E1F38
P 5250 1700
F 0 "C37" V 5500 1600 64  0000 L BNN
F 1 "100nF" V 5400 1600 42  0000 L BNN
F 2 "AllModules:C0402_1" H 5250 1700 50  0001 C CNN
F 3 "" H 5250 1700 50  0001 C CNN
F 4 "CAPACITOR,100NF,16V,+/-10%,X7R,0402" H 5250 1700 50  0001 C CNN "Description"
F 5 "10022607" H 5250 1700 50  0001 C CNN "Item Number"
F 6 "MURATA" H 5250 1700 50  0001 C CNN "Manufacturer"
F 7 "GRM155R71C104JA88J" H 5250 1700 50  0001 C CNN "Manufacturer_No"
F 8 "YAGEO_RMS1" H 5250 1700 50  0001 C CNN "Manufacturer2"
F 9 "CC0402KRX7R7BB104" H 5250 1700 50  0001 C CNN "Manufacturer_No2"
F 10 "YAGEO_RMS1" H 5250 1700 50  0001 C CNN "Manufacturer3"
F 11 "CC0402KRX7R7BB104" H 5250 1700 50  0001 C CNN "Manufacturer_No3"
	1    5250 1700
	0    1    -1   0   
$EndComp
$Comp
L V_Capacitor:C0402_100nF_16V_10% C2
U 1 1 6D294609
P 12300 1300
F 0 "C2" V 12475 1375 64  0000 R TNN
F 1 "100nF" V 12400 1400 42  0000 R TNN
F 2 "AllModules:C0402_1" H 12300 1300 50  0001 C CNN
F 3 "" H 12300 1300 50  0001 C CNN
F 4 "CAPACITOR,100NF,16V,+/-10%,X7R,0402" H 12300 1300 50  0001 C CNN "Description"
F 5 "10022607" H 12300 1300 50  0001 C CNN "Item Number"
F 6 "MURATA" H 12300 1300 50  0001 C CNN "Manufacturer"
F 7 "GRM155R71C104JA88J" H 12300 1300 50  0001 C CNN "Manufacturer_No"
F 8 "YAGEO_RMS1" H 12300 1300 50  0001 C CNN "Manufacturer2"
F 9 "CC0402KRX7R7BB104" H 12300 1300 50  0001 C CNN "Manufacturer_No2"
F 10 "YAGEO_RMS1" H 12300 1300 50  0001 C CNN "Manufacturer3"
F 11 "CC0402KRX7R7BB104" H 12300 1300 50  0001 C CNN "Manufacturer_No3"
F 12 "MURATA MANUFACTURING CO., LTD." H 12300 1300 50  0001 C CNN "Manufacturer4"
F 13 "GRM155R71C104KA88D" H 12300 1300 50  0001 C CNN "Manufacturer_No4"
	1    12300 1300
	0    1    -1   0   
$EndComp
$Comp
L V_Crystal:Crystal_Small_10023291 Q2
U 1 1 53ABB1EB
P 13800 1750
F 0 "Q2" V 13715 1950 64  0000 R TNN
F 1 "3.6864MHz" V 13800 2188 42  0000 R TNN
F 2 "AllModules:HC49-4HSMX_1" H 13800 1750 50  0001 C CNN
F 3 "" H 13800 1750 50  0001 C CNN
F 4 "CRYSTAL, QUARTZ, 3.6864MHZ" H 13800 1750 50  0001 C CNN "Description"
F 5 "10023291" H 13800 1750 50  0001 C CNN "Item Number"
F 6 "IQD" H 13800 1750 50  0001 C CNN "Manufacturer"
F 7 "LFXTAL003260REEL" H 13800 1750 50  0001 C CNN "Manufacturer_No"
	1    13800 1750
	0    1    1    0   
$EndComp
$Comp
L V_Capacitor:C0402_47pF_50V_5% C15
U 1 1 58269073
P 14175 1950
F 0 "C15" V 14262 2043 64  0000 R TNN
F 1 "47pF" V 14356 2037 42  0000 R TNN
F 2 "AllModules:C0402_1" H 14175 1950 50  0001 C CNN
F 3 "" H 14175 1950 50  0001 C CNN
F 4 "CAPACITOR,47 PF,+/-5%,50V,0402" H 14175 1950 50  0001 C CNN "Description"
F 5 "10022623" H 14175 1950 50  0001 C CNN "Item Number"
F 6 "MURATA MANUFACTURING CO., LTD." H 14175 1950 50  0001 C CNN "Manufacturer"
F 7 "GRM1555C1H470JA01D" H 14175 1950 50  0001 C CNN "Manufacturer_No"
F 8 "SAMSUNG_RMS1" H 14175 1950 50  0001 C CNN "Manufacturer2"
F 9 "CL05C470JB5NNNC" H 14175 1950 50  0001 C CNN "Manufacturer_No2"
F 10 "KEMET_RMS1" H 14175 1950 50  0001 C CNN "Manufacturer3"
F 11 "C0402C470J5GACTU" H 14175 1950 50  0001 C CNN "Manufacturer_No3"
	1    14175 1950
	0    -1   1    0   
$EndComp
$Comp
L V_Resistor:R0603_1k5_5% R2
U 1 1 986554BD
P 13300 1950
F 0 "R2" H 13225 1825 64  0000 L BNN
F 1 "1.5k" H 13225 1750 42  0000 L BNN
F 2 "AllModules:R0603_1" H 13300 1950 50  0001 C CNN
F 3 "" H 13300 1950 50  0001 C CNN
F 4 "RESISTOR 1.5K OHM, 0603, +/-5%" H 13300 1950 50  0001 C CNN "Description"
F 5 "10023187" H 13300 1950 50  0001 C CNN "Item Number"
F 6 "YAGEO_RMS1" H 13300 1950 50  0001 C CNN "Manufacturer"
F 7 "RC0603JR-071K5L" H 13300 1950 50  0001 C CNN "Manufacturer_No"
F 8 "YAGEO_RMS1" H 13300 1950 50  0001 C CNN "Manufacturer2"
F 9 "RC0603JR-071K5L" H 13300 1950 50  0001 C CNN "Manufacturer_No2"
F 10 "YAGEO_RMS1" H 13300 1950 50  0001 C CNN "Manufacturer3"
F 11 "RC0603JR-071K5L" H 13300 1950 50  0001 C CNN "Manufacturer_No3"
	1    13300 1950
	1    0    0    -1  
$EndComp
$Comp
L V_IC:TL16C750IPM IC1
U 1 1 22F7723E
P 12200 3000
F 0 "IC1" H 12650 4625 59  0000 L BNN
F 1 "TL16C750IPM" H 12650 4538 42  0000 L BNN
F 2 "AllModules:TQFP64_1" H 12200 3000 50  0001 C CNN
F 3 "" H 12200 3000 50  0001 C CNN
F 4 "UART, LQFP64" H 12200 3000 50  0001 C CNN "Description"
F 5 "10022505" H 12200 3000 50  0001 C CNN "Item Number"
F 6 "TEXAS INSTRUMENTS_RMS1" H 12200 3000 50  0001 C CNN "Manufacturer"
F 7 "TL16C750IPM" H 12200 3000 50  0001 C CNN "Manufacturer_No"
	1    12200 3000
	1    0    0    -1  
$EndComp
$Comp
L V_Resistor:R1206_ARRAY_6K8_5% RS8
U 1 1 887C726F
P 13350 3200
F 0 "RS8" V 13425 3425 59  0000 L BNN
F 1 "6.8k" V 13338 3425 59  0000 L BNN
F 2 "AllModules:BCN16_1" H 13350 3200 50  0001 C CNN
F 3 "" H 13350 3200 50  0001 C CNN
F 4 "10023253" H 13350 3200 50  0001 C CNN "Item Number"
	1    13350 3200
	0    1    -1   0   
$EndComp
$Comp
L V_IC:LVC1G07DBVT IC8
U 1 1 45D38355
P 14250 6650
F 0 "IC8" H 14600 7112 64  0000 L BNN
F 1 "SN74LVC1G07DBVT" H 14575 7025 42  0000 L BNN
F 2 "AllModules:SOT23-5_1" H 14250 6650 50  0001 C CNN
F 3 "" H 14250 6650 50  0001 C CNN
F 4 "BUFFER WITH OPEN DRAIN OUTPUT,SOT23" H 14250 6650 50  0001 C CNN "Description"
F 5 "10022964" H 14250 6650 50  0001 C CNN "Item Number"
F 6 "TEXAS INSTRUMENTS_RMS1" H 14250 6650 50  0001 C CNN "Manufacturer"
F 7 "SN74LVC1G07DBVT" H 14250 6650 50  0001 C CNN "Manufacturer_No"
F 8 "NXP SEMICONDUCTORS_RMS1" H 14250 6650 50  0001 C CNN "Manufacturer2"
F 9 "74LVC1G07GV,125" H 14250 6650 50  0001 C CNN "Manufacturer_No2"
F 10 "NXP SEMICONDUCTORS_RMS1" H 14250 6650 50  0001 C CNN "Manufacturer3"
F 11 "74LVC1G07GV" H 14250 6650 50  0001 C CNN "Manufacturer_No3"
	1    14250 6650
	1    0    0    -1  
$EndComp
$Comp
L V_Resistor:R0603_10k_5% R5
U 1 1 40871C63
P 13600 4000
F 0 "R5" V 13613 3925 64  0000 R TNN
F 1 "10k" V 13550 3925 42  0000 R TNN
F 2 "AllModules:R0603_1" H 13600 4000 50  0001 C CNN
F 3 "" H 13600 4000 50  0001 C CNN
F 4 "RESISTOR,10K OHM, 0.063W,+/-5%,0603" H 13600 4000 50  0001 C CNN "Description"
F 5 "10097266" H 13600 4000 50  0001 C CNN "Item Number"
F 6 "YAGEO_RMS1" H 13600 4000 50  0001 C CNN "Manufacturer"
F 7 "RC0603JR-0710KL" H 13600 4000 50  0001 C CNN "Manufacturer_No"
F 8 "YAGEO_RMS1" H 13600 4000 50  0001 C CNN "Manufacturer2"
F 9 "RC0603JR-0710KL" H 13600 4000 50  0001 C CNN "Manufacturer_No2"
F 10 "VISHAY_RMS1" H 13600 4000 50  0001 C CNN "Manufacturer3"
F 11 "CRCW060310K0JNEA" H 13600 4000 50  0001 C CNN "Manufacturer_No3"
	1    13600 4000
	0    -1   -1   0   
$EndComp
$Comp
L V_Resistor:R0603_10k_5% R6
U 1 1 91847459
P 15250 6350
F 0 "R6" V 15275 6200 64  0000 R TNN
F 1 "10k" V 15200 6200 42  0000 R TNN
F 2 "AllModules:R0603_1" H 15250 6350 50  0001 C CNN
F 3 "" H 15250 6350 50  0001 C CNN
F 4 "RESISTOR,10K OHM, 0.063W,+/-5%,0603" H 15250 6350 50  0001 C CNN "Description"
F 5 "10097266" H 15250 6350 50  0001 C CNN "Item Number"
F 6 "YAGEO_RMS1" H 15250 6350 50  0001 C CNN "Manufacturer"
F 7 "RC0603JR-0710KL" H 15250 6350 50  0001 C CNN "Manufacturer_No"
F 8 "YAGEO_RMS1" H 15250 6350 50  0001 C CNN "Manufacturer2"
F 9 "RC0603JR-0710KL" H 15250 6350 50  0001 C CNN "Manufacturer_No2"
F 10 "VISHAY_RMS1" H 15250 6350 50  0001 C CNN "Manufacturer3"
F 11 "CRCW060310K0JNEA" H 15250 6350 50  0001 C CNN "Manufacturer_No3"
	1    15250 6350
	0    -1   -1   0   
$EndComp
$Comp
L V_Capacitor:C0402_100nF_16V_10% C140
U 1 1 63F00A8C
P 3150 1750
F 0 "C140" V 2975 1625 64  0000 L BNN
F 1 "100nF" V 3050 1650 42  0000 L BNN
F 2 "AllModules:C0402_1" H 3150 1750 50  0001 C CNN
F 3 "" H 3150 1750 50  0001 C CNN
F 4 "10022607" V 3150 1750 50  0001 C CNN "Item Number"
F 5 "CAPACITOR,100NF,16V,+/-10%,X7R,0402" H 0   0   50  0001 C CNN "Description"
F 6 "MURATA" H 0   0   50  0001 C CNN "Manufacturer"
F 7 "YAGEO_RMS1" H 0   0   50  0001 C CNN "Manufacturer2"
F 8 "YAGEO_RMS1" H 0   0   50  0001 C CNN "Manufacturer3"
F 9 "GRM155R71C104JA88J" H 0   0   50  0001 C CNN "Manufacturer_No"
F 10 "CC0402KRX7R7BB104" H 0   0   50  0001 C CNN "Manufacturer_No2"
F 11 "CC0402KRX7R7BB104" H 0   0   50  0001 C CNN "Manufacturer_No3"
	1    3150 1750
	0    -1   1    0   
$EndComp
$Comp
L V_Capacitor:C0402_100nF_16V_10% C4
U 1 1 A60240AA
P 6900 6800
F 0 "C4" V 7125 6725 64  0000 L BNN
F 1 "100nF" V 7050 6700 42  0000 L BNN
F 2 "AllModules:C0402_1" H 6900 6800 50  0001 C CNN
F 3 "" H 6900 6800 50  0001 C CNN
F 4 "CAPACITOR,100NF,16V,+/-10%,X7R,0402" H 6900 6800 50  0001 C CNN "Description"
F 5 "10022607" H 6900 6800 50  0001 C CNN "Item Number"
F 6 "MURATA" H 6900 6800 50  0001 C CNN "Manufacturer"
F 7 "GRM155R71C104JA88J" H 6900 6800 50  0001 C CNN "Manufacturer_No"
F 8 "YAGEO_RMS1" H 6900 6800 50  0001 C CNN "Manufacturer2"
F 9 "CC0402KRX7R7BB104" H 6900 6800 50  0001 C CNN "Manufacturer_No2"
F 10 "YAGEO_RMS1" H 6900 6800 50  0001 C CNN "Manufacturer3"
F 11 "CC0402KRX7R7BB104" H 6900 6800 50  0001 C CNN "Manufacturer_No3"
F 12 "MURATA MANUFACTURING CO., LTD." H 6900 6800 50  0001 C CNN "Manufacturer4"
F 13 "GRM155R71C104KA88D" H 6900 6800 50  0001 C CNN "Manufacturer_No4"
	1    6900 6800
	0    1    -1   0   
$EndComp
$Comp
L V_Capacitor:C0402_100nF_16V_10% C5
U 1 1 8E04CE4C
P 3550 6900
F 0 "C5" V 3800 6825 64  0000 L BNN
F 1 "100nF" V 3700 6800 42  0000 L BNN
F 2 "AllModules:C0402_1" H 3550 6900 50  0001 C CNN
F 3 "" H 3550 6900 50  0001 C CNN
F 4 "CAPACITOR,100NF,16V,+/-10%,X7R,0402" H 3550 6900 50  0001 C CNN "Description"
F 5 "10022607" H 3550 6900 50  0001 C CNN "Item Number"
F 6 "MURATA" H 3550 6900 50  0001 C CNN "Manufacturer"
F 7 "GRM155R71C104JA88J" H 3550 6900 50  0001 C CNN "Manufacturer_No"
F 8 "YAGEO_RMS1" H 3550 6900 50  0001 C CNN "Manufacturer2"
F 9 "CC0402KRX7R7BB104" H 3550 6900 50  0001 C CNN "Manufacturer_No2"
F 10 "YAGEO_RMS1" H 3550 6900 50  0001 C CNN "Manufacturer3"
F 11 "CC0402KRX7R7BB104" H 3550 6900 50  0001 C CNN "Manufacturer_No3"
F 12 "MURATA MANUFACTURING CO., LTD." H 3550 6900 50  0001 C CNN "Manufacturer4"
F 13 "GRM155R71C104KA88D" H 3550 6900 50  0001 C CNN "Manufacturer_No4"
	1    3550 6900
	0    1    -1   0   
$EndComp
$Comp
L V_Capacitor:C0402_100nF_16V_10% C20
U 1 1 D1510C23
P 4550 6900
F 0 "C20" V 4800 6800 64  0000 L BNN
F 1 "100nF" V 4700 6800 42  0000 L BNN
F 2 "AllModules:C0402_1" H 4550 6900 50  0001 C CNN
F 3 "" H 4550 6900 50  0001 C CNN
F 4 "CAPACITOR,100NF,16V,+/-10%,X7R,0402" H 4550 6900 50  0001 C CNN "Description"
F 5 "10022607" H 4550 6900 50  0001 C CNN "Item Number"
F 6 "MURATA" H 4550 6900 50  0001 C CNN "Manufacturer"
F 7 "GRM155R71C104JA88J" H 4550 6900 50  0001 C CNN "Manufacturer_No"
F 8 "YAGEO_RMS1" H 4550 6900 50  0001 C CNN "Manufacturer2"
F 9 "CC0402KRX7R7BB104" H 4550 6900 50  0001 C CNN "Manufacturer_No2"
F 10 "YAGEO_RMS1" H 4550 6900 50  0001 C CNN "Manufacturer3"
F 11 "CC0402KRX7R7BB104" H 4550 6900 50  0001 C CNN "Manufacturer_No3"
F 12 "MURATA MANUFACTURING CO., LTD." H 4550 6900 50  0001 C CNN "Manufacturer4"
F 13 "GRM155R71C104KA88D" H 4550 6900 50  0001 C CNN "Manufacturer_No4"
	1    4550 6900
	0    1    -1   0   
$EndComp
$Comp
L V_Jumper:JUMP_0U JP6
U 1 1 A21E5090
P 14550 5450
F 0 "JP6" H 14475 5525 51  0000 L BNN
F 1 "JUMP_0U" H 14000 5525 51  0001 L BNN
F 2 "AllModules:R0603_1" H 14550 5450 50  0001 C CNN
F 3 "" H 14550 5450 50  0001 C CNN
F 4 "RESISTANCE, 0 OHM,0603" H 14550 5450 50  0001 C CNN "Description"
F 5 "10023185" H 14550 5450 50  0001 C CNN "Item Number"
F 6 "YAGEO_RMS1" H 14550 5450 50  0001 C CNN "Manufacturer"
F 7 "RC0603JR-070RL" H 14550 5450 50  0001 C CNN "Manufacturer_No"
F 8 "YAGEO_RMS1" H 14550 5450 50  0001 C CNN "Manufacturer2"
F 9 "RC0603JR-070RL" H 14550 5450 50  0001 C CNN "Manufacturer_No2"
F 10 "YAGEO_RMS1" H 14550 5450 50  0001 C CNN "Manufacturer3"
F 11 "RC0603JR-070RL" H 14550 5450 50  0001 C CNN "Manufacturer_No3"
	1    14550 5450
	0    -1   -1   0   
$EndComp
$Comp
L V_IC:K9F4G08U0M-PCB000 IC13
U 1 1 B5257A37
P 6400 7900
F 0 "IC13" H 7350 8625 64  0000 L BNN
F 1 "K9F1G08UOA-PCB0" H 7350 8537 42  0000 L BNN
F 2 "AllModules:TSOP48-ENT9.965_1" H 6400 7900 50  0001 C CNN
F 3 "" H 6400 7900 50  0001 C CNN
F 4 "MEMORY NAND FLASH, 1G, 2.7 TO 3.6V, BUS X 8,TSOP" H 6400 7900 50  0001 C CNN "Description"
F 5 "10023251" H 6400 7900 50  0001 C CNN "Item Number"
F 6 "SAMSUNG_RMS1" H 6400 7900 50  0001 C CNN "Manufacturer"
F 7 "K9F1G08U0C-PIB0T" H 6400 7900 50  0001 C CNN "Manufacturer_No"
F 8 "SAMSUNG_RMS1" H 6400 7900 50  0001 C CNN "Manufacturer2"
F 9 "K9F1G08U0C-PCB0T" H 6400 7900 50  0001 C CNN "Manufacturer_No2"
F 10 "SAMSUNG_RMS1" H 6400 7900 50  0001 C CNN "Manufacturer3"
F 11 "K9F1G08U0C-PCB0T00" H 6400 7900 50  0001 C CNN "Manufacturer_No3"
	1    6400 7900
	1    0    0    -1  
$EndComp
$Comp
L V_IC:74HCT1G04GW IC39
U 1 1 6BD6C1A1
P 1650 2200
F 0 "IC39" H 2238 2950 67  0000 L BNN
F 1 "74HCT04GW" H 2238 2875 42  0000 L BNN
F 2 "AllModules:SC70-5_1" H 1650 2200 50  0001 C CNN
F 3 "" H 1650 2200 50  0001 C CNN
F 4 "IC, INVERTER,SOT353" H 1650 2200 50  0001 C CNN "Description"
F 5 "10023118" H 1650 2200 50  0001 C CNN "Item Number"
F 6 "NXP SEMICONDUCTORS_RMS1" H 1650 2200 50  0001 C CNN "Manufacturer"
F 7 "74HCT1G04GW,125" H 1650 2200 50  0001 C CNN "Manufacturer_No"
F 8 "NXP SEMICONDUCTORS_RMS1" H 1650 2200 50  0001 C CNN "Manufacturer2"
F 9 "74HCT1G04GW" H 1650 2200 50  0001 C CNN "Manufacturer_No2"
	1    1650 2200
	1    0    0    -1  
$EndComp
$Comp
L V_Capacitor:C0402_100nF_16V_10% C30
U 1 1 107458DA
P 8550 1300
F 0 "C30" V 8725 1400 64  0000 R TNN
F 1 "100nF" V 8650 1400 42  0000 R TNN
F 2 "AllModules:C0402_1" H 8550 1300 50  0001 C CNN
F 3 "" H 8550 1300 50  0001 C CNN
F 4 "CAPACITOR,100NF,16V,+/-10%,X7R,0402" H 8550 1300 50  0001 C CNN "Description"
F 5 "10022607" H 8550 1300 50  0001 C CNN "Item Number"
F 6 "MURATA" H 8550 1300 50  0001 C CNN "Manufacturer"
F 7 "GRM155R71C104JA88J" H 8550 1300 50  0001 C CNN "Manufacturer_No"
F 8 "YAGEO_RMS1" H 8550 1300 50  0001 C CNN "Manufacturer2"
F 9 "CC0402KRX7R7BB104" H 8550 1300 50  0001 C CNN "Manufacturer_No2"
F 10 "YAGEO_RMS1" H 8550 1300 50  0001 C CNN "Manufacturer3"
F 11 "CC0402KRX7R7BB104" H 8550 1300 50  0001 C CNN "Manufacturer_No3"
	1    8550 1300
	0    1    -1   0   
$EndComp
$Comp
L V_IC:29F800 IC7
U 1 1 270F9871
P 8550 3100
F 0 "IC7" H 8950 4700 64  0000 L BNN
F 1 "29F400-70EC" H 8950 4625 42  0000 L BNN
F 2 "AllModules:TSOP48-ENT9.965_1" H 8550 3100 50  0001 C CNN
F 3 "" H 8550 3100 50  0001 C CNN
F 4 "IC, FLASH MEMORY,TSOP48" H 8550 3100 50  0001 C CNN "Description"
F 5 "10022961" H 8550 3100 50  0001 C CNN "Item Number"
F 6 "Macronix" H 8550 3100 50  0001 C CNN "Manufacturer"
F 7 "MX29F400CBTI-70GTR" H 8550 3100 50  0001 C CNN "Manufacturer_No"
F 8 "Macronix" H 8550 3100 50  0001 C CNN "Manufacturer2"
F 9 "MX29F400CBTI-70G" H 8550 3100 50  0001 C CNN "Manufacturer_No2"
F 10 "STMICROELECTRONICS" H 8550 3100 50  0001 C CNN "Manufacturer3"
F 11 "M29F400BB-70N6F" H 8550 3100 50  0001 C CNN "Manufacturer_No3"
	1    8550 3100
	1    0    0    -1  
$EndComp
Wire Notes Line
	8187 10932 8187 6232
Wire Notes Line
	8187 6232 1012 6232
Wire Notes Line
	1012 6232 1012 10932
Wire Notes Line
	1012 10932 8187 10932
Wire Notes Line
	1000 5782 6787 5782
Wire Notes Line
	6787 744  1000 744 
Wire Notes Line
	1000 744  1000 5782
Wire Notes Line
	6787 5782 6787 744 
Wire Notes Line
	10500 738  16150 738 
Wire Notes Line
	16150 738  16150 7163
Wire Notes Line
	16150 7163 13075 7163
Wire Notes Line
	13075 7163 13075 5800
Wire Notes Line
	13075 5800 10500 5800
Wire Notes Line
	10500 5800 10500 738 
Wire Notes Line
	14675 4988 16125 4988
Wire Notes Line
	16125 4988 16125 5825
Wire Notes Line
	16125 5825 14675 5825
Wire Notes Line
	14675 5825 14675 4988
Wire Notes Line
	6050 3150 6075 3175
Wire Notes Line
	6075 3175 6075 3225
Wire Notes Line
	6075 3225 6100 3250
Wire Notes Line
	6100 3250 6075 3275
Wire Notes Line
	6075 3275 6075 3313
Wire Notes Line
	6075 3313 6050 3338
Wire Notes Line
	8531 5957 11868 5957
Wire Notes Line
	11868 5957 11868 8132
Wire Notes Line
	11868 8132 8531 8132
Wire Notes Line
	8531 8132 8531 5957
Wire Notes Line
	9375 7075 9362 7075
Wire Notes Line
	9362 7075 9337 7100
Wire Notes Line
	9337 7100 9337 7438
Wire Notes Line
	9337 7438 9312 7463
Wire Notes Line
	9312 7463 9312 7475
Wire Notes Line
	9312 7475 9337 7500
Wire Notes Line
	9337 7500 9337 7838
Wire Notes Line
	9337 7838 9375 7875
Wire Notes Line
	7329 744  10445 742 
Wire Notes Line
	7329 744  7322 5796
Wire Notes Line
	7322 5796 10447 5796
Wire Notes Line
	10447 5796 10445 742 
Text Notes 1112 6444 0    56   ~ 0
MONITORING MEMORY
Text Notes 1075 875  0    56   ~ 0
16 PIN PORT OUT
Text Notes 10562 875  0    56   ~ 0
UART FONCTION
Text Notes 14712 5150 0    56   ~ 0
SJ1 = on, SJ2 = off,
Text Notes 14712 5288 0    56   ~ 0
if TX_RAP_AL between 0V...3.3V
Text Notes 14700 5538 0    56   ~ 0
SJ1 = off, SJ2 = on,
Text Notes 14700 5675 0    56   ~ 0
if TX_RAP_AL between 0V...5V
Text Notes 9250 7600 1    47   ~ 0
BUS SPI
Text Notes 8618 6107 0    56   ~ 0
SETTINGS MEMORY
Text Notes 15900 10738 0    59   ~ 0
A
Text Notes 16175 10738 0    59   ~ 0
05/03/14
Text Notes 16675 10750 0    59   ~ 0
JR
Text Notes 7372 884  0    56   ~ 0
EVENT MEMORY
Wire Wire Line
	1400 1900 1550 1900
Wire Wire Line
	2700 1900 2450 1900
Wire Wire Line
	1600 2550 2700 2550
$Comp
L V_IC:74HCT1G08GW IC38
U 1 1 E1DA1C65
P 2800 2700
F 0 "IC38" H 3350 3450 67  0000 L BNN
F 1 "74HCT1G08GW" H 3337 3375 42  0000 L BNN
F 2 "AllModules:SC70-5_1" H 2800 2700 50  0001 C CNN
F 3 "" H 2800 2700 50  0001 C CNN
F 4 "2 INPUT AND-GATE,SOT353" H 2800 2700 50  0001 C CNN "Description"
F 5 "10023119" H 2800 2700 50  0001 C CNN "Item Number"
F 6 "NXP SEMICONDUCTORS_RMS1" H 2800 2700 50  0001 C CNN "Manufacturer"
F 7 "74HCT1G08GW,125" H 2800 2700 50  0001 C CNN "Manufacturer_No"
F 8 "NXP SEMICONDUCTORS_RMS1" H 2800 2700 50  0001 C CNN "Manufacturer2"
F 9 "74HCT1G08GW" H 2800 2700 50  0001 C CNN "Manufacturer_No2"
	1    2800 2700
	1    0    0    -1  
$EndComp
Connection ~ 3000 1750
Wire Wire Line
	3000 1750 3000 1950
Wire Wire Line
	3300 1350 3300 1750
Connection ~ 3300 1750
Wire Wire Line
	3300 1750 3300 1950
Wire Wire Line
	3600 2400 3750 2400
Wire Wire Line
	2700 1900 2700 2200
Wire Wire Line
	3750 2400 3750 2500
Wire Wire Line
	3750 2300 3750 2400
Connection ~ 3750 2400
Text HLabel 5600 2800 2    50   Output ~ 0
LED-VENTIL
Text HLabel 5600 2900 2    50   Output ~ 0
LED-O2
Text HLabel 5600 3100 2    50   Output ~ 0
CE\-EEP
Text HLabel 5600 3200 2    50   Output ~ 0
CE-RTC1
Text HLabel 5600 3300 2    50   Output ~ 0
CE\-RTC2
Text HLabel 5600 3400 2    50   Output ~ 0
CE\-INT-PRES-SENS
Text HLabel 5600 3500 2    50   Output ~ 0
CE\-PROX-PRES-SENS
Text HLabel 5600 3600 2    50   Output ~ 0
CE\-VALV-PRES-SENS
Text HLabel 5600 3700 2    50   Output ~ 0
CE-SPI-USB
Text HLabel 5600 3800 2    50   Output ~ 0
CE-SPI-PIC
Text HLabel 5600 3900 2    50   Output ~ 0
CE\-FLOW-INSP-SENS
Text HLabel 5600 4000 2    50   Output ~ 0
CE\-FLOW-EXP-SENS
Text HLabel 5600 4100 2    50   Output ~ 0
CE-SPI-PIC-IC44
Wire Wire Line
	8250 1500 8250 1300
Wire Wire Line
	8250 1300 8350 1300
Connection ~ 8250 1300
Wire Wire Line
	8350 1500 8350 1300
Connection ~ 8350 1300
Wire Wire Line
	8350 1300 8400 1300
Wire Wire Line
	8850 1300 8850 1200
Wire Wire Line
	8850 1300 8850 1500
Connection ~ 8850 1300
Text HLabel 8950 4550 3    50   Input ~ 0
BUSY-ME2
Text HLabel 8350 4550 3    50   Input ~ 0
RD\
Text HLabel 8250 4550 3    50   Input ~ 0
CS1\
Text HLabel 8550 4550 3    50   Input ~ 0
RESET\
Text HLabel 8450 4550 3    50   Input ~ 0
WR\
Wire Wire Line
	8250 4400 8250 4550
Wire Wire Line
	8350 4400 8350 4550
Wire Wire Line
	8450 4400 8450 4550
Wire Wire Line
	8550 4400 8550 4550
Wire Wire Line
	8950 4400 8950 4550
$Comp
L V_IC:LVC1G07DBVT IC9
U 1 1 5F7D4A82
P 14400 4250
F 0 "IC9" H 14275 3775 64  0000 L BNN
F 1 "SN74LVC1G07DBVT" H 13825 3875 42  0000 L BNN
F 2 "AllModules:SOT23-5_1" H 14400 4250 50  0001 C CNN
F 3 "" H 14400 4250 50  0001 C CNN
F 4 "BUFFER WITH OPEN DRAIN OUTPUT,SOT23" H 14400 4250 50  0001 C CNN "Description"
F 5 "10022964" H 14400 4250 50  0001 C CNN "Item Number"
F 6 "TEXAS INSTRUMENTS_RMS1" H 14400 4250 50  0001 C CNN "Manufacturer"
F 7 "SN74LVC1G07DBVT" H 14400 4250 50  0001 C CNN "Manufacturer_No"
F 8 "NXP SEMICONDUCTORS_RMS1" H 14400 4250 50  0001 C CNN "Manufacturer2"
F 9 "74LVC1G07GV,125" H 14400 4250 50  0001 C CNN "Manufacturer_No2"
F 10 "NXP SEMICONDUCTORS_RMS1" H 14400 4250 50  0001 C CNN "Manufacturer3"
F 11 "74LVC1G07GV" H 14400 4250 50  0001 C CNN "Manufacturer_No3"
	1    14400 4250
	-1   0    0    1   
$EndComp
$Comp
L V_Jumper:JUMP_0U JP5
U 1 1 056852D9
P 14300 5450
F 0 "JP5" H 14225 5525 51  0000 L BNN
F 1 "DNP" V 14200 5450 39  0000 L BNN
F 2 "AllModules:R0603_1" H 14300 5450 50  0001 C CNN
F 3 "" H 14300 5450 50  0001 C CNN
F 4 "10023185" H 14300 5450 50  0001 C CNN "Item Number"
F 5 "RESISTANCE, 0 OHM,0603" H 14300 5450 50  0001 C CNN "Description"
F 6 "YAGEO_RMS1" H 0   0   50  0001 C CNN "Manufacturer"
F 7 "YAGEO_RMS1" H 0   0   50  0001 C CNN "Manufacturer2"
F 8 "YAGEO_RMS1" H 0   0   50  0001 C CNN "Manufacturer3"
F 9 "RC0603JR-070RL" H 0   0   50  0001 C CNN "Manufacturer_No"
F 10 "RC0603JR-070RL" H 0   0   50  0001 C CNN "Manufacturer_No2"
F 11 "RC0603JR-070RL" H 0   0   50  0001 C CNN "Manufacturer_No3"
	1    14300 5450
	0    -1   -1   0   
$EndComp
Wire Wire Line
	11250 1750 11250 1950
Connection ~ 11250 1750
Text HLabel 11050 2050 0    50   Input ~ 0
CS3\
Text HLabel 11050 2450 0    50   Output ~ 0
IRQ-UART
Text HLabel 11050 2550 0    50   Input ~ 0
RESET
Wire Wire Line
	13050 4550 13550 4550
Wire Wire Line
	14300 5650 14550 5650
Text HLabel 15450 6650 2    50   Output ~ 0
TX-AL-RP
Text HLabel 15450 6100 2    50   Output ~ 0
SUPPLY-AL-RP
Connection ~ 14550 5650
Wire Wire Line
	14250 6150 14250 6200
Text HLabel 15050 4250 2    50   Input ~ 0
RX-AL-RP
Wire Wire Line
	14100 5650 14300 5650
Connection ~ 14300 5650
Wire Wire Line
	13950 6650 13550 6650
Wire Wire Line
	13550 4550 13550 6650
NoConn ~ 13050 4850
NoConn ~ 13050 4750
NoConn ~ 13050 5050
Wire Wire Line
	13050 4250 13600 4250
Connection ~ 13600 4250
Wire Wire Line
	13600 4250 13800 4250
Wire Wire Line
	14400 4700 14400 4750
Wire Wire Line
	14100 4700 14100 5650
Wire Wire Line
	13050 3450 13200 3450
Wire Wire Line
	13200 3450 13200 3400
Wire Wire Line
	13300 3400 13300 3650
Wire Wire Line
	13300 3650 13050 3650
Wire Wire Line
	13050 3750 13400 3750
Wire Wire Line
	13400 3750 13400 3400
Wire Wire Line
	13500 3400 13500 4000
Wire Wire Line
	13500 4000 13050 4000
NoConn ~ 13050 2750
NoConn ~ 13050 2650
NoConn ~ 13050 3150
NoConn ~ 13050 2950
Wire Wire Line
	13050 2200 13175 2200
Wire Wire Line
	13175 2200 13175 2400
Wire Wire Line
	13175 2400 13050 2400
Wire Wire Line
	13200 2725 13200 2775
Wire Wire Line
	13500 2775 13500 3000
Wire Wire Line
	13400 3000 13400 2775
Wire Wire Line
	13200 2775 13300 2775
Connection ~ 13400 2775
Wire Wire Line
	13400 2775 13500 2775
Wire Wire Line
	13300 3000 13300 2775
Connection ~ 13300 2775
Wire Wire Line
	13300 2775 13400 2775
Wire Wire Line
	13200 3000 13200 2775
Connection ~ 13200 2775
$Comp
L V_Resistor:R0603_1M_1% R4
U 1 1 BADBB996
P 13550 1750
F 0 "R4" H 13625 1650 64  0000 L BNN
F 1 "1M" H 13650 1750 42  0000 L BNN
F 2 "AllModules:R0603_1" H 13550 1750 50  0001 C CNN
F 3 "" H 13550 1750 50  0001 C CNN
F 4 "RESISTOR,1M OHM,0.063W,+/-1%,0603" H 13550 1750 50  0001 C CNN "Description"
F 5 "10022736" H 13550 1750 50  0001 C CNN "Item Number"
F 6 "YAGEO_RMS1" H 13550 1750 50  0001 C CNN "Manufacturer"
F 7 "RC0603FR-071ML" H 13550 1750 50  0001 C CNN "Manufacturer_No"
F 8 "YAGEO_RMS1" H 13550 1750 50  0001 C CNN "Manufacturer2"
F 9 "RC0603FR-071ML" H 13550 1750 50  0001 C CNN "Manufacturer_No2"
F 10 "VISHAY_RMS1" H 13550 1750 50  0001 C CNN "Manufacturer3"
F 11 "CRCW06031M00FKEA" H 13550 1750 50  0001 C CNN "Manufacturer_No3"
	1    13550 1750
	-1   0    0    1   
$EndComp
Wire Wire Line
	14450 1950 14325 1950
Wire Wire Line
	13050 1800 13225 1800
Wire Wire Line
	13225 1800 13225 1500
Wire Wire Line
	13225 1500 13550 1500
Connection ~ 13550 1500
Wire Wire Line
	11250 5150 11250 5350
Wire Wire Line
	11250 4650 11250 5150
Connection ~ 11250 5150
Text HLabel 11150 4550 0    50   Input ~ 0
RD\
Text HLabel 11150 4950 0    50   Input ~ 0
WR\
Text HLabel 1700 8700 0    50   Input ~ 0
RD\
Text HLabel 1700 8800 0    50   Input ~ 0
WR\
Text HLabel 1700 8900 0    50   Input ~ 0
CMD_ALE1
Text HLabel 1700 9000 0    50   Input ~ 0
CMD_ME1
Text HLabel 1450 7850 0    50   Input ~ 0
CS0\
$Comp
L V_IC:SN74ALVC164245 IC2
U 1 1 BC34DC86
P 3200 7700
F 0 "IC2" H 5075 8275 67  0000 R TNN
F 1 "SN74ALVC164245" H 5475 8175 42  0000 R TNN
F 2 "AllModules:TSSOP48_1" H 3200 7700 50  0001 C CNN
F 3 "" H 3200 7700 50  0001 C CNN
F 4 "TRANSCEIVER, 3.3V TO 5V,TSSOP" H 3200 7700 50  0001 C CNN "Description"
F 5 "10022511" H 3200 7700 50  0001 C CNN "Item Number"
F 6 "TEXAS INSTRUMENTS_RMS1" H 3200 7700 50  0001 C CNN "Manufacturer"
F 7 "SN74ALVC164245DGGR" H 3200 7700 50  0001 C CNN "Manufacturer_No"
F 8 "TEXAS INSTRUMENTS_RMS1" H 3200 7700 50  0001 C CNN "Manufacturer2"
F 9 "74ALVC164245DGGTE4" H 3200 7700 50  0001 C CNN "Manufacturer_No2"
F 10 "TEXAS INSTRUMENTS_RMS1" H 3200 7700 50  0001 C CNN "Manufacturer3"
F 11 "SN74ALVC164245DGGT" H 3200 7700 50  0001 C CNN "Manufacturer_No3"
	1    3200 7700
	1    0    0    -1  
$EndComp
Wire Wire Line
	10550 6500 10550 6700
Connection ~ 10550 6700
Wire Wire Line
	10550 6700 10550 6850
Connection ~ 10950 6700
Wire Wire Line
	10950 6700 10950 6850
Text HLabel 10000 7750 0    50   Input ~ 0
CE\-EEP
Text HLabel 10000 7550 0    50   Input ~ 0
SCLK-SPI-0
Text HLabel 10000 7350 0    50   Output ~ 0
MRST-SPI-0_E
Text HLabel 10000 7150 0    50   Input ~ 0
MTSR-SPI-0
Wire Wire Line
	5100 7700 6200 7700
Wire Wire Line
	6200 7800 5100 7800
Wire Wire Line
	5100 7900 6200 7900
Wire Wire Line
	6200 8000 5100 8000
Wire Wire Line
	5100 8100 6200 8100
Wire Wire Line
	6200 8200 5100 8200
Wire Wire Line
	5100 8300 6200 8300
Wire Wire Line
	6200 8400 5100 8400
Text HLabel 6200 9300 0    50   Output ~ 0
BUSY-ME1
NoConn ~ 6200 9400
NoConn ~ 6200 9500
NoConn ~ 6200 9600
Wire Wire Line
	6200 9000 6050 9000
NoConn ~ 5100 9300
NoConn ~ 5100 9200
NoConn ~ 5100 9100
Wire Wire Line
	5100 9000 5400 9000
Wire Wire Line
	5400 9000 5400 10100
Wire Wire Line
	5400 10100 6200 10100
Wire Wire Line
	5700 8700 5700 10200
Wire Wire Line
	5700 10200 6200 10200
Wire Wire Line
	5100 8900 5500 8900
Wire Wire Line
	5500 8900 5500 10000
Wire Wire Line
	5500 10000 6200 10000
Wire Wire Line
	5100 8800 5300 8800
Wire Wire Line
	5600 8800 5600 9900
Wire Wire Line
	5600 9900 6200 9900
Wire Wire Line
	5800 8600 5800 8700
Wire Wire Line
	5800 8700 6200 8700
Wire Wire Line
	6200 8800 6200 8900
Wire Wire Line
	6200 8900 6200 9000
Connection ~ 6200 8900
Connection ~ 6200 9000
Wire Wire Line
	5100 8600 5200 8600
Wire Wire Line
	4600 9900 4500 9900
Wire Wire Line
	4600 9900 4600 10050
Connection ~ 4600 9900
Connection ~ 5300 8800
Wire Wire Line
	5300 8800 5600 8800
Wire Wire Line
	5200 10350 3600 10350
Wire Wire Line
	3600 10350 3600 9900
Wire Wire Line
	1700 9000 3000 9000
Wire Wire Line
	3000 8900 1700 8900
Wire Wire Line
	1700 8800 3000 8800
Wire Wire Line
	3000 8700 1700 8700
Wire Wire Line
	2500 8050 2650 8050
Wire Wire Line
	2650 8050 2650 8600
Wire Wire Line
	2650 8600 3000 8600
Wire Wire Line
	1900 7500 1900 7600
Wire Wire Line
	2200 7500 2200 7600
Wire Wire Line
	3300 6700 3300 6900
Wire Wire Line
	3300 6900 3400 6900
Connection ~ 3300 6900
Wire Wire Line
	3300 6900 3300 7000
Wire Wire Line
	3700 6900 3700 6700
Wire Wire Line
	3700 6900 3700 7000
Connection ~ 3700 6900
Wire Wire Line
	3700 6900 3800 6900
Wire Wire Line
	3800 6900 3800 7000
Wire Wire Line
	3400 7000 3400 6900
Connection ~ 3400 6900
Wire Wire Line
	3800 6900 3900 6900
Connection ~ 3800 6900
Wire Wire Line
	4400 7000 4400 6900
Connection ~ 4400 6900
Wire Wire Line
	4300 7000 4300 6900
Connection ~ 4300 6900
Wire Wire Line
	4300 6900 4400 6900
Wire Wire Line
	4200 7000 4200 6900
Connection ~ 4200 6900
Wire Wire Line
	4200 6900 4300 6900
Wire Wire Line
	4100 7000 4100 6900
Connection ~ 4100 6900
Wire Wire Line
	4100 6900 4200 6900
Wire Wire Line
	4000 7000 4000 6900
Connection ~ 4000 6900
Wire Wire Line
	4000 6900 4100 6900
Wire Wire Line
	3900 7000 3900 6900
Connection ~ 3900 6900
Wire Wire Line
	3900 6900 4000 6900
Wire Wire Line
	4700 6650 4700 6900
Connection ~ 4700 6900
Wire Wire Line
	4700 6900 4700 7000
Wire Wire Line
	4700 6900 4800 6900
Wire Wire Line
	4800 6900 4800 7000
Connection ~ 5200 8600
Wire Wire Line
	5200 8600 5800 8600
Wire Wire Line
	5100 8700 5700 8700
Wire Wire Line
	5200 8600 5200 10350
Text HLabel 1400 1900 0    50   Input ~ 0
WR\
$Comp
L V_IC:74HCT1G32GW IC5
U 1 1 E8297B24
P 1700 8350
F 0 "IC5" H 2250 9113 64  0000 L BNN
F 1 "74HCT1G32GW" H 2250 9038 42  0000 L BNN
F 2 "AllModules:SC70-5_1" H 1700 8350 50  0001 C CNN
F 3 "" H 1700 8350 50  0001 C CNN
F 4 "IC, 2 INPUT OR-GATE,SOT353" H 1700 8350 50  0001 C CNN "Description"
F 5 "10022960" H 1700 8350 50  0001 C CNN "Item Number"
F 6 "NXP SEMICONDUCTORS_RMS1" H 1700 8350 50  0001 C CNN "Manufacturer"
F 7 "74HCT1G32GW" H 1700 8350 50  0001 C CNN "Manufacturer_No"
F 8 "NXP SEMICONDUCTORS_RMS1" H 1700 8350 50  0001 C CNN "Manufacturer2"
F 9 "74HCT1G32GW,125" H 1700 8350 50  0001 C CNN "Manufacturer_No2"
	1    1700 8350
	1    0    0    -1  
$EndComp
Text Label 9475 2200 0    50   ~ 0
D0
Text Label 9475 2300 0    50   ~ 0
D1
Text Label 9475 2400 0    50   ~ 0
D2
Text Label 9475 2500 0    50   ~ 0
D3
Text Label 9475 2600 0    50   ~ 0
D4
Text Label 9475 2700 0    50   ~ 0
D5
Text Label 9475 2800 0    50   ~ 0
D6
Text Label 9475 2900 0    50   ~ 0
D7
Text Label 9475 3000 0    50   ~ 0
D8
Text Label 9475 3100 0    50   ~ 0
D9
Text Label 9475 3200 0    50   ~ 0
D10
Text Label 9475 3300 0    50   ~ 0
D11
Text Label 9475 3400 0    50   ~ 0
D12
Text Label 9475 3500 0    50   ~ 0
D13
Text Label 9475 3600 0    50   ~ 0
D14
Text Label 9475 3700 0    50   ~ 0
D15
Wire Wire Line
	9350 3700 9650 3700
Wire Wire Line
	9350 2200 9650 2200
Wire Wire Line
	9350 2300 9650 2300
Wire Wire Line
	9350 2400 9650 2400
Wire Wire Line
	9350 2500 9650 2500
Wire Wire Line
	9350 2600 9650 2600
Wire Wire Line
	9350 2700 9650 2700
Wire Wire Line
	9350 2800 9650 2800
Wire Wire Line
	9350 2900 9650 2900
Wire Wire Line
	9350 3000 9650 3000
Wire Wire Line
	9350 3100 9650 3100
Wire Wire Line
	9350 3200 9650 3200
Wire Wire Line
	9350 3300 9650 3300
Wire Wire Line
	9350 3400 9650 3400
Wire Wire Line
	9350 3500 9650 3500
Wire Wire Line
	9350 3600 9650 3600
Text Label 11350 2700 0    50   ~ 0
A0
Text Label 11350 2900 0    50   ~ 0
A1
Text Label 11350 3000 0    50   ~ 0
A2
Text Label 11350 3250 0    50   ~ 0
D0
Text Label 11350 3350 0    50   ~ 0
D1
Text Label 11350 3550 0    50   ~ 0
D2
Text Label 11350 3650 0    50   ~ 0
D3
Text Label 11350 3850 0    50   ~ 0
D4
Text Label 11350 4050 0    50   ~ 0
D5
Text Label 11350 4150 0    50   ~ 0
D6
Text Label 11350 4250 0    50   ~ 0
D7
Wire Wire Line
	7550 1700 7750 1700
Wire Wire Line
	7550 1800 7750 1800
Wire Wire Line
	7550 1900 7750 1900
Wire Wire Line
	7550 2000 7750 2000
Wire Wire Line
	7550 2100 7750 2100
Wire Wire Line
	7550 2200 7750 2200
Wire Wire Line
	7550 2300 7750 2300
Wire Wire Line
	7550 2400 7750 2400
Wire Wire Line
	7550 2500 7750 2500
Wire Wire Line
	7550 2600 7750 2600
Wire Wire Line
	7550 2700 7750 2700
Wire Wire Line
	7550 2800 7750 2800
Wire Wire Line
	7550 2900 7750 2900
Wire Wire Line
	7550 3000 7750 3000
Wire Wire Line
	7550 3100 7750 3100
Wire Wire Line
	7550 3200 7750 3200
Wire Wire Line
	7550 3300 7750 3300
Wire Wire Line
	7550 3400 7750 3400
Wire Wire Line
	7550 3500 7750 3500
Text Label 7550 1700 0    50   ~ 0
A1
Text Label 7550 1800 0    50   ~ 0
A2
Text Label 7550 1900 0    50   ~ 0
A3
Text Label 7550 2000 0    50   ~ 0
A4
Text Label 7550 2100 0    50   ~ 0
A5
Text Label 7550 2200 0    50   ~ 0
A6
Text Label 7550 2300 0    50   ~ 0
A7
Text Label 7550 2400 0    50   ~ 0
A8
Text Label 7550 2500 0    50   ~ 0
A9
Text Label 7550 2600 0    50   ~ 0
A10
Text Label 7550 2700 0    50   ~ 0
A11
Text Label 7550 2800 0    50   ~ 0
A12
Text Label 7550 2900 0    50   ~ 0
A13
Text Label 7550 3000 0    50   ~ 0
A14
Text Label 7550 3100 0    50   ~ 0
A15
Text Label 7550 3200 0    50   ~ 0
A16
Text Label 7550 3300 0    50   ~ 0
A17
Text Label 7550 3400 0    50   ~ 0
A18
Text Label 7550 3500 0    50   ~ 0
A19
Entry Wire Line
	7450 1600 7550 1700
Entry Wire Line
	7450 1700 7550 1800
Entry Wire Line
	7450 1800 7550 1900
Entry Wire Line
	7450 1900 7550 2000
Entry Wire Line
	7450 2000 7550 2100
Entry Wire Line
	7450 2100 7550 2200
Entry Wire Line
	7450 2200 7550 2300
Entry Wire Line
	7450 2300 7550 2400
Entry Wire Line
	7450 2400 7550 2500
Entry Wire Line
	7450 2500 7550 2600
Entry Wire Line
	7450 2600 7550 2700
Entry Wire Line
	7450 2700 7550 2800
Entry Wire Line
	7450 2800 7550 2900
Entry Wire Line
	7450 2900 7550 3000
Entry Wire Line
	7450 3000 7550 3100
Entry Wire Line
	7450 3100 7550 3200
Entry Wire Line
	7450 3200 7550 3300
Entry Wire Line
	7450 3300 7550 3400
Entry Wire Line
	7450 3400 7550 3500
Text HLabel 7450 1500 2    50   Input ~ 0
A[0..19]
Text Label 3975 2800 0    50   ~ 0
D0
Text Label 3975 2900 0    50   ~ 0
D1
Text Label 3975 3000 0    50   ~ 0
D2
Text Label 3975 3100 0    50   ~ 0
D3
Text Label 3975 3200 0    50   ~ 0
D4
Text Label 3975 3300 0    50   ~ 0
D5
Text Label 3975 3400 0    50   ~ 0
D6
Text Label 3975 3500 0    50   ~ 0
D7
Text Label 3975 3600 0    50   ~ 0
D8
Text Label 3975 3700 0    50   ~ 0
D9
Text Label 3975 3800 0    50   ~ 0
D10
Text Label 3975 3900 0    50   ~ 0
D11
Text Label 3975 4000 0    50   ~ 0
D12
Text Label 3975 4100 0    50   ~ 0
D13
Text Label 3975 4200 0    50   ~ 0
D14
Text Label 3975 4300 0    50   ~ 0
D15
Entry Wire Line
	3800 2700 3900 2800
Entry Wire Line
	3800 2800 3900 2900
Entry Wire Line
	3800 2900 3900 3000
Entry Wire Line
	3800 3000 3900 3100
Entry Wire Line
	3800 3100 3900 3200
Entry Wire Line
	3800 3200 3900 3300
Entry Wire Line
	3800 3300 3900 3400
Entry Wire Line
	3800 3400 3900 3500
Entry Wire Line
	3800 3500 3900 3600
Entry Wire Line
	3800 3600 3900 3700
Entry Wire Line
	3800 3700 3900 3800
Entry Wire Line
	3800 3800 3900 3900
Entry Wire Line
	3800 3900 3900 4000
Entry Wire Line
	3800 4000 3900 4100
Entry Wire Line
	3800 4100 3900 4200
Entry Wire Line
	3800 4200 3900 4300
Text HLabel 3800 2650 2    50   BiDi ~ 0
D[0..15]
Entry Wire Line
	9750 2100 9650 2200
Entry Wire Line
	9750 2200 9650 2300
Entry Wire Line
	9750 2300 9650 2400
Entry Wire Line
	9750 2400 9650 2500
Entry Wire Line
	9750 2500 9650 2600
Entry Wire Line
	9750 2600 9650 2700
Entry Wire Line
	9750 2700 9650 2800
Entry Wire Line
	9750 2800 9650 2900
Entry Wire Line
	9750 2900 9650 3000
Entry Wire Line
	9750 3000 9650 3100
Entry Wire Line
	9750 3100 9650 3200
Entry Wire Line
	9750 3200 9650 3300
Entry Wire Line
	9750 3300 9650 3400
Entry Wire Line
	9750 3400 9650 3500
Entry Wire Line
	9750 3500 9650 3600
Entry Wire Line
	9750 3600 9650 3700
Text HLabel 9750 2050 2    50   BiDi ~ 0
D[0..15]
Entry Wire Line
	11250 2600 11350 2700
Entry Wire Line
	11250 2800 11350 2900
Entry Wire Line
	11250 2900 11350 3000
Text HLabel 11250 2950 0    50   Input ~ 0
A[0..19]
Entry Wire Line
	11250 3150 11350 3250
Entry Wire Line
	11250 3250 11350 3350
Entry Wire Line
	11250 3450 11350 3550
Entry Wire Line
	11250 3550 11350 3650
Entry Wire Line
	11250 3750 11350 3850
Entry Wire Line
	11250 3950 11350 4050
Entry Wire Line
	11250 4050 11350 4150
Entry Wire Line
	11250 4150 11350 4250
Text HLabel 11250 3100 0    50   BiDi ~ 0
D[0..15]
$Comp
L V_IC:AT25--- IC32
U 1 1 1703D4A9
P 10350 7550
F 0 "IC32" H 11012 8262 67  0000 L BNN
F 1 "25LC320" H 11012 8187 42  0000 L BNN
F 2 "AllModules:MX.A8_COMPOSANT_1" H 10350 7550 50  0001 C CNN
F 3 "" H 10350 7550 50  0001 C CNN
F 4 "EEPROM, SOIC8" H 10350 7550 50  0001 C CNN "Description"
F 5 "10023158" H 10350 7550 50  0001 C CNN "Item Number"
F 6 "MICROCHIP TECHNOLOGY_RMS1" H 10350 7550 50  0001 C CNN "Manufacturer"
F 7 "25LC320-I/SN" H 10350 7550 50  0001 C CNN "Manufacturer_No"
F 8 "MICROCHIP TECHNOLOGY_RMS1" H 10350 7550 50  0001 C CNN "Manufacturer2"
F 9 "25LC320T-E/SN" H 10350 7550 50  0001 C CNN "Manufacturer_No2"
F 10 "MICROCHIP TECHNOLOGY_RMS1" H 10350 7550 50  0001 C CNN "Manufacturer3"
F 11 "25LC320T-I/SN" H 10350 7550 50  0001 C CNN "Manufacturer_No3"
	1    10350 7550
	1    0    0    -1  
$EndComp
Text Label 3000 8400 2    50   ~ 0
D7
Text Label 3000 8300 2    50   ~ 0
D6
Text Label 3000 8200 2    50   ~ 0
D5
Text Label 3000 8100 2    50   ~ 0
D4
Text Label 3000 8000 2    50   ~ 0
D3
Text Label 3000 7900 2    50   ~ 0
D2
Text Label 3000 7800 2    50   ~ 0
D1
Text Label 3000 7700 2    50   ~ 0
D0
Entry Wire Line
	2800 7600 2900 7700
Entry Wire Line
	2800 7700 2900 7800
Entry Wire Line
	2800 7800 2900 7900
Entry Wire Line
	2800 7900 2900 8000
Entry Wire Line
	2800 8000 2900 8100
Entry Wire Line
	2800 8100 2900 8200
Entry Wire Line
	2800 8200 2900 8300
Entry Wire Line
	2800 8300 2900 8400
Wire Wire Line
	2900 7700 3000 7700
Wire Wire Line
	2900 7800 3000 7800
Wire Wire Line
	2900 7900 3000 7900
Wire Wire Line
	2900 8000 3000 8000
Wire Wire Line
	2900 8100 3000 8100
Wire Wire Line
	2900 8200 3000 8200
Wire Wire Line
	2900 8300 3000 8300
Wire Wire Line
	2900 8400 3000 8400
Text HLabel 2800 7550 2    50   BiDi ~ 0
D[0..15]
Text HLabel 1600 2550 0    50   Input ~ 0
A23
Text HLabel 1450 8200 0    50   Input ~ 0
A23
$Comp
L V_Power:PWR_FLAG #FLG0109
U 1 1 6003889E
P 14100 5650
F 0 "#FLG0109" H 14100 5725 50  0001 C CNN
F 1 "PWR_FLAG" V 14100 5777 50  0000 L CNN
F 2 "" H 14100 5650 50  0001 C CNN
F 3 "" H 14100 5650 50  0001 C CNN
	1    14100 5650
	0    -1   -1   0   
$EndComp
Connection ~ 14100 5650
Connection ~ 4550 4900
Connection ~ 4650 4900
Connection ~ 4750 4900
Connection ~ 4850 4900
Connection ~ 4950 4900
Connection ~ 5050 4900
Wire Wire Line
	5450 2900 5600 2900
Wire Wire Line
	4450 4900 4550 4900
Wire Wire Line
	5450 2800 5600 2800
Wire Wire Line
	5450 3100 5600 3100
Wire Wire Line
	5450 3200 5600 3200
Wire Wire Line
	5450 3300 5600 3300
Wire Wire Line
	5450 3400 5600 3400
Wire Wire Line
	5450 3500 5600 3500
Wire Wire Line
	5450 3600 5600 3600
Wire Wire Line
	5450 3700 5600 3700
Wire Wire Line
	5450 3800 5600 3800
Wire Wire Line
	5450 3900 5600 3900
Wire Wire Line
	5450 4000 5600 4000
Wire Wire Line
	5450 4100 5600 4100
Wire Wire Line
	3750 2500 4150 2500
Wire Wire Line
	3750 2300 4150 2300
Wire Wire Line
	3900 4300 4150 4300
Wire Wire Line
	3900 4200 4150 4200
Wire Wire Line
	3900 4000 4150 4000
Wire Wire Line
	3900 3500 4150 3500
Wire Wire Line
	3900 3300 4150 3300
Wire Wire Line
	3900 3100 4150 3100
Wire Wire Line
	3900 2900 4150 2900
Wire Wire Line
	4550 4900 4650 4900
Wire Wire Line
	4650 4900 4750 4900
Wire Wire Line
	4850 4900 4950 4900
Wire Wire Line
	4950 4900 5050 4900
Wire Wire Line
	5050 4900 5150 4900
Wire Wire Line
	3900 2800 4150 2800
Wire Wire Line
	3900 3000 4150 3000
Wire Wire Line
	3900 3200 4150 3200
Wire Wire Line
	3900 3400 4150 3400
Wire Wire Line
	3900 3600 4150 3600
Wire Wire Line
	3900 3700 4150 3700
Wire Wire Line
	3900 3800 4150 3800
Wire Wire Line
	3900 3900 4150 3900
Wire Wire Line
	3900 4100 4150 4100
NoConn ~ 5450 3000
NoConn ~ 5450 4200
NoConn ~ 5450 4300
Wire Wire Line
	4750 4900 4850 4900
Wire Wire Line
	4750 5050 4750 4900
Wire Wire Line
	3900 2400 4150 2400
Wire Wire Line
	4150 2200 3900 2200
Wire Wire Line
	3900 2200 3900 2400
Wire Wire Line
	3900 1350 3900 1700
Connection ~ 3900 2200
Connection ~ 3900 1700
Wire Wire Line
	3900 1700 3900 2200
Wire Wire Line
	3900 1700 4100 1700
Wire Wire Line
	4750 1350 4750 1700
Connection ~ 4750 1700
Wire Wire Line
	4750 1700 4850 1700
Wire Wire Line
	4750 1700 4750 1800
Wire Wire Line
	4850 1800 4850 1700
Connection ~ 4850 1700
Wire Wire Line
	4850 1700 4950 1700
Wire Wire Line
	4950 1800 4950 1700
Connection ~ 4950 1700
Wire Wire Line
	4950 1700 5050 1700
Wire Wire Line
	5050 1800 5050 1700
Connection ~ 5050 1700
Wire Wire Line
	5050 1700 5100 1700
Wire Wire Line
	3000 1350 3000 1750
Wire Wire Line
	1850 1350 1850 1450
Wire Wire Line
	2150 1350 2150 1450
Wire Wire Line
	8250 1200 8250 1300
Wire Wire Line
	8650 4400 8650 4900
Wire Wire Line
	12100 1100 12100 1300
Wire Wire Line
	12100 1300 12150 1300
Connection ~ 12100 1300
Wire Wire Line
	12100 1300 12100 1400
Wire Wire Line
	12550 1300 12550 1100
Wire Wire Line
	12550 1400 12550 1300
Connection ~ 12550 1300
Wire Wire Line
	11250 5150 11500 5150
Wire Wire Line
	11150 4950 11500 4950
Wire Wire Line
	11250 4650 11500 4650
Wire Wire Line
	11150 4550 11500 4550
Wire Wire Line
	11350 4050 11500 4050
Wire Wire Line
	11350 4150 11500 4150
Wire Wire Line
	11350 4250 11500 4250
Wire Wire Line
	11350 3850 11500 3850
Wire Wire Line
	11350 3650 11500 3650
Wire Wire Line
	11350 3550 11500 3550
Wire Wire Line
	11350 2900 11500 2900
Wire Wire Line
	11350 3000 11500 3000
Wire Wire Line
	11350 3250 11500 3250
Wire Wire Line
	11350 3350 11500 3350
Wire Wire Line
	11350 2700 11500 2700
Wire Wire Line
	11050 2550 11500 2550
Wire Wire Line
	11050 2450 11500 2450
Wire Wire Line
	11150 2250 11500 2250
Wire Wire Line
	11050 2050 11500 2050
Wire Wire Line
	11250 1950 11500 1950
Wire Wire Line
	11250 1750 11500 1750
Wire Wire Line
	11250 1650 11250 1750
Wire Wire Line
	13050 1950 13150 1950
Wire Wire Line
	13450 1950 13550 1950
Wire Wire Line
	13550 1900 13550 1950
Connection ~ 13550 1950
Wire Wire Line
	13550 1500 13550 1600
$Comp
L V_Capacitor:C0603_22pF_50V_5% C16
U 1 1 8F520983
P 14200 1500
F 0 "C16" V 14450 1407 64  0000 L BNN
F 1 "22pF" V 14356 1413 42  0000 L BNN
F 2 "AllModules:C0603_1" H 14200 1500 50  0001 C CNN
F 3 "" H 14200 1500 50  0001 C CNN
F 4 "CAPACITOR CERAMIC,22PF,+/-5%,50V,0603" H 14200 1500 50  0001 C CNN "Description"
F 5 "10022632" H 14200 1500 50  0001 C CNN "Item Number"
F 6 "SAMSUNG_RMS1" H 14200 1500 50  0001 C CNN "Manufacturer"
F 7 "CL10C220JB8NNNC" H 14200 1500 50  0001 C CNN "Manufacturer_No"
F 8 "YAGEO_RMS1" H 14200 1500 50  0001 C CNN "Manufacturer2"
F 9 "CC0603JRNPO9BN220" H 14200 1500 50  0001 C CNN "Manufacturer_No2"
F 10 "YAGEO_RMS1" H 14200 1500 50  0001 C CNN "Manufacturer3"
F 11 "CC0603JRNPO9BN220" H 14200 1500 50  0001 C CNN "Manufacturer_No3"
	1    14200 1500
	0    1    -1   0   
$EndComp
Wire Wire Line
	13550 1500 13800 1500
Wire Wire Line
	13550 1950 13800 1950
Wire Wire Line
	13800 1850 13800 1950
Connection ~ 13800 1950
Wire Wire Line
	13800 1950 14025 1950
Wire Wire Line
	13800 1650 13800 1500
Connection ~ 13800 1500
Wire Wire Line
	13800 1500 14050 1500
Wire Wire Line
	13600 3800 13600 3850
Wire Wire Line
	13600 4150 13600 4250
Wire Wire Line
	14700 4250 15050 4250
Wire Wire Line
	14550 5200 14550 5250
Wire Wire Line
	14300 5200 14300 5250
Wire Wire Line
	14850 6650 15250 6650
Wire Wire Line
	14550 5650 14550 6100
Wire Wire Line
	15450 6100 15250 6100
Connection ~ 14550 6100
Wire Wire Line
	14550 6100 14550 6200
Wire Wire Line
	15250 6200 15250 6100
Connection ~ 15250 6100
Wire Wire Line
	15250 6100 14550 6100
Wire Wire Line
	15250 6500 15250 6650
Connection ~ 15250 6650
Wire Wire Line
	15250 6650 15450 6650
$Comp
L V_Capacitor:C0402_100nF_16V_10% C24
U 1 1 7752927D
P 10750 6700
F 0 "C24" V 10912 6794 64  0000 R TNN
F 1 "100nF" V 10843 6788 42  0000 R TNN
F 2 "AllModules:C0402_1" H 10750 6700 50  0001 C CNN
F 3 "" H 10750 6700 50  0001 C CNN
F 4 "CAPACITOR,100NF,16V,+/-10%,X7R,0402" H 10750 6700 50  0001 C CNN "Description"
F 5 "10022607" H 10750 6700 50  0001 C CNN "Item Number"
F 6 "MURATA" H 10750 6700 50  0001 C CNN "Manufacturer"
F 7 "GRM155R71C104JA88J" H 10750 6700 50  0001 C CNN "Manufacturer_No"
F 8 "YAGEO_RMS1" H 10750 6700 50  0001 C CNN "Manufacturer2"
F 9 "CC0402KRX7R7BB104" H 10750 6700 50  0001 C CNN "Manufacturer_No2"
F 10 "YAGEO_RMS1" H 10750 6700 50  0001 C CNN "Manufacturer3"
F 11 "CC0402KRX7R7BB104" H 10750 6700 50  0001 C CNN "Manufacturer_No3"
	1    10750 6700
	0    1    -1   0   
$EndComp
Wire Wire Line
	10000 7150 10150 7150
Wire Wire Line
	10000 7350 10150 7350
Wire Wire Line
	10000 7550 10150 7550
Wire Wire Line
	10000 7750 10150 7750
Wire Wire Line
	10950 6500 10950 6700
Wire Wire Line
	11400 6700 11400 7350
Wire Wire Line
	11250 7650 11400 7650
Wire Wire Line
	10950 6700 11400 6700
Wire Wire Line
	11250 7350 11400 7350
Connection ~ 11400 7350
Wire Wire Line
	11400 7350 11400 7650
Wire Wire Line
	6050 10500 6200 10500
Wire Wire Line
	1450 8200 1600 8200
Wire Wire Line
	1450 7850 1600 7850
Wire Wire Line
	2850 9500 2850 9300
Wire Wire Line
	2850 9100 3000 9100
Wire Wire Line
	2850 9200 3000 9200
Connection ~ 2850 9200
Wire Wire Line
	2850 9200 2850 9100
Wire Wire Line
	2850 9300 3000 9300
Connection ~ 2850 9300
Wire Wire Line
	2850 9300 2850 9200
Wire Wire Line
	3500 9900 3500 10450
Wire Wire Line
	5300 8800 5300 10450
Wire Wire Line
	3500 10450 5300 10450
Wire Wire Line
	5400 1700 5450 1700
Wire Wire Line
	4400 1700 4750 1700
Wire Wire Line
	8700 1300 8850 1300
Wire Wire Line
	12450 1300 12550 1300
Wire Wire Line
	14350 1500 14450 1500
Wire Wire Line
	10600 6700 10550 6700
Wire Wire Line
	10900 6700 10950 6700
Wire Wire Line
	7050 6800 7200 6800
$Comp
L V_IC:74ACT16373 IC14
U 1 1 6BA2D255
P 4850 3400
F 0 "IC14" H 5125 4900 67  0000 L BNN
F 1 "74ACT16373" H 5125 4825 42  0000 L BNN
F 2 "AllModules:SSOP48_1" H 4850 3400 50  0001 C CNN
F 3 "" H 4850 3400 50  0001 C CNN
F 4 "IC,16 BIT D TYPE 3STATE OP, LATCHES,SSOP" H 4850 3400 50  0001 C CNN "Description"
F 5 "10022705" H 4850 3400 50  0001 C CNN "Item Number"
F 6 "TEXAS INSTRUMENTS_RMS1" H 4850 3400 50  0001 C CNN "Manufacturer"
F 7 "74ACT16373DLR" H 4850 3400 50  0001 C CNN "Manufacturer_No"
F 8 "TEXAS INSTRUMENTS_RMS1" H 4850 3400 50  0001 C CNN "Manufacturer2"
F 9 "74ACT16373DL" H 4850 3400 50  0001 C CNN "Manufacturer_No2"
	1    4850 3400
	1    0    0    -1  
$EndComp
Wire Wire Line
	14450 1500 14450 1725
$Comp
L V_Power:+5V #0108
U 1 1 5EE04974
P 10950 6500
F 0 "#0108" H 11000 6550 50  0001 C CNN
F 1 "+5V" H 10850 6650 59  0000 L CNN
F 2 "" H 10950 6600 50  0001 C CNN
F 3 "" H 10950 6600 50  0001 C CNN
	1    10950 6500
	1    0    0    -1  
$EndComp
$Comp
L V_Power:+5V #U0122
U 1 1 5EE05419
P 14550 5200
F 0 "#U0122" H 14600 5250 50  0001 C CNN
F 1 "+5V" H 14450 5350 59  0000 L CNN
F 2 "" H 14550 5300 50  0001 C CNN
F 3 "" H 14550 5300 50  0001 C CNN
	1    14550 5200
	1    0    0    -1  
$EndComp
$Comp
L V_Power:+5V #U0123
U 1 1 5EE072C8
P 13600 3800
F 0 "#U0123" H 13650 3850 50  0001 C CNN
F 1 "+5V" H 13500 3950 59  0000 L CNN
F 2 "" H 13600 3900 50  0001 C CNN
F 3 "" H 13600 3900 50  0001 C CNN
	1    13600 3800
	1    0    0    -1  
$EndComp
$Comp
L V_Power:+5V #U0124
U 1 1 5EE09650
P 13200 2725
F 0 "#U0124" H 13250 2775 50  0001 C CNN
F 1 "+5V" H 13100 2875 59  0000 L CNN
F 2 "" H 13200 2825 50  0001 C CNN
F 3 "" H 13200 2825 50  0001 C CNN
	1    13200 2725
	1    0    0    -1  
$EndComp
$Comp
L V_Power:+5V #U0125
U 1 1 5EE0C600
P 12550 1100
F 0 "#U0125" H 12600 1150 50  0001 C CNN
F 1 "+5V" H 12450 1250 59  0000 L CNN
F 2 "" H 12550 1200 50  0001 C CNN
F 3 "" H 12550 1200 50  0001 C CNN
	1    12550 1100
	1    0    0    -1  
$EndComp
$Comp
L V_Power:+5V #U0126
U 1 1 5EE0E657
P 11250 1650
F 0 "#U0126" H 11300 1700 50  0001 C CNN
F 1 "+5V" H 11150 1800 59  0000 L CNN
F 2 "" H 11250 1750 50  0001 C CNN
F 3 "" H 11250 1750 50  0001 C CNN
	1    11250 1650
	1    0    0    -1  
$EndComp
$Comp
L V_Power:+5V #U0127
U 1 1 5EE104E9
P 8850 1200
F 0 "#U0127" H 8900 1250 50  0001 C CNN
F 1 "+5V" H 8750 1350 59  0000 L CNN
F 2 "" H 8850 1300 50  0001 C CNN
F 3 "" H 8850 1300 50  0001 C CNN
	1    8850 1200
	1    0    0    -1  
$EndComp
$Comp
L V_Power:+5V #U0128
U 1 1 5EE12F2B
P 8650 4900
F 0 "#U0128" H 8700 4950 50  0001 C CNN
F 1 "+5V" H 8550 5050 59  0000 L CNN
F 2 "" H 8650 5000 50  0001 C CNN
F 3 "" H 8650 5000 50  0001 C CNN
	1    8650 4900
	-1   0    0    1   
$EndComp
$Comp
L V_Power:+5V #U0129
U 1 1 5EE16449
P 3300 1350
F 0 "#U0129" H 3350 1400 50  0001 C CNN
F 1 "+5V" H 3200 1500 59  0000 L CNN
F 2 "" H 3300 1450 50  0001 C CNN
F 3 "" H 3300 1450 50  0001 C CNN
	1    3300 1350
	1    0    0    -1  
$EndComp
$Comp
L V_Power:+5V #U0130
U 1 1 5EE1904B
P 4750 1350
F 0 "#U0130" H 4800 1400 50  0001 C CNN
F 1 "+5V" H 4650 1500 59  0000 L CNN
F 2 "" H 4750 1450 50  0001 C CNN
F 3 "" H 4750 1450 50  0001 C CNN
	1    4750 1350
	1    0    0    -1  
$EndComp
$Comp
L V_Power:+5V #U0131
U 1 1 5EE1A3C8
P 2150 1350
F 0 "#U0131" H 2200 1400 50  0001 C CNN
F 1 "+5V" H 2050 1500 59  0000 L CNN
F 2 "" H 2150 1450 50  0001 C CNN
F 3 "" H 2150 1450 50  0001 C CNN
	1    2150 1350
	1    0    0    -1  
$EndComp
$Comp
L V_Power:GND #PWR0128
U 1 1 5EE1BDE6
P 1850 1350
F 0 "#PWR0128" H 2000 1300 50  0001 C CNN
F 1 "GND" H 1850 1200 50  0000 C CNN
F 2 "" H 1850 1250 50  0001 C CNN
F 3 "" H 1850 1250 50  0001 C CNN
	1    1850 1350
	-1   0    0    1   
$EndComp
$Comp
L V_Power:GND #PWR0129
U 1 1 5EE1C954
P 3000 1350
F 0 "#PWR0129" H 3150 1300 50  0001 C CNN
F 1 "GND" H 3000 1200 50  0000 C CNN
F 2 "" H 3000 1250 50  0001 C CNN
F 3 "" H 3000 1250 50  0001 C CNN
	1    3000 1350
	-1   0    0    1   
$EndComp
$Comp
L V_Power:GND #PWR0130
U 1 1 5EE1D1D0
P 3900 1350
F 0 "#PWR0130" H 4050 1300 50  0001 C CNN
F 1 "GND" H 3900 1200 50  0000 C CNN
F 2 "" H 3900 1250 50  0001 C CNN
F 3 "" H 3900 1250 50  0001 C CNN
	1    3900 1350
	-1   0    0    1   
$EndComp
$Comp
L V_Power:GND #PWR0131
U 1 1 5EE1E7F8
P 5450 1700
F 0 "#PWR0131" H 5600 1650 50  0001 C CNN
F 1 "GND" H 5450 1550 50  0000 C CNN
F 2 "" H 5450 1600 50  0001 C CNN
F 3 "" H 5450 1600 50  0001 C CNN
	1    5450 1700
	0    -1   -1   0   
$EndComp
$Comp
L V_Power:GND #PWR0132
U 1 1 5EE1FD76
P 4750 5050
F 0 "#PWR0132" H 4900 5000 50  0001 C CNN
F 1 "GND" H 4750 4900 50  0000 C CNN
F 2 "" H 4750 4950 50  0001 C CNN
F 3 "" H 4750 4950 50  0001 C CNN
	1    4750 5050
	1    0    0    -1  
$EndComp
$Comp
L V_Power:GND #PWR0133
U 1 1 5EE22962
P 11150 2250
F 0 "#PWR0133" H 11300 2200 50  0001 C CNN
F 1 "GND" H 11150 2100 50  0000 C CNN
F 2 "" H 11150 2150 50  0001 C CNN
F 3 "" H 11150 2150 50  0001 C CNN
	1    11150 2250
	0    1    1    0   
$EndComp
$Comp
L V_Power:GND #PWR0134
U 1 1 5EE26376
P 12100 1100
F 0 "#PWR0134" H 12250 1050 50  0001 C CNN
F 1 "GND" H 12100 950 50  0000 C CNN
F 2 "" H 12100 1000 50  0001 C CNN
F 3 "" H 12100 1000 50  0001 C CNN
	1    12100 1100
	-1   0    0    1   
$EndComp
$Comp
L V_Power:GND #PWR0135
U 1 1 5EE27BC7
P 14450 1725
F 0 "#PWR0135" H 14600 1675 50  0001 C CNN
F 1 "GND" H 14450 1575 50  0000 C CNN
F 2 "" H 14450 1625 50  0001 C CNN
F 3 "" H 14450 1625 50  0001 C CNN
	1    14450 1725
	0    -1   -1   0   
$EndComp
Connection ~ 14450 1725
Wire Wire Line
	14450 1725 14450 1950
$Comp
L V_Power:GND #PWR0136
U 1 1 5EE294F0
P 14400 4750
F 0 "#PWR0136" H 14550 4700 50  0001 C CNN
F 1 "GND" H 14400 4600 50  0000 C CNN
F 2 "" H 14400 4650 50  0001 C CNN
F 3 "" H 14400 4650 50  0001 C CNN
	1    14400 4750
	1    0    0    -1  
$EndComp
$Comp
L V_Power:+3,3V #0109
U 1 1 5EE2E5E0
P 14300 5200
F 0 "#0109" H 14350 5250 50  0001 C CNN
F 1 "+3,3V" H 14300 5380 59  0000 C CNN
F 2 "" H 14300 5200 50  0001 C CNN
F 3 "" H 14300 5200 50  0001 C CNN
	1    14300 5200
	1    0    0    -1  
$EndComp
$Comp
L V_Power:GND #PWR0137
U 1 1 5EE31D1E
P 11250 5350
F 0 "#PWR0137" H 11400 5300 50  0001 C CNN
F 1 "GND" H 11250 5200 50  0000 C CNN
F 2 "" H 11250 5250 50  0001 C CNN
F 3 "" H 11250 5250 50  0001 C CNN
	1    11250 5350
	1    0    0    -1  
$EndComp
$Comp
L V_Power:GND #PWR0138
U 1 1 5EE334AE
P 14250 6150
F 0 "#PWR0138" H 14400 6100 50  0001 C CNN
F 1 "GND" H 14250 6000 50  0000 C CNN
F 2 "" H 14250 6050 50  0001 C CNN
F 3 "" H 14250 6050 50  0001 C CNN
	1    14250 6150
	-1   0    0    1   
$EndComp
$Comp
L V_Power:GND #PWR0139
U 1 1 5EE3951E
P 10550 6500
F 0 "#PWR0139" H 10700 6450 50  0001 C CNN
F 1 "GND" H 10550 6350 50  0000 C CNN
F 2 "" H 10550 6400 50  0001 C CNN
F 3 "" H 10550 6400 50  0001 C CNN
	1    10550 6500
	-1   0    0    1   
$EndComp
$Comp
L V_Power:GND #PWR0140
U 1 1 5EE3A004
P 6600 6600
F 0 "#PWR0140" H 6750 6550 50  0001 C CNN
F 1 "GND" H 6600 6450 50  0000 C CNN
F 2 "" H 6600 6500 50  0001 C CNN
F 3 "" H 6600 6500 50  0001 C CNN
	1    6600 6600
	-1   0    0    1   
$EndComp
$Comp
L V_Power:+3,3V #0110
U 1 1 5EE3D8E6
P 7300 6600
F 0 "#0110" H 7350 6650 50  0001 C CNN
F 1 "+3,3V" H 7300 6780 59  0000 C CNN
F 2 "" H 7300 6600 50  0001 C CNN
F 3 "" H 7300 6600 50  0001 C CNN
	1    7300 6600
	1    0    0    -1  
$EndComp
$Comp
L V_Power:GND #PWR0141
U 1 1 5EE3E19F
P 3700 6700
F 0 "#PWR0141" H 3850 6650 50  0001 C CNN
F 1 "GND" H 3700 6550 50  0000 C CNN
F 2 "" H 3700 6600 50  0001 C CNN
F 3 "" H 3700 6600 50  0001 C CNN
	1    3700 6700
	-1   0    0    1   
$EndComp
$Comp
L V_Power:+3,3V #U0132
U 1 1 5EE4117A
P 4700 6650
F 0 "#U0132" H 4750 6700 50  0001 C CNN
F 1 "+3,3V" H 4700 6830 59  0000 C CNN
F 2 "" H 4700 6650 50  0001 C CNN
F 3 "" H 4700 6650 50  0001 C CNN
	1    4700 6650
	1    0    0    -1  
$EndComp
$Comp
L V_Power:+5V #0111
U 1 1 5EE44214
P 3300 6700
F 0 "#0111" H 3350 6750 50  0001 C CNN
F 1 "+5V" H 3200 6850 59  0000 L CNN
F 2 "" H 3300 6800 50  0001 C CNN
F 3 "" H 3300 6800 50  0001 C CNN
	1    3300 6700
	1    0    0    -1  
$EndComp
$Comp
L V_Power:+5V #U0133
U 1 1 5EE44FCF
P 2200 7500
F 0 "#U0133" H 2250 7550 50  0001 C CNN
F 1 "+5V" H 2100 7650 59  0000 L CNN
F 2 "" H 2200 7600 50  0001 C CNN
F 3 "" H 2200 7600 50  0001 C CNN
	1    2200 7500
	1    0    0    -1  
$EndComp
$Comp
L V_Power:GND #PWR0142
U 1 1 5EE46E18
P 1900 7500
F 0 "#PWR0142" H 2050 7450 50  0001 C CNN
F 1 "GND" H 1900 7350 50  0000 C CNN
F 2 "" H 1900 7400 50  0001 C CNN
F 3 "" H 1900 7400 50  0001 C CNN
	1    1900 7500
	-1   0    0    1   
$EndComp
$Comp
L V_Power:GND #PWR0143
U 1 1 5EE48C7D
P 2850 9500
F 0 "#PWR0143" H 3000 9450 50  0001 C CNN
F 1 "GND" H 2850 9350 50  0000 C CNN
F 2 "" H 2850 9400 50  0001 C CNN
F 3 "" H 2850 9400 50  0001 C CNN
	1    2850 9500
	1    0    0    -1  
$EndComp
$Comp
L V_Power:GND #PWR0144
U 1 1 5EE4A9FF
P 4600 10050
F 0 "#PWR0144" H 4750 10000 50  0001 C CNN
F 1 "GND" H 4600 9900 50  0000 C CNN
F 2 "" H 4600 9950 50  0001 C CNN
F 3 "" H 4600 9950 50  0001 C CNN
	1    4600 10050
	1    0    0    -1  
$EndComp
$Comp
L V_Power:GND #PWR0145
U 1 1 5EE4C655
P 7800 10200
F 0 "#PWR0145" H 7950 10150 50  0001 C CNN
F 1 "GND" H 7800 10050 50  0000 C CNN
F 2 "" H 7800 10100 50  0001 C CNN
F 3 "" H 7800 10100 50  0001 C CNN
	1    7800 10200
	1    0    0    -1  
$EndComp
$Comp
L V_Power:+3,3V #U0134
U 1 1 5EE4FFAB
P 6050 9000
F 0 "#U0134" H 6100 9050 50  0001 C CNN
F 1 "+3,3V" V 6150 9225 59  0000 R CNN
F 2 "" H 6050 9000 50  0001 C CNN
F 3 "" H 6050 9000 50  0001 C CNN
	1    6050 9000
	0    -1   -1   0   
$EndComp
$Comp
L V_Power:+3,3V #U0135
U 1 1 5EE533E1
P 6050 10500
F 0 "#U0135" H 6100 10550 50  0001 C CNN
F 1 "+3,3V" V 6150 10725 59  0000 R CNN
F 2 "" H 6050 10500 50  0001 C CNN
F 3 "" H 6050 10500 50  0001 C CNN
	1    6050 10500
	0    -1   -1   0   
$EndComp
$Comp
L V_Power:GND #PWR0146
U 1 1 5EE5B1B3
P 8250 1200
F 0 "#PWR0146" H 8400 1150 50  0001 C CNN
F 1 "GND" H 8250 1050 50  0000 C CNN
F 2 "" H 8250 1100 50  0001 C CNN
F 3 "" H 8250 1100 50  0001 C CNN
	1    8250 1200
	-1   0    0    1   
$EndComp
Wire Bus Line
	11250 2600 11250 2950
Wire Bus Line
	2800 7550 2800 8400
Wire Bus Line
	11250 3100 11250 4300
Wire Bus Line
	9750 2050 9750 3750
Wire Bus Line
	3800 2650 3800 4350
Wire Bus Line
	7450 1500 7450 3550
$EndSCHEMATC
