EESchema Schematic File Version 4
EELAYER 30 0
EELAYER END
$Descr User 17335 11946
encoding utf-8
Sheet 3 8
Title "RB0505 CPU Board"
Date "2020-04-15"
Rev ""
Comp ""
Comment1 ""
Comment2 ""
Comment3 ""
Comment4 ""
$EndDescr
Wire Wire Line
	13350 2550 13350 2650
Wire Wire Line
	13350 2650 13350 2700
Wire Wire Line
	13350 2650 12850 2650
Wire Wire Line
	12850 2650 12850 2150
Connection ~ 13350 2650
Wire Wire Line
	10650 2125 10650 2225
Wire Wire Line
	10650 2225 10650 2325
Wire Wire Line
	10650 2325 10650 2425
Connection ~ 10650 2425
Connection ~ 10650 2325
Connection ~ 10650 2225
Text HLabel 4850 1900 2    56   Output ~ 0
PRES-INT
Text HLabel 4850 3700 2    56   Output ~ 0
P_VALVE
Text HLabel 4850 5550 2    56   Output ~ 0
PRES-PROX
Text HLabel 7050 4150 0    56   Input ~ 0
CE\-INT-PRES-SENS
Text HLabel 7050 4050 0    56   Input ~ 0
SCLK-SPI-0
Text HLabel 10950 6000 0    56   Input ~ 0
SCLK-SPI-0
Text HLabel 7050 2450 0    56   Output ~ 0
MRST-SPI-0_E
Text HLabel 10950 4400 0    56   Output ~ 0
MRST-SPI-0_E
Text HLabel 7050 4250 0    56   Input ~ 0
MTSR-SPI-0
Text HLabel 10950 6200 0    56   Input ~ 0
MTSR-SPI-0
Text Label 7050 2350 2    56   ~ 0
INT-PRES-MEAS
Wire Wire Line
	3950 2763 4387 2763
Text Label 4387 2763 0    56   ~ 0
INT-PRES-MEAS
Wire Wire Line
	3950 6300 3950 6400
Text Label 7050 8450 2    56   ~ 0
VALVE-PRES-MEAS
Text HLabel 7050 10250 0    56   Input ~ 0
CE\-VALV-PRES-SENS
Text HLabel 11600 2050 2    56   Output ~ 0
QI-MEAS
Text HLabel 14900 2050 2    70   Output ~ 0
MES_Q_E
Text HLabel 10950 6100 0    56   Input ~ 0
CE\-FLOW-INSP-SENS
Text HLabel 13400 6100 0    56   Input ~ 0
CE\-FLOW-EXP-SENS
$Comp
L V_Capacitor:C0805_220nF_25V_10% C65
U 1 1 6EB094ED
P 1500 3350
F 0 "C65" H 1219 3350 64  0000 L BNN
F 1 "220nF" H 1213 3281 42  0000 L BNN
F 2 "AllModules:C0805_1" H 1500 3350 50  0001 C CNN
F 3 "" H 1500 3350 50  0001 C CNN
F 4 "CAP CERAMIC,220NF,25V,X7R,+/-10%,0805" H 1500 3350 50  0001 C CNN "Description"
F 5 "10022968" H 1500 3350 50  0001 C CNN "Item Number"
F 6 "AVX_RMS1" H 1500 3350 50  0001 C CNN "Manufacturer"
F 7 "08053C224KAZ2A" H 1500 3350 50  0001 C CNN "Manufacturer_No"
F 8 "KEMET_RMS1" H 1500 3350 50  0001 C CNN "Manufacturer2"
F 9 "C0805C224K3RAC" H 1500 3350 50  0001 C CNN "Manufacturer_No2"
F 10 "AVX_RMS1" H 1500 3350 50  0001 C CNN "Manufacturer3"
F 11 "08053C224KAT2A" H 1500 3350 50  0001 C CNN "Manufacturer_No3"
	1    1500 3350
	1    0    0    -1  
$EndComp
$Comp
L V_Resistor:R_4k7_5% R34
U 1 1 EFB8A895
P 4400 1900
F 0 "R34" H 4300 2050 64  0000 L BNN
F 1 "4.7k" H 4300 1975 42  0000 L BNN
F 2 "AllModules:R0603_1" H 4400 1900 50  0001 C CNN
F 3 "" H 4400 1900 50  0001 C CNN
F 4 "RESISTOR, 4.7 K OHM, 0.063W +/-5%" H 4400 1900 50  0001 C CNN "Description"
F 5 "10022617" H 4400 1900 50  0001 C CNN "Item Number"
F 6 "BOURNS_RMS1" H 4400 1900 50  0001 C CNN "Manufacturer"
F 7 "CR0603-FX-4701ELF " H 4400 1900 50  0001 C CNN "Manufacturer_No"
F 8 "YAGEO_RMS1" H 4400 1900 50  0001 C CNN "Manufacturer2"
F 9 "RC0603JR-074K7L" H 4400 1900 50  0001 C CNN "Manufacturer_No2"
F 10 "YAGEO_RMS1" H 4400 1900 50  0001 C CNN "Manufacturer3"
F 11 "RC0603JR-074K7L" H 4400 1900 50  0001 C CNN "Manufacturer_No3"
	1    4400 1900
	1    0    0    -1  
$EndComp
$Comp
L V_Capacitor:C0402_100nF_16V_10% C63
U 1 1 2FAB5BC8
P 4650 2150
F 0 "C63" H 4750 2100 64  0000 L CNN
F 1 "100nF" H 4750 2175 42  0000 L CNN
F 2 "AllModules:C0402_1" H 4650 2150 50  0001 C CNN
F 3 "" H 4650 2150 50  0001 C CNN
F 4 "CAPACITOR,100NF,16V,+/-10%,X7R,0402" H 4650 2150 50  0001 C CNN "Description"
F 5 "10022607" H 4650 2150 50  0001 C CNN "Item Number"
F 6 "MURATA" H 4650 2150 50  0001 C CNN "Manufacturer"
F 7 "GRM155R71C104JA88J" H 4650 2150 50  0001 C CNN "Manufacturer_No"
F 8 "YAGEO_RMS1" H 4650 2150 50  0001 C CNN "Manufacturer2"
F 9 "CC0402KRX7R7BB104" H 4650 2150 50  0001 C CNN "Manufacturer_No2"
F 10 "YAGEO_RMS1" H 4650 2150 50  0001 C CNN "Manufacturer3"
F 11 "CC0402KRX7R7BB104" H 4650 2150 50  0001 C CNN "Manufacturer_No3"
F 12 "MURATA MANUFACTURING CO., LTD." H 4650 2150 50  0001 C CNN "Manufacturer4"
F 13 "GRM155R71C104KA88D" H 4650 2150 50  0001 C CNN "Manufacturer_No4"
	1    4650 2150
	1    0    0    1   
$EndComp
$Comp
L V_Power:0VANA #U$0130
U 1 1 A92F6304
P 4650 2350
F 0 "#U$0130" H 4650 2350 50  0001 C CNN
F 1 "0VANA" H 4537 2175 59  0000 L BNN
F 2 "" H 4650 2350 50  0001 C CNN
F 3 "" H 4650 2350 50  0001 C CNN
	1    4650 2350
	1    0    0    -1  
$EndComp
$Comp
L V_Capacitor:C0603_4n7F_50V_10% C64
U 1 1 680B2917
P 3550 2100
F 0 "C64" H 3650 2075 64  0000 L CNN
F 1 "4.7nF" H 3650 2150 42  0000 L CNN
F 2 "AllModules:C0603_1" H 3550 2100 50  0001 C CNN
F 3 "" H 3550 2100 50  0001 C CNN
F 4 "CAPACITOR CERAMIC,4.7NF,+/-10%,50V,0603" H 3550 2100 50  0001 C CNN "Description"
F 5 "10022613" H 3550 2100 50  0001 C CNN "Item Number"
F 6 "KEMET_RMS1" H 3550 2100 50  0001 C CNN "Manufacturer"
F 7 "C0603C472K5RACTU" H 3550 2100 50  0001 C CNN "Manufacturer_No"
F 8 "YAGEO_RMS1" H 3550 2100 50  0001 C CNN "Manufacturer2"
F 9 "CC0603KRX7R9BB472" H 3550 2100 50  0001 C CNN "Manufacturer_No2"
	1    3550 2100
	1    0    0    1   
$EndComp
$Comp
L V_Power:0VANA #U$0169
U 1 1 960C894E
P 1500 2575
F 0 "#U$0169" H 1500 2575 50  0001 C CNN
F 1 "0VANA" H 1413 2388 59  0000 L BNN
F 2 "" H 1500 2575 50  0001 C CNN
F 3 "" H 1500 2575 50  0001 C CNN
	1    1500 2575
	1    0    0    -1  
$EndComp
$Comp
L V_Resistor:R_4k7_5% R38
U 1 1 6C0A03D3
P 4300 3700
F 0 "R38" H 4225 3850 64  0000 L BNN
F 1 "4.7k" H 4237 3775 42  0000 L BNN
F 2 "AllModules:R0603_1" H 4300 3700 50  0001 C CNN
F 3 "" H 4300 3700 50  0001 C CNN
F 4 "RESISTOR, 4.7 K OHM, 0.063W +/-5%" H 4300 3700 50  0001 C CNN "Description"
F 5 "10022617" H 4300 3700 50  0001 C CNN "Item Number"
F 6 "BOURNS_RMS1" H 4300 3700 50  0001 C CNN "Manufacturer"
F 7 "CR0603-FX-4701ELF " H 4300 3700 50  0001 C CNN "Manufacturer_No"
F 8 "YAGEO_RMS1" H 4300 3700 50  0001 C CNN "Manufacturer2"
F 9 "RC0603JR-074K7L" H 4300 3700 50  0001 C CNN "Manufacturer_No2"
F 10 "YAGEO_RMS1" H 4300 3700 50  0001 C CNN "Manufacturer3"
F 11 "RC0603JR-074K7L" H 4300 3700 50  0001 C CNN "Manufacturer_No3"
	1    4300 3700
	1    0    0    -1  
$EndComp
$Comp
L V_Capacitor:C0603_4n7F_50V_10% C71
U 1 1 13BC9B95
P 3550 3900
F 0 "C71" H 3650 3850 64  0000 L CNN
F 1 "4.7nF" H 3650 3925 42  0000 L CNN
F 2 "AllModules:C0603_1" H 3550 3900 50  0001 C CNN
F 3 "" H 3550 3900 50  0001 C CNN
F 4 "CAPACITOR CERAMIC,4.7NF,+/-10%,50V,0603" H 3550 3900 50  0001 C CNN "Description"
F 5 "10022613" H 3550 3900 50  0001 C CNN "Item Number"
F 6 "KEMET_RMS1" H 3550 3900 50  0001 C CNN "Manufacturer"
F 7 "C0603C472K5RACTU" H 3550 3900 50  0001 C CNN "Manufacturer_No"
F 8 "YAGEO_RMS1" H 3550 3900 50  0001 C CNN "Manufacturer2"
F 9 "CC0603KRX7R9BB472" H 3550 3900 50  0001 C CNN "Manufacturer_No2"
	1    3550 3900
	1    0    0    1   
$EndComp
$Comp
L V_IC:ASDX_10023117 IC18
U 1 1 CEEB9070
P 2550 3800
F 0 "IC18" H 2538 4363 85  0000 C CNN
F 1 "ASDX001D44R-SQ04689" H 2538 4263 55  0000 C CNN
F 2 "AllModules:ASDX001D44R_1" H 2550 3800 50  0001 C CNN
F 3 "" H 2550 3800 50  0001 C CNN
F 4 "IC, PRESSURE TRANSDUCER,(-10/+100 MBAR)" H 2550 3800 50  0001 C CNN "Description"
F 5 "10023117" H 2550 3800 50  0001 C CNN "Item Number"
F 6 "SENSYM_RMS1 / honeywell" H 2550 3800 50  0001 C CNN "Manufacturer"
F 7 "ASDX001D44R" H 2550 3800 50  0001 C CNN "Manufacturer_No"
F 8 "First Sensor" H 2550 3800 50  0001 C CNN "Manufacturer2"
F 9 "SQ274-P001BDM8C5" H 2550 3800 50  0001 C CNN "Manufacturer_No2"
F 10 "HONEYWELL_RMS1" H 0   0   50  0001 C CNN "Manufacturer3"
F 11 "XZ209766-ASDX" H 0   0   50  0001 C CNN "Manufacturer_No3"
	1    2550 3800
	1    0    0    -1  
$EndComp
$Comp
L V_Power:0VANA #U$059
U 1 1 072A72F1
P 7550 2050
F 0 "#U$059" H 7550 2050 50  0001 C CNN
F 1 "0VANA" H 7437 1887 59  0000 L BNN
F 2 "" H 7550 2050 50  0001 C CNN
F 3 "" H 7550 2050 50  0001 C CNN
	1    7550 2050
	-1   0    0    1   
$EndComp
$Comp
L V_Capacitor:C0402_100nF_16V_10% C40
U 1 1 001A6BB2
P 7800 2350
F 0 "C40" V 8038 2256 64  0000 L BNN
F 1 "DNP" V 7944 2238 42  0000 L BNN
F 2 "AllModules:C0402_1" H 7800 2350 50  0001 C CNN
F 3 "" H 7800 2350 50  0001 C CNN
F 4 "10022607" V 7800 2350 50  0001 C CNN "Item Number"
F 5 "CAPACITOR,100NF,16V,+/-10%,X7R,0402" H 0   0   50  0001 C CNN "Description"
F 6 "MURATA" H 0   0   50  0001 C CNN "Manufacturer"
F 7 "YAGEO_RMS1" H 0   0   50  0001 C CNN "Manufacturer2"
F 8 "YAGEO_RMS1" H 0   0   50  0001 C CNN "Manufacturer3"
F 9 "GRM155R71C104JA88J" H 0   0   50  0001 C CNN "Manufacturer_No"
F 10 "CC0402KRX7R7BB104" H 0   0   50  0001 C CNN "Manufacturer_No2"
F 11 "CC0402KRX7R7BB104" H 0   0   50  0001 C CNN "Manufacturer_No3"
	1    7800 2350
	0    1    -1   0   
$EndComp
$Comp
L V_Jumper:JUMP_0U JP2
U 1 1 BAFA783C
P 3950 2450
F 0 "JP2" V 3988 2525 51  0000 L BNN
F 1 "JUMP_0U" H 3850 2300 51  0001 L BNN
F 2 "AllModules:R0603_1" H 3950 2450 50  0001 C CNN
F 3 "" H 3950 2450 50  0001 C CNN
F 4 "RESISTANCE, 0 OHM,0603" H 0   0   50  0001 C CNN "Description"
F 5 "10023185" H 0   0   50  0001 C CNN "Item Number"
F 6 "YAGEO_RMS1" H 0   0   50  0001 C CNN "Manufacturer"
F 7 "YAGEO_RMS1" H 0   0   50  0001 C CNN "Manufacturer2"
F 8 "YAGEO_RMS1" H 0   0   50  0001 C CNN "Manufacturer3"
F 9 "RC0603JR-070RL" H 0   0   50  0001 C CNN "Manufacturer_No"
F 10 "RC0603JR-070RL" H 0   0   50  0001 C CNN "Manufacturer_No2"
F 11 "RC0603JR-070RL" H 0   0   50  0001 C CNN "Manufacturer_No3"
	1    3950 2450
	0    -1   -1   0   
$EndComp
$Comp
L V_IC:SQ276 IC28
U 1 1 9F4013D5
P 7550 9550
F 0 "IC28" V 8125 9387 73  0000 R BNN
F 1 "DNP" V 8025 9387 59  0000 R BNN
F 2 "AllModules:SQ276-05856_1" H 7550 9550 50  0001 C CNN
F 3 "" H 7550 9550 50  0001 C CNN
F 4 "First Sensor" H 0   0   50  0001 C CNN "Manufacturer"
F 5 "SQ276" H 0   0   50  0001 C CNN "Manufacturer_No"
	1    7550 9550
	0    -1   -1   0   
$EndComp
$Comp
L V_Power:0VANA #U$0171
U 1 1 1AC4EF2D
P 7550 8150
F 0 "#U$0171" H 7550 8150 50  0001 C CNN
F 1 "0VANA" H 7437 7987 59  0000 L BNN
F 2 "" H 7550 8150 50  0001 C CNN
F 3 "" H 7550 8150 50  0001 C CNN
	1    7550 8150
	-1   0    0    1   
$EndComp
$Comp
L V_Capacitor:C0402_100nF_16V_10% C48
U 1 1 8B0D254A
P 7800 8450
F 0 "C48" V 8025 8357 64  0000 L BNN
F 1 "DNP" V 7943 8338 42  0000 L BNN
F 2 "AllModules:C0402_1" H 7800 8450 50  0001 C CNN
F 3 "" H 7800 8450 50  0001 C CNN
F 4 "10022607" V 7800 8450 50  0001 C CNN "Item Number"
F 5 "CAPACITOR,100NF,16V,+/-10%,X7R,0402" H 0   0   50  0001 C CNN "Description"
F 6 "MURATA" H 0   0   50  0001 C CNN "Manufacturer"
F 7 "YAGEO_RMS1" H 0   0   50  0001 C CNN "Manufacturer2"
F 8 "YAGEO_RMS1" H 0   0   50  0001 C CNN "Manufacturer3"
F 9 "GRM155R71C104JA88J" H 0   0   50  0001 C CNN "Manufacturer_No"
F 10 "CC0402KRX7R7BB104" H 0   0   50  0001 C CNN "Manufacturer_No2"
F 11 "CC0402KRX7R7BB104" H 0   0   50  0001 C CNN "Manufacturer_No3"
	1    7800 8450
	0    1    -1   0   
$EndComp
$Comp
L V_Power:0VANA #U$0276
U 1 1 A87F6502
P 7550 5100
F 0 "#U$0276" H 7550 5100 50  0001 C CNN
F 1 "0VANA" H 7412 4925 59  0000 L BNN
F 2 "" H 7550 5100 50  0001 C CNN
F 3 "" H 7550 5100 50  0001 C CNN
	1    7550 5100
	-1   0    0    1   
$EndComp
$Comp
L V_Jumper:JUMP_0U JP3
U 1 1 8182258E
P 3950 4250
F 0 "JP3" V 3975 4338 51  0000 L BNN
F 1 "JUMP_0U" H 3850 4100 51  0001 L BNN
F 2 "AllModules:R0603_1" H 3950 4250 50  0001 C CNN
F 3 "" H 3950 4250 50  0001 C CNN
F 4 "RESISTANCE, 0 OHM,0603" H 0   0   50  0001 C CNN "Description"
F 5 "10023185" H 0   0   50  0001 C CNN "Item Number"
F 6 "YAGEO_RMS1" H 0   0   50  0001 C CNN "Manufacturer"
F 7 "YAGEO_RMS1" H 0   0   50  0001 C CNN "Manufacturer2"
F 8 "YAGEO_RMS1" H 0   0   50  0001 C CNN "Manufacturer3"
F 9 "RC0603JR-070RL" H 0   0   50  0001 C CNN "Manufacturer_No"
F 10 "RC0603JR-070RL" H 0   0   50  0001 C CNN "Manufacturer_No2"
F 11 "RC0603JR-070RL" H 0   0   50  0001 C CNN "Manufacturer_No3"
	1    3950 4250
	0    -1   -1   0   
$EndComp
$Comp
L V_Jumper:JUMP_0U JP4
U 1 1 193933AB
P 3950 6100
F 0 "JP4" V 3987 6188 51  0000 L BNN
F 1 "JUMP_0U" H 3850 5950 51  0001 L BNN
F 2 "AllModules:R0603_1" H 3950 6100 50  0001 C CNN
F 3 "" H 3950 6100 50  0001 C CNN
F 4 "RESISTANCE, 0 OHM,0603" H 0   0   50  0001 C CNN "Description"
F 5 "10023185" H 0   0   50  0001 C CNN "Item Number"
F 6 "YAGEO_RMS1" H 0   0   50  0001 C CNN "Manufacturer"
F 7 "YAGEO_RMS1" H 0   0   50  0001 C CNN "Manufacturer2"
F 8 "YAGEO_RMS1" H 0   0   50  0001 C CNN "Manufacturer3"
F 9 "RC0603JR-070RL" H 0   0   50  0001 C CNN "Manufacturer_No"
F 10 "RC0603JR-070RL" H 0   0   50  0001 C CNN "Manufacturer_No2"
F 11 "RC0603JR-070RL" H 0   0   50  0001 C CNN "Manufacturer_No3"
	1    3950 6100
	0    -1   -1   0   
$EndComp
$Comp
L V_Capacitor:C0402_100nF_16V_10% C60
U 1 1 74AE98EE
P 11450 2300
F 0 "C60" H 11550 2250 64  0000 L CNN
F 1 "100nF" H 11550 2350 42  0000 L CNN
F 2 "AllModules:C0402_1" H 11450 2300 50  0001 C CNN
F 3 "" H 11450 2300 50  0001 C CNN
F 4 "CAPACITOR,100NF,16V,+/-10%,X7R,0402" H 11450 2300 50  0001 C CNN "Description"
F 5 "10022607" H 11450 2300 50  0001 C CNN "Item Number"
F 6 "MURATA" H 11450 2300 50  0001 C CNN "Manufacturer"
F 7 "GRM155R71C104JA88J" H 11450 2300 50  0001 C CNN "Manufacturer_No"
F 8 "YAGEO_RMS1" H 11450 2300 50  0001 C CNN "Manufacturer2"
F 9 "CC0402KRX7R7BB104" H 11450 2300 50  0001 C CNN "Manufacturer_No2"
F 10 "YAGEO_RMS1" H 11450 2300 50  0001 C CNN "Manufacturer3"
F 11 "CC0402KRX7R7BB104" H 11450 2300 50  0001 C CNN "Manufacturer_No3"
	1    11450 2300
	1    0    0    1   
$EndComp
$Comp
L V_Power:0VANA #U$076
U 1 1 299EB625
P 11450 2450
F 0 "#U$076" H 11450 2450 50  0001 C CNN
F 1 "0VANA" H 11350 2275 59  0000 L BNN
F 2 "" H 11450 2450 50  0001 C CNN
F 3 "" H 11450 2450 50  0001 C CNN
	1    11450 2450
	1    0    0    -1  
$EndComp
$Comp
L V_Power:0VANA #U$096
U 1 1 5F4A551C
P 10050 2700
F 0 "#U$096" H 10050 2700 50  0001 C CNN
F 1 "0VANA" H 9963 2513 59  0000 L BNN
F 2 "" H 10050 2700 50  0001 C CNN
F 3 "" H 10050 2700 50  0001 C CNN
	1    10050 2700
	1    0    0    -1  
$EndComp
$Comp
L V_Capacitor:C0603_4n7F_50V_10% C61
U 1 1 4189E79D
P 10900 2300
F 0 "C61" H 11000 2250 64  0000 L CNN
F 1 "4.7nF" H 11000 2350 42  0000 L CNN
F 2 "AllModules:C0603_1" H 10900 2300 50  0001 C CNN
F 3 "" H 10900 2300 50  0001 C CNN
F 4 "CAPACITOR CERAMIC,4.7NF,+/-10%,50V,0603" H 10900 2300 50  0001 C CNN "Description"
F 5 "10022613" H 10900 2300 50  0001 C CNN "Item Number"
F 6 "KEMET_RMS1" H 10900 2300 50  0001 C CNN "Manufacturer"
F 7 "C0603C472K5RACTU" H 10900 2300 50  0001 C CNN "Manufacturer_No"
F 8 "YAGEO_RMS1" H 10900 2300 50  0001 C CNN "Manufacturer2"
F 9 "CC0603KRX7R9BB472" H 10900 2300 50  0001 C CNN "Manufacturer_No2"
	1    10900 2300
	1    0    0    1   
$EndComp
$Comp
L V_Capacitor:C0805_100nF_50V_10% C62
U 1 1 3872CC01
P 9500 2050
F 0 "C62" H 9400 2000 64  0000 R CNN
F 1 "100nF" H 9400 2100 42  0000 R CNN
F 2 "AllModules:C0805_1" H 9500 2050 50  0001 C CNN
F 3 "" H 9500 2050 50  0001 C CNN
F 4 "CAPACITOR CERAMIC, 100NF, +/-10%, 50V, X7R,0805" H 9500 2050 50  0001 C CNN "Description"
F 5 "10022135" H 9500 2050 50  0001 C CNN "Item Number"
F 6 "YAGEO_RMS1" H 9500 2050 50  0001 C CNN "Manufacturer"
F 7 "CC0805KRX7R9BB104" H 9500 2050 50  0001 C CNN "Manufacturer_No"
F 8 "MURATA MANUFACTURING CO., LTD." H 9500 2050 50  0001 C CNN "Manufacturer2"
F 9 "GRM21BR71H104KA01L" H 9500 2050 50  0001 C CNN "Manufacturer_No2"
F 10 "YAGEO_RMS1" H 9500 2050 50  0001 C CNN "Manufacturer3"
F 11 "CC0805KRX7R9BB104" H 9500 2050 50  0001 C CNN "Manufacturer_No3"
	1    9500 2050
	1    0    0    1   
$EndComp
$Comp
L V_IC:AWM3300V IC15
U 1 1 90D2B56F
P 10050 2050
F 0 "IC15" H 10088 2538 73  0000 L BNN
F 1 "AWM3300V" H 10075 2475 45  0000 L BNN
F 2 "AllModules:AWM3300V" H 10050 2050 50  0001 C CNN
F 3 "" H 10050 2050 50  0001 C CNN
F 4 "IC AIR FLOW SENSOR,(0-1 LITRE)" H 10050 2050 50  0001 C CNN "Description"
F 5 "10022706" H 10050 2050 50  0001 C CNN "Item Number"
F 6 "HONEYWELL_RMS1" H 10050 2050 50  0001 C CNN "Manufacturer"
F 7 "AWM3300V" H 10050 2050 50  0001 C CNN "Manufacturer_No"
F 8 "HONEYWELL_RMS1" H 10050 2050 50  0001 C CNN "Manufacturer2"
F 9 "FBAL001DU" H 10050 2050 50  0001 C CNN "Manufacturer_No2"
F 10 "First Sensor" H 0   0   50  0001 C CNN "Manufacturer3"
F 11 "WBAL001DU" H 0   0   50  0001 C CNN "Manufacturer_No3"
	1    10050 2050
	1    0    0    -1  
$EndComp
$Comp
L V_Resistor:R_4k7_5% R37
U 1 1 11FD54D7
P 14550 2050
F 0 "R37" H 14485 2188 64  0000 L BNN
F 1 "4.7k" H 14487 2125 42  0000 L BNN
F 2 "AllModules:R0603_1" H 14550 2050 50  0001 C CNN
F 3 "" H 14550 2050 50  0001 C CNN
F 4 "RESISTOR, 4.7 K OHM, 0.063W +/-5%" H 14550 2050 50  0001 C CNN "Description"
F 5 "10022617" H 14550 2050 50  0001 C CNN "Item Number"
F 6 "BOURNS_RMS1" H 14550 2050 50  0001 C CNN "Manufacturer"
F 7 "CR0603-FX-4701ELF " H 14550 2050 50  0001 C CNN "Manufacturer_No"
F 8 "YAGEO_RMS1" H 14550 2050 50  0001 C CNN "Manufacturer2"
F 9 "RC0603JR-074K7L" H 14550 2050 50  0001 C CNN "Manufacturer_No2"
F 10 "YAGEO_RMS1" H 14550 2050 50  0001 C CNN "Manufacturer3"
F 11 "RC0603JR-074K7L" H 14550 2050 50  0001 C CNN "Manufacturer_No3"
	1    14550 2050
	1    0    0    -1  
$EndComp
$Comp
L V_Capacitor:C0402_100nF_16V_10% C66
U 1 1 5B12AA4C
P 14750 2250
F 0 "C66" H 14850 2250 64  0000 L CNN
F 1 "100nF" H 14850 2350 42  0000 L CNN
F 2 "AllModules:C0402_1" H 14750 2250 50  0001 C CNN
F 3 "" H 14750 2250 50  0001 C CNN
F 4 "CAPACITOR,100NF,16V,+/-10%,X7R,0402" H 14750 2250 50  0001 C CNN "Description"
F 5 "10022607" H 14750 2250 50  0001 C CNN "Item Number"
F 6 "MURATA" H 14750 2250 50  0001 C CNN "Manufacturer"
F 7 "GRM155R71C104JA88J" H 14750 2250 50  0001 C CNN "Manufacturer_No"
F 8 "YAGEO_RMS1" H 14750 2250 50  0001 C CNN "Manufacturer2"
F 9 "CC0402KRX7R7BB104" H 14750 2250 50  0001 C CNN "Manufacturer_No2"
F 10 "YAGEO_RMS1" H 14750 2250 50  0001 C CNN "Manufacturer3"
F 11 "CC0402KRX7R7BB104" H 14750 2250 50  0001 C CNN "Manufacturer_No3"
	1    14750 2250
	1    0    0    1   
$EndComp
$Comp
L V_Power:0VANA #U$0104
U 1 1 891FCEC7
P 14750 2450
F 0 "#U$0104" H 14750 2450 50  0001 C CNN
F 1 "0VANA" H 14662 2262 59  0000 L BNN
F 2 "" H 14750 2450 50  0001 C CNN
F 3 "" H 14750 2450 50  0001 C CNN
	1    14750 2450
	1    0    0    -1  
$EndComp
$Comp
L V_Power:0VANA #U$0105
U 1 1 BED1FF17
P 13350 2700
F 0 "#U$0105" H 13350 2700 50  0001 C CNN
F 1 "0VANA" H 13262 2512 59  0000 L BNN
F 2 "" H 13350 2700 50  0001 C CNN
F 3 "" H 13350 2700 50  0001 C CNN
	1    13350 2700
	1    0    0    -1  
$EndComp
$Comp
L V_Capacitor:C0603_4n7F_50V_10% C68
U 1 1 F44D85A5
P 14200 2300
F 0 "C68" H 14295 2278 64  0000 L CNN
F 1 "4.7nF" H 14300 2350 42  0000 L CNN
F 2 "AllModules:C0603_1" H 14200 2300 50  0001 C CNN
F 3 "" H 14200 2300 50  0001 C CNN
F 4 "CAPACITOR CERAMIC,4.7NF,+/-10%,50V,0603" H 14200 2300 50  0001 C CNN "Description"
F 5 "10022613" H 14200 2300 50  0001 C CNN "Item Number"
F 6 "KEMET_RMS1" H 14200 2300 50  0001 C CNN "Manufacturer"
F 7 "C0603C472K5RACTU" H 14200 2300 50  0001 C CNN "Manufacturer_No"
F 8 "YAGEO_RMS1" H 14200 2300 50  0001 C CNN "Manufacturer2"
F 9 "CC0603KRX7R9BB472" H 14200 2300 50  0001 C CNN "Manufacturer_No2"
	1    14200 2300
	1    0    0    1   
$EndComp
$Comp
L V_Capacitor:C0805_100nF_50V_10% C69
U 1 1 1015ED7D
P 12850 2000
F 0 "C69" H 12550 1950 64  0000 L CNN
F 1 "100nF" H 12550 2050 42  0000 L CNN
F 2 "AllModules:C0805_1" H 12850 2000 50  0001 C CNN
F 3 "" H 12850 2000 50  0001 C CNN
F 4 "CAPACITOR CERAMIC, 100NF, +/-10%, 50V, X7R,0805" H 12850 2000 50  0001 C CNN "Description"
F 5 "10022135" H 12850 2000 50  0001 C CNN "Item Number"
F 6 "YAGEO_RMS1" H 12850 2000 50  0001 C CNN "Manufacturer"
F 7 "CC0805KRX7R9BB104" H 12850 2000 50  0001 C CNN "Manufacturer_No"
F 8 "MURATA MANUFACTURING CO., LTD." H 12850 2000 50  0001 C CNN "Manufacturer2"
F 9 "GRM21BR71H104KA01L" H 12850 2000 50  0001 C CNN "Manufacturer_No2"
F 10 "YAGEO_RMS1" H 12850 2000 50  0001 C CNN "Manufacturer3"
F 11 "CC0805KRX7R9BB104" H 12850 2000 50  0001 C CNN "Manufacturer_No3"
	1    12850 2000
	1    0    0    1   
$EndComp
$Comp
L V_IC:AWM3300V IC17
U 1 1 93EF86A4
P 13350 2050
F 0 "IC17" H 13400 2575 73  0000 L BNN
F 1 "AWM3300V" H 13400 2500 45  0000 L BNN
F 2 "AllModules:AWM3300V" H 13350 2050 50  0001 C CNN
F 3 "" H 13350 2050 50  0001 C CNN
F 4 "IC AIR FLOW SENSOR,(0-1 LITRE)" H 13350 2050 50  0001 C CNN "Description"
F 5 "10022706" H 13350 2050 50  0001 C CNN "Item Number"
F 6 "HONEYWELL_RMS1" H 13350 2050 50  0001 C CNN "Manufacturer"
F 7 "AWM3300V" H 13350 2050 50  0001 C CNN "Manufacturer_No"
F 8 "HONEYWELL_RMS1" H 13350 2050 50  0001 C CNN "Manufacturer2"
F 9 "FBAL001DU" H 13350 2050 50  0001 C CNN "Manufacturer_No2"
F 10 "First Sensor" H 0   0   50  0001 C CNN "Manufacturer3"
F 11 "WBAL001DU" H 0   0   50  0001 C CNN "Manufacturer_No3"
	1    13350 2050
	1    0    0    -1  
$EndComp
$Comp
L V_BL:BLIN-AWM33 BL1
U 1 1 AAFF44B7
P 10450 2425
F 0 "BL1" H 10450 2325 56  0000 L BNN
F 1 "BLIN-AWM33" H 10450 2225 42  0001 L BNN
F 2 "AllModules:BLIN-AWM" H 10450 2425 50  0001 C CNN
F 3 "" H 10450 2425 50  0001 C CNN
F 4 "EMC,FLOW SENSOR HOUSING,IC15 & IC17" H 10450 2425 50  0001 C CNN "Description"
F 5 "4096600.M00.023" H 10450 2425 50  0001 C CNN "Item Number"
F 6 "SUZHOU ACE SHEET MATEL MANUFACTURING CO., LTD" H 10450 2425 50  0001 C CNN "Manufacturer"
F 7 "4096600.M00.023" H 10450 2425 50  0001 C CNN "Manufacturer_No"
	1    10450 2425
	1    0    0    -1  
$EndComp
$Comp
L V_BL:BLIN-AWM33 BL3
U 1 1 6617CE3C
P 13800 2450
F 0 "BL3" H 13800 2350 56  0000 L BNN
F 1 "BLIN-AWM33" H 13788 2163 42  0001 L BNN
F 2 "AllModules:BLIN-AWM" H 13800 2450 50  0001 C CNN
F 3 "" H 13800 2450 50  0001 C CNN
F 4 "EMC,FLOW SENSOR HOUSING,IC15 & IC17" H 13800 2450 50  0001 C CNN "Description"
F 5 "4096600.M00.023" H 13800 2450 50  0001 C CNN "Item Number"
F 6 "SUZHOU ACE SHEET MATEL MANUFACTURING CO., LTD" H 13800 2450 50  0001 C CNN "Manufacturer"
F 7 "4096600.M00.023" H 13800 2450 50  0001 C CNN "Manufacturer_No"
	1    13800 2450
	1    0    0    -1  
$EndComp
$Comp
L V_Power:0VANA #U$0306
U 1 1 6A5A32D7
P 11450 4000
F 0 "#U$0306" H 11450 4000 50  0001 C CNN
F 1 "0VANA" H 11338 3837 59  0000 L BNN
F 2 "" H 11450 4000 50  0001 C CNN
F 3 "" H 11450 4000 50  0001 C CNN
	1    11450 4000
	-1   0    0    1   
$EndComp
$Comp
L V_Capacitor:C0402_100nF_16V_10% C109
U 1 1 FBCF1DE2
P 11700 4200
F 0 "C109" V 11938 4057 64  0000 L BNN
F 1 "DNP" V 11844 4076 42  0000 L BNN
F 2 "AllModules:C0402_1" H 11700 4200 50  0001 C CNN
F 3 "" H 11700 4200 50  0001 C CNN
F 4 "10022607" V 11700 4200 50  0001 C CNN "Item Number"
F 5 "CAPACITOR,100NF,16V,+/-10%,X7R,0402" H 0   0   50  0001 C CNN "Description"
F 6 "MURATA" H 0   0   50  0001 C CNN "Manufacturer"
F 7 "YAGEO_RMS1" H 0   0   50  0001 C CNN "Manufacturer2"
F 8 "YAGEO_RMS1" H 0   0   50  0001 C CNN "Manufacturer3"
F 9 "GRM155R71C104JA88J" H 0   0   50  0001 C CNN "Manufacturer_No"
F 10 "CC0402KRX7R7BB104" H 0   0   50  0001 C CNN "Manufacturer_No2"
F 11 "CC0402KRX7R7BB104" H 0   0   50  0001 C CNN "Manufacturer_No3"
	1    11700 4200
	0    1    -1   0   
$EndComp
$Comp
L V_IC:SQ276 IC35
U 1 1 AFF057CF
P 13900 5350
F 0 "IC35" V 14500 4950 73  0000 L BNN
F 1 "DNP" V 14400 4925 59  0000 L BNN
F 2 "AllModules:SQ276-05856_1" H 13900 5350 50  0001 C CNN
F 3 "" H 13900 5350 50  0001 C CNN
F 4 "First Sensor" H 0   0   50  0001 C CNN "Manufacturer"
F 5 "SQ276" H 0   0   50  0001 C CNN "Manufacturer_No"
	1    13900 5350
	0    -1   -1   0   
$EndComp
$Comp
L V_Power:0VANA #U$0317
U 1 1 24749F8E
P 13900 4000
F 0 "#U$0317" H 13900 4000 50  0001 C CNN
F 1 "0VANA" H 13775 3837 59  0000 L BNN
F 2 "" H 13900 4000 50  0001 C CNN
F 3 "" H 13900 4000 50  0001 C CNN
	1    13900 4000
	-1   0    0    1   
$EndComp
$Comp
L V_Capacitor:C0402_100nF_16V_10% C113
U 1 1 8719094B
P 14150 4200
F 0 "C113" V 14376 4072 64  0000 L BNN
F 1 "DNP" V 14296 4094 42  0000 L BNN
F 2 "AllModules:C0402_1" H 14150 4200 50  0001 C CNN
F 3 "" H 14150 4200 50  0001 C CNN
F 4 "10022607" V 14150 4200 50  0001 C CNN "Item Number"
F 5 "CAPACITOR,100NF,16V,+/-10%,X7R,0402" H 0   0   50  0001 C CNN "Description"
F 6 "MURATA" H 0   0   50  0001 C CNN "Manufacturer"
F 7 "YAGEO_RMS1" H 0   0   50  0001 C CNN "Manufacturer2"
F 8 "YAGEO_RMS1" H 0   0   50  0001 C CNN "Manufacturer3"
F 9 "GRM155R71C104JA88J" H 0   0   50  0001 C CNN "Manufacturer_No"
F 10 "CC0402KRX7R7BB104" H 0   0   50  0001 C CNN "Manufacturer_No2"
F 11 "CC0402KRX7R7BB104" H 0   0   50  0001 C CNN "Manufacturer_No3"
	1    14150 4200
	0    1    -1   0   
$EndComp
Wire Notes Line
	887  11038 887  850 
Wire Notes Line
	8650 850  887  850 
Wire Notes Line
	8650 8175 8187 8175
Wire Notes Line
	8187 8175 8187 11038
Wire Notes Line
	8187 11038 887  11038
Wire Notes Line
	8650 8175 8650 850 
Wire Notes Line
	15887 6575 8812 6575
Wire Notes Line
	8812 6575 8812 850 
Wire Notes Line
	15887 850  8812 850 
Wire Notes Line
	5600 1025 5600 10575
Wire Notes Line
	9175 3000 15775 3000
Text Notes 950  1163 0    59   ~ 0
Internal pressure Measurement
Text Notes 937  2938 0    59   ~ 0
Valve Pressure Measurement
Text Notes 925  6650 0    59   ~ 0
O² Pressure Measurement
Text Notes 937  4838 0    59   ~ 0
Proximal Pressure Measurement
Text Notes 5700 1800 0    59   ~ 0
Internal Pressure Measurement
Text Notes 5700 7950 0    59   ~ 0
Valve Pressure Measurement
Text Notes 5700 4850 0    59   ~ 0
Proximal Pressure Measurement
Text Notes 3600 2938 0    47   ~ 0
JP2 on ON if SPI Sensor used
Text Notes 3700 4763 0    47   ~ 0
JP2 on ON if SPI Sensor used
Text Notes 3650 6588 0    47   ~ 0
JP2 on ON if SPI Sensor used
Text Notes 9175 1163 0    59   ~ 0
Inspiratory Flow Measurement
Text Notes 12550 1150 0    59   ~ 0
Exhalartion Flow Measurement
Text Notes 9900 3600 0    59   ~ 0
Inspiratory Flow Measurement
Text Notes 12700 3600 0    59   ~ 0
Exhalation Flow Measurement
Text Notes 15750 10775 0    59   ~ 0
A
Text Notes 15987 10775 0    59   ~ 0
05/03/14
Text Notes 16487 10788 0    59   ~ 0
JR
$Comp
L V_Power:0VANA #U$0303
U 1 1 25FC8843
P 1550 10050
F 0 "#U$0303" H 1550 10050 50  0001 C CNN
F 1 "0VANA" H 1450 9875 59  0000 L BNN
F 2 "" H 1550 10050 50  0001 C CNN
F 3 "" H 1550 10050 50  0001 C CNN
	1    1550 10050
	1    0    0    -1  
$EndComp
$Comp
L V_Capacitor:C0402_100nF_16V_10% C95
U 1 1 A1AFAF59
P 4300 9600
F 0 "C95" H 4400 9575 64  0000 L CNN
F 1 "100nF" H 4400 9650 42  0000 L CNN
F 2 "AllModules:C0402_1" H 4300 9600 50  0001 C CNN
F 3 "" H 4300 9600 50  0001 C CNN
F 4 "10022607" H 4300 9600 50  0001 C CNN "Item Number"
F 5 "CAPACITOR,100NF,16V,+/-10%,X7R,0402" H 0   0   50  0001 C CNN "Description"
F 6 "MURATA" H 0   0   50  0001 C CNN "Manufacturer"
F 7 "YAGEO_RMS1" H 0   0   50  0001 C CNN "Manufacturer2"
F 8 "YAGEO_RMS1" H 0   0   50  0001 C CNN "Manufacturer3"
F 9 "GRM155R71C104JA88J" H 0   0   50  0001 C CNN "Manufacturer_No"
F 10 "CC0402KRX7R7BB104" H 0   0   50  0001 C CNN "Manufacturer_No2"
F 11 "CC0402KRX7R7BB104" H 0   0   50  0001 C CNN "Manufacturer_No3"
	1    4300 9600
	1    0    0    1   
$EndComp
$Comp
L V_Resistor:R_4k7_5% R51
U 1 1 C00D2805
P 3900 9400
F 0 "R51" H 3900 9550 64  0000 C CNN
F 1 "4.7k" H 3900 9475 42  0000 C CNN
F 2 "AllModules:R0603_1" H 3900 9400 50  0001 C CNN
F 3 "" H 3900 9400 50  0001 C CNN
F 4 "RESISTOR, 4.7 K OHM, 0.063W +/-5%" H 3900 9400 50  0001 C CNN "Description"
F 5 "10022617" H 3900 9400 50  0001 C CNN "Item Number"
F 6 "BOURNS_RMS1" H 3900 9400 50  0001 C CNN "Manufacturer"
F 7 "CR0603-FX-4701ELF " H 3900 9400 50  0001 C CNN "Manufacturer_No"
F 8 "YAGEO_RMS1" H 3900 9400 50  0001 C CNN "Manufacturer2"
F 9 "RC0603JR-074K7L" H 3900 9400 50  0001 C CNN "Manufacturer_No2"
F 10 "YAGEO_RMS1" H 3900 9400 50  0001 C CNN "Manufacturer3"
F 11 "RC0603JR-074K7L" H 3900 9400 50  0001 C CNN "Manufacturer_No3"
	1    3900 9400
	1    0    0    -1  
$EndComp
Text Notes 925  8663 0    59   ~ 0
Barometric Pressure Measurement
$Comp
L V_Power:0VANA #U$0302
U 1 1 7B65148C
P 4300 9800
F 0 "#U$0302" H 4300 9800 50  0001 C CNN
F 1 "0VANA" H 4188 9625 59  0000 L BNN
F 2 "" H 4300 9800 50  0001 C CNN
F 3 "" H 4300 9800 50  0001 C CNN
	1    4300 9800
	1    0    0    -1  
$EndComp
$Comp
L V_Capacitor:C0805_220nF_25V_10% C94
U 1 1 84DA4059
P 1550 9050
F 0 "C94" H 1463 9113 64  0000 R CNN
F 1 "220nF" H 1463 9013 42  0000 R CNN
F 2 "AllModules:C0805_1" H 1550 9050 50  0001 C CNN
F 3 "" H 1550 9050 50  0001 C CNN
F 4 "CAP CERAMIC,220NF,25V,X7R,+/-10%,0805" H 1550 9050 50  0001 C CNN "Description"
F 5 "10022968" H 1550 9050 50  0001 C CNN "Item Number"
F 6 "AVX_RMS1" H 1550 9050 50  0001 C CNN "Manufacturer"
F 7 "08053C224KAZ2A" H 1550 9050 50  0001 C CNN "Manufacturer_No"
F 8 "KEMET_RMS1" H 1550 9050 50  0001 C CNN "Manufacturer2"
F 9 "C0805C224K3RAC" H 1550 9050 50  0001 C CNN "Manufacturer_No2"
F 10 "AVX_RMS1" H 1550 9050 50  0001 C CNN "Manufacturer3"
F 11 "08053C224KAT2A" H 1550 9050 50  0001 C CNN "Manufacturer_No3"
F 12 "KEMET_RMS1" H 1550 9050 50  0001 C CNN "Manufacturer4"
F 13 "C0805C224K3RACTU" H 1550 9050 50  0001 C CNN "Manufacturer_No4"
	1    1550 9050
	1    0    0    -1  
$EndComp
Text HLabel 4900 9400 2    56   Output ~ 0
PRES-ABS
Connection ~ 1800 8750
$Comp
L V_IC:ASDX_10023159 IC33
U 1 1 B100278E
P 2550 9500
F 0 "IC33" H 2450 10050 85  0000 C CNN
F 1 "BSDX0811BARO-X" H 2500 9950 55  0000 C CNN
F 2 "AllModules:BSDX-A2_1" H 2550 9500 50  0001 C CNN
F 3 "" H 2550 9500 50  0001 C CNN
F 4 "IC, BAROMETRIC PRESSURE SENSOR" H 2550 9500 50  0001 C CNN "Description"
F 5 "10023159" H 2550 9500 50  0001 C CNN "Item Number"
F 6 "HONEYWELL_RMS1" H 2550 9500 50  0001 C CNN "Manufacturer"
F 7 "XZ209330-ASDX" H 2550 9500 50  0001 C CNN "Manufacturer_No"
F 8 "SENSORTECHNICS" H 2550 9500 50  0001 C CNN "Manufacturer2"
F 9 "BSDX0611BARO-X" H 2550 9500 50  0001 C CNN "Manufacturer_No2"
F 10 "First Sensor" H 0   0   50  0001 C CNN "Manufacturer3"
F 11 "SQ274-10275" H 0   0   50  0001 C CNN "Manufacturer_No3"
	1    2550 9500
	1    0    0    -1  
$EndComp
Wire Wire Line
	1800 8750 1800 9250
Wire Wire Line
	1800 9550 2000 9550
Wire Wire Line
	2000 9400 1800 9400
Connection ~ 1800 9400
Wire Wire Line
	1800 9400 1800 9550
Wire Wire Line
	2000 9250 1800 9250
Connection ~ 1800 9250
Wire Wire Line
	1800 9250 1800 9400
Wire Wire Line
	1550 8750 1800 8750
Wire Wire Line
	1550 8750 1550 8950
Wire Wire Line
	1550 9150 1550 9700
Wire Wire Line
	1550 9700 2000 9700
Wire Wire Line
	1550 10050 1550 9700
Connection ~ 1550 9700
Connection ~ 1550 10050
Wire Wire Line
	3050 9400 3600 9400
Connection ~ 3600 9400
Wire Wire Line
	3550 9750 3600 9775
Wire Wire Line
	3600 9775 3600 10050
Connection ~ 3600 9775
$Comp
L V_Power:0VANA #U$0179
U 1 1 BD41952C
P 4550 6025
F 0 "#U$0179" H 4550 6025 50  0001 C CNN
F 1 "0VANA" H 4462 5837 59  0000 L BNN
F 2 "" H 4550 6025 50  0001 C CNN
F 3 "" H 4550 6025 50  0001 C CNN
	1    4550 6025
	1    0    0    -1  
$EndComp
$Comp
L V_Resistor:R_4k7_5% R42
U 1 1 83169F00
P 4300 5550
F 0 "R42" H 4237 5700 64  0000 L BNN
F 1 "4.7k" H 4250 5625 42  0000 L BNN
F 2 "AllModules:R0603_1" H 4300 5550 50  0001 C CNN
F 3 "" H 4300 5550 50  0001 C CNN
F 4 "RESISTOR, 4.7 K OHM, 0.063W +/-5%" H 4300 5550 50  0001 C CNN "Description"
F 5 "10022617" H 4300 5550 50  0001 C CNN "Item Number"
F 6 "BOURNS_RMS1" H 4300 5550 50  0001 C CNN "Manufacturer"
F 7 "CR0603-FX-4701ELF " H 4300 5550 50  0001 C CNN "Manufacturer_No"
F 8 "YAGEO_RMS1" H 4300 5550 50  0001 C CNN "Manufacturer2"
F 9 "RC0603JR-074K7L" H 4300 5550 50  0001 C CNN "Manufacturer_No2"
F 10 "YAGEO_RMS1" H 4300 5550 50  0001 C CNN "Manufacturer3"
F 11 "RC0603JR-074K7L" H 4300 5550 50  0001 C CNN "Manufacturer_No3"
	1    4300 5550
	1    0    0    -1  
$EndComp
$Comp
L V_Capacitor:C0603_4n7F_50V_10% C104
U 1 1 CA435796
P 3550 5700
F 0 "C104" H 3650 5675 64  0000 L CNN
F 1 "4.7nF" H 3650 5750 42  0000 L CNN
F 2 "AllModules:C0603_1" H 3550 5700 50  0001 C CNN
F 3 "" H 3550 5700 50  0001 C CNN
F 4 "CAPACITOR CERAMIC,4.7NF,+/-10%,50V,0603" H 3550 5700 50  0001 C CNN "Description"
F 5 "10022613" H 3550 5700 50  0001 C CNN "Item Number"
F 6 "KEMET_RMS1" H 3550 5700 50  0001 C CNN "Manufacturer"
F 7 "C0603C472K5RACTU" H 3550 5700 50  0001 C CNN "Manufacturer_No"
F 8 "YAGEO_RMS1" H 3550 5700 50  0001 C CNN "Manufacturer2"
F 9 "CC0603KRX7R9BB472" H 3550 5700 50  0001 C CNN "Manufacturer_No2"
	1    3550 5700
	1    0    0    1   
$EndComp
$Comp
L V_IC:ASDX_10023117 IC22
U 1 1 2C1B848F
P 2550 5650
F 0 "IC22" H 2550 6213 85  0000 C CNN
F 1 "ASDX001D44R-SQ04689" H 2550 6113 55  0000 C CNN
F 2 "AllModules:ASDX001D44R_1" H 2550 5650 50  0001 C CNN
F 3 "" H 2550 5650 50  0001 C CNN
F 4 "IC, PRESSURE TRANSDUCER,(-10/+100 MBAR)" H 2550 5650 50  0001 C CNN "Description"
F 5 "10023117" H 2550 5650 50  0001 C CNN "Item Number"
F 6 "SENSYM_RMS1 / honeywell" H 2550 5650 50  0001 C CNN "Manufacturer"
F 7 "ASDX001D44R" H 2550 5650 50  0001 C CNN "Manufacturer_No"
F 8 "First Sensor" H 2550 5650 50  0001 C CNN "Manufacturer2"
F 9 "SQ274-P001BDM8C5" H 2550 5650 50  0001 C CNN "Manufacturer_No2"
F 10 "HONEYWELL_RMS1" H 0   0   50  0001 C CNN "Manufacturer3"
F 11 "XZ209766-ASDX" H 0   0   50  0001 C CNN "Manufacturer_No3"
	1    2550 5650
	1    0    0    -1  
$EndComp
$Comp
L V_Capacitor:C0805_220nF_25V_10% C102
U 1 1 DC61BB42
P 1500 5200
F 0 "C102" H 1181 5212 64  0000 L BNN
F 1 "220nF" H 1187 5143 42  0000 L BNN
F 2 "AllModules:C0805_1" H 1500 5200 50  0001 C CNN
F 3 "" H 1500 5200 50  0001 C CNN
F 4 "CAP CERAMIC,220NF,25V,X7R,+/-10%,0805" H 1500 5200 50  0001 C CNN "Description"
F 5 "10022968" H 1500 5200 50  0001 C CNN "Item Number"
F 6 "AVX_RMS1" H 1500 5200 50  0001 C CNN "Manufacturer"
F 7 "08053C224KAZ2A" H 1500 5200 50  0001 C CNN "Manufacturer_No"
F 8 "KEMET_RMS1" H 1500 5200 50  0001 C CNN "Manufacturer2"
F 9 "C0805C224K3RAC" H 1500 5200 50  0001 C CNN "Manufacturer_No2"
F 10 "AVX_RMS1" H 1500 5200 50  0001 C CNN "Manufacturer3"
F 11 "08053C224KAT2A" H 1500 5200 50  0001 C CNN "Manufacturer_No3"
	1    1500 5200
	1    0    0    -1  
$EndComp
Connection ~ 1550 7650
Wire Wire Line
	1550 7100 1550 7650
Wire Wire Line
	1550 6700 1550 6900
Wire Wire Line
	1550 6700 1800 6700
Wire Wire Line
	1800 7200 1800 7350
Connection ~ 1800 7200
Wire Wire Line
	1800 7350 1800 7500
Connection ~ 1800 7350
Wire Wire Line
	1800 6700 1800 7200
Wire Wire Line
	3250 7500 3250 7650
Wire Wire Line
	3250 7200 3250 6700
Wire Wire Line
	3250 6700 2550 6700
Wire Wire Line
	2550 6700 1800 6700
Connection ~ 1800 6700
Connection ~ 2550 6700
$Comp
L V_Power:0VANA #U$0114
U 1 1 5ED84200
P 4300 7775
F 0 "#U$0114" H 4300 7775 50  0001 C CNN
F 1 "0VANA" H 4200 7575 59  0000 L BNN
F 2 "" H 4300 7775 50  0001 C CNN
F 3 "" H 4300 7775 50  0001 C CNN
	1    4300 7775
	1    0    0    -1  
$EndComp
$Comp
L V_Power:0VANA #U$0118
U 1 1 5ED841E1
P 1550 8000
F 0 "#U$0118" H 1550 8000 50  0001 C CNN
F 1 "0VANA" H 1450 7825 59  0000 L BNN
F 2 "" H 1550 8000 50  0001 C CNN
F 3 "" H 1550 8000 50  0001 C CNN
	1    1550 8000
	1    0    0    -1  
$EndComp
$Comp
L V_IC:ASDX100D44R IC19
U 1 1 3DB6F2B4
P 2550 7450
F 0 "IC19" H 2525 8025 85  0000 C CNN
F 1 "ASDX100D44R" H 2525 7925 55  0000 C CNN
F 2 "AllModules:ASDX100D44R_1" H 2550 7450 50  0001 C CNN
F 3 "" H 2550 7450 50  0001 C CNN
	1    2550 7450
	1    0    0    -1  
$EndComp
$Comp
L V_Resistor:R_4k7_5% R39
U 1 1 63F37C0C
P 3900 7350
F 0 "R39" H 3900 7550 64  0000 C CNN
F 1 "4.7k" H 3900 7450 42  0000 C CNN
F 2 "AllModules:R0603_1" H 3900 7350 50  0001 C CNN
F 3 "" H 3900 7350 50  0001 C CNN
F 4 "RESISTOR, 4.7 K OHM, 0.063W +/-5%" H 0   0   50  0001 C CNN "Description"
F 5 "10022617" H 0   0   50  0001 C CNN "Item Number"
F 6 "BOURNS_RMS1" H 0   0   50  0001 C CNN "Manufacturer"
F 7 "YAGEO_RMS1" H 0   0   50  0001 C CNN "Manufacturer2"
F 8 "YAGEO_RMS1" H 0   0   50  0001 C CNN "Manufacturer3"
F 9 "CR0603-FX-4701ELF " H 0   0   50  0001 C CNN "Manufacturer_No"
F 10 "RC0603JR-074K7L" H 0   0   50  0001 C CNN "Manufacturer_No2"
F 11 "RC0603JR-074K7L" H 0   0   50  0001 C CNN "Manufacturer_No3"
	1    3900 7350
	1    0    0    -1  
$EndComp
$Comp
L V_Capacitor:C0805_220nF_25V_10% C67
U 1 1 6998622D
P 1550 7000
F 0 "C67" H 1243 7013 64  0000 L BNN
F 1 "220nF" H 1250 6931 42  0000 L BNN
F 2 "AllModules:C0805_1" H 1550 7000 50  0001 C CNN
F 3 "" H 1550 7000 50  0001 C CNN
F 4 "CAP CERAMIC,220NF,25V,X7R,+/-10%,0805" H 0   0   50  0001 C CNN "Description"
F 5 "10022968" H 0   0   50  0001 C CNN "Item Number"
F 6 "AVX_RMS1" H 0   0   50  0001 C CNN "Manufacturer"
F 7 "KEMET_RMS1" H 0   0   50  0001 C CNN "Manufacturer2"
F 8 "AVX_RMS1" H 0   0   50  0001 C CNN "Manufacturer3"
F 9 "08053C224KAZ2A" H 0   0   50  0001 C CNN "Manufacturer_No"
F 10 "C0805C224K3RAC" H 0   0   50  0001 C CNN "Manufacturer_No2"
F 11 "08053C224KAT2A" H 0   0   50  0001 C CNN "Manufacturer_No3"
	1    1550 7000
	1    0    0    -1  
$EndComp
Text HLabel 4900 7350 2    56   Output ~ 0
PRES-O2
Connection ~ 3200 6200
Wire Wire Line
	3500 6200 3200 6200
Wire Wire Line
	3400 5900 3450 5900
Connection ~ 3550 5550
Wire Wire Line
	3200 5850 3200 6200
Connection ~ 1500 6200
Wire Wire Line
	1500 6200 3200 6200
Connection ~ 1500 5850
Wire Wire Line
	1500 6200 1500 5850
Wire Wire Line
	1500 5300 1500 5850
Wire Wire Line
	1500 4900 1500 5100
Wire Wire Line
	1500 4900 1725 4900
Wire Wire Line
	1725 5400 1725 5550
Connection ~ 1725 5400
Wire Wire Line
	1725 5550 1725 5700
Connection ~ 1725 5550
Wire Wire Line
	1725 4900 1725 5400
Wire Wire Line
	3200 5700 3200 5850
Connection ~ 3200 5850
Wire Wire Line
	3200 5400 3200 4900
Wire Wire Line
	3200 4900 2500 4900
Wire Wire Line
	2500 4900 1725 4900
Connection ~ 1725 4900
Connection ~ 2500 4900
$Comp
L V_Power:0VANA #U$0120
U 1 1 5EAFF2AE
P 1500 6200
F 0 "#U$0120" H 1500 6200 50  0001 C CNN
F 1 "0VANA" H 1400 6025 59  0000 L BNN
F 2 "" H 1500 6200 50  0001 C CNN
F 3 "" H 1500 6200 50  0001 C CNN
	1    1500 6200
	1    0    0    -1  
$EndComp
Wire Wire Line
	2500 4850 2500 4900
Wire Wire Line
	3550 5550 3950 5550
Connection ~ 4550 5550
Wire Wire Line
	4550 5550 4850 5550
$Comp
L V_Capacitor:C0402_100nF_16V_10% C103
U 1 1 0E789015
P 4550 5800
F 0 "C103" H 4675 5775 64  0000 L CNN
F 1 "100nF" H 4675 5850 42  0000 L CNN
F 2 "AllModules:C0402_1" H 4550 5800 50  0001 C CNN
F 3 "" H 4550 5800 50  0001 C CNN
F 4 "10022607" H 4550 5800 50  0001 C CNN "Item Number"
F 5 "CAPACITOR,100NF,16V,+/-10%,X7R,0402" H 0   0   50  0001 C CNN "Description"
F 6 "MURATA" H 0   0   50  0001 C CNN "Manufacturer"
F 7 "YAGEO_RMS1" H 0   0   50  0001 C CNN "Manufacturer2"
F 8 "YAGEO_RMS1" H 0   0   50  0001 C CNN "Manufacturer3"
F 9 "GRM155R71C104JA88J" H 0   0   50  0001 C CNN "Manufacturer_No"
F 10 "CC0402KRX7R7BB104" H 0   0   50  0001 C CNN "Manufacturer_No2"
F 11 "CC0402KRX7R7BB104" H 0   0   50  0001 C CNN "Manufacturer_No3"
	1    4550 5800
	1    0    0    1   
$EndComp
Wire Wire Line
	3950 5550 3950 5900
Connection ~ 3950 5550
Wire Wire Line
	3950 6400 4325 6400
Wire Wire Line
	3400 5300 3400 5900
Wire Wire Line
	3950 4450 3950 4550
$Comp
L V_Power:0VANA #U$0121
U 1 1 5EBBB586
P 4550 4150
F 0 "#U$0121" H 4550 4150 50  0001 C CNN
F 1 "0VANA" H 4462 3962 59  0000 L BNN
F 2 "" H 4550 4150 50  0001 C CNN
F 3 "" H 4550 4150 50  0001 C CNN
	1    4550 4150
	1    0    0    -1  
$EndComp
Connection ~ 3200 4350
Wire Wire Line
	3500 4350 3200 4350
Wire Wire Line
	3200 4000 3200 4350
Connection ~ 1500 4350
Wire Wire Line
	1500 4350 3200 4350
Connection ~ 1500 4000
Wire Wire Line
	1500 4350 1500 4000
Wire Wire Line
	1500 3450 1500 4000
Wire Wire Line
	1500 3050 1500 3250
Wire Wire Line
	1500 3050 1750 3050
Wire Wire Line
	1750 3550 1750 3700
Connection ~ 1750 3550
Wire Wire Line
	1750 3700 1750 3850
Connection ~ 1750 3700
Wire Wire Line
	1750 3050 1750 3550
Wire Wire Line
	3200 3850 3200 4000
Connection ~ 3200 4000
Wire Wire Line
	3200 3550 3200 3050
Wire Wire Line
	3200 3050 2500 3050
Wire Wire Line
	2500 3050 1750 3050
Connection ~ 1750 3050
Connection ~ 2500 3050
$Comp
L V_Power:0VANA #U$0122
U 1 1 5EBBB5D1
P 1500 4350
F 0 "#U$0122" H 1500 4350 50  0001 C CNN
F 1 "0VANA" H 1400 4175 59  0000 L BNN
F 2 "" H 1500 4350 50  0001 C CNN
F 3 "" H 1500 4350 50  0001 C CNN
	1    1500 4350
	1    0    0    -1  
$EndComp
Connection ~ 4550 3700
Wire Wire Line
	3950 3700 3950 4050
Connection ~ 3950 3700
Wire Wire Line
	3950 4550 4400 4550
Wire Wire Line
	2500 2950 2500 3050
Wire Wire Line
	1950 2050 1750 2050
Wire Wire Line
	1750 2050 1750 1900
Wire Wire Line
	1950 1900 1750 1900
Connection ~ 1750 1900
Wire Wire Line
	1750 1900 1750 1750
Wire Wire Line
	1500 1250 1750 1250
Wire Wire Line
	1750 1750 1750 1250
Connection ~ 1750 1750
Connection ~ 1750 1250
Wire Wire Line
	1750 1250 3200 1250
Wire Wire Line
	3000 1750 3200 1750
Wire Wire Line
	3200 1750 3200 1250
Connection ~ 3200 1250
Wire Wire Line
	3200 1250 3400 1250
Wire Wire Line
	3550 1900 3950 1900
Wire Wire Line
	3000 1900 3550 1900
Connection ~ 3550 1900
Wire Wire Line
	4850 1900 4650 1900
Connection ~ 4650 1900
Connection ~ 3950 1900
Wire Wire Line
	3000 2050 3200 2050
Wire Wire Line
	3200 2050 3200 2200
Wire Wire Line
	3200 2200 3000 2200
Wire Wire Line
	3200 2200 3200 2500
Wire Wire Line
	3200 2500 1500 2500
Connection ~ 3200 2200
Connection ~ 1500 2500
Wire Wire Line
	1500 2500 1500 2575
Wire Wire Line
	3200 2500 3500 2500
Connection ~ 3200 2500
Text Label 4400 4550 0    56   ~ 0
VALVE-PRES-MEAS
Text Label 4325 6400 0    50   ~ 0
PROX-PRES-MEAS
$Comp
L V_IC:SQ276 IC27
U 1 1 3A3F7DCF
P 7550 3450
F 0 "IC27" V 8138 3287 73  0000 R BNN
F 1 "DNP" V 8038 3275 59  0000 R BNN
F 2 "AllModules:SQ276-05856_1" H 7550 3450 50  0001 C CNN
F 3 "" H 7550 3450 50  0001 C CNN
F 4 "First Sensor" H 0   0   50  0001 C CNN "Manufacturer"
F 5 "SQ276" H 0   0   50  0001 C CNN "Manufacturer_No"
	1    7550 3450
	0    -1   -1   0   
$EndComp
Wire Wire Line
	7050 4050 7350 4050
Wire Wire Line
	7350 4050 7350 3950
Wire Wire Line
	7050 4150 7450 4150
Wire Wire Line
	7450 4150 7450 3950
Wire Wire Line
	7050 4250 7650 4250
Wire Wire Line
	7650 4250 7650 3950
NoConn ~ 7550 3950
Wire Wire Line
	7050 2450 7350 2450
Wire Wire Line
	7350 2450 7350 2950
Wire Wire Line
	7050 2350 7450 2350
Wire Wire Line
	7450 2350 7450 2950
Wire Wire Line
	7650 2950 7650 2600
Wire Wire Line
	7650 2600 8050 2600
Wire Wire Line
	7650 5650 8050 5650
Wire Wire Line
	7650 6000 7650 5650
NoConn ~ 7550 7000
Wire Wire Line
	7650 7300 7650 7000
Wire Wire Line
	7050 7300 7650 7300
Wire Wire Line
	7450 7200 7450 7000
Wire Wire Line
	7050 7200 7450 7200
Wire Wire Line
	7350 7100 7350 7000
Wire Wire Line
	7050 7100 7350 7100
Text HLabel 7050 7300 0    56   Input ~ 0
MTSR-SPI-0
Text HLabel 7050 7100 0    56   Input ~ 0
SCLK-SPI-0
$Comp
L V_IC:SQ276 IC30
U 1 1 BCFB88DB
P 7550 6500
F 0 "IC30" V 8125 6350 73  0000 R BNN
F 1 "DNP" V 8025 6337 59  0000 R BNN
F 2 "AllModules:SQ276-05856_1" H 7550 6500 50  0001 C CNN
F 3 "" H 7550 6500 50  0001 C CNN
F 4 "First Sensor" H 0   0   50  0001 C CNN "Manufacturer"
F 5 "SQ276" H 0   0   50  0001 C CNN "Manufacturer_No"
	1    7550 6500
	0    -1   -1   0   
$EndComp
Text HLabel 7050 7200 0    56   Input ~ 0
CE\-PROX-PRES-SENS
Wire Wire Line
	7650 8700 8050 8700
Wire Wire Line
	7650 9050 7650 8700
NoConn ~ 7550 10050
Wire Wire Line
	7650 10350 7650 10050
Wire Wire Line
	7050 10350 7650 10350
Wire Wire Line
	7450 10250 7450 10050
Wire Wire Line
	7050 10250 7450 10250
Wire Wire Line
	7350 10150 7350 10050
Wire Wire Line
	7050 10150 7350 10150
Text HLabel 7050 10350 0    56   Input ~ 0
MTSR-SPI-0
Text HLabel 7050 8650 0    56   Output ~ 0
MRST-SPI-0_E
Text HLabel 7050 10150 0    56   Input ~ 0
SCLK-SPI-0
Text Notes 9137 8075 0    59   ~ 0
Dual implantation of Analog and Digital sensor: If SPI sensors are used then the equivalent analog sensors will not be wired
Wire Notes Line
	15325 7838 9012 7838
Wire Notes Line
	15325 8250 15325 7838
Wire Notes Line
	9012 8250 15325 8250
Wire Notes Line
	9012 7838 9012 8250
Wire Wire Line
	10950 6000 11250 6000
Wire Wire Line
	11250 6000 11250 5850
Wire Wire Line
	10950 6100 11350 6100
Wire Wire Line
	11350 6100 11350 5850
Wire Wire Line
	10950 6200 11550 6200
Wire Wire Line
	11550 6200 11550 5850
Wire Wire Line
	11250 4850 11250 4400
Wire Wire Line
	11250 4400 10950 4400
Wire Wire Line
	11550 4850 11550 4400
Wire Wire Line
	11550 4400 11950 4400
Text HLabel 13400 6000 0    56   Input ~ 0
SCLK-SPI-0
Text HLabel 13400 4400 0    56   Output ~ 0
MRST-SPI-0_E
Text HLabel 13400 6200 0    56   Input ~ 0
MTSR-SPI-0
Wire Wire Line
	13400 6000 13700 6000
Wire Wire Line
	13700 6000 13700 5850
Wire Wire Line
	13400 6100 13800 6100
Wire Wire Line
	13800 6100 13800 5850
Wire Wire Line
	13400 6200 14000 6200
Wire Wire Line
	14000 6200 14000 5850
Wire Wire Line
	13700 4850 13700 4400
Wire Wire Line
	13700 4400 13400 4400
Wire Wire Line
	14000 4850 14000 4375
Wire Wire Line
	14000 4375 14400 4375
NoConn ~ 13900 5850
NoConn ~ 13800 4850
Wire Notes Line
	15887 6575 15887 850 
$Comp
L V_IC:SQ276 IC34
U 1 1 47725143
P 11450 5350
F 0 "IC34" V 12000 5150 73  0000 R CNN
F 1 "DNP" V 11900 5150 59  0000 R CNN
F 2 "AllModules:SQ276-05856_1" H 11450 5350 50  0001 C CNN
F 3 "" H 11450 5350 50  0001 C CNN
F 4 "First Sensor" H 0   0   50  0001 C CNN "Manufacturer"
F 5 "SQ276" H 0   0   50  0001 C CNN "Manufacturer_No"
	1    11450 5350
	0    -1   -1   0   
$EndComp
NoConn ~ 11350 4850
NoConn ~ 11450 5850
Wire Wire Line
	13350 2650 14000 2650
Wire Wire Line
	14000 2150 14000 2250
Connection ~ 14000 2650
Wire Wire Line
	14000 2650 14200 2650
Connection ~ 14000 2250
Wire Wire Line
	14000 2250 14000 2350
Connection ~ 14000 2350
Wire Wire Line
	14000 2350 14000 2450
Wire Wire Line
	14000 2450 14000 2650
$Comp
L V_Resistor:R_4k7_5% R33
U 1 1 05E5179D
P 11200 2050
F 0 "R33" H 11125 2225 64  0000 L BNN
F 1 "4.7k" H 11125 2138 42  0000 L BNN
F 2 "AllModules:R0603_1" H 11200 2050 50  0001 C CNN
F 3 "" H 11200 2050 50  0001 C CNN
F 4 "RESISTOR, 4.7 K OHM, 0.063W +/-5%" H 11200 2050 50  0001 C CNN "Description"
F 5 "10022617" H 11200 2050 50  0001 C CNN "Item Number"
F 6 "BOURNS_RMS1" H 11200 2050 50  0001 C CNN "Manufacturer"
F 7 "CR0603-FX-4701ELF " H 11200 2050 50  0001 C CNN "Manufacturer_No"
F 8 "YAGEO_RMS1" H 11200 2050 50  0001 C CNN "Manufacturer2"
F 9 "RC0603JR-074K7L" H 11200 2050 50  0001 C CNN "Manufacturer_No2"
F 10 "YAGEO_RMS1" H 11200 2050 50  0001 C CNN "Manufacturer3"
F 11 "RC0603JR-074K7L" H 11200 2050 50  0001 C CNN "Manufacturer_No3"
	1    11200 2050
	1    0    0    -1  
$EndComp
Wire Wire Line
	10050 2550 10050 2650
Wire Wire Line
	10650 2425 10650 2650
Wire Wire Line
	10650 2650 10050 2650
Connection ~ 10650 2650
Connection ~ 10050 2650
Wire Wire Line
	10050 2650 10050 2700
Wire Wire Line
	10050 2650 9500 2650
Wire Wire Line
	9500 2650 9500 2200
Wire Wire Line
	9500 1500 10050 1500
Wire Wire Line
	10050 1500 10050 1400
Wire Wire Line
	10050 1500 10050 1550
Connection ~ 10050 1500
Connection ~ 11450 2050
Wire Wire Line
	3950 1900 3950 2250
Wire Wire Line
	3950 2650 3950 2763
Wire Wire Line
	3950 1900 4250 1900
Wire Wire Line
	4550 1900 4650 1900
Wire Wire Line
	3950 3700 4150 3700
Wire Wire Line
	4450 3700 4550 3700
Wire Wire Line
	3950 5550 4150 5550
Wire Wire Line
	4450 5550 4550 5550
Wire Wire Line
	3050 7200 3250 7200
Wire Wire Line
	3050 7500 3250 7500
Wire Wire Line
	3050 7650 3250 7650
Wire Wire Line
	1800 7200 2000 7200
Wire Wire Line
	1800 7350 2000 7350
Wire Wire Line
	1550 7650 2000 7650
Wire Wire Line
	1800 7500 2000 7500
$Comp
L V_BL:2XBL-AWM BL2
U 1 1 04E96AC4
P 3350 8400
F 0 "BL2" H 3375 7075 59  0000 L BNN
F 1 "2XBL-AWM" H 3350 8400 50  0001 C CNN
F 2 "AllModules:B2CAP-RB0505_1" H 3350 8400 50  0001 C CNN
F 3 "" H 3350 8400 50  0001 C CNN
F 4 "EMC CASING - CASE 2 PRESSURE SENSORS" H 3350 8400 50  0001 C CNN "Description"
F 5 "4096600.M00.002" H 3350 8400 50  0001 C CNN "Item Number"
F 6 "SUZHOU ACE SHEET MATEL MANUFACTURING CO., LTD" H 3350 8400 50  0001 C CNN "Manufacturer"
F 7 "4096600.M00.002" H 3350 8400 50  0001 C CNN "Manufacturer_No"
	1    3350 8400
	1    0    0    -1  
$EndComp
Wire Wire Line
	3450 7200 3450 7700
Wire Wire Line
	3450 9750 3550 9750
Wire Wire Line
	3450 7700 3500 7700
Connection ~ 2550 8750
Wire Wire Line
	2550 8750 1800 8750
Wire Wire Line
	3600 9400 3750 9400
Wire Wire Line
	2550 8650 2550 8750
Wire Wire Line
	7050 8650 7350 8650
Wire Wire Line
	7350 8650 7350 9050
Wire Wire Line
	7450 8450 7450 9050
Wire Wire Line
	7450 8450 7050 8450
Wire Wire Line
	10450 2050 10900 2050
Wire Wire Line
	10650 2650 10900 2650
Connection ~ 10900 2050
Wire Wire Line
	10900 2050 11050 2050
Wire Wire Line
	11350 2050 11450 2050
Wire Wire Line
	11450 2050 11600 2050
Wire Wire Line
	11450 2050 11450 2150
Wire Wire Line
	13350 1400 13350 1450
Wire Wire Line
	12850 1450 13350 1450
Connection ~ 13350 1450
Wire Wire Line
	13350 1450 13350 1550
Wire Wire Line
	12850 1450 12850 1850
Connection ~ 14000 2450
Wire Wire Line
	13750 2050 14200 2050
Connection ~ 14200 2050
Wire Wire Line
	14200 2050 14400 2050
Wire Wire Line
	14750 2050 14700 2050
Connection ~ 14750 2050
Wire Wire Line
	14750 2050 14900 2050
Wire Wire Line
	2550 6600 2550 6700
Wire Wire Line
	1725 5400 2000 5400
Wire Wire Line
	1725 5550 2000 5550
Wire Wire Line
	1725 5700 2000 5700
Wire Wire Line
	1500 5850 2000 5850
Wire Wire Line
	3050 5550 3550 5550
Wire Wire Line
	3050 5400 3200 5400
Wire Wire Line
	3050 5700 3200 5700
Wire Wire Line
	3050 5850 3200 5850
Wire Wire Line
	3050 3550 3200 3550
Wire Wire Line
	3050 3850 3200 3850
Wire Wire Line
	3050 4000 3200 4000
Wire Wire Line
	1750 3550 2000 3550
Wire Wire Line
	1750 3700 2000 3700
Wire Wire Line
	1750 3850 2000 3850
Wire Wire Line
	1500 4000 2000 4000
Wire Wire Line
	1500 2200 1500 2500
Wire Wire Line
	1950 2200 1500 2200
Connection ~ 1500 2200
$Comp
L V_Capacitor:C0805_220nF_25V_10% C59
U 1 1 079CFDA5
P 1500 1600
F 0 "C59" H 1219 1650 64  0000 L BNN
F 1 "220nF" H 1225 1575 42  0000 L BNN
F 2 "AllModules:C0805_1" H 1500 1600 50  0001 C CNN
F 3 "" H 1500 1600 50  0001 C CNN
F 4 "CAP CERAMIC,220NF,25V,X7R,+/-10%,0805" H 1500 1600 50  0001 C CNN "Description"
F 5 "10022968" H 1500 1600 50  0001 C CNN "Item Number"
F 6 "AVX_RMS1" H 1500 1600 50  0001 C CNN "Manufacturer"
F 7 "08053C224KAZ2A" H 1500 1600 50  0001 C CNN "Manufacturer_No"
F 8 "KEMET_RMS1" H 1500 1600 50  0001 C CNN "Manufacturer2"
F 9 "C0805C224K3RAC" H 1500 1600 50  0001 C CNN "Manufacturer_No2"
F 10 "AVX_RMS1" H 1500 1600 50  0001 C CNN "Manufacturer3"
F 11 "08053C224KAT2A" H 1500 1600 50  0001 C CNN "Manufacturer_No3"
	1    1500 1600
	1    0    0    -1  
$EndComp
Wire Wire Line
	1750 1750 1950 1750
Wire Wire Line
	4550 3700 4550 3800
Wire Wire Line
	4550 3700 4850 3700
Wire Wire Line
	4550 5550 4550 5650
Wire Wire Line
	3500 6200 3500 5950
Wire Wire Line
	3500 5950 3550 5900
Wire Wire Line
	3450 5900 3500 5950
Connection ~ 3500 5950
Wire Wire Line
	3550 4050 3500 4100
Wire Wire Line
	3500 4100 3500 4350
Wire Wire Line
	3500 4100 3400 4000
Connection ~ 3500 4100
Wire Wire Line
	1500 1700 1500 2200
Wire Wire Line
	1500 1250 1500 1500
$Comp
L V_BL:3XBL-ADSX BL4
U 1 1 2C3F9162
P 3300 1500
F 0 "BL4" H 3325 -2263 59  0000 L BNN
F 1 "3XBL-ADSX" H 3300 1500 50  0001 C CNN
F 2 "AllModules:B3CAP-RB0505_1" H 3300 1500 50  0001 C CNN
F 3 "" H 3300 1500 50  0001 C CNN
F 4 "EMC CASING - CASE 3 PRESSURE SENSORS" H 3300 1500 50  0001 C CNN "Description"
F 5 "4096600.M00.003" H 3300 1500 50  0001 C CNN "Item Number"
F 6 "SUZHOU ACE SHEET MATEL MANUFACTURING CO., LTD" H 3300 1500 50  0001 C CNN "Manufacturer"
F 7 "4096600.M00.003" H 3300 1500 50  0001 C CNN "Manufacturer_No"
	1    3300 1500
	1    0    0    -1  
$EndComp
Wire Wire Line
	3400 1500 3425 1500
Wire Wire Line
	3425 1500 3425 2250
Wire Wire Line
	3425 2250 3500 2300
Wire Wire Line
	3500 2300 3500 2500
Wire Wire Line
	3500 2300 3550 2250
Connection ~ 3500 2300
Wire Wire Line
	3500 7700 3550 7750
Wire Wire Line
	3550 7750 3600 7700
Connection ~ 3550 7750
Wire Wire Line
	1550 7650 1550 8000
Wire Wire Line
	3550 7750 3550 8000
Wire Wire Line
	3550 8000 3250 8000
Wire Wire Line
	3250 8000 3250 7650
Connection ~ 3250 7650
Wire Wire Line
	3250 8000 1550 8000
Connection ~ 3250 8000
Connection ~ 1550 8000
Wire Wire Line
	1550 10050 3250 10050
Wire Wire Line
	3050 9550 3250 9550
Wire Wire Line
	3250 9550 3250 9700
Wire Wire Line
	3250 9700 3050 9700
Wire Wire Line
	3250 9700 3250 10050
Connection ~ 3250 9700
Connection ~ 3250 10050
Wire Wire Line
	3250 10050 3600 10050
Wire Wire Line
	2550 8750 3250 8750
Wire Wire Line
	3250 9250 3050 9250
Wire Wire Line
	3250 8750 3250 9250
Text Label 7050 5400 2    50   ~ 0
PROX-PRES-MEAS
Wire Wire Line
	7050 5400 7450 5400
Text HLabel 7050 5500 0    56   Output ~ 0
MRST-SPI-0_E
Wire Wire Line
	7050 5500 7350 5500
Wire Wire Line
	7350 5500 7350 6000
Wire Wire Line
	7450 5400 7450 6000
$Comp
L V_Capacitor:C0402_100nF_16V_10% C57
U 1 1 676BBC9D
P 7800 5400
F 0 "C57" V 8037 5319 64  0000 L BNN
F 1 "DNP" V 7955 5348 42  0000 L BNN
F 2 "AllModules:C0402_1" H 7800 5400 50  0001 C CNN
F 3 "" H 7800 5400 50  0001 C CNN
F 4 "10022607" V 7800 5400 50  0001 C CNN "Item Number"
F 5 "CAPACITOR,100NF,16V,+/-10%,X7R,0402" H 0   0   50  0001 C CNN "Description"
F 6 "MURATA" H 0   0   50  0001 C CNN "Manufacturer"
F 7 "YAGEO_RMS1" H 0   0   50  0001 C CNN "Manufacturer2"
F 8 "YAGEO_RMS1" H 0   0   50  0001 C CNN "Manufacturer3"
F 9 "GRM155R71C104JA88J" H 0   0   50  0001 C CNN "Manufacturer_No"
F 10 "CC0402KRX7R7BB104" H 0   0   50  0001 C CNN "Manufacturer_No2"
F 11 "CC0402KRX7R7BB104" H 0   0   50  0001 C CNN "Manufacturer_No3"
	1    7800 5400
	0    1    -1   0   
$EndComp
Wire Wire Line
	3550 1950 3550 1900
Wire Wire Line
	4650 2000 4650 1900
Wire Wire Line
	4650 2300 4650 2350
Wire Wire Line
	4550 4100 4550 4150
Wire Wire Line
	3550 5850 3550 5900
Wire Wire Line
	4550 5950 4550 6025
Wire Wire Line
	4300 9750 4300 9800
Wire Wire Line
	10900 2150 10900 2050
Wire Wire Line
	10900 2450 10900 2650
Wire Wire Line
	9500 1900 9500 1500
Wire Wire Line
	14750 2100 14750 2050
Wire Wire Line
	14750 2400 14750 2450
$Comp
L V_IC:ASDX_10023117 IC16
U 1 1 9EF2916C
P 2500 2000
F 0 "IC16" H 2488 2563 85  0000 C CNN
F 1 "ASDX001D44R-SQ04689" H 2488 2463 55  0000 C CNN
F 2 "AllModules:ASDX001D44R_1" H 2500 2000 50  0001 C CNN
F 3 "" H 2500 2000 50  0001 C CNN
F 4 "IC, PRESSURE TRANSDUCER,(-10/+100 MBAR)" H 2500 2000 50  0001 C CNN "Description"
F 5 "10023117" H 2500 2000 50  0001 C CNN "Item Number"
F 6 "SENSYM_RMS1 / honeywell" H 2500 2000 50  0001 C CNN "Manufacturer"
F 7 "ASDX001D44R" H 2500 2000 50  0001 C CNN "Manufacturer_No"
F 8 "First Sensor" H 2500 2000 50  0001 C CNN "Manufacturer2"
F 9 "SQ274-P001BDM8C5" H 2500 2000 50  0001 C CNN "Manufacturer_No2"
F 10 "HONEYWELL_RMS1" H 0   0   50  0001 C CNN "Manufacturer3"
F 11 "XZ209766-ASDX" H 0   0   50  0001 C CNN "Manufacturer_No3"
	1    2500 2000
	1    0    0    -1  
$EndComp
$Comp
L V_Capacitor:C0402_100nF_16V_10% C70
U 1 1 5F8D81F9
P 4550 3950
F 0 "C70" H 4650 3925 64  0000 L CNN
F 1 "100nF" H 4650 4000 42  0000 L CNN
F 2 "AllModules:C0402_1" H 4550 3950 50  0001 C CNN
F 3 "" H 4550 3950 50  0001 C CNN
F 4 "CAPACITOR,100NF,16V,+/-10%,X7R,0402" H 4550 3950 50  0001 C CNN "Description"
F 5 "10022607" H 4550 3950 50  0001 C CNN "Item Number"
F 6 "MURATA" H 4550 3950 50  0001 C CNN "Manufacturer"
F 7 "GRM155R71C104JA88J" H 4550 3950 50  0001 C CNN "Manufacturer_No"
F 8 "YAGEO_RMS1" H 4550 3950 50  0001 C CNN "Manufacturer2"
F 9 "CC0402KRX7R7BB104" H 4550 3950 50  0001 C CNN "Manufacturer_No2"
F 10 "YAGEO_RMS1" H 4550 3950 50  0001 C CNN "Manufacturer3"
F 11 "CC0402KRX7R7BB104" H 4550 3950 50  0001 C CNN "Manufacturer_No3"
	1    4550 3950
	1    0    0    1   
$EndComp
Wire Wire Line
	3050 3700 3550 3700
Wire Wire Line
	3550 3700 3950 3700
Connection ~ 3550 3700
Wire Wire Line
	3550 3700 3550 3750
Wire Wire Line
	3600 9700 3600 9775
$Comp
L V_Capacitor:C0603_4n7F_50V_10% C96
U 1 1 C9A1B3F0
P 3600 9550
F 0 "C96" H 3700 9550 64  0000 L CNN
F 1 "4.7nF" H 3700 9625 42  0000 L CNN
F 2 "AllModules:C0603_1" H 3600 9550 50  0001 C CNN
F 3 "" H 3600 9550 50  0001 C CNN
F 4 "CAPACITOR CERAMIC,4.7NF,+/-10%,50V,0603" H 3600 9550 50  0001 C CNN "Description"
F 5 "10022613" H 3600 9550 50  0001 C CNN "Item Number"
F 6 "KEMET_RMS1" H 3600 9550 50  0001 C CNN "Manufacturer"
F 7 "C0603C472K5RACTU" H 3600 9550 50  0001 C CNN "Manufacturer_No"
F 8 "YAGEO_RMS1" H 3600 9550 50  0001 C CNN "Manufacturer2"
F 9 "CC0603KRX7R9BB472" H 3600 9550 50  0001 C CNN "Manufacturer_No2"
	1    3600 9550
	1    0    0    1   
$EndComp
$Comp
L V_Capacitor:C0402_100nF_16V_10% C72
U 1 1 16847C85
P 4300 7550
F 0 "C72" H 4400 7500 64  0000 L CNN
F 1 "100nF" H 4405 7581 42  0000 L CNN
F 2 "AllModules:C0402_1" H 4300 7550 50  0001 C CNN
F 3 "" H 4300 7550 50  0001 C CNN
F 4 "10022607" H 4300 7550 50  0001 C CNN "Item Number"
F 5 "CAPACITOR,100NF,16V,+/-10%,X7R,0402" H 0   0   50  0001 C CNN "Description"
F 6 "MURATA" H 0   0   50  0001 C CNN "Manufacturer"
F 7 "YAGEO_RMS1" H 0   0   50  0001 C CNN "Manufacturer2"
F 8 "YAGEO_RMS1" H 0   0   50  0001 C CNN "Manufacturer3"
F 9 "GRM155R71C104JA88J" H 0   0   50  0001 C CNN "Manufacturer_No"
F 10 "CC0402KRX7R7BB104" H 0   0   50  0001 C CNN "Manufacturer_No2"
F 11 "CC0402KRX7R7BB104" H 0   0   50  0001 C CNN "Manufacturer_No3"
	1    4300 7550
	1    0    0    1   
$EndComp
Wire Wire Line
	4050 7350 4300 7350
Wire Wire Line
	4300 7700 4300 7775
Wire Wire Line
	4300 7400 4300 7350
Connection ~ 4300 7350
Wire Wire Line
	4300 7350 4900 7350
Wire Wire Line
	4050 9400 4300 9400
Wire Wire Line
	4300 9450 4300 9400
Connection ~ 4300 9400
Wire Wire Line
	4300 9400 4900 9400
$Comp
L V_Capacitor:C0603_4n7F_50V_10% C73
U 1 1 936D7BF6
P 3600 7550
F 0 "C73" H 3709 7498 64  0000 L CNN
F 1 "4.7nF" H 3720 7579 42  0000 L CNN
F 2 "AllModules:C0603_1" H 3600 7550 50  0001 C CNN
F 3 "" H 3600 7550 50  0001 C CNN
F 4 "CAPACITOR CERAMIC,4.7NF,+/-10%,50V,0603" H 0   0   50  0001 C CNN "Description"
F 5 "10022613" H 0   0   50  0001 C CNN "Item Number"
F 6 "KEMET_RMS1" H 0   0   50  0001 C CNN "Manufacturer"
F 7 "YAGEO_RMS1" H 0   0   50  0001 C CNN "Manufacturer2"
F 8 "C0603C472K5RACTU" H 0   0   50  0001 C CNN "Manufacturer_No"
F 9 "CC0603KRX7R9BB472" H 0   0   50  0001 C CNN "Manufacturer_No2"
	1    3600 7550
	1    0    0    1   
$EndComp
Wire Wire Line
	3600 7350 3750 7350
Wire Wire Line
	3050 7350 3600 7350
Connection ~ 3600 7350
Wire Wire Line
	3600 7400 3600 7350
Wire Wire Line
	14400 4000 14400 4200
Wire Wire Line
	13900 4000 13900 4200
Wire Wire Line
	14300 4200 14400 4200
Connection ~ 14400 4200
Wire Wire Line
	14400 4200 14400 4375
Wire Wire Line
	14000 4200 13900 4200
Connection ~ 13900 4200
Wire Wire Line
	13900 4200 13900 4850
Wire Wire Line
	11950 4000 11950 4200
Wire Wire Line
	11450 4000 11450 4200
Wire Wire Line
	11850 4200 11950 4200
Connection ~ 11950 4200
Wire Wire Line
	11950 4200 11950 4400
Wire Wire Line
	11550 4200 11450 4200
Connection ~ 11450 4200
Wire Wire Line
	11450 4200 11450 4850
Wire Wire Line
	7550 2050 7550 2350
Wire Wire Line
	8050 2050 8050 2350
Wire Wire Line
	7950 2350 8050 2350
Connection ~ 8050 2350
Wire Wire Line
	8050 2350 8050 2600
Wire Wire Line
	7650 2350 7550 2350
Connection ~ 7550 2350
Wire Wire Line
	7550 2350 7550 2950
Wire Wire Line
	8050 5100 8050 5400
Wire Wire Line
	7550 5100 7550 5400
Wire Wire Line
	7950 5400 8050 5400
Connection ~ 8050 5400
Wire Wire Line
	8050 5400 8050 5650
Wire Wire Line
	7650 5400 7550 5400
Connection ~ 7550 5400
Wire Wire Line
	7550 5400 7550 6000
Wire Wire Line
	8050 8150 8050 8450
Wire Wire Line
	7550 8150 7550 8450
Wire Wire Line
	7950 8450 8050 8450
Connection ~ 8050 8450
Wire Wire Line
	8050 8450 8050 8700
Wire Wire Line
	7650 8450 7550 8450
Connection ~ 7550 8450
Wire Wire Line
	7550 8450 7550 9050
Wire Wire Line
	14200 2450 14200 2650
Wire Wire Line
	14200 2150 14200 2050
$Comp
L V_Power:+5VREF #0102
U 1 1 5EB30235
P 3400 1250
F 0 "#0102" H 3450 1300 50  0001 C CNN
F 1 "+5VREF" V 3400 1375 59  0000 L CNN
F 2 "" H 3400 1350 50  0001 C CNN
F 3 "" H 3400 1350 50  0001 C CNN
	1    3400 1250
	0    1    1    0   
$EndComp
$Comp
L V_Power:+5VREF #U0107
U 1 1 5EB38737
P 2500 4850
F 0 "#U0107" H 2550 4900 50  0001 C CNN
F 1 "+5VREF" H 2325 5000 59  0000 L CNN
F 2 "" H 2500 4950 50  0001 C CNN
F 3 "" H 2500 4950 50  0001 C CNN
	1    2500 4850
	1    0    0    -1  
$EndComp
$Comp
L V_Power:+5VREF #U0108
U 1 1 5EB3CB3D
P 2500 2950
F 0 "#U0108" H 2550 3000 50  0001 C CNN
F 1 "+5VREF" H 2325 3100 59  0000 L CNN
F 2 "" H 2500 3050 50  0001 C CNN
F 3 "" H 2500 3050 50  0001 C CNN
	1    2500 2950
	1    0    0    -1  
$EndComp
$Comp
L V_Power:+5VREF #U0109
U 1 1 5EB3F052
P 2550 6600
F 0 "#U0109" H 2600 6650 50  0001 C CNN
F 1 "+5VREF" H 2375 6750 59  0000 L CNN
F 2 "" H 2550 6700 50  0001 C CNN
F 3 "" H 2550 6700 50  0001 C CNN
	1    2550 6600
	1    0    0    -1  
$EndComp
$Comp
L V_Power:+5VREF #U0110
U 1 1 5EB4276D
P 2550 8650
F 0 "#U0110" H 2600 8700 50  0001 C CNN
F 1 "+5VREF" H 2375 8800 59  0000 L CNN
F 2 "" H 2550 8750 50  0001 C CNN
F 3 "" H 2550 8750 50  0001 C CNN
	1    2550 8650
	1    0    0    -1  
$EndComp
$Comp
L V_Power:+5VREF #U0111
U 1 1 5EB45C3B
P 8050 8150
F 0 "#U0111" H 8100 8200 50  0001 C CNN
F 1 "+5VREF" H 7875 8300 59  0000 L CNN
F 2 "" H 8050 8250 50  0001 C CNN
F 3 "" H 8050 8250 50  0001 C CNN
	1    8050 8150
	1    0    0    -1  
$EndComp
$Comp
L V_Power:+5VREF #U0112
U 1 1 5EB473CA
P 8050 5100
F 0 "#U0112" H 8100 5150 50  0001 C CNN
F 1 "+5VREF" H 7875 5250 59  0000 L CNN
F 2 "" H 8050 5200 50  0001 C CNN
F 3 "" H 8050 5200 50  0001 C CNN
	1    8050 5100
	1    0    0    -1  
$EndComp
$Comp
L V_Power:+5VREF #U0113
U 1 1 5EB495FF
P 8050 2050
F 0 "#U0113" H 8100 2100 50  0001 C CNN
F 1 "+5VREF" H 7875 2200 59  0000 L CNN
F 2 "" H 8050 2150 50  0001 C CNN
F 3 "" H 8050 2150 50  0001 C CNN
	1    8050 2050
	1    0    0    -1  
$EndComp
$Comp
L V_Power:+10VREF #0103
U 1 1 5EB61400
P 10050 1400
F 0 "#0103" H 10100 1450 50  0001 C CNN
F 1 "+10VREF" H 9850 1575 59  0000 L CNN
F 2 "" H 10050 1400 50  0001 C CNN
F 3 "" H 10050 1400 50  0001 C CNN
	1    10050 1400
	1    0    0    -1  
$EndComp
$Comp
L V_Power:+10VREF #U0114
U 1 1 5EB625BF
P 13350 1400
F 0 "#U0114" H 13400 1450 50  0001 C CNN
F 1 "+10VREF" H 13150 1575 59  0000 L CNN
F 2 "" H 13350 1400 50  0001 C CNN
F 3 "" H 13350 1400 50  0001 C CNN
	1    13350 1400
	1    0    0    -1  
$EndComp
$Comp
L V_Power:+5VREF #U0115
U 1 1 5EB68069
P 11950 4000
F 0 "#U0115" H 12000 4050 50  0001 C CNN
F 1 "+5VREF" H 11775 4150 59  0000 L CNN
F 2 "" H 11950 4100 50  0001 C CNN
F 3 "" H 11950 4100 50  0001 C CNN
	1    11950 4000
	1    0    0    -1  
$EndComp
$Comp
L V_Power:+5VREF #U0116
U 1 1 5EB6A54C
P 14400 4000
F 0 "#U0116" H 14450 4050 50  0001 C CNN
F 1 "+5VREF" H 14225 4150 59  0000 L CNN
F 2 "" H 14400 4100 50  0001 C CNN
F 3 "" H 14400 4100 50  0001 C CNN
	1    14400 4000
	1    0    0    -1  
$EndComp
$EndSCHEMATC
