EESchema Schematic File Version 4
EELAYER 30 0
EELAYER END
$Descr User 17729 11946
encoding utf-8
Sheet 8 8
Title "RB0505 CPU Board"
Date "2020-04-15"
Rev ""
Comp ""
Comment1 ""
Comment2 ""
Comment3 ""
Comment4 ""
$EndDescr
Text Label 14300 4900 2    50   ~ 0
CS2\
Text Label 8300 6550 0    50   ~ 0
CS2\
Text Label 14300 5100 2    50   ~ 0
BHE
Text Label 4100 5050 2    50   ~ 0
BHE
Text Label 4200 4850 2    50   ~ 0
TX_UART_ST_E
Text Label 12000 2050 0    50   ~ 0
TX_UART_ST_E
Text Label 4200 4950 2    50   ~ 0
RX_UART_ST_E
Text Label 10350 2150 2    50   ~ 0
RX_UART_ST_E
Text Label 10350 2350 2    50   ~ 0
AC_PRESENCE
Text Label 4300 6450 2    50   ~ 0
AC_PRESENCE
Text Label 2150 3150 2    50   ~ 0
USB_BUSY_E
Text Label 10350 2450 2    50   ~ 0
USB_BUSY_E
Text Label 10350 2550 2    50   ~ 0
MRST_SPI_1_E
Text Label 8300 7050 0    50   ~ 0
MRST_SPI_1_E
$Comp
L V_Power:0VANA #U$?
U 1 1 CA2824D4
P 7300 8950
AR Path="/CA2824D4" Ref="#U$?"  Part="1" 
AR Path="/5E923584/CA2824D4" Ref="#U$021"  Part="1" 
F 0 "#U$021" H 7300 8950 50  0001 C CNN
F 1 "0VANA" H 7425 8819 59  0000 R TNN
F 2 "" H 7300 8950 50  0001 C CNN
F 3 "" H 7300 8950 50  0001 C CNN
	1    7300 8950
	1    0    0    -1  
$EndComp
$Comp
L V_Capacitor:C0402_100nF_16V_10% C?
U 1 1 CB1F8FE5
P 14700 2150
AR Path="/CB1F8FE5" Ref="C?"  Part="1" 
AR Path="/5E923584/CB1F8FE5" Ref="C10"  Part="1" 
F 0 "C10" V 14950 2050 64  0000 L BNN
F 1 "100nF" V 14850 2050 42  0000 L BNN
F 2 "AllModules:C0402_1" H 14700 2150 50  0001 C CNN
F 3 "" H 14700 2150 50  0001 C CNN
F 4 "CAPACITOR,100NF,16V,+/-10%,X7R,0402" H 14700 2150 50  0001 C CNN "Description"
F 5 "10022607" H 14700 2150 50  0001 C CNN "Item Number"
F 6 "MURATA" H 14700 2150 50  0001 C CNN "Manufacturer"
F 7 "GRM155R71C104JA88J" H 14700 2150 50  0001 C CNN "Manufacturer_No"
F 8 "YAGEO_RMS1" H 14700 2150 50  0001 C CNN "Manufacturer2"
F 9 "CC0402KRX7R7BB104" H 14700 2150 50  0001 C CNN "Manufacturer_No2"
F 10 "YAGEO_RMS1" H 14700 2150 50  0001 C CNN "Manufacturer3"
F 11 "CC0402KRX7R7BB104" H 14700 2150 50  0001 C CNN "Manufacturer_No3"
	1    14700 2150
	0    1    -1   0   
$EndComp
$Comp
L V_Capacitor:C0402_100nF_16V_10% C?
U 1 1 A05C1986
P 7300 9650
AR Path="/A05C1986" Ref="C?"  Part="1" 
AR Path="/5E923584/A05C1986" Ref="C22"  Part="1" 
F 0 "C22" V 7287 9394 64  0000 L BNN
F 1 "100nF" V 7281 9700 42  0000 L BNN
F 2 "AllModules:C0402_1" H 7300 9650 50  0001 C CNN
F 3 "" H 7300 9650 50  0001 C CNN
F 4 "CAPACITOR,100NF,16V,+/-10%,X7R,0402" H 7300 9650 50  0001 C CNN "Description"
F 5 "10022607" H 7300 9650 50  0001 C CNN "Item Number"
F 6 "MURATA" H 7300 9650 50  0001 C CNN "Manufacturer"
F 7 "GRM155R71C104JA88J" H 7300 9650 50  0001 C CNN "Manufacturer_No"
F 8 "YAGEO_RMS1" H 7300 9650 50  0001 C CNN "Manufacturer2"
F 9 "CC0402KRX7R7BB104" H 7300 9650 50  0001 C CNN "Manufacturer_No2"
F 10 "YAGEO_RMS1" H 7300 9650 50  0001 C CNN "Manufacturer3"
F 11 "CC0402KRX7R7BB104" H 7300 9650 50  0001 C CNN "Manufacturer_No3"
F 12 "MURATA MANUFACTURING CO., LTD." H 7300 9650 50  0001 C CNN "Manufacturer4"
F 13 "GRM155R71C104KA88D" H 7300 9650 50  0001 C CNN "Manufacturer_No4"
	1    7300 9650
	0    -1   1    0   
$EndComp
$Comp
L V_Capacitor:C0402_100nF_16V_10% C?
U 1 1 93AA069D
P 7300 9850
AR Path="/93AA069D" Ref="C?"  Part="1" 
AR Path="/5E923584/93AA069D" Ref="C23"  Part="1" 
F 0 "C23" V 7287 9594 64  0000 L BNN
F 1 "100nF" V 7281 9900 42  0000 L BNN
F 2 "AllModules:C0402_1" H 7300 9850 50  0001 C CNN
F 3 "" H 7300 9850 50  0001 C CNN
F 4 "CAPACITOR,100NF,16V,+/-10%,X7R,0402" H 7300 9850 50  0001 C CNN "Description"
F 5 "10022607" H 7300 9850 50  0001 C CNN "Item Number"
F 6 "MURATA" H 7300 9850 50  0001 C CNN "Manufacturer"
F 7 "GRM155R71C104JA88J" H 7300 9850 50  0001 C CNN "Manufacturer_No"
F 8 "YAGEO_RMS1" H 7300 9850 50  0001 C CNN "Manufacturer2"
F 9 "CC0402KRX7R7BB104" H 7300 9850 50  0001 C CNN "Manufacturer_No2"
F 10 "YAGEO_RMS1" H 7300 9850 50  0001 C CNN "Manufacturer3"
F 11 "CC0402KRX7R7BB104" H 7300 9850 50  0001 C CNN "Manufacturer_No3"
F 12 "MURATA MANUFACTURING CO., LTD." H 7300 9850 50  0001 C CNN "Manufacturer4"
F 13 "GRM155R71C104KA88D" H 7300 9850 50  0001 C CNN "Manufacturer_No4"
	1    7300 9850
	0    -1   1    0   
$EndComp
$Comp
L V_Capacitor:C0402_100nF_16V_10% C?
U 1 1 5F5D481B
P 7300 10050
AR Path="/5F5D481B" Ref="C?"  Part="1" 
AR Path="/5E923584/5F5D481B" Ref="C25"  Part="1" 
F 0 "C25" V 7287 9794 64  0000 L BNN
F 1 "100nF" V 7281 10100 42  0000 L BNN
F 2 "AllModules:C0402_1" H 7300 10050 50  0001 C CNN
F 3 "" H 7300 10050 50  0001 C CNN
F 4 "CAPACITOR,100NF,16V,+/-10%,X7R,0402" H 7300 10050 50  0001 C CNN "Description"
F 5 "10022607" H 7300 10050 50  0001 C CNN "Item Number"
F 6 "MURATA" H 7300 10050 50  0001 C CNN "Manufacturer"
F 7 "GRM155R71C104JA88J" H 7300 10050 50  0001 C CNN "Manufacturer_No"
F 8 "YAGEO_RMS1" H 7300 10050 50  0001 C CNN "Manufacturer2"
F 9 "CC0402KRX7R7BB104" H 7300 10050 50  0001 C CNN "Manufacturer_No2"
F 10 "YAGEO_RMS1" H 7300 10050 50  0001 C CNN "Manufacturer3"
F 11 "CC0402KRX7R7BB104" H 7300 10050 50  0001 C CNN "Manufacturer_No3"
F 12 "MURATA MANUFACTURING CO., LTD." H 7300 10050 50  0001 C CNN "Manufacturer4"
F 13 "GRM155R71C104KA88D" H 7300 10050 50  0001 C CNN "Manufacturer_No4"
	1    7300 10050
	0    -1   1    0   
$EndComp
$Comp
L V_Capacitor:C0402_100nF_16V_10% C?
U 1 1 0EABB629
P 7300 10250
AR Path="/0EABB629" Ref="C?"  Part="1" 
AR Path="/5E923584/0EABB629" Ref="C26"  Part="1" 
F 0 "C26" V 7275 9994 64  0000 L BNN
F 1 "100nF" V 7281 10300 42  0000 L BNN
F 2 "AllModules:C0402_1" H 7300 10250 50  0001 C CNN
F 3 "" H 7300 10250 50  0001 C CNN
F 4 "CAPACITOR,100NF,16V,+/-10%,X7R,0402" H 7300 10250 50  0001 C CNN "Description"
F 5 "10022607" H 7300 10250 50  0001 C CNN "Item Number"
F 6 "MURATA" H 7300 10250 50  0001 C CNN "Manufacturer"
F 7 "GRM155R71C104JA88J" H 7300 10250 50  0001 C CNN "Manufacturer_No"
F 8 "YAGEO_RMS1" H 7300 10250 50  0001 C CNN "Manufacturer2"
F 9 "CC0402KRX7R7BB104" H 7300 10250 50  0001 C CNN "Manufacturer_No2"
F 10 "YAGEO_RMS1" H 7300 10250 50  0001 C CNN "Manufacturer3"
F 11 "CC0402KRX7R7BB104" H 7300 10250 50  0001 C CNN "Manufacturer_No3"
F 12 "MURATA MANUFACTURING CO., LTD." H 7300 10250 50  0001 C CNN "Manufacturer4"
F 13 "GRM155R71C104KA88D" H 7300 10250 50  0001 C CNN "Manufacturer_No4"
	1    7300 10250
	0    -1   1    0   
$EndComp
$Comp
L V_Capacitor:C0402_100nF_16V_10% C?
U 1 1 C9504634
P 7300 10450
AR Path="/C9504634" Ref="C?"  Part="1" 
AR Path="/5E923584/C9504634" Ref="C27"  Part="1" 
F 0 "C27" V 7287 10194 64  0000 L BNN
F 1 "100nF" V 7281 10500 42  0000 L BNN
F 2 "AllModules:C0402_1" H 7300 10450 50  0001 C CNN
F 3 "" H 7300 10450 50  0001 C CNN
F 4 "CAPACITOR,100NF,16V,+/-10%,X7R,0402" H 7300 10450 50  0001 C CNN "Description"
F 5 "10022607" H 7300 10450 50  0001 C CNN "Item Number"
F 6 "MURATA" H 7300 10450 50  0001 C CNN "Manufacturer"
F 7 "GRM155R71C104JA88J" H 7300 10450 50  0001 C CNN "Manufacturer_No"
F 8 "YAGEO_RMS1" H 7300 10450 50  0001 C CNN "Manufacturer2"
F 9 "CC0402KRX7R7BB104" H 7300 10450 50  0001 C CNN "Manufacturer_No2"
F 10 "YAGEO_RMS1" H 7300 10450 50  0001 C CNN "Manufacturer3"
F 11 "CC0402KRX7R7BB104" H 7300 10450 50  0001 C CNN "Manufacturer_No3"
F 12 "MURATA MANUFACTURING CO., LTD." H 7300 10450 50  0001 C CNN "Manufacturer4"
F 13 "GRM155R71C104KA88D" H 7300 10450 50  0001 C CNN "Manufacturer_No4"
	1    7300 10450
	0    -1   1    0   
$EndComp
$Comp
L V_Capacitor:C0402_100nF_16V_10% C?
U 1 1 AB97CB13
P 7300 10650
AR Path="/AB97CB13" Ref="C?"  Part="1" 
AR Path="/5E923584/AB97CB13" Ref="C28"  Part="1" 
F 0 "C28" V 7287 10394 64  0000 L BNN
F 1 "100nF" V 7281 10700 42  0000 L BNN
F 2 "AllModules:C0402_1" H 7300 10650 50  0001 C CNN
F 3 "" H 7300 10650 50  0001 C CNN
F 4 "CAPACITOR,100NF,16V,+/-10%,X7R,0402" H 7300 10650 50  0001 C CNN "Description"
F 5 "10022607" H 7300 10650 50  0001 C CNN "Item Number"
F 6 "MURATA" H 7300 10650 50  0001 C CNN "Manufacturer"
F 7 "GRM155R71C104JA88J" H 7300 10650 50  0001 C CNN "Manufacturer_No"
F 8 "YAGEO_RMS1" H 7300 10650 50  0001 C CNN "Manufacturer2"
F 9 "CC0402KRX7R7BB104" H 7300 10650 50  0001 C CNN "Manufacturer_No2"
F 10 "YAGEO_RMS1" H 7300 10650 50  0001 C CNN "Manufacturer3"
F 11 "CC0402KRX7R7BB104" H 7300 10650 50  0001 C CNN "Manufacturer_No3"
F 12 "MURATA MANUFACTURING CO., LTD." H 7300 10650 50  0001 C CNN "Manufacturer4"
F 13 "GRM155R71C104KA88D" H 7300 10650 50  0001 C CNN "Manufacturer_No4"
	1    7300 10650
	0    -1   1    0   
$EndComp
$Comp
L V_Capacitor:C0402_100nF_16V_10% C?
U 1 1 BCAFF6B0
P 7300 10800
AR Path="/BCAFF6B0" Ref="C?"  Part="1" 
AR Path="/5E923584/BCAFF6B0" Ref="C29"  Part="1" 
F 0 "C29" V 7287 10544 64  0000 L BNN
F 1 "100nF" V 7281 10850 42  0000 L BNN
F 2 "AllModules:C0402_1" H 7300 10800 50  0001 C CNN
F 3 "" H 7300 10800 50  0001 C CNN
F 4 "CAPACITOR,100NF,16V,+/-10%,X7R,0402" H 7300 10800 50  0001 C CNN "Description"
F 5 "10022607" H 7300 10800 50  0001 C CNN "Item Number"
F 6 "MURATA" H 7300 10800 50  0001 C CNN "Manufacturer"
F 7 "GRM155R71C104JA88J" H 7300 10800 50  0001 C CNN "Manufacturer_No"
F 8 "YAGEO_RMS1" H 7300 10800 50  0001 C CNN "Manufacturer2"
F 9 "CC0402KRX7R7BB104" H 7300 10800 50  0001 C CNN "Manufacturer_No2"
F 10 "YAGEO_RMS1" H 7300 10800 50  0001 C CNN "Manufacturer3"
F 11 "CC0402KRX7R7BB104" H 7300 10800 50  0001 C CNN "Manufacturer_No3"
F 12 "MURATA MANUFACTURING CO., LTD." H 7300 10800 50  0001 C CNN "Manufacturer4"
F 13 "GRM155R71C104KA88D" H 7300 10800 50  0001 C CNN "Manufacturer_No4"
	1    7300 10800
	0    -1   1    0   
$EndComp
$Comp
L V_Resistor:R1206_ARRAY_6K8_5% RS?
U 1 1 3DF3A440
P 10200 6550
AR Path="/3DF3A440" Ref="RS?"  Part="1" 
AR Path="/5E923584/3DF3A440" Ref="RS3"  Part="1" 
F 0 "RS3" H 10160 6830 59  0000 L BNN
F 1 "6.8k" H 10140 6760 59  0000 L BNN
F 2 "AllModules:BCN16_1" H 10200 6550 50  0001 C CNN
F 3 "" H 10200 6550 50  0001 C CNN
F 4 "10023253" H 10200 6550 50  0001 C CNN "Item Number"
	1    10200 6550
	-1   0    0    -1  
$EndComp
$Comp
L V_Resistor:R1206_ARRAY_15K_5% RS?
U 1 1 0530E82D
P 10200 5975
AR Path="/0530E82D" Ref="RS?"  Part="1" 
AR Path="/5E923584/0530E82D" Ref="RS2"  Part="1" 
F 0 "RS2" H 10160 6260 59  0000 L BNN
F 1 "15k" H 10170 6190 59  0000 L BNN
F 2 "AllModules:BCN16_1" H 10200 5975 50  0001 C CNN
F 3 "" H 10200 5975 50  0001 C CNN
F 4 "10023254" H 10200 5975 50  0001 C CNN "Item Number"
	1    10200 5975
	-1   0    0    -1  
$EndComp
$Comp
L V_Resistor:R1206_ARRAY_6K8_5% RS?
U 1 1 133E079A
P 10200 7150
AR Path="/133E079A" Ref="RS?"  Part="1" 
AR Path="/5E923584/133E079A" Ref="RS4"  Part="1" 
F 0 "RS4" H 10170 7430 59  0000 L BNN
F 1 "6.8k" H 10150 7360 59  0000 L BNN
F 2 "AllModules:BCN16_1" H 10200 7150 50  0001 C CNN
F 3 "" H 10200 7150 50  0001 C CNN
F 4 "10023253" H 10200 7150 50  0001 C CNN "Item Number"
	1    10200 7150
	-1   0    0    -1  
$EndComp
$Comp
L V_Resistor:R1206_ARRAY_6K8_5% RS?
U 1 1 2A0E722A
P 10200 7750
AR Path="/2A0E722A" Ref="RS?"  Part="1" 
AR Path="/5E923584/2A0E722A" Ref="RS5"  Part="1" 
F 0 "RS5" H 10170 8030 59  0000 L BNN
F 1 "6.8k" H 10150 7960 59  0000 L BNN
F 2 "AllModules:BCN16_1" H 10200 7750 50  0001 C CNN
F 3 "" H 10200 7750 50  0001 C CNN
F 4 "10023253" H 10200 7750 50  0001 C CNN "Item Number"
	1    10200 7750
	-1   0    0    -1  
$EndComp
$Comp
L V_Capacitor:C0402_100nF_16V_10% C?
U 1 1 284AD347
P 7300 11000
AR Path="/284AD347" Ref="C?"  Part="1" 
AR Path="/5E923584/284AD347" Ref="C120"  Part="1" 
F 0 "C120" V 7388 10694 64  0000 L BNN
F 1 "100nF" V 7369 11063 42  0000 L BNN
F 2 "AllModules:C0402_1" H 7300 11000 50  0001 C CNN
F 3 "" H 7300 11000 50  0001 C CNN
F 4 "CAPACITOR,100NF,16V,+/-10%,X7R,0402" H 0   0   50  0001 C CNN "Description"
F 5 "10022607" H 0   0   50  0001 C CNN "Item Number"
F 6 "MURATA" H 0   0   50  0001 C CNN "Manufacturer"
F 7 "YAGEO_RMS1" H 0   0   50  0001 C CNN "Manufacturer2"
F 8 "YAGEO_RMS1" H 0   0   50  0001 C CNN "Manufacturer3"
F 9 "GRM155R71C104JA88J" H 0   0   50  0001 C CNN "Manufacturer_No"
F 10 "CC0402KRX7R7BB104" H 0   0   50  0001 C CNN "Manufacturer_No2"
F 11 "CC0402KRX7R7BB104" H 0   0   50  0001 C CNN "Manufacturer_No3"
	1    7300 11000
	0    -1   1    0   
$EndComp
$Comp
L V_Crystal:Crystal_Small_10020993 Q?
U 1 1 F8782F37
P 5650 1150
AR Path="/F8782F37" Ref="Q?"  Part="1" 
AR Path="/5E923584/F8782F37" Ref="Q1"  Part="1" 
F 0 "Q1" H 5912 1172 51  0000 R TNN
F 1 "8MHz" H 5987 1100 51  0000 R TNN
F 2 "AllModules:HC49-4HSMX_1" H 5650 1150 50  0001 C CNN
F 3 "" H 5650 1150 50  0001 C CNN
F 4 "QUARTZ, 8 MHZ, 100PPM,SMD" H 5650 1150 50  0001 C CNN "Description"
F 5 "10020993" H 5650 1150 50  0001 C CNN "Item Number"
F 6 "IQD" H 5650 1150 50  0001 C CNN "Manufacturer"
F 7 "LFXTAL003151REEL" H 5650 1150 50  0001 C CNN "Manufacturer_No"
	1    5650 1150
	1    0    0    -1  
$EndComp
$Comp
L V_Resistor:R_100R_5% R?
U 1 1 E6C7F8B8
P 5550 1350
AR Path="/E6C7F8B8" Ref="R?"  Part="1" 
AR Path="/5E923584/E6C7F8B8" Ref="R1"  Part="1" 
F 0 "R1" V 5550 1400 64  0000 L BNN
F 1 "100" V 5625 1400 42  0000 L BNN
F 2 "AllModules:R0603_1" H 5550 1350 50  0001 C CNN
F 3 "" H 5550 1350 50  0001 C CNN
F 4 "RESISTOR, 100 OHM, 0.063W +/-5%" H 5550 1350 50  0001 C CNN "Description"
F 5 "10023189" H 5550 1350 50  0001 C CNN "Item Number"
F 6 "YAGEO_RMS1" H 5550 1350 50  0001 C CNN "Manufacturer"
F 7 "RC0603JR-07100RL" H 5550 1350 50  0001 C CNN "Manufacturer_No"
F 8 "YAGEO_RMS1" H 5550 1350 50  0001 C CNN "Manufacturer2"
F 9 "RC0603JR-07100RL" H 5550 1350 50  0001 C CNN "Manufacturer_No2"
F 10 "BOURNS_RMS1" H 5550 1350 50  0001 C CNN "Manufacturer3"
F 11 "CR0603-FX-1000ELF" H 5550 1350 50  0001 C CNN "Manufacturer_No3"
	1    5550 1350
	0    1    1    0   
$EndComp
$Comp
L V_Capacitor:C0805_330nF_16V_10% C?
U 1 1 967579EA
P 6550 1300
AR Path="/967579EA" Ref="C?"  Part="1" 
AR Path="/5E923584/967579EA" Ref="C6"  Part="1" 
F 0 "C6" H 6650 1250 64  0000 L CNN
F 1 "330nF" H 6650 1325 42  0000 L CNN
F 2 "AllModules:C0805_1" H 6550 1300 50  0001 C CNN
F 3 "" H 6550 1300 50  0001 C CNN
F 4 "CAPACITOR,330NF,+/-10%,16V,0805,X7R" H 6550 1300 50  0001 C CNN "Description"
F 5 "10022510" H 6550 1300 50  0001 C CNN "Item Number"
F 6 "YAGEO_RMS1" H 6550 1300 50  0001 C CNN "Manufacturer"
F 7 "CC0805KKX7R7BB334" H 6550 1300 50  0001 C CNN "Manufacturer_No"
F 8 "AVX_RMS1" H 6550 1300 50  0001 C CNN "Manufacturer2"
F 9 "0805YC334KAT2A" H 6550 1300 50  0001 C CNN "Manufacturer_No2"
F 10 "KEMET_RMS1" H 6550 1300 50  0001 C CNN "Manufacturer3"
F 11 "C0805C334K4RACTU" H 6550 1300 50  0001 C CNN "Manufacturer_No3"
	1    6550 1300
	1    0    0    1   
$EndComp
$Comp
L V_Capacitor:C_1uF_35V_10% C?
U 1 1 6D37B6AD
P 7400 1100
AR Path="/6D37B6AD" Ref="C?"  Part="1" 
AR Path="/5E923584/6D37B6AD" Ref="C8"  Part="1" 
F 0 "C8" H 7525 1106 56  0000 L BNN
F 1 "1uF" H 7525 1031 42  0000 L BNN
F 2 "AllModules:C3216_1" H 7400 1100 50  0001 C CNN
F 3 "" H 7400 1100 50  0001 C CNN
F 4 "CAPACITOR TANTALUM, 1UF,35V, +/-10%" H 7400 1100 50  0001 C CNN "Description"
F 5 "10022959" H 7400 1100 50  0001 C CNN "Item Number"
F 6 "KEMET" H 7400 1100 50  0001 C CNN "Manufacturer"
F 7 "T491A105M035AT" H 7400 1100 50  0001 C CNN "Manufacturer_No"
F 8 "KEMET" H 7400 1100 50  0001 C CNN "Manufacturer2"
F 9 "T495A105K035ATE3K0" H 7400 1100 50  0001 C CNN "Manufacturer_No2"
	1    7400 1100
	1    0    0    -1  
$EndComp
$Comp
L V_Power:0VANA #U$?
U 1 1 1DEA58DA
P 8350 1550
AR Path="/1DEA58DA" Ref="#U$?"  Part="1" 
AR Path="/5E923584/1DEA58DA" Ref="#U$019"  Part="1" 
F 0 "#U$019" H 8350 1550 50  0001 C CNN
F 1 "0VANA" H 8263 1363 59  0000 L BNN
F 2 "" H 8350 1550 50  0001 C CNN
F 3 "" H 8350 1550 50  0001 C CNN
	1    8350 1550
	1    0    0    -1  
$EndComp
$Comp
L V_Connector:PAST01 PST?
U 1 1 AD296153
P 8350 5850
AR Path="/AD296153" Ref="PST?"  Part="1" 
AR Path="/5E923584/AD296153" Ref="PST3"  Part="1" 
F 0 "PST3" H 8475 5812 59  0000 L BNN
F 1 "PAST01" H 8350 5850 50  0001 C CNN
F 2 "AllModules:PT-1.0MM_TEST_1" H 8350 5850 50  0001 C CNN
F 3 "" H 8350 5850 50  0001 C CNN
	1    8350 5850
	1    0    0    -1  
$EndComp
$Comp
L V_Connector:PAST01 PST?
U 1 1 AD815FBB
P 8350 5950
AR Path="/AD815FBB" Ref="PST?"  Part="1" 
AR Path="/5E923584/AD815FBB" Ref="PST4"  Part="1" 
F 0 "PST4" H 8475 5912 59  0000 L BNN
F 1 "PAST01" H 8350 5950 50  0001 C CNN
F 2 "AllModules:PT-1.0MM_TEST_1" H 8350 5950 50  0001 C CNN
F 3 "" H 8350 5950 50  0001 C CNN
	1    8350 5950
	1    0    0    -1  
$EndComp
$Comp
L V_Connector:PAST01 PST?
U 1 1 66851D94
P 8350 6050
AR Path="/66851D94" Ref="PST?"  Part="1" 
AR Path="/5E923584/66851D94" Ref="PST6"  Part="1" 
F 0 "PST6" H 8475 6012 59  0000 L BNN
F 1 "PAST01" H 8350 6050 50  0001 C CNN
F 2 "AllModules:PT-1.0MM_TEST_1" H 8350 6050 50  0001 C CNN
F 3 "" H 8350 6050 50  0001 C CNN
	1    8350 6050
	1    0    0    -1  
$EndComp
$Comp
L V_Capacitor:C0603_22pF_50V_5% C?
U 1 1 7EE2FFE3
P 5750 1000
AR Path="/7EE2FFE3" Ref="C?"  Part="1" 
AR Path="/5E923584/7EE2FFE3" Ref="C1"  Part="1" 
F 0 "C1" H 5850 950 64  0000 L BNN
F 1 "22pF" H 5850 1025 42  0000 L BNN
F 2 "AllModules:C0603_1" H 5750 1000 50  0001 C CNN
F 3 "" H 5750 1000 50  0001 C CNN
F 4 "CAPACITOR CERAMIC,22PF,+/-5%,50V,0603" H 5750 1000 50  0001 C CNN "Description"
F 5 "10022632" H 5750 1000 50  0001 C CNN "Item Number"
F 6 "SAMSUNG_RMS1" H 5750 1000 50  0001 C CNN "Manufacturer"
F 7 "CL10C220JB8NNNC" H 5750 1000 50  0001 C CNN "Manufacturer_No"
F 8 "YAGEO_RMS1" H 5750 1000 50  0001 C CNN "Manufacturer2"
F 9 "CC0603JRNPO9BN220" H 5750 1000 50  0001 C CNN "Manufacturer_No2"
F 10 "YAGEO_RMS1" H 5750 1000 50  0001 C CNN "Manufacturer3"
F 11 "CC0603JRNPO9BN220" H 5750 1000 50  0001 C CNN "Manufacturer_No3"
	1    5750 1000
	1    0    0    1   
$EndComp
$Comp
L V_Capacitor:C0603_22pF_50V_5% C?
U 1 1 5ADCC44B
P 5550 1000
AR Path="/5ADCC44B" Ref="C?"  Part="1" 
AR Path="/5E923584/5ADCC44B" Ref="C3"  Part="1" 
F 0 "C3" H 5300 950 64  0000 L BNN
F 1 "22pF" H 5300 1025 42  0000 L BNN
F 2 "AllModules:C0603_1" H 5550 1000 50  0001 C CNN
F 3 "" H 5550 1000 50  0001 C CNN
F 4 "CAPACITOR CERAMIC,22PF,+/-5%,50V,0603" H 5550 1000 50  0001 C CNN "Description"
F 5 "10022632" H 5550 1000 50  0001 C CNN "Item Number"
F 6 "SAMSUNG_RMS1" H 5550 1000 50  0001 C CNN "Manufacturer"
F 7 "CL10C220JB8NNNC" H 5550 1000 50  0001 C CNN "Manufacturer_No"
F 8 "YAGEO_RMS1" H 5550 1000 50  0001 C CNN "Manufacturer2"
F 9 "CC0603JRNPO9BN220" H 5550 1000 50  0001 C CNN "Manufacturer_No2"
F 10 "YAGEO_RMS1" H 5550 1000 50  0001 C CNN "Manufacturer3"
F 11 "CC0603JRNPO9BN220" H 5550 1000 50  0001 C CNN "Manufacturer_No3"
	1    5550 1000
	1    0    0    1   
$EndComp
$Comp
L V_Power:0VANA #U$?
U 1 1 DBF96AF7
P 1800 9950
AR Path="/DBF96AF7" Ref="#U$?"  Part="1" 
AR Path="/5E923584/DBF96AF7" Ref="#U$0321"  Part="1" 
F 0 "#U$0321" H 1800 9950 50  0001 C CNN
F 1 "0VANA" H 1688 9775 59  0000 L BNN
F 2 "" H 1800 9950 50  0001 C CNN
F 3 "" H 1800 9950 50  0001 C CNN
	1    1800 9950
	0    1    1    0   
$EndComp
$Comp
L V_Resistor:R0603_56k_1% R?
U 1 1 C54AB7D0
P 2200 9550
AR Path="/C54AB7D0" Ref="R?"  Part="1" 
AR Path="/5E923584/C54AB7D0" Ref="R14"  Part="1" 
F 0 "R14" H 1887 9562 64  0000 L BNN
F 1 "56k" H 1900 9475 42  0000 L BNN
F 2 "AllModules:R0603_1" H 2200 9550 50  0001 C CNN
F 3 "" H 2200 9550 50  0001 C CNN
F 4 "RESISTOR, 56K OHM, 0603, +/-1%" H 2200 9550 50  0001 C CNN "Description"
F 5 "10023235" H 2200 9550 50  0001 C CNN "Item Number"
F 6 "YAGEO_RMS1" H 2200 9550 50  0001 C CNN "Manufacturer"
F 7 "RC0603FR-0756KL" H 2200 9550 50  0001 C CNN "Manufacturer_No"
F 8 "BOURNS_RMS1" H 2200 9550 50  0001 C CNN "Manufacturer2"
F 9 "CR0603-FX-5602ELF" H 2200 9550 50  0001 C CNN "Manufacturer_No2"
F 10 "YAGEO_RMS1" H 2200 9550 50  0001 C CNN "Manufacturer3"
F 11 "RC0603FR-0756KL" H 2200 9550 50  0001 C CNN "Manufacturer_No3"
	1    2200 9550
	1    0    0    -1  
$EndComp
$Comp
L V_Resistor:R0603_10k5_0.1% R?
U 1 1 BAB36D42
P 2200 9850
AR Path="/BAB36D42" Ref="R?"  Part="1" 
AR Path="/5E923584/BAB36D42" Ref="R15"  Part="1" 
F 0 "R15" H 2112 9975 64  0000 L BNN
F 1 "10.5k" H 2112 9912 42  0000 L BNN
F 2 "AllModules:R0603_1" H 2200 9850 50  0001 C CNN
F 3 "" H 2200 9850 50  0001 C CNN
F 4 "RESISTOR, 10.5K OHM, 0603, +/-0.1%" H 2200 9850 50  0001 C CNN "Description"
F 5 "10097268" H 2200 9850 50  0001 C CNN "Item Number"
F 6 "SUSUMU CO." H 2200 9850 50  0001 C CNN "Manufacturer"
F 7 "RG1608P-1052-B-T5" H 2200 9850 50  0001 C CNN "Manufacturer_No"
F 8 "VISHAY_RMS1" H 2200 9850 50  0001 C CNN "Manufacturer2"
F 9 "TNPW060310K5BEEA" H 2200 9850 50  0001 C CNN "Manufacturer_No2"
	1    2200 9850
	1    0    0    -1  
$EndComp
$Comp
L V_Capacitor:C0402_100nF_16V_10% C?
U 1 1 597E8BEF
P 2200 10050
AR Path="/597E8BEF" Ref="C?"  Part="1" 
AR Path="/5E923584/597E8BEF" Ref="C36"  Part="1" 
F 0 "C36" V 2100 10282 64  0000 R TNN
F 1 "100nF" V 2025 10300 42  0000 R TNN
F 2 "AllModules:C0402_1" H 2200 10050 50  0001 C CNN
F 3 "" H 2200 10050 50  0001 C CNN
F 4 "CAPACITOR,100NF,16V,+/-10%,X7R,0402" H 2200 10050 50  0001 C CNN "Description"
F 5 "10022607" H 2200 10050 50  0001 C CNN "Item Number"
F 6 "MURATA" H 2200 10050 50  0001 C CNN "Manufacturer"
F 7 "GRM155R71C104JA88J" H 2200 10050 50  0001 C CNN "Manufacturer_No"
F 8 "YAGEO_RMS1" H 2200 10050 50  0001 C CNN "Manufacturer2"
F 9 "CC0402KRX7R7BB104" H 2200 10050 50  0001 C CNN "Manufacturer_No2"
F 10 "YAGEO_RMS1" H 2200 10050 50  0001 C CNN "Manufacturer3"
F 11 "CC0402KRX7R7BB104" H 2200 10050 50  0001 C CNN "Manufacturer_No3"
	1    2200 10050
	0    1    -1   0   
$EndComp
$Comp
L V_Resistor:R0603_1k5_5% R?
U 1 1 D628991E
P 3100 5950
AR Path="/D628991E" Ref="R?"  Part="1" 
AR Path="/5E923584/D628991E" Ref="R10"  Part="1" 
F 0 "R10" H 2975 5825 64  0000 L BNN
F 1 "1.5k" H 3000 5750 42  0000 L BNN
F 2 "AllModules:R0603_1" H 3100 5950 50  0001 C CNN
F 3 "" H 3100 5950 50  0001 C CNN
F 4 "RESISTOR 1.5K OHM, 0603, +/-5%" H 3100 5950 50  0001 C CNN "Description"
F 5 "10023187" H 3100 5950 50  0001 C CNN "Item Number"
F 6 "YAGEO_RMS1" H 3100 5950 50  0001 C CNN "Manufacturer"
F 7 "RC0603JR-071K5L" H 3100 5950 50  0001 C CNN "Manufacturer_No"
F 8 "YAGEO_RMS1" H 3100 5950 50  0001 C CNN "Manufacturer2"
F 9 "RC0603JR-071K5L" H 3100 5950 50  0001 C CNN "Manufacturer_No2"
F 10 "YAGEO_RMS1" H 3100 5950 50  0001 C CNN "Manufacturer3"
F 11 "RC0603JR-071K5L" H 3100 5950 50  0001 C CNN "Manufacturer_No3"
	1    3100 5950
	1    0    0    -1  
$EndComp
$Comp
L V_Capacitor:C0612_47pF_50V_10% C?
U 1 1 8BD8962D
P 2150 3950
AR Path="/8BD8962D" Ref="C?"  Part="1" 
AR Path="/5E923584/8BD8962D" Ref="C14"  Part="1" 
F 0 "C14" H 2600 3850 64  0000 L BNN
F 1 "47pF" H 2600 3950 42  0000 L BNN
F 2 "AllModules:C0612-4_1" H 2150 3950 50  0001 C CNN
F 3 "" H 2150 3950 50  0001 C CNN
F 4 "CAPACITOR ARRAY, 47PF, 50V, +/-10%,NPO,0612" H 2150 3950 50  0001 C CNN "Description"
F 5 "10095973" H 2150 3950 50  0001 C CNN "Item Number"
F 6 "AVX_RMS1" H 2150 3950 50  0001 C CNN "Manufacturer"
F 7 "W3A45A470KAT2A" H 2150 3950 50  0001 C CNN "Manufacturer_No"
F 8 "YAGEO_RMS1" H 0   0   50  0001 C CNN "Manufacturer2"
F 9 "CA0612JRNPO9BN470" H 0   0   50  0001 C CNN "Manufacturer_No2"
	1    2150 3950
	-1   0    0    1   
$EndComp
$Comp
L V_Resistor:R1206_ARRAY_15K_5% RS?
U 1 1 3858CF0B
P 2500 2650
AR Path="/3858CF0B" Ref="RS?"  Part="1" 
AR Path="/5E923584/3858CF0B" Ref="RS7"  Part="1" 
F 0 "RS7" V 2500 2260 59  0000 L BNN
F 1 "15k" V 2588 2275 59  0000 L BNN
F 2 "AllModules:BCN16_1" H 2500 2650 50  0001 C CNN
F 3 "" H 2500 2650 50  0001 C CNN
F 4 "10023254" H 2500 2650 50  0001 C CNN "Item Number"
	1    2500 2650
	0    1    1    0   
$EndComp
$Comp
L V_Jumper:JUMP_0U JP?
U 1 1 357D3C8D
P 1700 7000
AR Path="/357D3C8D" Ref="JP?"  Part="1" 
AR Path="/5E923584/357D3C8D" Ref="JP8"  Part="1" 
F 0 "JP8" V 1825 6825 51  0000 L BNN
F 1 "JUMP_0U" H 1600 6850 51  0001 L BNN
F 2 "AllModules:R0603_1" H 1700 7000 50  0001 C CNN
F 3 "" H 1700 7000 50  0001 C CNN
F 4 "RESISTANCE, 0 OHM,0603" H 0   0   50  0001 C CNN "Description"
F 5 "10023185" H 0   0   50  0001 C CNN "Item Number"
F 6 "YAGEO_RMS1" H 0   0   50  0001 C CNN "Manufacturer"
F 7 "YAGEO_RMS1" H 0   0   50  0001 C CNN "Manufacturer2"
F 8 "YAGEO_RMS1" H 0   0   50  0001 C CNN "Manufacturer3"
F 9 "RC0603JR-070RL" H 0   0   50  0001 C CNN "Manufacturer_No"
F 10 "RC0603JR-070RL" H 0   0   50  0001 C CNN "Manufacturer_No2"
F 11 "RC0603JR-070RL" H 0   0   50  0001 C CNN "Manufacturer_No3"
	1    1700 7000
	0    -1   -1   0   
$EndComp
$Comp
L V_Diode:D_Zener_A1K3_10022655 D?
U 1 1 8A392F19
P 12400 4250
AR Path="/8A392F19" Ref="D?"  Part="1" 
AR Path="/5E923584/8A392F19" Ref="D8"  Part="1" 
F 0 "D8" V 12441 4129 59  0000 R TNN
F 1 "BZX84C4V7" V 12360 4126 59  0000 R TNN
F 2 "AllModules:SOT23-1G_1" H 12400 4250 50  0001 C CNN
F 3 "" H 12400 4250 50  0001 C CNN
F 4 "DIODE ZENER, 0.35W,4.7V" H 12400 4250 50  0001 C CNN "Description"
F 5 "10022655" H 12400 4250 50  0001 C CNN "Item Number"
F 6 "NXP SEMICONDUCTORS_RMS1" H 12400 4250 50  0001 C CNN "Manufacturer"
F 7 "BZX84-C4V7" H 12400 4250 50  0001 C CNN "Manufacturer_No"
F 8 "NXP SEMICONDUCTORS_RMS1" H 12400 4250 50  0001 C CNN "Manufacturer2"
F 9 "BZX84-C4V7,215" H 12400 4250 50  0001 C CNN "Manufacturer_No2"
	1    12400 4250
	0    -1   -1   0   
$EndComp
$Comp
L V_Resistor:R_4k7_5% R?
U 1 1 CEF2471C
P 12650 4050
AR Path="/CEF2471C" Ref="R?"  Part="1" 
AR Path="/5E923584/CEF2471C" Ref="R72"  Part="1" 
F 0 "R72" H 12537 4187 64  0000 L BNN
F 1 "4.7k" H 12537 4125 42  0000 L BNN
F 2 "AllModules:R0603_1" H 12650 4050 50  0001 C CNN
F 3 "" H 12650 4050 50  0001 C CNN
F 4 "RESISTOR, 4.7 K OHM, 0.063W +/-5%" H 12650 4050 50  0001 C CNN "Description"
F 5 "10022617" H 12650 4050 50  0001 C CNN "Item Number"
F 6 "BOURNS_RMS1" H 12650 4050 50  0001 C CNN "Manufacturer"
F 7 "CR0603-FX-4701ELF " H 12650 4050 50  0001 C CNN "Manufacturer_No"
F 8 "YAGEO_RMS1" H 12650 4050 50  0001 C CNN "Manufacturer2"
F 9 "RC0603JR-074K7L" H 12650 4050 50  0001 C CNN "Manufacturer_No2"
F 10 "YAGEO_RMS1" H 12650 4050 50  0001 C CNN "Manufacturer3"
F 11 "RC0603JR-074K7L" H 12650 4050 50  0001 C CNN "Manufacturer_No3"
F 12 "YAGEO_RMS1" H 12650 4050 50  0001 C CNN "Manufacturer4"
F 13 "232270260472" H 12650 4050 50  0001 C CNN "Manufacturer_No4"
	1    12650 4050
	-1   0    0    -1  
$EndComp
$Comp
L V_IC:74HCT1G04GW IC?
U 1 1 3D34EBB1
P 12200 4350
AR Path="/3D34EBB1" Ref="IC?"  Part="1" 
AR Path="/5E923584/3D34EBB1" Ref="IC41"  Part="1" 
F 0 "IC41" H 12154 5093 64  0000 L BNN
F 1 "74HCT1G04GW" H 11741 5016 59  0000 L BNN
F 2 "AllModules:SC70-5_1" H 12200 4350 50  0001 C CNN
F 3 "" H 12200 4350 50  0001 C CNN
F 4 "IC, INVERTER,SOT353" H 12200 4350 50  0001 C CNN "Description"
F 5 "10023118" H 12200 4350 50  0001 C CNN "Item Number"
F 6 "NXP SEMICONDUCTORS_RMS1" H 12200 4350 50  0001 C CNN "Manufacturer"
F 7 "74HCT1G04GW,125" H 12200 4350 50  0001 C CNN "Manufacturer_No"
F 8 "NXP SEMICONDUCTORS_RMS1" H 12200 4350 50  0001 C CNN "Manufacturer2"
F 9 "74HCT1G04GW" H 12200 4350 50  0001 C CNN "Manufacturer_No2"
	1    12200 4350
	-1   0    0    -1  
$EndComp
$Comp
L V_Resistor:R_100k_5% R?
U 1 1 CCBE402C
P 12050 7250
AR Path="/CCBE402C" Ref="R?"  Part="1" 
AR Path="/5E923584/CCBE402C" Ref="R60"  Part="1" 
F 0 "R60" V 12137 7325 64  0000 L BNN
F 1 "100k" V 12037 7363 42  0000 L BNN
F 2 "AllModules:R0603_1" H 12050 7250 50  0001 C CNN
F 3 "" H 12050 7250 50  0001 C CNN
F 4 "RESISTOR,100 K OHM, 0.063W +/-5%" H 12050 7250 50  0001 C CNN "Description"
F 5 "10022732" H 12050 7250 50  0001 C CNN "Item Number"
F 6 "YAGEO_RMS1" H 12050 7250 50  0001 C CNN "Manufacturer"
F 7 "RC0603JR-07100KL" H 12050 7250 50  0001 C CNN "Manufacturer_No"
F 8 "YAGEO_RMS1" H 12050 7250 50  0001 C CNN "Manufacturer2"
F 9 "RC0603JR-07100KL" H 12050 7250 50  0001 C CNN "Manufacturer_No2"
F 10 "YAGEO_RMS1" H 12050 7250 50  0001 C CNN "Manufacturer3"
F 11 "RC0603JR-07100KL" H 12050 7250 50  0001 C CNN "Manufacturer_No3"
F 12 "PANASONIC_RMS1" H 12050 7250 50  0001 C CNN "Manufacturer4"
F 13 "ERJ3GEYJ104V" H 12050 7250 50  0001 C CNN "Manufacturer_No4"
	1    12050 7250
	0    -1   -1   0   
$EndComp
$Comp
L V_IC:74HCT1G32GW IC?
U 1 1 6E981591
P 15100 7600
AR Path="/6E981591" Ref="IC?"  Part="1" 
AR Path="/5E923584/6E981591" Ref="IC43"  Part="1" 
F 0 "IC43" H 15037 8350 64  0000 L BNN
F 1 "74HCT1G32GW" H 14643 8270 59  0000 L BNN
F 2 "AllModules:SC70-5_1" H 15100 7600 50  0001 C CNN
F 3 "" H 15100 7600 50  0001 C CNN
F 4 "IC, 2 INPUT OR-GATE,SOT353" H 15100 7600 50  0001 C CNN "Description"
F 5 "10022960" H 15100 7600 50  0001 C CNN "Item Number"
F 6 "NXP SEMICONDUCTORS_RMS1" H 15100 7600 50  0001 C CNN "Manufacturer"
F 7 "74HCT1G32GW" H 15100 7600 50  0001 C CNN "Manufacturer_No"
F 8 "NXP SEMICONDUCTORS_RMS1" H 15100 7600 50  0001 C CNN "Manufacturer2"
F 9 "74HCT1G32GW,125" H 15100 7600 50  0001 C CNN "Manufacturer_No2"
	1    15100 7600
	-1   0    0    -1  
$EndComp
$Comp
L V_Capacitor:C0805_1uF_16V_10% C?
U 1 1 9A495DAC
P 12200 7250
AR Path="/9A495DAC" Ref="C?"  Part="1" 
AR Path="/5E923584/9A495DAC" Ref="C114"  Part="1" 
F 0 "C114" H 12300 7200 64  0000 L BNN
F 1 "1uF" H 12325 7300 42  0000 L BNN
F 2 "AllModules:C0805_1" H 12200 7250 50  0001 C CNN
F 3 "" H 12200 7250 50  0001 C CNN
F 4 "CAPACITOR, 1UF, +/-10%, 16V, 0805" H 12200 7250 50  0001 C CNN "Description"
F 5 "10022546" H 12200 7250 50  0001 C CNN "Item Number"
F 6 "AVX_RMS1" H 12200 7250 50  0001 C CNN "Manufacturer"
F 7 "0805YC105KAT2A" H 12200 7250 50  0001 C CNN "Manufacturer_No"
F 8 "MURATA MANUFACTURING CO., LTD." H 12200 7250 50  0001 C CNN "Manufacturer2"
F 9 "GRM21BR71C105KA01L" H 12200 7250 50  0001 C CNN "Manufacturer_No2"
	1    12200 7250
	1    0    0    1   
$EndComp
$Comp
L V_Diode:D_Schottky_A1K3_10022652 D?
U 1 1 59396773
P 13950 7700
AR Path="/59396773" Ref="D?"  Part="1" 
AR Path="/5E923584/59396773" Ref="D9"  Part="1" 
F 0 "D9" V 14074 7481 59  0000 L BNN
F 1 "BAT54" V 13932 7608 42  0000 R TNN
F 2 "AllModules:SOT23-1G_1" H 13950 7700 50  0001 C CNN
F 3 "" H 13950 7700 50  0001 C CNN
F 4 "DIODE SCHOTTKY, 30V, 200MA" H 13950 7700 50  0001 C CNN "Description"
F 5 "10022652" H 13950 7700 50  0001 C CNN "Item Number"
F 6 "NXP SEMICONDUCTORS_RMS1" H 13950 7700 50  0001 C CNN "Manufacturer"
F 7 "BAT54,215" H 13950 7700 50  0001 C CNN "Manufacturer_No"
F 8 "NXP SEMICONDUCTORS_RMS1" H 13950 7700 50  0001 C CNN "Manufacturer2"
F 9 "BAT54" H 13950 7700 50  0001 C CNN "Manufacturer_No2"
	1    13950 7700
	0    -1   -1   0   
$EndComp
$Comp
L V_Connector:PINHD-1X1 PT?
U 1 1 D711CC1B
P 6500 8975
AR Path="/D711CC1B" Ref="PT?"  Part="1" 
AR Path="/5E923584/D711CC1B" Ref="PT2"  Part="1" 
F 0 "PT2" V 6650 8900 59  0000 L BNN
F 1 "PINHD-1X1" H 6150 9100 59  0001 L BNN
F 2 "AllModules:C12000_1" H 6500 8975 50  0001 C CNN
F 3 "" H 6500 8975 50  0001 C CNN
	1    6500 8975
	0    1    1    0   
$EndComp
$Comp
L V_Power:0VANA #U$?
U 1 1 F8BE309A
P 5100 10750
AR Path="/F8BE309A" Ref="#U$?"  Part="1" 
AR Path="/5E923584/F8BE309A" Ref="#U$0250"  Part="1" 
F 0 "#U$0250" H 5100 10750 50  0001 C CNN
F 1 "0VANA" H 5000 10575 59  0000 L BNN
F 2 "" H 5100 10750 50  0001 C CNN
F 3 "" H 5100 10750 50  0001 C CNN
	1    5100 10750
	0    -1   -1   0   
$EndComp
$Comp
L V_Resistor:R0603_10k_5% R?
U 1 1 F7CB6097
P 4800 10950
AR Path="/F7CB6097" Ref="R?"  Part="1" 
AR Path="/5E923584/F7CB6097" Ref="R62"  Part="1" 
F 0 "R62" H 4688 10763 64  0000 L BNN
F 1 "10k" H 4738 10838 42  0000 L BNN
F 2 "AllModules:R0603_1" H 4800 10950 50  0001 C CNN
F 3 "" H 4800 10950 50  0001 C CNN
F 4 "RESISTOR,10K OHM, 0.063W,+/-5%,0603" H 4800 10950 50  0001 C CNN "Description"
F 5 "10097266" H 4800 10950 50  0001 C CNN "Item Number"
F 6 "YAGEO_RMS1" H 4800 10950 50  0001 C CNN "Manufacturer"
F 7 "RC0603JR-0710KL" H 4800 10950 50  0001 C CNN "Manufacturer_No"
F 8 "YAGEO_RMS1" H 4800 10950 50  0001 C CNN "Manufacturer2"
F 9 "RC0603JR-0710KL" H 4800 10950 50  0001 C CNN "Manufacturer_No2"
F 10 "VISHAY_RMS1" H 4800 10950 50  0001 C CNN "Manufacturer3"
F 11 "CRCW060310K0JNEA" H 4800 10950 50  0001 C CNN "Manufacturer_No3"
	1    4800 10950
	-1   0    0    1   
$EndComp
$Comp
L V_Capacitor:C0402_100nF_16V_10% C?
U 1 1 7614D321
P 4800 10550
AR Path="/7614D321" Ref="C?"  Part="1" 
AR Path="/5E923584/7614D321" Ref="C51"  Part="1" 
F 0 "C51" V 4825 10775 64  0000 R TNN
F 1 "100nF" V 4925 10775 42  0000 R TNN
F 2 "AllModules:C0402_1" H 4800 10550 50  0001 C CNN
F 3 "" H 4800 10550 50  0001 C CNN
F 4 "CAPACITOR,100NF,16V,+/-10%,X7R,0402" H 4800 10550 50  0001 C CNN "Description"
F 5 "10022607" H 4800 10550 50  0001 C CNN "Item Number"
F 6 "MURATA" H 4800 10550 50  0001 C CNN "Manufacturer"
F 7 "GRM155R71C104JA88J" H 4800 10550 50  0001 C CNN "Manufacturer_No"
F 8 "YAGEO_RMS1" H 4800 10550 50  0001 C CNN "Manufacturer2"
F 9 "CC0402KRX7R7BB104" H 4800 10550 50  0001 C CNN "Manufacturer_No2"
F 10 "YAGEO_RMS1" H 4800 10550 50  0001 C CNN "Manufacturer3"
F 11 "CC0402KRX7R7BB104" H 4800 10550 50  0001 C CNN "Manufacturer_No3"
	1    4800 10550
	0    -1   1    0   
$EndComp
$Comp
L V_Capacitor:C0402_100nF_16V_10% C?
U 1 1 150190AD
P 10200 3250
AR Path="/150190AD" Ref="C?"  Part="1" 
AR Path="/5E923584/150190AD" Ref="C116"  Part="1" 
F 0 "C116" V 10437 3119 64  0000 L BNN
F 1 "100nF" V 10293 3350 42  0000 R TNN
F 2 "AllModules:C0402_1" H 10200 3250 50  0001 C CNN
F 3 "" H 10200 3250 50  0001 C CNN
F 4 "CAPACITOR,100NF,16V,+/-10%,X7R,0402" H 0   0   50  0001 C CNN "Description"
F 5 "10022607" H 0   0   50  0001 C CNN "Item Number"
F 6 "MURATA" H 0   0   50  0001 C CNN "Manufacturer"
F 7 "YAGEO_RMS1" H 0   0   50  0001 C CNN "Manufacturer2"
F 8 "YAGEO_RMS1" H 0   0   50  0001 C CNN "Manufacturer3"
F 9 "GRM155R71C104JA88J" H 0   0   50  0001 C CNN "Manufacturer_No"
F 10 "CC0402KRX7R7BB104" H 0   0   50  0001 C CNN "Manufacturer_No2"
F 11 "CC0402KRX7R7BB104" H 0   0   50  0001 C CNN "Manufacturer_No3"
	1    10200 3250
	0    1    -1   0   
$EndComp
$Comp
L V_Resistor:R0603_0R_5% R?
U 1 1 C18C78EC
P 8500 950
AR Path="/C18C78EC" Ref="R?"  Part="1" 
AR Path="/5E923584/C18C78EC" Ref="R45"  Part="1" 
F 0 "R45" H 8425 1087 64  0000 L BNN
F 1 "0" H 8425 1025 42  0000 L BNN
F 2 "AllModules:R0603_1" H 8500 950 50  0001 C CNN
F 3 "" H 8500 950 50  0001 C CNN
F 4 "10023185" H 8500 950 50  0001 C CNN "Item Number"
	1    8500 950 
	1    0    0    -1  
$EndComp
$Comp
L V_Connector:LIAISON_MASSES JPL?
U 1 1 BCD438C6
P 6900 8350
AR Path="/BCD438C6" Ref="JPL?"  Part="1" 
AR Path="/5E923584/BCD438C6" Ref="JPL1"  Part="1" 
F 0 "JPL1" H 6900 8350 50  0001 C CNN
F 1 "LIAISON_MASSES" H 6900 8350 50  0001 C CNN
F 2 "AllModules:C12000_0" H 6900 8350 50  0001 C CNN
F 3 "" H 6900 8350 50  0001 C CNN
	1    6900 8350
	1    0    0    -1  
$EndComp
$Comp
L V_Connector:PINHD-1X1 PT?
U 1 1 7DBB10B8
P 7700 9000
AR Path="/7DBB10B8" Ref="PT?"  Part="1" 
AR Path="/5E923584/7DBB10B8" Ref="PT1"  Part="1" 
F 0 "PT1" V 7850 8925 59  0000 L BNN
F 1 "PINHD-1X1" H 7350 9125 59  0001 L BNN
F 2 "AllModules:C12000_1" H 7700 9000 50  0001 C CNN
F 3 "" H 7700 9000 50  0001 C CNN
	1    7700 9000
	0    1    1    0   
$EndComp
Wire Notes Line
	16162 5478 13525 5478
Wire Notes Line
	13525 753  16162 753 
Wire Notes Line
	16162 753  16162 5478
Wire Notes Line
	13525 5478 13525 753 
Wire Notes Line
	3584 4840 3546 4877
Wire Notes Line
	3546 4877 3584 4902
Wire Notes Line
	3584 4840 3584 4802
Wire Notes Line
	3584 4802 3609 4777
Wire Notes Line
	3584 4902 3584 4952
Wire Notes Line
	3584 4952 3609 4977
Wire Notes Line
	1812 6965 1812 7315
Wire Notes Line
	2687 6853 2687 7315
Wire Notes Line
	2412 7190 2962 7190
Wire Notes Line
	2412 7078 2962 7078
Wire Notes Line
	11612 5628 11612 8228
Wire Notes Line
	16150 6828 16150 8228
Wire Notes Line
	16150 6815 16150 5628
Wire Notes Line
	16150 5628 11612 5628
Wire Notes Line
	13425 4690 13425 753 
Wire Notes Line
	13425 4690 9075 4690
Wire Notes Line
	9075 4690 9075 753 
Wire Notes Line
	13425 753  9075 753 
Wire Notes Line
	16150 8228 11612 8228
Text Notes 13575 878  0    59   ~ 0
RAM MEMORY
Text Notes 6562 9678 0    42   ~ 0
BR 139 IC4
Text Notes 6562 9878 0    42   ~ 0
BR 127 IC4
Text Notes 6562 10065 0    42   ~ 0
BR 110 IC4
Text Notes 6562 10278 0    42   ~ 0
BR 94 IC4
Text Notes 6575 10465 0    42   ~ 0
BR 83 IC4
Text Notes 6575 10665 0    42   ~ 0
BR 71 IC4
Text Notes 6575 10815 0    42   ~ 0
BR 45 IC4
Text Notes 7637 9678 0    42   ~ 0
BR 136 IC4
Text Notes 7637 9878 0    42   ~ 0
BR 126 IC4
Text Notes 7637 10078 0    42   ~ 0
BR 109 IC4
Text Notes 7650 10278 0    42   ~ 0
BR 93 IC4
Text Notes 7650 10478 0    42   ~ 0
BR 82 IC4
Text Notes 7650 10678 0    42   ~ 0
BR 72 IC4
Text Notes 7637 10815 0    42   ~ 0
BR 46 IC4
Text Notes 6575 8525 0    47   ~ 0
Link Analog Ground 
Text Notes 6575 8600 0    47   ~ 0
with Digital Ground
Text Notes 8750 6790 0    47   ~ 0
CS afficheur
Text Notes 8750 6390 0    47   ~ 0
CS mem Monitorage
Text Notes 8750 6490 0    47   ~ 0
CS mem recueil
Text Notes 8750 6590 0    47   ~ 0
CS Ram
Text Notes 2700 5550 0    47   ~ 0
PWM0
Text Notes 2700 5750 0    47   ~ 0
PWM2
Text Notes 2700 5850 0    47   ~ 0
PWM3
Text Notes 3350 5950 0    47   ~ 0
Sound Frequency
Text Notes 3350 5850 0    47   ~ 0
Sound Power
Text Notes 6575 11040 0    42   ~ 0
BR 18 IC4
Text Notes 7637 11028 0    42   ~ 0
BR 17 IC4
Text Notes 8750 6690 0    47   ~ 0
CS UART
Text Notes 2962 4859 0    47   ~ 0
To USB/UART
Text Notes 2651 4958 0    47   ~ 0
on Power Supply Board
Text Notes 16587 10790 0    59   ~ 0
05/03/14
Text Notes 17087 10803 0    59   ~ 0
JR
Text Notes 2700 5650 0    47   ~ 0
PWM1
Text Notes 2462 6940 0    47   ~ 0
JP7      JP8
Text Notes 1862 7265 0    47   ~ 0
SMARTAIR    :
Text Notes 1862 7053 0    47   ~ 0
LEGENDAIR  :
Text Notes 1862 7165 0    47   ~ 0
SUPPORTAIR:
Text Notes 2462 7065 0    47   ~ 0
OFF      OFF
Text Notes 2462 7165 0    47   ~ 0
OFF      ON
Text Notes 2462 7265 0    47   ~ 0
ON        OFF
Text Notes 11668 5747 0    59   ~ 0
BOOTSTRAP LOADER
Text Notes 9106 884  0    59   ~ 0
 NONERETURN  POWER SUPPLY BOARD SIGNAL
Wire Notes Line
	2962 6853 2962 7315
Wire Notes Line
	2412 6853 2962 6853
Wire Notes Line
	1812 6965 2962 6965
Wire Notes Line
	2412 6853 2412 7315
Text HLabel 3450 1300 0    50   Input ~ 0
POWER-FAIL
Text HLabel 3450 1400 0    50   Input ~ 0
RESET\
Text HLabel 3900 2150 0    50   Input ~ 0
SPEED_MEASURE
Text HLabel 3450 2250 0    50   Output ~ 0
BRAKE
Text HLabel 3450 2350 0    50   Input ~ 0
DEF-TURB
Text HLabel 3900 2450 0    50   Output ~ 0
ENABLE-TURB
Text HLabel 3450 2550 0    50   Output ~ 0
WDOG
Text HLabel 3900 2650 0    50   Input ~ 0
+3,3V-FAILURE
Text HLabel 3900 2750 0    50   Input ~ 0
+5VREF-FAILURE
Text HLabel 3900 2850 0    50   Input ~ 0
+10VREF-FAILURE
Text HLabel 2150 2950 0    50   Input ~ 0
BUSY-ME1
Text HLabel 2150 3050 0    50   Input ~ 0
BUSY-ME2
Text HLabel 2150 3250 0    50   Input ~ 0
BUSY-AFF
Text HLabel 2150 3350 0    50   Input ~ 0
TEST-RAP-ALARM
Text HLabel 4100 3450 0    50   Output ~ 0
INV-STOP
Text HLabel 4100 3550 0    50   Output ~ 0
RAP-ALAR
Text HLabel 4100 3650 0    50   Output ~ 0
CMD_ME1
Text HLabel 4100 3850 0    50   Output ~ 0
COM1
Text HLabel 4100 3950 0    50   Output ~ 0
COM2
Text HLabel 4100 4050 0    50   Output ~ 0
COM3
Text HLabel 1700 4150 0    50   Input ~ 0
KEY-1
Text HLabel 1700 4250 0    50   Input ~ 0
KEY-2
Text HLabel 1700 4350 0    50   Output ~ 0
RESET_USB
Text HLabel 1700 4450 0    50   Input ~ 0
ALARM-INHIB
Text HLabel 4200 4550 0    50   Output ~ 0
RF
Text HLabel 4200 4650 0    50   Input ~ 0
MRST-SPI-0_E
Text HLabel 4200 4750 0    50   Output ~ 0
MTSR-SPI-0
Text HLabel 4200 5150 0    50   Output ~ 0
SCLK-SPI-0
Text HLabel 3750 5350 0    50   Output ~ 0
CMD_ALE1
Text HLabel 2600 5550 0    50   Output ~ 0
CONS-VIT
Text HLabel 2600 5650 0    50   Output ~ 0
CD-VALVE
Text HLabel 2600 5750 0    50   Output ~ 0
CD-O2
Text HLabel 2600 5850 0    50   Output ~ 0
PWM-BUZ
Text HLabel 4000 6050 0    50   Output ~ 0
SEC-BUZ
Text HLabel 4000 6150 0    50   Output ~ 0
LED-AL-O
Text HLabel 4000 6250 0    50   Output ~ 0
LED-AL-R
Text HLabel 4000 6950 0    50   Input ~ 0
IRQ-UART
Text HLabel 4000 7050 0    50   Input ~ 0
RXD1
Text HLabel 1650 8450 0    50   Input ~ 0
PRES-INT
Text HLabel 1650 8550 0    50   Input ~ 0
QI-MEAS
Text HLabel 1650 8650 0    50   Input ~ 0
PRES-O2
Text HLabel 1650 8750 0    50   Input ~ 0
PFI
Text HLabel 1650 8850 0    50   Input ~ 0
FIO2-MEAS
Text HLabel 1650 8950 0    50   Input ~ 0
P_VALVE
Text HLabel 1650 9050 0    50   Input ~ 0
MES_Q_E
Text HLabel 1650 9150 0    50   Input ~ 0
PRES-PROX
Text HLabel 1650 9250 0    50   Input ~ 0
PRES-ABS
Text HLabel 1650 9350 0    50   Input ~ 0
Q-O2-MEAS
Text HLabel 1650 9450 0    50   Input ~ 0
MES-I-VALVE
Text HLabel 1650 9550 0    50   Input ~ 0
VBAT
Text HLabel 1650 10250 0    50   Input ~ 0
MES-24V
Text HLabel 2100 10350 0    50   Input ~ 0
FLOW-TEMP
Text HLabel 2100 10450 0    50   Input ~ 0
TURBINE-TEMP
Text HLabel 1650 10550 0    50   Input ~ 0
TESTBUZ
Text HLabel 12000 2150 2    50   Input ~ 0
RX-UART-ST
Text HLabel 10350 2050 0    50   Output ~ 0
TX_UART_ST
Text HLabel 12000 2350 2    50   Input ~ 0
LED_PRESENCE_AC
Text HLabel 12000 2450 2    50   Input ~ 0
USB-BUSY
Text HLabel 12000 2550 2    50   Input ~ 0
MRST-SPI-1
Text HLabel 12000 2650 2    50   Input ~ 0
MRST_SPI_0
Text HLabel 12200 1200 2    50   Input ~ 0
+5VSUPPLY-BOARD
Text HLabel 9300 3800 1    50   Input ~ 0
CE-SPI-PIC-IC44
Text HLabel 12050 3250 2    50   Input ~ 0
+5VSUPPLY-BOARD
Text HLabel 8300 7250 2    50   Output ~ 0
RD\
Text HLabel 8300 7350 2    50   Output ~ 0
WR\
Text HLabel 8300 6350 2    50   Output ~ 0
CS0\
Text HLabel 8300 6450 2    50   Output ~ 0
CS1\
Text HLabel 8300 6650 2    50   Output ~ 0
CS3\
Text HLabel 8300 6750 2    50   Output ~ 0
CS4\
Text HLabel 8300 6850 2    50   Output ~ 0
SCLK_SPI_1
Text HLabel 8300 6950 2    50   Output ~ 0
MTSR-SPI-1
Text HLabel 8300 6150 2    50   Output ~ 0
A23
Text Label 9850 5925 0    50   ~ 0
D1
Text Label 9850 6025 0    50   ~ 0
D2
Text Label 9850 6125 0    50   ~ 0
D3
Text Label 9850 6400 0    50   ~ 0
D4
Text Label 9850 6500 0    50   ~ 0
D5
Text Label 9850 6600 0    50   ~ 0
D6
Text Label 9850 6700 0    50   ~ 0
D7
Text Label 9850 7000 0    50   ~ 0
D8
Text Label 9850 7100 0    50   ~ 0
D9
Text Label 9850 7200 0    50   ~ 0
D10
Text Label 9850 7300 0    50   ~ 0
D11
Text HLabel 12850 5950 0    50   Input ~ 0
+5VSUPPLY-BOARD
Text Label 9850 5825 0    50   ~ 0
D0
Text Label 9850 7900 0    50   ~ 0
D15
Text Label 9850 7800 0    50   ~ 0
D14
Text Label 9850 7700 0    50   ~ 0
D13
Text Label 9850 7600 0    50   ~ 0
D12
Text Label 14300 5300 2    50   ~ 0
A0
Text Label 14900 4950 3    50   ~ 0
WR\
Text Label 14800 4950 3    50   ~ 0
RD\
$Comp
L V_IC:NC7SZ66 IC?
U 1 1 4B983B5C
P 9900 3950
AR Path="/4B983B5C" Ref="IC?"  Part="1" 
AR Path="/5E923584/4B983B5C" Ref="IC44"  Part="1" 
F 0 "IC44" H 10000 4375 59  0000 L BNN
F 1 "NC7SZ66" H 10000 4300 59  0000 L BNN
F 2 "AllModules:SC70-5_1" H 9900 3950 50  0001 C CNN
F 3 "" H 9900 3950 50  0001 C CNN
F 4 "IC,BUS SWITCH,SC70" H 9900 3950 50  0001 C CNN "Description"
F 5 "10022905" H 9900 3950 50  0001 C CNN "Item Number"
F 6 "FAIRCHILD SEMICONDUCTOR_RMS1" H 9900 3950 50  0001 C CNN "Manufacturer"
F 7 "NC7SZ66P5X" H 9900 3950 50  0001 C CNN "Manufacturer_No"
	1    9900 3950
	1    0    0    -1  
$EndComp
Text Label 13800 2750 0    50   ~ 0
A1
Text Label 13800 2850 0    50   ~ 0
A2
Text Label 13800 2950 0    50   ~ 0
A3
Text Label 13800 3050 0    50   ~ 0
A4
Text Label 13800 3150 0    50   ~ 0
A5
Text Label 13800 3250 0    50   ~ 0
A6
Text Label 13800 3350 0    50   ~ 0
A7
Text Label 13800 3450 0    50   ~ 0
A8
Text Label 13800 3550 0    50   ~ 0
A9
Text Label 13800 3650 0    50   ~ 0
A10
Text Label 13800 3750 0    50   ~ 0
A11
Text Label 13800 3850 0    50   ~ 0
A12
Text Label 13800 3950 0    50   ~ 0
A13
Text Label 13800 4050 0    50   ~ 0
A14
Text Label 13800 4150 0    50   ~ 0
A15
Text Label 13800 4250 0    50   ~ 0
A16
Text Label 13800 4350 0    50   ~ 0
A17
Text Label 13800 4450 0    50   ~ 0
A18
Text Label 15600 2650 0    50   ~ 0
D0
Text Label 15600 2750 0    50   ~ 0
D1
Text Label 15600 2850 0    50   ~ 0
D2
Text Label 15600 2950 0    50   ~ 0
D3
Text Label 15600 3050 0    50   ~ 0
D4
Text Label 15600 3150 0    50   ~ 0
D5
Text Label 15600 3250 0    50   ~ 0
D6
Text Label 15600 3350 0    50   ~ 0
D7
Text Label 15600 3450 0    50   ~ 0
D8
Text Label 15600 3550 0    50   ~ 0
D9
Text Label 15600 3650 0    50   ~ 0
D10
Text Label 15600 3750 0    50   ~ 0
D11
Text Label 15600 3850 0    50   ~ 0
D12
Text Label 15600 3950 0    50   ~ 0
D13
Text Label 15600 4050 0    50   ~ 0
D14
Text Label 15600 4150 0    50   ~ 0
D15
Text HLabel 8700 3750 2    50   Output ~ 0
A[0..19]
Text HLabel 10250 3850 2    50   Output ~ 0
MRST-SPI-0_E
Text HLabel 8700 2050 2    50   BiDi ~ 0
D[0..15]
Text Label 8250 2050 0    50   ~ 0
D0
Text Label 8250 2150 0    50   ~ 0
D1
Text Label 8250 2250 0    50   ~ 0
D2
Text Label 8250 2350 0    50   ~ 0
D3
Text Label 8250 2450 0    50   ~ 0
D4
Text Label 8250 2550 0    50   ~ 0
D5
Text Label 8250 2650 0    50   ~ 0
D6
Text Label 8250 2750 0    50   ~ 0
D7
Text Label 8250 2850 0    50   ~ 0
D8
Text Label 8250 2950 0    50   ~ 0
D9
Text Label 8250 3050 0    50   ~ 0
D10
Text Label 8250 3150 0    50   ~ 0
D11
Text Label 8250 3250 0    50   ~ 0
D12
Text Label 8250 3350 0    50   ~ 0
D13
Text Label 8250 3450 0    50   ~ 0
D14
Text Label 8250 3550 0    50   ~ 0
D15
Text Label 8250 3750 0    50   ~ 0
A0
Text Label 8250 3850 0    50   ~ 0
A1
Text Label 8250 3950 0    50   ~ 0
A2
Text Label 8250 4050 0    50   ~ 0
A3
Text Label 8250 4150 0    50   ~ 0
A4
Text Label 8250 4250 0    50   ~ 0
A5
Text Label 8250 4350 0    50   ~ 0
A6
Text Label 8250 4450 0    50   ~ 0
A7
Text Label 8250 4550 0    50   ~ 0
A8
Text Label 8250 4650 0    50   ~ 0
A9
Text Label 8250 4750 0    50   ~ 0
A10
Text Label 8250 4850 0    50   ~ 0
A11
Text Label 8250 4950 0    50   ~ 0
A12
Text Label 8250 5050 0    50   ~ 0
A13
Text Label 8250 5150 0    50   ~ 0
A14
Text Label 8250 5250 0    50   ~ 0
A15
Text Label 8250 5450 0    50   ~ 0
A16
Text Label 8250 5550 0    50   ~ 0
A17
Text Label 8250 5650 0    50   ~ 0
A18
Text Label 8250 5750 0    50   ~ 0
A19
Text HLabel 9700 5675 0    50   BiDi ~ 0
D[0..15]
Text HLabel 15950 2650 1    50   BiDi ~ 0
D[0..15]
$Comp
L V_Resistor:R1206_ARRAY_6K8_5% RS?
U 1 1 1544B106
P 3075 3900
AR Path="/1544B106" Ref="RS?"  Part="1" 
AR Path="/5E923584/1544B106" Ref="RS1"  Part="1" 
F 0 "RS1" V 3000 3700 59  0000 R TNN
F 1 "6.8k" V 3088 3675 59  0000 R TNN
F 2 "AllModules:BCN16_1" H 3075 3900 50  0001 C CNN
F 3 "" H 3075 3900 50  0001 C CNN
F 4 "10023253" H 3075 3900 50  0001 C CNN "Item Number"
	1    3075 3900
	0    1    1    0   
$EndComp
$Comp
L V_Connector:PAST01 PST?
U 1 1 368C0019
P 5150 1450
AR Path="/368C0019" Ref="PST?"  Part="1" 
AR Path="/5E923584/368C0019" Ref="PST1"  Part="1" 
F 0 "PST1" V 5275 1487 59  0000 L BNN
F 1 "PAST01" H 5150 1450 50  0001 C CNN
F 2 "AllModules:PT-1.0MM_TEST_1" H 5150 1450 50  0001 C CNN
F 3 "" H 5150 1450 50  0001 C CNN
	1    5150 1450
	0    -1   -1   0   
$EndComp
$Comp
L V_IC:ST10F269-273-276 IC?
U 1 1 BB7ED445
P 6300 4650
AR Path="/BB7ED445" Ref="IC?"  Part="1" 
AR Path="/5E923584/BB7ED445" Ref="IC4"  Part="1" 
F 0 "IC4" H 7688 7700 64  0000 L BNN
F 1 "ST10F276" H 7688 7625 64  0000 L BNN
F 2 "AllModules:TQFP144_1" H 6300 4650 50  0001 C CNN
F 3 "" H 6300 4650 50  0001 C CNN
	1    6300 4650
	1    0    0    -1  
$EndComp
Wire Wire Line
	8250 1400 8250 1500
Wire Wire Line
	8350 1500 8350 1550
Wire Wire Line
	8250 1500 8350 1500
Wire Wire Line
	8350 1500 8450 1500
Connection ~ 8350 1500
Wire Wire Line
	7450 1600 7450 1500
Wire Wire Line
	7450 1500 7950 1500
Wire Wire Line
	7950 1500 7950 1100
$Comp
L V_Capacitor:C_1uF_35V_10% C?
U 1 1 6F4029DE
P 8250 1300
AR Path="/6F4029DE" Ref="C?"  Part="1" 
AR Path="/5E923584/6F4029DE" Ref="C7"  Part="1" 
F 0 "C7" H 8025 1319 56  0000 L BNN
F 1 "1uF" H 8025 1244 42  0000 L BNN
F 2 "AllModules:C3216_1" H 8250 1300 50  0001 C CNN
F 3 "" H 8250 1300 50  0001 C CNN
F 4 "CAPACITOR TANTALUM, 1UF,35V, +/-10%" H 8250 1300 50  0001 C CNN "Description"
F 5 "10022959" H 8250 1300 50  0001 C CNN "Item Number"
F 6 "KEMET" H 8250 1300 50  0001 C CNN "Manufacturer"
F 7 "T491A105M035AT" H 8250 1300 50  0001 C CNN "Manufacturer_No"
F 8 "KEMET" H 8250 1300 50  0001 C CNN "Manufacturer2"
F 9 "T495A105K035ATE3K0" H 8250 1300 50  0001 C CNN "Manufacturer_No2"
	1    8250 1300
	1    0    0    -1  
$EndComp
Wire Wire Line
	7950 1100 8250 1100
Wire Wire Line
	8250 1200 8250 1100
Connection ~ 8250 1100
Wire Wire Line
	8250 1100 8450 1100
Wire Wire Line
	8250 1100 8250 950 
Wire Wire Line
	7400 1250 7400 1200
Wire Wire Line
	7400 1000 7400 950 
Wire Wire Line
	7400 950  7250 950 
Wire Wire Line
	7250 950  7250 1600
Connection ~ 7250 950 
Wire Wire Line
	7250 950  7150 950 
Wire Wire Line
	7150 1600 7150 1500
Wire Wire Line
	6350 1600 6350 1500
Wire Wire Line
	6350 1500 6450 1500
Connection ~ 7150 1500
Wire Wire Line
	6450 1600 6450 1500
Wire Wire Line
	6650 1600 6650 1500
Wire Wire Line
	6650 1500 6750 1500
Wire Wire Line
	6750 1600 6750 1500
Connection ~ 6750 1500
Wire Wire Line
	6750 1500 6850 1500
Wire Wire Line
	6850 1600 6850 1500
Connection ~ 6850 1500
Wire Wire Line
	6850 1500 6950 1500
Wire Wire Line
	6950 1600 6950 1500
Connection ~ 6950 1500
Wire Wire Line
	6950 1500 7050 1500
Wire Wire Line
	7050 1600 7050 1500
Connection ~ 7050 1500
Wire Wire Line
	7050 1500 7150 1500
Wire Wire Line
	6150 1600 6150 1500
Wire Wire Line
	6650 1500 6450 1500
Connection ~ 6650 1500
Connection ~ 6450 1500
Wire Wire Line
	6350 1500 6150 1500
Connection ~ 6350 1500
Connection ~ 6150 1500
Wire Wire Line
	6150 1500 6150 1250
Wire Wire Line
	5350 1600 5350 1300
Wire Wire Line
	5350 1300 3450 1300
Wire Wire Line
	5150 1600 5150 1550
Wire Wire Line
	4950 1600 4950 1400
Wire Wire Line
	4950 1400 3450 1400
Wire Wire Line
	2350 2200 2350 2350
Wire Wire Line
	2350 2350 2450 2350
Wire Wire Line
	2650 2350 2650 2450
Connection ~ 2350 2350
Wire Wire Line
	2350 2350 2350 2450
Wire Wire Line
	2550 2450 2550 2350
Connection ~ 2550 2350
Wire Wire Line
	2550 2350 2650 2350
Wire Wire Line
	2450 2450 2450 2350
Connection ~ 2450 2350
Wire Wire Line
	2450 2350 2550 2350
Wire Wire Line
	3900 2150 4300 2150
Wire Wire Line
	3450 2250 4300 2250
Wire Wire Line
	3450 2350 4300 2350
Wire Wire Line
	4300 2450 3900 2450
Wire Wire Line
	3450 2550 4300 2550
Wire Wire Line
	3900 2650 4300 2650
Wire Wire Line
	3900 2750 4300 2750
Wire Wire Line
	4300 2850 3900 2850
Wire Wire Line
	2450 2850 2450 3350
Wire Wire Line
	2450 3350 2150 3350
Wire Wire Line
	2150 3050 2550 3050
Wire Wire Line
	2550 3050 2550 2850
Wire Wire Line
	2150 2950 2650 2950
Wire Wire Line
	2650 2950 2650 2850
Wire Wire Line
	2650 2950 4300 2950
Connection ~ 2650 2950
Wire Wire Line
	2550 3050 4300 3050
Connection ~ 2550 3050
Wire Wire Line
	4300 3150 2150 3150
Wire Wire Line
	2150 3250 4300 3250
Wire Wire Line
	4300 3350 2450 3350
Connection ~ 2450 3350
Wire Wire Line
	1350 3650 1850 3650
Wire Wire Line
	2450 3650 2450 3800
Wire Wire Line
	1850 3800 1850 3650
Connection ~ 1850 3650
Wire Wire Line
	1850 3650 2050 3650
Wire Wire Line
	2050 3800 2050 3650
Connection ~ 2050 3650
Wire Wire Line
	2050 3650 2250 3650
Wire Wire Line
	2250 3800 2250 3650
Connection ~ 2250 3650
Wire Wire Line
	2250 3650 2450 3650
Wire Wire Line
	1700 4150 1850 4150
Wire Wire Line
	1850 4150 1850 4100
Wire Wire Line
	1700 4250 2050 4250
Wire Wire Line
	2050 4250 2050 4100
Wire Wire Line
	1700 4350 2250 4350
Wire Wire Line
	2250 4350 2250 4100
Wire Wire Line
	2450 4100 2450 4450
Wire Wire Line
	2450 4450 1700 4450
Wire Wire Line
	1850 4150 3225 4150
Connection ~ 1850 4150
Wire Wire Line
	4300 4250 3125 4250
Connection ~ 2050 4250
Wire Wire Line
	2250 4350 3025 4350
Connection ~ 2250 4350
Wire Wire Line
	4300 4450 2925 4450
Connection ~ 2450 4450
Wire Wire Line
	2925 4100 2925 4450
Connection ~ 2925 4450
Wire Wire Line
	2925 4450 2450 4450
Wire Wire Line
	3025 4100 3025 4350
Connection ~ 3025 4350
Wire Wire Line
	3025 4350 4300 4350
Wire Wire Line
	3125 4100 3125 4250
Connection ~ 3125 4250
Wire Wire Line
	3125 4250 2050 4250
Wire Wire Line
	3225 4100 3225 4150
Connection ~ 3225 4150
Wire Wire Line
	3225 4150 4300 4150
Wire Wire Line
	4300 4550 4200 4550
Wire Wire Line
	4200 4650 4300 4650
Wire Wire Line
	4300 4750 4200 4750
Wire Wire Line
	4200 4850 4300 4850
Wire Wire Line
	4300 4950 4200 4950
Wire Wire Line
	4300 5050 4100 5050
Wire Wire Line
	4200 5150 4300 5150
Wire Wire Line
	4300 5350 3750 5350
Wire Wire Line
	4300 5550 2600 5550
Wire Wire Line
	2600 5650 4300 5650
Wire Wire Line
	4300 5750 2600 5750
Wire Wire Line
	2600 5850 2800 5850
Wire Wire Line
	2800 5950 2800 5850
Connection ~ 2800 5850
Wire Wire Line
	2800 5850 4300 5850
Wire Wire Line
	4000 6050 4300 6050
Wire Wire Line
	4300 6150 4000 6150
Wire Wire Line
	4000 6250 4300 6250
Connection ~ 1500 5850
Wire Wire Line
	1500 5850 1600 5850
Wire Wire Line
	1450 5750 1450 5850
Connection ~ 1450 5850
Wire Wire Line
	1450 5850 1500 5850
$Comp
L V_Jumper:JUMP_0U JP?
U 1 1 ADC4B3B7
P 1500 7000
AR Path="/ADC4B3B7" Ref="JP?"  Part="1" 
AR Path="/5E923584/ADC4B3B7" Ref="JP7"  Part="1" 
F 0 "JP7" V 1612 7050 51  0000 L BNN
F 1 "JUMP_0U" H 1400 6850 51  0001 L BNN
F 2 "AllModules:R0603_1" H 1500 7000 50  0001 C CNN
F 3 "" H 1500 7000 50  0001 C CNN
F 4 "RESISTANCE, 0 OHM,0603" H 0   0   50  0001 C CNN "Description"
F 5 "10023185" H 0   0   50  0001 C CNN "Item Number"
F 6 "YAGEO_RMS1" H 0   0   50  0001 C CNN "Manufacturer"
F 7 "YAGEO_RMS1" H 0   0   50  0001 C CNN "Manufacturer2"
F 8 "YAGEO_RMS1" H 0   0   50  0001 C CNN "Manufacturer3"
F 9 "RC0603JR-070RL" H 0   0   50  0001 C CNN "Manufacturer_No"
F 10 "RC0603JR-070RL" H 0   0   50  0001 C CNN "Manufacturer_No2"
F 11 "RC0603JR-070RL" H 0   0   50  0001 C CNN "Manufacturer_No3"
	1    1500 7000
	0    -1   -1   0   
$EndComp
Wire Wire Line
	1500 6350 1500 6750
Wire Wire Line
	1600 6350 1600 6650
Wire Wire Line
	1600 6650 1700 6650
Wire Wire Line
	4300 6750 1500 6750
Connection ~ 1500 6750
Wire Wire Line
	1500 6750 1500 6800
Wire Wire Line
	1700 6800 1700 6650
Connection ~ 1700 6650
Wire Wire Line
	1700 6650 4300 6650
Wire Wire Line
	4300 6950 4000 6950
Wire Wire Line
	4000 7050 4300 7050
NoConn ~ 4300 7150
NoConn ~ 4300 6850
NoConn ~ 4300 6550
NoConn ~ 1400 6350
NoConn ~ 1300 6350
Wire Wire Line
	4100 3450 4300 3450
Wire Wire Line
	4300 3550 4100 3550
Wire Wire Line
	4100 3650 4300 3650
Wire Wire Line
	4300 3850 4100 3850
Wire Wire Line
	4100 3950 4300 3950
Wire Wire Line
	4300 4050 4100 4050
Entry Wire Line
	8600 2050 8700 2150
Wire Wire Line
	8100 2050 8600 2050
Wire Wire Line
	8600 2150 8100 2150
Wire Wire Line
	8600 2250 8100 2250
Wire Wire Line
	8600 2350 8100 2350
Entry Wire Line
	8600 2150 8700 2250
Entry Wire Line
	8600 2250 8700 2350
Entry Wire Line
	8600 2350 8700 2450
Entry Wire Line
	8600 2450 8700 2550
Entry Wire Line
	8600 2550 8700 2650
Entry Wire Line
	8600 2650 8700 2750
Entry Wire Line
	8600 2750 8700 2850
Entry Wire Line
	8600 2850 8700 2950
Entry Wire Line
	8600 2950 8700 3050
Entry Wire Line
	8600 3050 8700 3150
Entry Wire Line
	8600 3150 8700 3250
Entry Wire Line
	8600 3250 8700 3350
Entry Wire Line
	8600 3350 8700 3450
Entry Wire Line
	8600 3450 8700 3550
Entry Wire Line
	8600 3550 8700 3650
Entry Wire Line
	8600 3750 8700 3850
Entry Wire Line
	8600 3850 8700 3950
Entry Wire Line
	8600 3950 8700 4050
Entry Wire Line
	8600 4050 8700 4150
Entry Wire Line
	8600 4150 8700 4250
Entry Wire Line
	8600 4250 8700 4350
Entry Wire Line
	8600 4350 8700 4450
Entry Wire Line
	8600 4450 8700 4550
Entry Wire Line
	8600 4550 8700 4650
Entry Wire Line
	8600 4650 8700 4750
Entry Wire Line
	8600 4750 8700 4850
Entry Wire Line
	8600 4850 8700 4950
Entry Wire Line
	8600 4950 8700 5050
Entry Wire Line
	8600 5050 8700 5150
Entry Wire Line
	8600 5150 8700 5250
Entry Wire Line
	8600 5250 8700 5350
Entry Wire Line
	8600 5450 8700 5550
Entry Wire Line
	8600 5550 8700 5650
Entry Wire Line
	8600 5650 8700 5750
Entry Wire Line
	8600 5750 8700 5850
Wire Wire Line
	8600 3550 8100 3550
Wire Wire Line
	8100 3450 8600 3450
Wire Wire Line
	8600 3350 8100 3350
Wire Wire Line
	8100 3250 8600 3250
Wire Wire Line
	8600 3150 8100 3150
Wire Wire Line
	8100 3050 8600 3050
Wire Wire Line
	8600 2950 8100 2950
Wire Wire Line
	8100 2850 8600 2850
Wire Wire Line
	8600 2750 8100 2750
Wire Wire Line
	8100 2650 8600 2650
Wire Wire Line
	8600 2550 8100 2550
Wire Wire Line
	8100 2450 8600 2450
Wire Wire Line
	8100 7450 9050 7450
Wire Wire Line
	9050 7450 9050 7650
Wire Wire Line
	9050 7650 8100 7650
Entry Wire Line
	9700 5725 9800 5825
Entry Wire Line
	9700 5825 9800 5925
Entry Wire Line
	9700 5925 9800 6025
Entry Wire Line
	9700 6025 9800 6125
Entry Wire Line
	9700 6300 9800 6400
Entry Wire Line
	9700 6400 9800 6500
Entry Wire Line
	9700 6500 9800 6600
Entry Wire Line
	9700 6600 9800 6700
Entry Wire Line
	9700 6900 9800 7000
Entry Wire Line
	9700 7000 9800 7100
Entry Wire Line
	9700 7100 9800 7200
Entry Wire Line
	9700 7200 9800 7300
Entry Wire Line
	9700 7500 9800 7600
Entry Wire Line
	9700 7600 9800 7700
Entry Wire Line
	9700 7700 9800 7800
Entry Wire Line
	9700 7800 9800 7900
Wire Wire Line
	9800 7300 10000 7300
Wire Wire Line
	10000 7200 9800 7200
Wire Wire Line
	9800 7100 10000 7100
Wire Wire Line
	10000 7000 9800 7000
Wire Wire Line
	9800 7600 10000 7600
Wire Wire Line
	10000 7700 9800 7700
Wire Wire Line
	9800 7800 10000 7800
Wire Wire Line
	10000 7900 9800 7900
Wire Wire Line
	9800 6700 10000 6700
Wire Wire Line
	10000 6600 9800 6600
Wire Wire Line
	9800 6500 10000 6500
Wire Wire Line
	10000 6400 9800 6400
Wire Wire Line
	9800 5825 10000 5825
Wire Wire Line
	10000 5925 9800 5925
Wire Wire Line
	9800 6025 10000 6025
Wire Wire Line
	10000 6125 9800 6125
Wire Wire Line
	10900 5775 10900 5825
Wire Wire Line
	10900 7900 10400 7900
Wire Wire Line
	10400 7600 10900 7600
Connection ~ 10900 7600
Wire Wire Line
	10900 7600 10900 7900
Wire Wire Line
	10400 7200 10900 7200
Connection ~ 10900 7200
Wire Wire Line
	10900 7200 10900 7600
Wire Wire Line
	10400 7100 10900 7100
Connection ~ 10900 7100
Wire Wire Line
	10900 7100 10900 7200
Wire Wire Line
	10400 7000 10900 7000
Connection ~ 10900 7000
Wire Wire Line
	10900 7000 10900 7100
Wire Wire Line
	10400 6700 10900 6700
Connection ~ 10900 6700
Wire Wire Line
	10900 6700 10900 7000
Wire Wire Line
	10400 6500 10900 6500
Connection ~ 10900 6500
Wire Wire Line
	10900 6500 10900 6700
Wire Wire Line
	10400 5825 10900 5825
Connection ~ 10900 5825
Wire Wire Line
	10900 5825 10900 5925
Wire Wire Line
	10900 5925 10400 5925
Connection ~ 10900 5925
Wire Wire Line
	10900 5925 10900 6025
Wire Wire Line
	10400 6025 10900 6025
Connection ~ 10900 6025
Wire Wire Line
	10900 6025 10900 6125
Wire Wire Line
	10900 6125 10400 6125
Connection ~ 10900 6125
Wire Wire Line
	10900 6125 10900 6500
Wire Wire Line
	10400 7800 10500 7800
Wire Wire Line
	10500 7800 10500 7950
Wire Wire Line
	10400 7700 10500 7700
Wire Wire Line
	10500 7700 10500 7800
Connection ~ 10500 7800
Wire Wire Line
	10500 7700 10500 7300
Wire Wire Line
	10500 7300 10400 7300
Connection ~ 10500 7700
Wire Wire Line
	10500 7300 10500 6600
Connection ~ 10500 7300
Wire Wire Line
	10400 6600 10500 6600
Wire Wire Line
	10400 6400 11750 6400
Wire Wire Line
	11750 6400 11750 6500
Wire Wire Line
	8100 7350 8300 7350
Wire Wire Line
	8300 7250 8100 7250
Wire Wire Line
	8100 7050 8300 7050
Wire Wire Line
	8300 6950 8100 6950
Wire Wire Line
	8100 6850 8300 6850
Wire Wire Line
	8300 6750 8100 6750
Wire Wire Line
	8100 6650 8300 6650
Wire Wire Line
	8300 6550 8100 6550
Wire Wire Line
	8100 6450 8300 6450
Wire Wire Line
	8300 6350 8100 6350
Wire Wire Line
	8100 6150 8300 6150
Wire Wire Line
	8250 6050 8100 6050
Wire Wire Line
	8100 5950 8250 5950
Wire Wire Line
	8250 5850 8100 5850
Wire Wire Line
	8100 5750 8600 5750
Wire Wire Line
	8600 5650 8100 5650
Wire Wire Line
	8100 5550 8600 5550
Wire Wire Line
	8600 5450 8100 5450
Wire Wire Line
	8100 5250 8600 5250
Wire Wire Line
	8600 5150 8100 5150
Wire Wire Line
	8100 5050 8600 5050
Wire Wire Line
	8600 4950 8100 4950
Wire Wire Line
	8100 4850 8600 4850
Wire Wire Line
	8600 4750 8100 4750
Wire Wire Line
	8100 4650 8600 4650
Wire Wire Line
	8600 4550 8100 4550
Wire Wire Line
	8600 4450 8100 4450
Wire Wire Line
	8100 4350 8600 4350
Wire Wire Line
	8600 4250 8100 4250
Wire Wire Line
	8100 4150 8600 4150
Wire Wire Line
	8600 4050 8100 4050
Wire Wire Line
	8100 3950 8600 3950
Wire Wire Line
	8600 3850 8100 3850
Wire Wire Line
	8100 3750 8600 3750
Wire Wire Line
	10350 2550 10450 2550
Wire Wire Line
	10450 2450 10350 2450
Wire Wire Line
	10350 2350 10450 2350
Wire Wire Line
	10450 2150 10350 2150
Wire Wire Line
	10350 2050 10450 2050
Wire Wire Line
	9300 3800 9300 4050
Wire Wire Line
	9450 2750 10450 2750
Wire Wire Line
	12300 4050 12400 4050
Wire Wire Line
	12400 4050 12400 4100
Connection ~ 12400 4050
Wire Wire Line
	11350 3350 11350 4050
Wire Wire Line
	11350 4050 11400 4050
Wire Wire Line
	11700 3600 11700 3250
Wire Wire Line
	11700 3250 11950 3250
Wire Wire Line
	12000 3550 12000 3600
Wire Wire Line
	12850 3800 12850 4050
$Comp
L V_IC:K6R4016C1DTCT000(256KX16) IC?
U 1 1 A6F2AB71
P 14800 3550
AR Path="/A6F2AB71" Ref="IC?"  Part="1" 
AR Path="/5E923584/A6F2AB71" Ref="IC3"  Part="1" 
F 0 "IC3" H 15159 4959 64  0000 L BNN
F 1 "K6R4016C1D-TI10" H 15038 4863 64  0000 L BNN
F 2 "AllModules:TSOP2-44_1" H 14800 3550 50  0001 C CNN
F 3 "" H 14800 3550 50  0001 C CNN
	1    14800 3550
	1    0    0    -1  
$EndComp
Entry Wire Line
	13600 2750 13700 2850
Entry Wire Line
	13600 2650 13700 2750
Entry Wire Line
	13600 2850 13700 2950
Entry Wire Line
	13600 2950 13700 3050
Entry Wire Line
	13600 3050 13700 3150
Entry Wire Line
	13600 3150 13700 3250
Entry Wire Line
	13600 3250 13700 3350
Entry Wire Line
	13600 3350 13700 3450
Entry Wire Line
	13600 3450 13700 3550
Entry Wire Line
	13600 3550 13700 3650
Entry Wire Line
	13600 3650 13700 3750
Entry Wire Line
	13600 3750 13700 3850
Entry Wire Line
	13600 3850 13700 3950
Entry Wire Line
	13600 3950 13700 4050
Entry Wire Line
	13600 4050 13700 4150
Entry Wire Line
	13600 4150 13700 4250
Entry Wire Line
	13600 4250 13700 4350
Entry Wire Line
	13600 4350 13700 4450
Entry Wire Line
	15850 4150 15950 4250
Entry Wire Line
	15850 4050 15950 4150
Entry Wire Line
	15850 3950 15950 4050
Entry Wire Line
	15850 3850 15950 3950
Entry Wire Line
	15850 3750 15950 3850
Entry Wire Line
	15850 3650 15950 3750
Entry Wire Line
	15850 3550 15950 3650
Entry Wire Line
	15850 3450 15950 3550
Entry Wire Line
	15850 3350 15950 3450
Entry Wire Line
	15850 3250 15950 3350
Entry Wire Line
	15850 3150 15950 3250
Entry Wire Line
	15850 3050 15950 3150
Entry Wire Line
	15850 2950 15950 3050
Entry Wire Line
	15850 2850 15950 2950
Entry Wire Line
	15850 2750 15950 2850
Entry Wire Line
	15850 2650 15950 2750
Wire Wire Line
	15850 2650 15500 2650
Wire Wire Line
	15500 2750 15850 2750
Wire Wire Line
	15850 2850 15500 2850
Wire Wire Line
	15500 2950 15850 2950
Wire Wire Line
	15850 3050 15500 3050
Wire Wire Line
	15500 3150 15850 3150
Wire Wire Line
	15850 3250 15500 3250
Wire Wire Line
	15500 3350 15850 3350
Wire Wire Line
	15850 3450 15500 3450
Wire Wire Line
	15500 3550 15850 3550
Wire Wire Line
	15850 3650 15500 3650
Wire Wire Line
	15500 3750 15850 3750
Wire Wire Line
	15850 3850 15500 3850
Wire Wire Line
	15500 3950 15850 3950
Wire Wire Line
	15850 4050 15500 4050
Wire Wire Line
	15500 4150 15850 4150
Wire Wire Line
	13700 2750 14000 2750
Wire Wire Line
	14000 2850 13700 2850
Wire Wire Line
	13700 2950 14000 2950
Wire Wire Line
	14000 3050 13700 3050
Wire Wire Line
	13700 3150 14000 3150
Wire Wire Line
	14000 3250 13700 3250
Wire Wire Line
	13700 3350 14000 3350
Wire Wire Line
	13700 3450 14000 3450
Wire Wire Line
	13700 3550 14000 3550
Wire Wire Line
	14000 3650 13700 3650
Wire Wire Line
	13700 3750 14000 3750
Wire Wire Line
	14000 3850 13700 3850
Wire Wire Line
	13700 3950 14000 3950
Wire Wire Line
	14000 4050 13700 4050
Wire Wire Line
	13700 4150 14000 4150
Wire Wire Line
	14000 4250 13700 4250
Wire Wire Line
	13700 4350 14000 4350
Wire Wire Line
	14000 4450 13700 4450
Wire Wire Line
	14300 4900 14500 4900
Wire Wire Line
	14500 4900 14500 4850
Wire Wire Line
	14600 4850 14600 5100
Wire Wire Line
	14600 5100 14300 5100
Wire Wire Line
	14700 4850 14700 5300
Wire Wire Line
	14700 5300 14300 5300
Wire Wire Line
	14800 4850 14800 4950
Wire Wire Line
	14900 4850 14900 4950
Wire Wire Line
	15000 1950 15000 1975
Wire Wire Line
	15000 2150 14900 2150
Connection ~ 15000 2150
Wire Wire Line
	15000 2150 15000 2350
Wire Wire Line
	14900 2150 14900 2350
Connection ~ 14900 2150
Wire Wire Line
	14900 2150 14850 2150
Wire Wire Line
	14400 2150 14400 1950
Wire Wire Line
	14400 2150 14400 2350
Connection ~ 14400 2150
Wire Wire Line
	14500 2150 14500 2350
Connection ~ 14500 2150
Wire Wire Line
	14500 2150 14400 2150
Text HLabel 13600 2550 1    50   Output ~ 0
A[0..19]
Wire Wire Line
	1500 7200 1500 7250
Wire Wire Line
	1500 7250 1600 7250
Wire Wire Line
	1700 7250 1700 7200
Wire Wire Line
	1600 7250 1600 7300
Connection ~ 1600 7250
Wire Wire Line
	1600 7250 1700 7250
Wire Wire Line
	1650 8450 1700 8450
Wire Wire Line
	1700 8450 4500 8450
Wire Wire Line
	4500 8450 4500 8050
Connection ~ 1700 8450
Wire Wire Line
	1650 8550 1850 8550
Wire Wire Line
	4600 8550 4600 8050
Connection ~ 1850 8550
Wire Wire Line
	1850 8550 4600 8550
Wire Wire Line
	4400 10550 4400 8350
Wire Wire Line
	1850 8300 1850 8550
Wire Wire Line
	1700 8450 1700 8300
$Comp
L V_Diode:NUR30 D?
U 1 1 C78C3FBD
P 1700 8200
AR Path="/C78C3FBD" Ref="D?"  Part="1" 
AR Path="/5E923584/C78C3FBD" Ref="D1"  Part="1" 
F 0 "D1" H 1575 8600 42  0000 L TNN
F 1 "NUR30" H 1800 8525 42  0000 R TNN
F 2 "AllModules:SC70-5_1" H 1700 8200 50  0001 C CNN
F 3 "" H 1700 8200 50  0001 C CNN
	1    1700 8200
	1    0    0    -1  
$EndComp
$Comp
L V_Diode:NUR30 D?
U 1 1 0CADE672
P 2400 8200
AR Path="/0CADE672" Ref="D?"  Part="1" 
AR Path="/5E923584/0CADE672" Ref="D2"  Part="1" 
F 0 "D2" H 2375 8600 42  0000 R TNN
F 1 "NUR30" H 2500 8525 42  0000 R TNN
F 2 "AllModules:SC70-5_1" H 2400 8200 50  0001 C CNN
F 3 "" H 2400 8200 50  0001 C CNN
	1    2400 8200
	1    0    0    -1  
$EndComp
$Comp
L V_Diode:NUR30 D?
U 1 1 93886C31
P 3100 8200
AR Path="/93886C31" Ref="D?"  Part="1" 
AR Path="/5E923584/93886C31" Ref="D3"  Part="1" 
F 0 "D3" H 3075 8600 42  0000 R TNN
F 1 "NUR30" H 3200 8525 42  0000 R TNN
F 2 "AllModules:SC70-5_1" H 3100 8200 50  0001 C CNN
F 3 "" H 3100 8200 50  0001 C CNN
	1    3100 8200
	1    0    0    -1  
$EndComp
Wire Wire Line
	1950 7800 1950 7750
Wire Wire Line
	1950 7750 2650 7750
Wire Wire Line
	3350 7750 3350 7800
Connection ~ 1950 7750
Wire Wire Line
	1950 7750 1950 7700
Wire Wire Line
	2650 7750 2650 7800
Connection ~ 2650 7750
Wire Wire Line
	2650 7750 3350 7750
Wire Wire Line
	3350 7750 4050 7750
Wire Wire Line
	4050 7750 4050 7800
Connection ~ 3350 7750
$Comp
L V_Diode:NUR30 D?
U 1 1 A8F36FED
P 3800 8200
AR Path="/A8F36FED" Ref="D?"  Part="1" 
AR Path="/5E923584/A8F36FED" Ref="D5"  Part="1" 
F 0 "D5" H 3775 8600 42  0000 R TNN
F 1 "NUR30" H 3900 8525 42  0000 R TNN
F 2 "AllModules:SC70-5_1" H 3800 8200 50  0001 C CNN
F 3 "" H 3800 8200 50  0001 C CNN
	1    3800 8200
	1    0    0    -1  
$EndComp
Wire Wire Line
	2000 8300 2000 8350
Wire Wire Line
	2000 8350 4400 8350
Wire Wire Line
	4700 8350 4700 8050
Connection ~ 4400 8350
Wire Wire Line
	4400 8350 4700 8350
Wire Wire Line
	2150 8300 2150 8650
Wire Wire Line
	1650 8650 2150 8650
Wire Wire Line
	4800 8650 4800 8050
Connection ~ 2150 8650
Wire Wire Line
	2150 8650 4800 8650
Wire Wire Line
	2400 8300 2400 8750
Wire Wire Line
	2550 8300 2550 8850
Wire Wire Line
	2700 8950 2700 8300
Wire Wire Line
	2850 8300 2850 9050
Wire Wire Line
	3100 9150 3100 8300
Wire Wire Line
	3250 8300 3250 9250
Wire Wire Line
	3400 9350 3400 8300
Wire Wire Line
	3550 8300 3550 9450
Wire Wire Line
	1650 8750 2400 8750
Wire Wire Line
	4900 8750 4900 8050
Connection ~ 2400 8750
Wire Wire Line
	2400 8750 4900 8750
Wire Wire Line
	5000 8050 5000 8850
Wire Wire Line
	5000 8850 2550 8850
Connection ~ 2550 8850
Wire Wire Line
	2550 8850 1650 8850
Wire Wire Line
	1650 8950 2700 8950
Wire Wire Line
	5100 8950 5100 8050
Connection ~ 2700 8950
Wire Wire Line
	2700 8950 5100 8950
Wire Wire Line
	5200 8050 5200 9050
Wire Wire Line
	5200 9050 2850 9050
Connection ~ 2850 9050
Wire Wire Line
	2850 9050 1650 9050
Wire Wire Line
	1650 9150 3100 9150
Wire Wire Line
	5300 9150 5300 8050
Connection ~ 3100 9150
Wire Wire Line
	3100 9150 5300 9150
Wire Wire Line
	1650 9250 3250 9250
Wire Wire Line
	5400 9250 5400 8050
Connection ~ 3250 9250
Wire Wire Line
	3250 9250 5400 9250
Wire Wire Line
	5500 8050 5500 9350
Wire Wire Line
	5500 9350 3400 9350
Connection ~ 3400 9350
Wire Wire Line
	3400 9350 1650 9350
Wire Wire Line
	1650 9450 3550 9450
Wire Wire Line
	5600 9450 5600 8050
Connection ~ 3550 9450
Wire Wire Line
	3550 9450 5600 9450
Wire Wire Line
	3800 8300 3800 9550
Wire Wire Line
	3950 8300 3950 10250
Wire Wire Line
	4100 8300 4100 10350
Wire Wire Line
	4250 8300 4250 10450
Wire Wire Line
	2650 9550 2650 9850
Wire Wire Line
	2650 10050 2350 10050
Connection ~ 2650 9850
Wire Wire Line
	2650 9850 2650 10050
Wire Wire Line
	1800 9950 1900 9950
Wire Wire Line
	1900 9950 1900 9850
Wire Wire Line
	1900 9950 1900 10050
Wire Wire Line
	1900 10050 2050 10050
Connection ~ 1900 9950
Wire Wire Line
	2650 9550 3800 9550
Wire Wire Line
	5700 9550 5700 8050
Connection ~ 2650 9550
Connection ~ 3800 9550
Wire Wire Line
	3800 9550 5700 9550
Wire Wire Line
	5800 8050 5800 10250
Wire Wire Line
	5800 10250 3950 10250
Connection ~ 3950 10250
Wire Wire Line
	3950 10250 1650 10250
Wire Wire Line
	2100 10350 4100 10350
Wire Wire Line
	5900 10350 5900 8050
Connection ~ 4100 10350
Wire Wire Line
	4100 10350 5900 10350
Wire Wire Line
	6000 8050 6000 10450
Wire Wire Line
	6000 10450 4250 10450
Connection ~ 4250 10450
Wire Wire Line
	4250 10450 2100 10450
Wire Wire Line
	1650 10550 4400 10550
Connection ~ 4400 10550
Wire Wire Line
	4400 10550 4650 10550
Wire Wire Line
	5050 10550 5050 10750
Wire Wire Line
	5050 10750 5100 10750
Connection ~ 5050 10750
Wire Wire Line
	5050 10750 5050 10950
Wire Wire Line
	4400 10550 4400 10950
Wire Wire Line
	10950 1450 10950 1200
Connection ~ 10950 1200
Wire Wire Line
	10950 1200 10900 1200
Wire Wire Line
	11350 1450 11350 1200
Connection ~ 11350 1200
Wire Wire Line
	11350 1200 12200 1200
Wire Wire Line
	11900 2250 11850 2250
Wire Wire Line
	11900 2250 11900 2750
Wire Wire Line
	11850 2750 11900 2750
Connection ~ 11900 2750
Wire Wire Line
	11900 2750 11900 2800
Wire Wire Line
	11850 2050 12000 2050
Wire Wire Line
	12000 2150 11850 2150
Wire Wire Line
	12000 2450 11850 2450
Wire Wire Line
	11850 2550 12000 2550
Wire Wire Line
	12000 2650 11850 2650
Wire Wire Line
	7000 8050 7000 8150
Wire Wire Line
	7000 8150 6900 8150
Wire Wire Line
	6200 8150 6200 8050
Wire Wire Line
	6200 8150 6200 8950
Connection ~ 6200 8150
Wire Wire Line
	6300 8050 6300 8150
Connection ~ 6300 8150
Wire Wire Line
	6300 8150 6200 8150
Wire Wire Line
	6400 8050 6400 8150
Connection ~ 6400 8150
Wire Wire Line
	6400 8150 6300 8150
Wire Wire Line
	6500 8050 6500 8150
Connection ~ 6500 8150
Wire Wire Line
	6500 8150 6400 8150
Wire Wire Line
	6600 8050 6600 8150
Connection ~ 6600 8150
Wire Wire Line
	6600 8150 6500 8150
Wire Wire Line
	6700 8050 6700 8150
Connection ~ 6700 8150
Wire Wire Line
	6700 8150 6600 8150
Wire Wire Line
	6800 8050 6800 8150
Connection ~ 6800 8150
Wire Wire Line
	6800 8150 6700 8150
Wire Wire Line
	6900 8050 6900 8150
Connection ~ 6900 8150
Wire Wire Line
	6900 8150 6800 8150
Wire Wire Line
	6500 8150 6500 8350
Wire Wire Line
	6700 8350 6500 8350
Wire Wire Line
	7700 8350 7700 8825
Wire Wire Line
	7300 8950 7300 8350
Connection ~ 7300 8350
Wire Wire Line
	7300 8350 7700 8350
Wire Wire Line
	7300 8050 7300 8350
Wire Wire Line
	6950 11100 6950 11000
Wire Wire Line
	6950 9650 7150 9650
Connection ~ 6950 9850
Wire Wire Line
	6950 9850 6950 9650
Wire Wire Line
	7600 9600 7600 9650
Wire Wire Line
	7600 11000 7450 11000
Connection ~ 6950 11000
Wire Wire Line
	6950 11000 6950 10800
Connection ~ 6950 10800
Wire Wire Line
	6950 10800 6950 10650
Connection ~ 6950 10650
Wire Wire Line
	6950 10650 6950 10450
Connection ~ 6950 10450
Wire Wire Line
	6950 10450 6950 10250
Connection ~ 6950 10250
Wire Wire Line
	6950 10250 6950 10050
Connection ~ 6950 10050
Wire Wire Line
	6950 10050 6950 9850
Connection ~ 7600 10050
Wire Wire Line
	7600 10050 7600 10250
Connection ~ 7600 10250
Wire Wire Line
	7600 10250 7600 10450
Connection ~ 7600 10450
Wire Wire Line
	7600 10450 7600 10650
Connection ~ 7600 10650
Wire Wire Line
	7600 10650 7600 10800
Wire Wire Line
	7600 10800 7450 10800
Connection ~ 7600 10800
Wire Wire Line
	7600 10800 7600 11000
Connection ~ 7600 9850
Wire Wire Line
	7600 9850 7600 10050
Wire Wire Line
	7600 9650 7450 9650
Connection ~ 7600 9650
Wire Wire Line
	7600 9650 7600 9850
Wire Wire Line
	11750 6900 11750 7700
Wire Wire Line
	11750 7700 12050 7700
Wire Wire Line
	12050 7700 12050 7750
Connection ~ 12050 7700
Wire Wire Line
	12200 7700 12050 7700
$Comp
L V_Transistor:Q_NMOS_GSD_10097274 T?
U 1 1 78F4DB2D
P 11850 6700
AR Path="/78F4DB2D" Ref="T?"  Part="1" 
AR Path="/5E923584/78F4DB2D" Ref="T6"  Part="1" 
F 0 "T6" H 11785 6969 64  0000 L BNN
F 1 "2N7002" H 11564 6880 59  0000 L BNN
F 2 "AllModules:SOT23-GSD_1" H 11850 6700 50  0001 C CNN
F 3 "" H 11850 6700 50  0001 C CNN
F 4 "TRANSISTOR MOSFET N CHANNEL 60V, 0.18A" H 11850 6700 50  0001 C CNN "Description"
F 5 "10097274" H 11850 6700 50  0001 C CNN "Item Number"
F 6 "ON SEMICONDUCTOR_RMS1" H 11850 6700 50  0001 C CNN "Manufacturer"
F 7 "2N7002LT1G" H 11850 6700 50  0001 C CNN "Manufacturer_No"
F 8 "NXP SEMICONDUCTORS_RMS1" H 11850 6700 50  0001 C CNN "Manufacturer2"
F 9 "2N7002,215" H 11850 6700 50  0001 C CNN "Manufacturer_No2"
F 10 "NXP SEMICONDUCTORS_RMS1" H 11850 6700 50  0001 C CNN "Manufacturer3"
F 11 "2N7002" H 11850 6700 50  0001 C CNN "Manufacturer_No3"
	1    11850 6700
	-1   0    0    -1  
$EndComp
$Comp
L V_Resistor:R0603_22k_1%_10095983 R?
U 1 1 CBBF32AF
P 12450 6700
AR Path="/CBBF32AF" Ref="R?"  Part="1" 
AR Path="/5E923584/CBBF32AF" Ref="R46"  Part="1" 
F 0 "R46" V 12575 6625 64  0000 L BNN
F 1 "22k" V 12375 6650 42  0000 L BNN
F 2 "AllModules:R0603_1" H 12450 6700 50  0001 C CNN
F 3 "" H 12450 6700 50  0001 C CNN
F 4 "RESISTOR, 22 K OHM,0.063W, +/-1%,0603" H 12450 6700 50  0001 C CNN "Description"
F 5 "10095983" H 12450 6700 50  0001 C CNN "Item Number"
F 6 "YAGEO_RMS1" H 12450 6700 50  0001 C CNN "Manufacturer"
F 7 "RC0603FR-0722KL" H 12450 6700 50  0001 C CNN "Manufacturer_No"
F 8 "BOURNS_RMS1" H 12450 6700 50  0001 C CNN "Manufacturer2"
F 9 "CR0603-FX-2202ELF " H 12450 6700 50  0001 C CNN "Manufacturer_No2"
F 10 "YAGEO_RMS1" H 12450 6700 50  0001 C CNN "Manufacturer3"
F 11 "RC0603FR-0722KL" H 12450 6700 50  0001 C CNN "Manufacturer_No3"
	1    12450 6700
	0    -1   -1   0   
$EndComp
Wire Wire Line
	12200 6700 12050 6700
Connection ~ 12200 6700
Connection ~ 12050 6700
$Comp
L V_Diode:D_Schottky_A1K3_10022652 D?
U 1 1 13A4EF58
P 12450 6400
AR Path="/13A4EF58" Ref="D?"  Part="1" 
AR Path="/5E923584/13A4EF58" Ref="D10"  Part="1" 
F 0 "D10" H 12397 6154 59  0000 L BNN
F 1 "BAT54" H 12374 6260 42  0000 L BNN
F 2 "AllModules:SOT23-1G_1" H 12450 6400 50  0001 C CNN
F 3 "" H 12450 6400 50  0001 C CNN
F 4 "DIODE SCHOTTKY, 30V, 200MA" H 12450 6400 50  0001 C CNN "Description"
F 5 "10022652" H 12450 6400 50  0001 C CNN "Item Number"
F 6 "NXP SEMICONDUCTORS_RMS1" H 12450 6400 50  0001 C CNN "Manufacturer"
F 7 "BAT54,215" H 12450 6400 50  0001 C CNN "Manufacturer_No"
F 8 "NXP SEMICONDUCTORS_RMS1" H 12450 6400 50  0001 C CNN "Manufacturer2"
F 9 "BAT54" H 12450 6400 50  0001 C CNN "Manufacturer_No2"
	1    12450 6400
	-1   0    0    1   
$EndComp
Wire Wire Line
	12200 6700 12200 6400
Wire Wire Line
	12200 6400 12300 6400
Wire Wire Line
	12650 6400 12650 6600
Connection ~ 12650 6600
Wire Wire Line
	12850 5950 13000 5950
Wire Wire Line
	13000 5950 13000 6900
Wire Wire Line
	13000 5950 14600 5950
Wire Wire Line
	14600 5950 14600 6850
Connection ~ 13000 5950
Wire Wire Line
	15650 6600 15650 7100
Wire Wire Line
	15650 7100 15200 7100
Wire Wire Line
	12650 6600 15650 6600
Text HLabel 15450 7450 2    50   Input ~ 0
RTS_UART_ST
Wire Wire Line
	15450 7450 15200 7450
Wire Wire Line
	14900 6850 14900 6800
$Comp
L V_Capacitor:C0805_1uF_16V_10% C?
U 1 1 C17297D4
P 14150 7300
AR Path="/C17297D4" Ref="C?"  Part="1" 
AR Path="/5E923584/C17297D4" Ref="C112"  Part="1" 
F 0 "C112" V 13950 7175 64  0000 L BNN
F 1 "1uF" V 13975 7350 42  0000 R TNN
F 2 "AllModules:C0805_1" H 14150 7300 50  0001 C CNN
F 3 "" H 14150 7300 50  0001 C CNN
F 4 "CAPACITOR, 1UF, +/-10%, 16V, 0805" H 14150 7300 50  0001 C CNN "Description"
F 5 "10022546" H 14150 7300 50  0001 C CNN "Item Number"
F 6 "AVX_RMS1" H 14150 7300 50  0001 C CNN "Manufacturer"
F 7 "0805YC105KAT2A" H 14150 7300 50  0001 C CNN "Manufacturer_No"
F 8 "MURATA MANUFACTURING CO., LTD." H 14150 7300 50  0001 C CNN "Manufacturer2"
F 9 "GRM21BR71C105KA01L" H 14150 7300 50  0001 C CNN "Manufacturer_No2"
	1    14150 7300
	0    -1   1    0   
$EndComp
$Comp
L V_IC:74HCT1G32GW IC?
U 1 1 28A53036
P 13500 7650
AR Path="/28A53036" Ref="IC?"  Part="1" 
AR Path="/5E923584/28A53036" Ref="IC42"  Part="1" 
F 0 "IC42" H 13363 8400 64  0000 L BNN
F 1 "74HCT1G32GW" H 13063 8325 59  0000 L BNN
F 2 "AllModules:SC70-5_1" H 13500 7650 50  0001 C CNN
F 3 "" H 13500 7650 50  0001 C CNN
F 4 "IC, 2 INPUT OR-GATE,SOT353" H 13500 7650 50  0001 C CNN "Description"
F 5 "10022960" H 13500 7650 50  0001 C CNN "Item Number"
F 6 "NXP SEMICONDUCTORS_RMS1" H 13500 7650 50  0001 C CNN "Manufacturer"
F 7 "74HCT1G32GW" H 13500 7650 50  0001 C CNN "Manufacturer_No"
F 8 "NXP SEMICONDUCTORS_RMS1" H 13500 7650 50  0001 C CNN "Manufacturer2"
F 9 "74HCT1G32GW,125" H 13500 7650 50  0001 C CNN "Manufacturer_No2"
	1    13500 7650
	-1   0    0    -1  
$EndComp
Wire Wire Line
	13300 6900 13300 6850
Wire Wire Line
	12650 7350 12700 7350
Wire Wire Line
	13650 7300 13650 7150
Wire Wire Line
	13650 7150 13600 7150
Wire Wire Line
	13650 7300 13650 7500
Wire Wire Line
	13650 7500 13600 7500
Connection ~ 13650 7300
$Comp
L V_Resistor:R_100k_5% R?
U 1 1 CC254D70
P 13800 7700
AR Path="/CC254D70" Ref="R?"  Part="1" 
AR Path="/5E923584/CC254D70" Ref="R61"  Part="1" 
F 0 "R61" V 13825 7456 64  0000 L BNN
F 1 "100k" V 13888 7456 42  0000 L BNN
F 2 "AllModules:R0603_1" H 13800 7700 50  0001 C CNN
F 3 "" H 13800 7700 50  0001 C CNN
F 4 "RESISTOR,100 K OHM, 0.063W +/-5%" H 13800 7700 50  0001 C CNN "Description"
F 5 "10022732" H 13800 7700 50  0001 C CNN "Item Number"
F 6 "YAGEO_RMS1" H 13800 7700 50  0001 C CNN "Manufacturer"
F 7 "RC0603JR-07100KL" H 13800 7700 50  0001 C CNN "Manufacturer_No"
F 8 "YAGEO_RMS1" H 13800 7700 50  0001 C CNN "Manufacturer2"
F 9 "RC0603JR-07100KL" H 13800 7700 50  0001 C CNN "Manufacturer_No2"
F 10 "YAGEO_RMS1" H 13800 7700 50  0001 C CNN "Manufacturer3"
F 11 "RC0603JR-07100KL" H 13800 7700 50  0001 C CNN "Manufacturer_No3"
F 12 "PANASONIC_RMS1" H 13800 7700 50  0001 C CNN "Manufacturer4"
F 13 "ERJ3GEYJ104V" H 13800 7700 50  0001 C CNN "Manufacturer_No4"
	1    13800 7700
	0    1    1    0   
$EndComp
Wire Wire Line
	13800 8000 13800 7950
Wire Wire Line
	13950 7950 13800 7950
Connection ~ 13800 7950
Connection ~ 13800 7300
Wire Wire Line
	13800 7300 13650 7300
Wire Wire Line
	13950 7550 13950 7300
Wire Wire Line
	13950 7300 13800 7300
Connection ~ 13950 7300
NoConn ~ 10450 2250
NoConn ~ 10450 2650
$Comp
L V_IC:CD74HCT245M IC?
U 1 1 15424B03
P 11150 2850
AR Path="/15424B03" Ref="IC?"  Part="1" 
AR Path="/5E923584/15424B03" Ref="IC40"  Part="1" 
F 0 "IC40" H 11590 4172 64  0000 L BNN
F 1 "CD74HCT245M" H 11587 4100 59  0000 L BNN
F 2 "AllModules:MX.A20_COMPOSANT_1" H 11150 2850 50  0001 C CNN
F 3 "" H 11150 2850 50  0001 C CNN
	1    11150 2850
	1    0    0    -1  
$EndComp
Wire Wire Line
	10950 3400 10950 3350
Wire Wire Line
	9900 3150 9900 3250
Connection ~ 9900 3250
Wire Wire Line
	10600 3250 10600 3300
Wire Wire Line
	10250 3850 10150 3850
NoConn ~ 2350 2850
Wire Wire Line
	9900 4300 9900 4250
Wire Wire Line
	5950 1550 5950 1600
$Comp
L V_Resistor:R0603_220k_5% R?
U 1 1 E7C109B0
P 7150 1200
AR Path="/E7C109B0" Ref="R?"  Part="1" 
AR Path="/5E923584/E7C109B0" Ref="R3"  Part="1" 
F 0 "R3" V 7150 963 64  0000 L BNN
F 1 "220k" V 7225 963 42  0000 L BNN
F 2 "AllModules:R0603_1" H 7150 1200 50  0001 C CNN
F 3 "" H 7150 1200 50  0001 C CNN
F 4 "RESISTOR, 220 K OHM, 0603,+/-5%" H 7150 1200 50  0001 C CNN "Description"
F 5 "10023188" H 7150 1200 50  0001 C CNN "Item Number"
F 6 "YAGEO_RMS1" H 7150 1200 50  0001 C CNN "Manufacturer"
F 7 "RC0603JR-07220KL" H 7150 1200 50  0001 C CNN "Manufacturer_No"
F 8 "YAGEO_RMS1" H 7150 1200 50  0001 C CNN "Manufacturer2"
F 9 "RC0603JR-07220KL" H 7150 1200 50  0001 C CNN "Manufacturer_No2"
F 10 "KOA SPEER" H 7150 1200 50  0001 C CNN "Manufacturer3"
F 11 "RK73B1JTTD224J" H 7150 1200 50  0001 C CNN "Manufacturer_No3"
	1    7150 1200
	0    1    1    0   
$EndComp
NoConn ~ 8100 7550
$Comp
L V_Power:PWR_FLAG #FLG0103
U 1 1 5ED7A82D
P 15000 1975
F 0 "#FLG0103" H 15000 2050 50  0001 C CNN
F 1 "PWR_FLAG" V 15000 2103 50  0000 L CNN
F 2 "" H 15000 1975 50  0001 C CNN
F 3 "" H 15000 1975 50  0001 C CNN
	1    15000 1975
	0    1    1    0   
$EndComp
Connection ~ 15000 1975
Wire Wire Line
	15000 1975 15000 2150
Wire Wire Line
	11850 2350 12000 2350
$Comp
L V_Power:PWR_FLAG #FLG0112
U 1 1 600E17E9
P 11950 3250
F 0 "#FLG0112" H 11950 3325 50  0001 C CNN
F 1 "PWR_FLAG" H 12100 3400 50  0000 C CNN
F 2 "" H 11950 3250 50  0001 C CNN
F 3 "" H 11950 3250 50  0001 C CNN
	1    11950 3250
	1    0    0    -1  
$EndComp
Wire Wire Line
	12650 6600 12650 6700
Wire Wire Line
	5550 1500 5550 1600
Wire Wire Line
	7150 950  7150 1050
Wire Wire Line
	7150 1350 7150 1500
Wire Wire Line
	8250 950  8350 950 
Wire Wire Line
	8650 950  8700 950 
Wire Wire Line
	12400 4050 12500 4050
Wire Wire Line
	12800 4050 12850 4050
Connection ~ 11950 3250
Wire Wire Line
	11950 3250 12050 3250
Wire Wire Line
	2800 5950 2950 5950
Wire Wire Line
	3250 5950 4300 5950
Wire Wire Line
	2350 9550 2650 9550
Wire Wire Line
	1650 9550 2050 9550
Wire Wire Line
	1900 9850 2050 9850
Wire Wire Line
	2350 9850 2650 9850
Wire Wire Line
	4400 10950 4650 10950
Wire Wire Line
	4950 10950 5050 10950
Wire Wire Line
	12050 7400 12050 7700
Wire Wire Line
	12050 6700 12050 7100
Wire Wire Line
	12200 6700 12300 6700
Wire Wire Line
	12600 6700 12650 6700
Connection ~ 12650 6700
Wire Wire Line
	12650 6700 12650 7350
Wire Wire Line
	13800 7300 13800 7550
Wire Wire Line
	13800 7850 13800 7950
Wire Wire Line
	12400 4450 12400 4400
Wire Wire Line
	12600 6400 12650 6400
Wire Wire Line
	13950 7850 13950 7950
Wire Wire Line
	4950 10550 5050 10550
Wire Wire Line
	7150 9850 6950 9850
Wire Wire Line
	7150 10050 6950 10050
Wire Wire Line
	7150 10250 6950 10250
Wire Wire Line
	7150 10450 6950 10450
Wire Wire Line
	7150 10650 6950 10650
Wire Wire Line
	7150 10800 6950 10800
Wire Wire Line
	7150 11000 6950 11000
Wire Wire Line
	7450 9850 7600 9850
Wire Wire Line
	7450 10050 7600 10050
Wire Wire Line
	7450 10250 7600 10250
Wire Wire Line
	7450 10450 7600 10450
Wire Wire Line
	7450 10650 7600 10650
Wire Wire Line
	14000 7300 13950 7300
Wire Wire Line
	12200 7100 12200 6700
Wire Wire Line
	12200 7400 12200 7700
Wire Wire Line
	14550 2150 14500 2150
Wire Wire Line
	11000 1200 10950 1200
Wire Wire Line
	11300 1200 11350 1200
Wire Wire Line
	10050 3250 9900 3250
Wire Wire Line
	10350 3250 10600 3250
Wire Wire Line
	6550 1150 6550 900 
Wire Wire Line
	6550 1450 6550 1600
$Comp
L V_Capacitor:C0402_100nF_16V_10% C?
U 1 1 662809D9
P 11150 1200
AR Path="/662809D9" Ref="C?"  Part="1" 
AR Path="/5E923584/662809D9" Ref="C110"  Part="1" 
F 0 "C110" V 11388 1069 64  0000 L BNN
F 1 "100nF" V 11244 1300 42  0000 R TNN
F 2 "AllModules:C0402_1" H 11150 1200 50  0001 C CNN
F 3 "" H 11150 1200 50  0001 C CNN
F 4 "CAPACITOR,100NF,16V,+/-10%,X7R,0402" H 0   0   50  0001 C CNN "Description"
F 5 "10022607" H 0   0   50  0001 C CNN "Item Number"
F 6 "MURATA" H 0   0   50  0001 C CNN "Manufacturer"
F 7 "YAGEO_RMS1" H 0   0   50  0001 C CNN "Manufacturer2"
F 8 "YAGEO_RMS1" H 0   0   50  0001 C CNN "Manufacturer3"
F 9 "GRM155R71C104JA88J" H 0   0   50  0001 C CNN "Manufacturer_No"
F 10 "CC0402KRX7R7BB104" H 0   0   50  0001 C CNN "Manufacturer_No2"
F 11 "CC0402KRX7R7BB104" H 0   0   50  0001 C CNN "Manufacturer_No3"
	1    11150 1200
	0    1    -1   0   
$EndComp
Wire Wire Line
	9900 3250 9900 3650
Wire Wire Line
	9650 3850 9450 3850
Wire Wire Line
	9450 2750 9450 3850
Wire Wire Line
	9650 4050 9300 4050
Wire Wire Line
	8450 1100 8450 1150
$Comp
L V_Capacitor:C0402_100nF_16V_10% C?
U 1 1 501DA122
P 8450 1300
AR Path="/501DA122" Ref="C?"  Part="1" 
AR Path="/5E923584/501DA122" Ref="C9"  Part="1" 
F 0 "C9" H 8538 1339 64  0000 L CNN
F 1 "100nF" H 8538 1244 42  0000 L CNN
F 2 "AllModules:C0402_1" H 8450 1300 50  0001 C CNN
F 3 "" H 8450 1300 50  0001 C CNN
F 4 "CAPACITOR,100NF,16V,+/-10%,X7R,0402" H 8450 1300 50  0001 C CNN "Description"
F 5 "10022607" H 8450 1300 50  0001 C CNN "Item Number"
F 6 "MURATA" H 8450 1300 50  0001 C CNN "Manufacturer"
F 7 "GRM155R71C104JA88J" H 8450 1300 50  0001 C CNN "Manufacturer_No"
F 8 "YAGEO_RMS1" H 8450 1300 50  0001 C CNN "Manufacturer2"
F 9 "CC0402KRX7R7BB104" H 8450 1300 50  0001 C CNN "Manufacturer_No2"
F 10 "YAGEO_RMS1" H 8450 1300 50  0001 C CNN "Manufacturer3"
F 11 "CC0402KRX7R7BB104" H 8450 1300 50  0001 C CNN "Manufacturer_No3"
	1    8450 1300
	1    0    0    1   
$EndComp
Wire Wire Line
	8450 1450 8450 1500
Wire Wire Line
	5750 1150 5750 1600
Connection ~ 5750 1150
Wire Wire Line
	5550 1200 5550 1150
Connection ~ 5550 1150
$Comp
L V_Resistor:R1206_ARRAY_6K8_5% RS?
U 1 1 D0D8FBF3
P 1450 6150
AR Path="/D0D8FBF3" Ref="RS?"  Part="1" 
AR Path="/5E923584/D0D8FBF3" Ref="RS6"  Part="1" 
F 0 "RS6" V 1450 6550 59  0000 R TNN
F 1 "6.8k" V 1375 6550 59  0000 R TNN
F 2 "AllModules:BCN16_1" H 1450 6150 50  0001 C CNN
F 3 "" H 1450 6150 50  0001 C CNN
F 4 "10023253" H 1450 6150 50  0001 C CNN "Item Number"
	1    1450 6150
	0    -1   -1   0   
$EndComp
Wire Wire Line
	1400 5850 1450 5850
Wire Wire Line
	1300 5850 1400 5850
Connection ~ 1400 5850
Wire Wire Line
	1500 5850 1500 5950
Wire Wire Line
	1400 5850 1400 5950
Wire Wire Line
	1600 5850 1600 5950
Wire Wire Line
	1300 5850 1300 5950
Connection ~ 6500 8350
Wire Wire Line
	6500 8350 6500 8800
Wire Wire Line
	5550 850  5650 850 
$Comp
L V_Power:GND #PWR0191
U 1 1 5EEB6F91
P 9900 4300
F 0 "#PWR0191" H 10050 4250 50  0001 C CNN
F 1 "GND" H 9900 4150 50  0000 C CNN
F 2 "" H 9900 4200 50  0001 C CNN
F 3 "" H 9900 4200 50  0001 C CNN
	1    9900 4300
	1    0    0    -1  
$EndComp
$Comp
L V_Power:GND #PWR0192
U 1 1 5EEB85ED
P 10950 3400
F 0 "#PWR0192" H 11100 3350 50  0001 C CNN
F 1 "GND" H 10950 3250 50  0000 C CNN
F 2 "" H 10950 3300 50  0001 C CNN
F 3 "" H 10950 3300 50  0001 C CNN
	1    10950 3400
	1    0    0    -1  
$EndComp
$Comp
L V_Power:GND #PWR0193
U 1 1 5EEBA224
P 10600 3300
F 0 "#PWR0193" H 10750 3250 50  0001 C CNN
F 1 "GND" H 10600 3150 50  0000 C CNN
F 2 "" H 10600 3200 50  0001 C CNN
F 3 "" H 10600 3200 50  0001 C CNN
	1    10600 3300
	1    0    0    -1  
$EndComp
$Comp
L V_Power:GND #PWR0194
U 1 1 5EEBA480
P 12000 3550
F 0 "#PWR0194" H 12150 3500 50  0001 C CNN
F 1 "GND" H 12000 3400 50  0000 C CNN
F 2 "" H 12000 3450 50  0001 C CNN
F 3 "" H 12000 3450 50  0001 C CNN
	1    12000 3550
	-1   0    0    1   
$EndComp
$Comp
L V_Power:GND #PWR0195
U 1 1 5EEBBE3A
P 12400 4450
F 0 "#PWR0195" H 12550 4400 50  0001 C CNN
F 1 "GND" H 12400 4300 50  0000 C CNN
F 2 "" H 12400 4350 50  0001 C CNN
F 3 "" H 12400 4350 50  0001 C CNN
	1    12400 4450
	1    0    0    -1  
$EndComp
$Comp
L V_Power:GND #PWR0196
U 1 1 5EEBD45A
P 11900 2800
F 0 "#PWR0196" H 12050 2750 50  0001 C CNN
F 1 "GND" H 11900 2650 50  0000 C CNN
F 2 "" H 11900 2700 50  0001 C CNN
F 3 "" H 11900 2700 50  0001 C CNN
	1    11900 2800
	1    0    0    -1  
$EndComp
$Comp
L V_Power:GND #PWR0197
U 1 1 5EEC17E6
P 10900 1200
F 0 "#PWR0197" H 11050 1150 50  0001 C CNN
F 1 "GND" H 10900 1050 50  0000 C CNN
F 2 "" H 10900 1100 50  0001 C CNN
F 3 "" H 10900 1100 50  0001 C CNN
	1    10900 1200
	0    1    1    0   
$EndComp
$Comp
L V_Power:GND #PWR0198
U 1 1 5EEC40CF
P 14400 1950
F 0 "#PWR0198" H 14550 1900 50  0001 C CNN
F 1 "GND" H 14400 1800 50  0000 C CNN
F 2 "" H 14400 1850 50  0001 C CNN
F 3 "" H 14400 1850 50  0001 C CNN
	1    14400 1950
	-1   0    0    1   
$EndComp
$Comp
L V_Power:GND #PWR0199
U 1 1 5EEC6646
P 13800 8000
F 0 "#PWR0199" H 13950 7950 50  0001 C CNN
F 1 "GND" H 13800 7850 50  0000 C CNN
F 2 "" H 13800 7900 50  0001 C CNN
F 3 "" H 13800 7900 50  0001 C CNN
	1    13800 8000
	1    0    0    -1  
$EndComp
$Comp
L V_Power:GND #PWR0200
U 1 1 5EECAEBA
P 12050 7750
F 0 "#PWR0200" H 12200 7700 50  0001 C CNN
F 1 "GND" H 12050 7600 50  0000 C CNN
F 2 "" H 12050 7650 50  0001 C CNN
F 3 "" H 12050 7650 50  0001 C CNN
	1    12050 7750
	1    0    0    -1  
$EndComp
$Comp
L V_Power:GND #PWR0201
U 1 1 5EECB3A8
P 10500 7950
F 0 "#PWR0201" H 10650 7900 50  0001 C CNN
F 1 "GND" H 10500 7800 50  0000 C CNN
F 2 "" H 10500 7850 50  0001 C CNN
F 3 "" H 10500 7850 50  0001 C CNN
	1    10500 7950
	1    0    0    -1  
$EndComp
$Comp
L V_Power:GND #PWR0202
U 1 1 5EECC77B
P 6950 11100
F 0 "#PWR0202" H 7100 11050 50  0001 C CNN
F 1 "GND" H 6950 10950 50  0000 C CNN
F 2 "" H 6950 11000 50  0001 C CNN
F 3 "" H 6950 11000 50  0001 C CNN
	1    6950 11100
	1    0    0    -1  
$EndComp
$Comp
L V_Power:GND #PWR0203
U 1 1 5EECFDDC
P 6200 8950
F 0 "#PWR0203" H 6350 8900 50  0001 C CNN
F 1 "GND" H 6200 8800 50  0000 C CNN
F 2 "" H 6200 8850 50  0001 C CNN
F 3 "" H 6200 8850 50  0001 C CNN
	1    6200 8950
	1    0    0    -1  
$EndComp
$Comp
L V_Power:GND #PWR0204
U 1 1 5EED44A1
P 1600 7300
F 0 "#PWR0204" H 1750 7250 50  0001 C CNN
F 1 "GND" H 1600 7150 50  0000 C CNN
F 2 "" H 1600 7200 50  0001 C CNN
F 3 "" H 1600 7200 50  0001 C CNN
	1    1600 7300
	1    0    0    -1  
$EndComp
$Comp
L V_Power:GND #PWR0205
U 1 1 5EED8EE0
P 3025 3550
F 0 "#PWR0205" H 3175 3500 50  0001 C CNN
F 1 "GND" H 3025 3400 50  0000 C CNN
F 2 "" H 3025 3450 50  0001 C CNN
F 3 "" H 3025 3450 50  0001 C CNN
	1    3025 3550
	-1   0    0    1   
$EndComp
$Comp
L V_Power:GND #PWR0206
U 1 1 5EEE040A
P 5650 850
F 0 "#PWR0206" H 5800 800 50  0001 C CNN
F 1 "GND" H 5650 700 50  0000 C CNN
F 2 "" H 5650 750 50  0001 C CNN
F 3 "" H 5650 750 50  0001 C CNN
	1    5650 850 
	-1   0    0    1   
$EndComp
Connection ~ 5650 850 
Wire Wire Line
	5650 850  5750 850 
$Comp
L V_Power:GND #PWR0207
U 1 1 5EEE522E
P 6550 900
F 0 "#PWR0207" H 6700 850 50  0001 C CNN
F 1 "GND" H 6550 750 50  0000 C CNN
F 2 "" H 6550 800 50  0001 C CNN
F 3 "" H 6550 800 50  0001 C CNN
	1    6550 900 
	-1   0    0    1   
$EndComp
$Comp
L V_Power:GND #PWR0208
U 1 1 5EEE55CB
P 7400 1250
F 0 "#PWR0208" H 7550 1200 50  0001 C CNN
F 1 "GND" H 7400 1100 50  0000 C CNN
F 2 "" H 7400 1150 50  0001 C CNN
F 3 "" H 7400 1150 50  0001 C CNN
	1    7400 1250
	1    0    0    -1  
$EndComp
$Comp
L V_Power:+5V #0122
U 1 1 5EEEC5AD
P 9900 3150
F 0 "#0122" H 9950 3200 50  0001 C CNN
F 1 "+5V" H 9800 3300 59  0000 L CNN
F 2 "" H 9900 3250 50  0001 C CNN
F 3 "" H 9900 3250 50  0001 C CNN
	1    9900 3150
	1    0    0    -1  
$EndComp
$Comp
L V_Power:+5V #U0143
U 1 1 5EEEE95A
P 15000 1950
F 0 "#U0143" H 15050 2000 50  0001 C CNN
F 1 "+5V" H 14900 2100 59  0000 L CNN
F 2 "" H 15000 2050 50  0001 C CNN
F 3 "" H 15000 2050 50  0001 C CNN
	1    15000 1950
	1    0    0    -1  
$EndComp
$Comp
L V_Power:+5V #U0144
U 1 1 5EEF1FCA
P 10900 5775
F 0 "#U0144" H 10950 5825 50  0001 C CNN
F 1 "+5V" H 10800 5925 59  0000 L CNN
F 2 "" H 10900 5875 50  0001 C CNN
F 3 "" H 10900 5875 50  0001 C CNN
	1    10900 5775
	1    0    0    -1  
$EndComp
$Comp
L V_Power:GND #PWR0209
U 1 1 5EEF6AD5
P 13300 6850
F 0 "#PWR0209" H 13450 6800 50  0001 C CNN
F 1 "GND" H 13300 6700 50  0000 C CNN
F 2 "" H 13300 6750 50  0001 C CNN
F 3 "" H 13300 6750 50  0001 C CNN
	1    13300 6850
	-1   0    0    1   
$EndComp
$Comp
L V_Power:GND #PWR0210
U 1 1 5EEF6F02
P 14900 6800
F 0 "#PWR0210" H 15050 6750 50  0001 C CNN
F 1 "GND" H 14900 6650 50  0000 C CNN
F 2 "" H 14900 6700 50  0001 C CNN
F 3 "" H 14900 6700 50  0001 C CNN
	1    14900 6800
	-1   0    0    1   
$EndComp
$Comp
L V_Power:+5V #U0145
U 1 1 5EEFD6E4
P 9050 7340
F 0 "#U0145" H 9100 7390 50  0001 C CNN
F 1 "+5V" H 8950 7490 59  0000 L CNN
F 2 "" H 9050 7440 50  0001 C CNN
F 3 "" H 9050 7440 50  0001 C CNN
	1    9050 7340
	1    0    0    -1  
$EndComp
Wire Wire Line
	9050 7450 9050 7340
Connection ~ 9050 7450
$Comp
L V_Power:+5V #U0146
U 1 1 5EFABAAB
P 7600 9600
F 0 "#U0146" H 7650 9650 50  0001 C CNN
F 1 "+5V" H 7500 9750 59  0000 L CNN
F 2 "" H 7600 9700 50  0001 C CNN
F 3 "" H 7600 9700 50  0001 C CNN
	1    7600 9600
	1    0    0    -1  
$EndComp
$Comp
L V_Power:+5V #U0147
U 1 1 5EFAF7FE
P 1950 7700
F 0 "#U0147" H 2000 7750 50  0001 C CNN
F 1 "+5V" H 1850 7850 59  0000 L CNN
F 2 "" H 1950 7800 50  0001 C CNN
F 3 "" H 1950 7800 50  0001 C CNN
	1    1950 7700
	1    0    0    -1  
$EndComp
$Comp
L V_Power:+5V #U0148
U 1 1 5EFB49D3
P 1450 5750
F 0 "#U0148" H 1500 5800 50  0001 C CNN
F 1 "+5V" H 1350 5900 59  0000 L CNN
F 2 "" H 1450 5850 50  0001 C CNN
F 3 "" H 1450 5850 50  0001 C CNN
	1    1450 5750
	1    0    0    -1  
$EndComp
$Comp
L V_Power:+5V #U0149
U 1 1 5EFB7038
P 2925 3650
F 0 "#U0149" H 2975 3700 50  0001 C CNN
F 1 "+5V" H 2825 3800 59  0000 L CNN
F 2 "" H 2925 3750 50  0001 C CNN
F 3 "" H 2925 3750 50  0001 C CNN
	1    2925 3650
	1    0    0    -1  
$EndComp
$Comp
L V_Power:GND #PWR0211
U 1 1 5EFBD71C
P 1350 3650
F 0 "#PWR0211" H 1500 3600 50  0001 C CNN
F 1 "GND" H 1350 3500 50  0000 C CNN
F 2 "" H 1350 3550 50  0001 C CNN
F 3 "" H 1350 3550 50  0001 C CNN
	1    1350 3650
	1    0    0    -1  
$EndComp
$Comp
L V_Power:+5V #U0150
U 1 1 5EFBEF62
P 2350 2200
F 0 "#U0150" H 2400 2250 50  0001 C CNN
F 1 "+5V" H 2250 2350 59  0000 L CNN
F 2 "" H 2350 2300 50  0001 C CNN
F 3 "" H 2350 2300 50  0001 C CNN
	1    2350 2200
	1    0    0    -1  
$EndComp
$Comp
L V_Power:+5V #U0151
U 1 1 5EFC1A0F
P 6150 1250
F 0 "#U0151" H 6200 1300 50  0001 C CNN
F 1 "+5V" H 6050 1400 59  0000 L CNN
F 2 "" H 6150 1350 50  0001 C CNN
F 3 "" H 6150 1350 50  0001 C CNN
	1    6150 1250
	1    0    0    -1  
$EndComp
$Comp
L V_Power:GND #PWR0212
U 1 1 5EFC7675
P 5950 1550
F 0 "#PWR0212" H 6100 1500 50  0001 C CNN
F 1 "GND" H 5950 1400 50  0000 C CNN
F 2 "" H 5950 1450 50  0001 C CNN
F 3 "" H 5950 1450 50  0001 C CNN
	1    5950 1550
	-1   0    0    1   
$EndComp
$Comp
L V_Power:+5VREF #0123
U 1 1 5EFC99B5
P 8700 950
F 0 "#0123" H 8750 1000 50  0001 C CNN
F 1 "+5VREF" V 8600 920 59  0000 L CNN
F 2 "" H 8700 1050 50  0001 C CNN
F 3 "" H 8700 1050 50  0001 C CNN
	1    8700 950 
	0    1    1    0   
$EndComp
$Comp
L V_Power:+5V #U0152
U 1 1 5F1C6FDF
P 3225 3625
F 0 "#U0152" H 3275 3675 50  0001 C CNN
F 1 "+5V" H 3125 3775 59  0000 L CNN
F 2 "" H 3225 3725 50  0001 C CNN
F 3 "" H 3225 3725 50  0001 C CNN
	1    3225 3625
	1    0    0    -1  
$EndComp
Wire Wire Line
	3125 3700 3125 3650
Wire Wire Line
	3125 3650 3225 3650
Wire Wire Line
	3225 3650 3225 3700
Wire Wire Line
	3225 3650 3225 3625
Connection ~ 3225 3650
Wire Wire Line
	2925 3700 2925 3650
Wire Wire Line
	3025 3700 3025 3550
$Comp
L V_Power:+24V #PWR0215
U 1 1 5F3DE8AF
P 12850 3800
F 0 "#PWR0215" H 13000 3700 50  0001 C CNN
F 1 "+24V" H 12865 3973 50  0000 C CNN
F 2 "" H 12850 3800 50  0001 C CNN
F 3 "" H 12850 3800 50  0001 C CNN
	1    12850 3800
	1    0    0    -1  
$EndComp
Wire Wire Line
	7100 8350 7300 8350
Wire Bus Line
	15950 2650 15950 4250
Wire Bus Line
	13600 2550 13600 4350
Wire Bus Line
	9700 5675 9700 7800
Wire Bus Line
	8700 3750 8700 5850
Wire Bus Line
	8700 2050 8700 3650
$EndSCHEMATC
